{
  "json_format_version": [
    1,
    0
  ],
  "smartctl": {
    "version": [
      7,
      2
    ],
    "svn_revision": "5155",
    "platform_info": "x86_64-linux-5.11.0-25-generic",
    "build_info": "(local build)",
    "argv": [
      "smartctl",
      "-jx",
      "/dev/sdb"
    ],
    "exit_status": 0
  },
  "device": {
    "name": "/dev/sdb",
    "info_name": "/dev/sdb [SAT]",
    "type": "sat",
    "protocol": "ATA"
  },
  "model_family": "Samsung based SSDs",
  "model_name": "SAMSUNG SSD PM830 2.5\" 7mm 128GB",
  "serial_number": "S0TYN6ACC01463",
  "wwn": {
    "naa": 5,
    "oui": 9528,
    "id": 1129860400
  },
  "firmware_version": "CXM03D1Q",
  "user_capacity": {
    "blocks": 250069680,
    "bytes": 128035676160
  },
  "logical_block_size": 512,
  "physical_block_size": 512,
  "rotation_rate": 0,
  "trim": {
    "supported": true,
    "deterministic": false,
    "zeroed": false
  },
  "in_smartctl_database": true,
  "ata_version": {
    "string": "ATA8-ACS T13/1699-D revision 4c",
    "major_value": 508,
    "minor_value": 57
  },
  "sata_version": {
    "string": "SATA 3.0",
    "value": 63
  },
  "interface_speed": {
    "max": {
      "sata_value": 14,
      "string": "6.0 Gb/s",
      "units_per_second": 60,
      "bits_per_unit": 100000000
    },
    "current": {
      "sata_value": 3,
      "string": "6.0 Gb/s",
      "units_per_second": 60,
      "bits_per_unit": 100000000
    }
  },
  "local_time": {
    "time_t": 1629869966,
    "asctime": "Tue Aug 24 23:39:26 2021 MDT"
  },
  "ata_aam": {
    "enabled": false
  },
  "read_lookahead": {
    "enabled": true
  },
  "write_cache": {
    "enabled": true
  },
  "ata_security": {
    "state": 33,
    "string": "Disabled, NOT FROZEN [SEC1]",
    "enabled": false,
    "frozen": false
  },
  "smart_status": {
    "passed": true
  },
  "ata_smart_data": {
    "offline_data_collection": {
      "status": {
        "value": 2,
        "string": "was completed without error",
        "passed": true
      },
      "completion_seconds": 540
    },
    "self_test": {
      "status": {
        "value": 0,
        "string": "completed without error",
        "passed": true
      },
      "polling_minutes": {
        "short": 2,
        "extended": 9
      }
    },
    "capabilities": {
      "values": [
        83,
        3
      ],
      "exec_offline_immediate_supported": true,
      "offline_is_aborted_upon_new_cmd": false,
      "offline_surface_scan_supported": false,
      "self_tests_supported": true,
      "conveyance_self_test_supported": false,
      "selective_self_test_supported": true,
      "attribute_autosave_enabled": true,
      "error_logging_supported": true,
      "gp_logging_supported": true
    }
  },
  "ata_smart_attributes": {
    "revision": 1,
    "table": [
      {
        "id": 5,
        "name": "Reallocated_Sector_Ct",
        "value": 100,
        "worst": 100,
        "thresh": 10,
        "when_failed": "",
        "flags": {
          "value": 51,
          "string": "PO--CK ",
          "prefailure": true,
          "updated_online": true,
          "performance": false,
          "error_rate": false,
          "event_count": true,
          "auto_keep": true
        },
        "raw": {
          "value": 0,
          "string": "0"
        }
      },
      {
        "id": 9,
        "name": "Power_On_Hours",
        "value": 99,
        "worst": 99,
        "thresh": 0,
        "when_failed": "",
        "flags": {
          "value": 50,
          "string": "-O--CK ",
          "prefailure": false,
          "updated_online": true,
          "performance": false,
          "error_rate": false,
          "event_count": true,
          "auto_keep": true
        },
        "raw": {
          "value": 1107,
          "string": "1107"
        }
      },
      {
        "id": 12,
        "name": "Power_Cycle_Count",
        "value": 99,
        "worst": 99,
        "thresh": 0,
        "when_failed": "",
        "flags": {
          "value": 50,
          "string": "-O--CK ",
          "prefailure": false,
          "updated_online": true,
          "performance": false,
          "error_rate": false,
          "event_count": true,
          "auto_keep": true
        },
        "raw": {
          "value": 914,
          "string": "914"
        }
      },
      {
        "id": 175,
        "name": "Program_Fail_Count_Chip",
        "value": 100,
        "worst": 100,
        "thresh": 10,
        "when_failed": "",
        "flags": {
          "value": 50,
          "string": "-O--CK ",
          "prefailure": false,
          "updated_online": true,
          "performance": false,
          "error_rate": false,
          "event_count": true,
          "auto_keep": true
        },
        "raw": {
          "value": 0,
          "string": "0"
        }
      },
      {
        "id": 176,
        "name": "Erase_Fail_Count_Chip",
        "value": 100,
        "worst": 100,
        "thresh": 10,
        "when_failed": "",
        "flags": {
          "value": 50,
          "string": "-O--CK ",
          "prefailure": false,
          "updated_online": true,
          "performance": false,
          "error_rate": false,
          "event_count": true,
          "auto_keep": true
        },
        "raw": {
          "value": 0,
          "string": "0"
        }
      },
      {
        "id": 177,
        "name": "Wear_Leveling_Count",
        "value": 96,
        "worst": 96,
        "thresh": 10,
        "when_failed": "",
        "flags": {
          "value": 19,
          "string": "PO--C- ",
          "prefailure": true,
          "updated_online": true,
          "performance": false,
          "error_rate": false,
          "event_count": true,
          "auto_keep": false
        },
        "raw": {
          "value": 118,
          "string": "118"
        }
      },
      {
        "id": 178,
        "name": "Used_Rsvd_Blk_Cnt_Chip",
        "value": 93,
        "worst": 93,
        "thresh": 10,
        "when_failed": "",
        "flags": {
          "value": 19,
          "string": "PO--C- ",
          "prefailure": true,
          "updated_online": true,
          "performance": false,
          "error_rate": false,
          "event_count": true,
          "auto_keep": false
        },
        "raw": {
          "value": 126,
          "string": "126"
        }
      },
      {
        "id": 179,
        "name": "Used_Rsvd_Blk_Cnt_Tot",
        "value": 95,
        "worst": 95,
        "thresh": 10,
        "when_failed": "",
        "flags": {
          "value": 19,
          "string": "PO--C- ",
          "prefailure": true,
          "updated_online": true,
          "performance": false,
          "error_rate": false,
          "event_count": true,
          "auto_keep": false
        },
        "raw": {
          "value": 202,
          "string": "202"
        }
      },
      {
        "id": 180,
        "name": "Unused_Rsvd_Blk_Cnt_Tot",
        "value": 95,
        "worst": 95,
        "thresh": 10,
        "when_failed": "",
        "flags": {
          "value": 19,
          "string": "PO--C- ",
          "prefailure": true,
          "updated_online": true,
          "performance": false,
          "error_rate": false,
          "event_count": true,
          "auto_keep": false
        },
        "raw": {
          "value": 3830,
          "string": "3830"
        }
      },
      {
        "id": 181,
        "name": "Program_Fail_Cnt_Total",
        "value": 100,
        "worst": 100,
        "thresh": 10,
        "when_failed": "",
        "flags": {
          "value": 50,
          "string": "-O--CK ",
          "prefailure": false,
          "updated_online": true,
          "performance": false,
          "error_rate": false,
          "event_count": true,
          "auto_keep": true
        },
        "raw": {
          "value": 0,
          "string": "0"
        }
      },
      {
        "id": 182,
        "name": "Erase_Fail_Count_Total",
        "value": 100,
        "worst": 100,
        "thresh": 10,
        "when_failed": "",
        "flags": {
          "value": 50,
          "string": "-O--CK ",
          "prefailure": false,
          "updated_online": true,
          "performance": false,
          "error_rate": false,
          "event_count": true,
          "auto_keep": true
        },
        "raw": {
          "value": 0,
          "string": "0"
        }
      },
      {
        "id": 183,
        "name": "Runtime_Bad_Block",
        "value": 100,
        "worst": 100,
        "thresh": 10,
        "when_failed": "",
        "flags": {
          "value": 19,
          "string": "PO--C- ",
          "prefailure": true,
          "updated_online": true,
          "performance": false,
          "error_rate": false,
          "event_count": true,
          "auto_keep": false
        },
        "raw": {
          "value": 0,
          "string": "0"
        }
      },
      {
        "id": 187,
        "name": "Uncorrectable_Error_Cnt",
        "value": 100,
        "worst": 100,
        "thresh": 0,
        "when_failed": "",
        "flags": {
          "value": 50,
          "string": "-O--CK ",
          "prefailure": false,
          "updated_online": true,
          "performance": false,
          "error_rate": false,
          "event_count": true,
          "auto_keep": true
        },
        "raw": {
          "value": 0,
          "string": "0"
        }
      },
      {
        "id": 195,
        "name": "ECC_Error_Rate",
        "value": 200,
        "worst": 200,
        "thresh": 0,
        "when_failed": "",
        "flags": {
          "value": 26,
          "string": "-O-RC- ",
          "prefailure": false,
          "updated_online": true,
          "performance": false,
          "error_rate": true,
          "event_count": true,
          "auto_keep": false
        },
        "raw": {
          "value": 0,
          "string": "0"
        }
      },
      {
        "id": 198,
        "name": "Offline_Uncorrectable",
        "value": 100,
        "worst": 100,
        "thresh": 0,
        "when_failed": "",
        "flags": {
          "value": 48,
          "string": "----CK ",
          "prefailure": false,
          "updated_online": false,
          "performance": false,
          "error_rate": false,
          "event_count": true,
          "auto_keep": true
        },
        "raw": {
          "value": 0,
          "string": "0"
        }
      },
      {
        "id": 199,
        "name": "CRC_Error_Count",
        "value": 253,
        "worst": 253,
        "thresh": 0,
        "when_failed": "",
        "flags": {
          "value": 62,
          "string": "-OSRCK ",
          "prefailure": false,
          "updated_online": true,
          "performance": true,
          "error_rate": true,
          "event_count": true,
          "auto_keep": true
        },
        "raw": {
          "value": 0,
          "string": "0"
        }
      },
      {
        "id": 232,
        "name": "Available_Reservd_Space",
        "value": 93,
        "worst": 93,
        "thresh": 0,
        "when_failed": "",
        "flags": {
          "value": 19,
          "string": "PO--C- ",
          "prefailure": true,
          "updated_online": true,
          "performance": false,
          "error_rate": false,
          "event_count": true,
          "auto_keep": false
        },
        "raw": {
          "value": 1890,
          "string": "1890"
        }
      },
      {
        "id": 241,
        "name": "Total_LBAs_Written",
        "value": 99,
        "worst": 99,
        "thresh": 0,
        "when_failed": "",
        "flags": {
          "value": 50,
          "string": "-O--CK ",
          "prefailure": false,
          "updated_online": true,
          "performance": false,
          "error_rate": false,
          "event_count": true,
          "auto_keep": true
        },
        "raw": {
          "value": 4488263731,
          "string": "4488263731"
        }
      },
      {
        "id": 242,
        "name": "Total_LBAs_Read",
        "value": 99,
        "worst": 99,
        "thresh": 0,
        "when_failed": "",
        "flags": {
          "value": 50,
          "string": "-O--CK ",
          "prefailure": false,
          "updated_online": true,
          "performance": false,
          "error_rate": false,
          "event_count": true,
          "auto_keep": true
        },
        "raw": {
          "value": 10335362194,
          "string": "10335362194"
        }
      }
    ]
  },
  "power_on_time": {
    "hours": 1107
  },
  "power_cycle_count": 914,
  "ata_log_directory": {
    "gp_dir_version": 1,
    "smart_dir_version": 1,
    "smart_dir_multi_sector": true,
    "table": [
      {
        "address": 0,
        "name": "Log Directory",
        "read": true,
        "write": false,
        "gp_sectors": 1,
        "smart_sectors": 1
      },
      {
        "address": 1,
        "name": "Summary SMART error log",
        "read": true,
        "write": false,
        "gp_sectors": 1,
        "smart_sectors": 1
      },
      {
        "address": 2,
        "name": "Comprehensive SMART error log",
        "read": true,
        "write": false,
        "gp_sectors": 2,
        "smart_sectors": 2
      },
      {
        "address": 3,
        "name": "Ext. Comprehensive SMART error log",
        "read": true,
        "write": false,
        "gp_sectors": 2,
        "smart_sectors": 2
      },
      {
        "address": 6,
        "name": "SMART self-test log",
        "read": true,
        "write": false,
        "gp_sectors": 1,
        "smart_sectors": 1
      },
      {
        "address": 7,
        "name": "Extended self-test log",
        "read": true,
        "write": false,
        "gp_sectors": 2,
        "smart_sectors": 2
      },
      {
        "address": 9,
        "name": "Selective self-test log",
        "read": true,
        "write": true,
        "gp_sectors": 1,
        "smart_sectors": 1
      },
      {
        "address": 16,
        "name": "NCQ Command Error log",
        "read": true,
        "write": false,
        "gp_sectors": 1,
        "smart_sectors": 1
      },
      {
        "address": 17,
        "name": "SATA Phy Event Counters log",
        "read": true,
        "write": false,
        "gp_sectors": 1,
        "smart_sectors": 1
      },
      {
        "address": 128,
        "name": "Host vendor specific log",
        "read": true,
        "write": true,
        "gp_sectors": 16,
        "smart_sectors": 16
      },
      {
        "address": 129,
        "name": "Host vendor specific log",
        "read": true,
        "write": true,
        "gp_sectors": 16,
        "smart_sectors": 16
      },
      {
        "address": 130,
        "name": "Host vendor specific log",
        "read": true,
        "write": true,
        "gp_sectors": 16,
        "smart_sectors": 16
      },
      {
        "address": 131,
        "name": "Host vendor specific log",
        "read": true,
        "write": true,
        "gp_sectors": 16,
        "smart_sectors": 16
      },
      {
        "address": 132,
        "name": "Host vendor specific log",
        "read": true,
        "write": true,
        "gp_sectors": 16,
        "smart_sectors": 16
      },
      {
        "address": 133,
        "name": "Host vendor specific log",
        "read": true,
        "write": true,
        "gp_sectors": 16,
        "smart_sectors": 16
      },
      {
        "address": 134,
        "name": "Host vendor specific log",
        "read": true,
        "write": true,
        "gp_sectors": 16,
        "smart_sectors": 16
      },
      {
        "address": 135,
        "name": "Host vendor specific log",
        "read": true,
        "write": true,
        "gp_sectors": 16,
        "smart_sectors": 16
      },
      {
        "address": 136,
        "name": "Host vendor specific log",
        "read": true,
        "write": true,
        "gp_sectors": 16,
        "smart_sectors": 16
      },
      {
        "address": 137,
        "name": "Host vendor specific log",
        "read": true,
        "write": true,
        "gp_sectors": 16,
        "smart_sectors": 16
      },
      {
        "address": 138,
        "name": "Host vendor specific log",
        "read": true,
        "write": true,
        "gp_sectors": 16,
        "smart_sectors": 16
      },
      {
        "address": 139,
        "name": "Host vendor specific log",
        "read": true,
        "write": true,
        "gp_sectors": 16,
        "smart_sectors": 16
      },
      {
        "address": 140,
        "name": "Host vendor specific log",
        "read": true,
        "write": true,
        "gp_sectors": 16,
        "smart_sectors": 16
      },
      {
        "address": 141,
        "name": "Host vendor specific log",
        "read": true,
        "write": true,
        "gp_sectors": 16,
        "smart_sectors": 16
      },
      {
        "address": 142,
        "name": "Host vendor specific log",
        "read": true,
        "write": true,
        "gp_sectors": 16,
        "smart_sectors": 16
      },
      {
        "address": 143,
        "name": "Host vendor specific log",
        "read": true,
        "write": true,
        "gp_sectors": 16,
        "smart_sectors": 16
      },
      {
        "address": 144,
        "name": "Host vendor specific log",
        "read": true,
        "write": true,
        "gp_sectors": 16,
        "smart_sectors": 16
      },
      {
        "address": 145,
        "name": "Host vendor specific log",
        "read": true,
        "write": true,
        "gp_sectors": 16,
        "smart_sectors": 16
      },
      {
        "address": 146,
        "name": "Host vendor specific log",
        "read": true,
        "write": true,
        "gp_sectors": 16,
        "smart_sectors": 16
      },
      {
        "address": 147,
        "name": "Host vendor specific log",
        "read": true,
        "write": true,
        "gp_sectors": 16,
        "smart_sectors": 16
      },
      {
        "address": 148,
        "name": "Host vendor specific log",
        "read": true,
        "write": true,
        "gp_sectors": 16,
        "smart_sectors": 16
      },
      {
        "address": 149,
        "name": "Host vendor specific log",
        "read": true,
        "write": true,
        "gp_sectors": 16,
        "smart_sectors": 16
      },
      {
        "address": 150,
        "name": "Host vendor specific log",
        "read": true,
        "write": true,
        "gp_sectors": 16,
        "smart_sectors": 16
      },
      {
        "address": 151,
        "name": "Host vendor specific log",
        "read": true,
        "write": true,
        "gp_sectors": 16,
        "smart_sectors": 16
      },
      {
        "address": 152,
        "name": "Host vendor specific log",
        "read": true,
        "write": true,
        "gp_sectors": 16,
        "smart_sectors": 16
      },
      {
        "address": 153,
        "name": "Host vendor specific log",
        "read": true,
        "write": true,
        "gp_sectors": 16,
        "smart_sectors": 16
      },
      {
        "address": 154,
        "name": "Host vendor specific log",
        "read": true,
        "write": true,
        "gp_sectors": 16,
        "smart_sectors": 16
      },
      {
        "address": 155,
        "name": "Host vendor specific log",
        "read": true,
        "write": true,
        "gp_sectors": 16,
        "smart_sectors": 16
      },
      {
        "address": 156,
        "name": "Host vendor specific log",
        "read": true,
        "write": true,
        "gp_sectors": 16,
        "smart_sectors": 16
      },
      {
        "address": 157,
        "name": "Host vendor specific log",
        "read": true,
        "write": true,
        "gp_sectors": 16,
        "smart_sectors": 16
      },
      {
        "address": 158,
        "name": "Host vendor specific log",
        "read": true,
        "write": true,
        "gp_sectors": 16,
        "smart_sectors": 16
      },
      {
        "address": 159,
        "name": "Host vendor specific log",
        "read": true,
        "write": true,
        "gp_sectors": 16,
        "smart_sectors": 16
      }
    ]
  },
  "ata_smart_error_log": {
    "extended": {
      "revision": 1,
      "sectors": 2,
      "count": 0
    }
  },
  "ata_smart_self_test_log": {
    "extended": {
      "revision": 1,
      "sectors": 2,
      "table": [
        {
          "type": {
            "value": 1,
            "string": "Short offline"
          },
          "status": {
            "value": 0,
            "string": "Completed without error",
            "passed": true
          },
          "lifetime_hours": 0
        }
      ],
      "count": 1,
      "error_count_total": 0,
      "error_count_outdated": 0
    }
  },
  "ata_smart_selective_self_test_log": {
    "revision": 1,
    "table": [
      {
        "lba_min": 0,
        "lba_max": 0,
        "status": {
          "value": 0,
          "string": "Not_testing"
        }
      },
      {
        "lba_min": 0,
        "lba_max": 0,
        "status": {
          "value": 0,
          "string": "Not_testing"
        }
      },
      {
        "lba_min": 0,
        "lba_max": 0,
        "status": {
          "value": 0,
          "string": "Not_testing"
        }
      },
      {
        "lba_min": 0,
        "lba_max": 0,
        "status": {
          "value": 0,
          "string": "Not_testing"
        }
      },
      {
        "lba_min": 0,
        "lba_max": 0,
        "status": {
          "value": 0,
          "string": "Not_testing"
        }
      }
    ],
    "flags": {
      "value": 0,
      "remainder_scan_enabled": false
    },
    "power_up_scan_resume_minutes": 0
  },
  "sata_phy_event_counters": {
    "table": [
      {
        "id": 1,
        "name": "Command failed due to ICRC error",
        "size": 2,
        "value": 0,
        "overflow": false
      },
      {
        "id": 2,
        "name": "R_ERR response for data FIS",
        "size": 2,
        "value": 49152,
        "overflow": false
      },
      {
        "id": 3,
        "name": "R_ERR response for device-to-host data FIS",
        "size": 2,
        "value": 53248,
        "overflow": false
      },
      {
        "id": 4,
        "name": "R_ERR response for host-to-device data FIS",
        "size": 2,
        "value": 57344,
        "overflow": false
      },
      {
        "id": 5,
        "name": "R_ERR response for non-data FIS",
        "size": 2,
        "value": 7952,
        "overflow": false
      },
      {
        "id": 6,
        "name": "R_ERR response for device-to-host non-data FIS",
        "size": 2,
        "value": 2562,
        "overflow": false
      },
      {
        "id": 7,
        "name": "R_ERR response for host-to-device non-data FIS",
        "size": 2,
        "value": 4096,
        "overflow": false
      },
      {
        "id": 8,
        "name": "Device-to-host non-data FIS retries",
        "size": 2,
        "value": 7952,
        "overflow": false
      },
      {
        "id": 9,
        "name": "Transition from drive PhyRdy to drive PhyNRdy",
        "size": 2,
        "value": 7953,
        "overflow": false
      },
      {
        "id": 10,
        "name": "Device-to-host register FISes sent due to a COMRESET",
        "size": 2,
        "value": 1645,
        "overflow": false
      },
      {
        "id": 11,
        "name": "CRC errors within host-to-device FIS",
        "size": 2,
        "value": 6145,
        "overflow": false
      },
      {
        "id": 13,
        "name": "Non-CRC errors within host-to-device FIS",
        "size": 2,
        "value": 7953,
        "overflow": false
      },
      {
        "id": 15,
        "name": "R_ERR response for host-to-device data FIS, CRC",
        "size": 2,
        "value": 8176,
        "overflow": false
      },
      {
        "id": 16,
        "name": "R_ERR response for host-to-device data FIS, non-CRC",
        "size": 2,
        "value": 15,
        "overflow": false
      },
      {
        "id": 18,
        "name": "R_ERR response for host-to-device non-data FIS, CRC",
        "size": 2,
        "value": 49153,
        "overflow": false
      },
      {
        "id": 19,
        "name": "R_ERR response for host-to-device non-data FIS, non-CRC",
        "size": 2,
        "value": 12112,
        "overflow": false
      }
    ],
    "reset": false
  }
}
