smartctl 7.1 2019-12-30 r5022 [x86_64-linux-5.11.0-25-generic] (local build)
Copyright (C) 2002-19, Bruce Allen, Christian Franke, www.smartmontools.org

=== START OF INFORMATION SECTION ===
Model Family:     Hitachi/HGST Travelstar Z7K500
Device Model:     HGST HTS725050A7E630
Serial Number:    TF0500WJ3NKW2T
LU WWN Device Id: 5 000cca 7c5f3a107
Firmware Version: GH2OA470
User Capacity:    500,107,862,016 bytes [500 GB]
Sector Sizes:     512 bytes logical, 4096 bytes physical
Rotation Rate:    7200 rpm
Form Factor:      2.5 inches
Device is:        In smartctl database [for details use: -P show]
ATA Version is:   ACS-2, ATA8-ACS T13/1699-D revision 6
SATA Version is:  SATA 3.0, 6.0 Gb/s (current: 6.0 Gb/s)
Local Time is:    Fri Aug 13 19:38:42 2021 MDT
SMART support is: Available - device has SMART capability.
SMART support is: Enabled
AAM feature is:   Unavailable
APM level is:     254 (maximum performance)
Rd look-ahead is: Enabled
Write cache is:   Enabled
DSN feature is:   Unavailable
ATA Security is:  Disabled, NOT FROZEN [SEC1]
Wt Cache Reorder: Enabled

=== START OF READ SMART DATA SECTION ===
SMART overall-health self-assessment test result: FAILED!
Drive failure expected in less than 24 hours. SAVE ALL DATA.
See vendor-specific Attribute list for failed Attributes.

General SMART Values:
Offline data collection status:  (0x82)	Offline data collection activity
					was completed without error.
					Auto Offline Data Collection: Enabled.
Self-test execution status:      (   0)	The previous self-test routine completed
					without error or no self-test has ever 
					been run.
Total time to complete Offline 
data collection: 		( 5553) seconds.
Offline data collection
capabilities: 			 (0x5b) SMART execute Offline immediate.
					Auto Offline data collection on/off support.
					Suspend Offline collection upon new
					command.
					Offline surface scan supported.
					Self-test supported.
					No Conveyance Self-test supported.
					Selective Self-test supported.
SMART capabilities:            (0x0003)	Saves SMART data before entering
					power-saving mode.
					Supports SMART auto save timer.
Error logging capability:        (0x01)	Error logging supported.
					General Purpose Logging supported.
Short self-test routine 
recommended polling time: 	 (   2) minutes.
Extended self-test routine
recommended polling time: 	 (  94) minutes.
SCT capabilities: 	       (0x003d)	SCT Status supported.
					SCT Error Recovery Control supported.
					SCT Feature Control supported.
					SCT Data Table supported.

SMART Attributes Data Structure revision number: 16
Vendor Specific SMART Attributes with Thresholds:
ID# ATTRIBUTE_NAME          FLAGS    VALUE WORST THRESH FAIL RAW_VALUE
  1 Raw_Read_Error_Rate     POSR-K   100   100   062    -    0
  2 Throughput_Performance  P-S--K   198   100   040    -    107
  3 Spin_Up_Time            PO---K   248   100   033    -    1
  4 Start_Stop_Count        -O--CK   100   100   000    -    102
  5 Reallocated_Sector_Ct   PO--CK   100   100   005    -    0
  7 Seek_Error_Rate         POSR-K   100   100   067    -    0
  8 Seek_Time_Performance   P-S--K   040   040   040    NOW  120
  9 Power_On_Hours          -O--CK   001   001   000    -    47059
 10 Spin_Retry_Count        PO--CK   100   100   060    -    0
 12 Power_Cycle_Count       -O--CK   100   100   000    -    102
183 Runtime_Bad_Block       -O--CK   100   100   000    -    0
184 End-to-End_Error        PO--CK   100   100   097    -    0
187 Reported_Uncorrect      -O--CK   100   100   000    -    8590196736
188 Command_Timeout         -O--CK   100   100   000    -    0
190 Airflow_Temperature_Cel -O---K   076   058   045    -    24 (Min/Max 24/25)
191 G-Sense_Error_Rate      -O--CK   100   100   000    -    241
192 Power-Off_Retract_Count -O--CK   100   100   000    -    2752554
193 Load_Cycle_Count        -O--CK   100   100   000    -    2365
196 Reallocated_Event_Count -O--CK   100   100   000    -    0
197 Current_Pending_Sector  -O--CK   100   100   000    -    0
198 Offline_Uncorrectable   ----CK   100   100   000    -    0
199 UDMA_CRC_Error_Count    -OS-CK   100   100   000    -    0
223 Load_Retry_Count        -O-R-K   100   100   000    -    0
                            ||||||_ K auto-keep
                            |||||__ C event count
                            ||||___ R error rate
                            |||____ S speed/performance
                            ||_____ O updated online
                            |______ P prefailure warning

General Purpose Log Directory Version 1
SMART           Log Directory Version 1 [multi-sector log support]
Address    Access  R/W   Size  Description
0x00       GPL,SL  R/O      1  Log Directory
0x01           SL  R/O      1  Summary SMART error log
0x02           SL  R/O      1  Comprehensive SMART error log
0x03       GPL     R/O      1  Ext. Comprehensive SMART error log
0x06           SL  R/O      1  SMART self-test log
0x07       GPL     R/O      1  Extended self-test log
0x09           SL  R/W      1  Selective self-test log
0x10       GPL     R/O      1  NCQ Command Error log
0x11       GPL     R/O      1  SATA Phy Event Counters log
0x80-0x9f  GPL,SL  R/W     16  Host vendor specific log
0xe0       GPL,SL  R/W      1  SCT Command/Status
0xe1       GPL,SL  R/W      1  SCT Data Transfer

SMART Extended Comprehensive Error Log Version: 1 (1 sectors)
No Errors Logged

SMART Extended Self-test Log Version: 1 (1 sectors)
Num  Test_Description    Status                  Remaining  LifeTime(hours)  LBA_of_first_error
# 1  Extended offline    Interrupted (host reset)      90%         1         -

SMART Selective self-test log data structure revision number 1
 SPAN  MIN_LBA  MAX_LBA  CURRENT_TEST_STATUS
    1        0        0  Not_testing
    2        0        0  Not_testing
    3        0        0  Not_testing
    4        0        0  Not_testing
    5        0        0  Not_testing
Selective self-test flags (0x0):
  After scanning selected spans, do NOT read-scan remainder of disk.
If Selective self-test is pending on power-up, resume after 0 minute delay.

SCT Status Version:                  3
SCT Version (vendor specific):       256 (0x0100)
Device State:                        Active (0)
Current Temperature:                    24 Celsius
Power Cycle Min/Max Temperature:     24/25 Celsius
Lifetime    Min/Max Temperature:     17/42 Celsius
Specified Max Operating Temperature:    30 Celsius
Under/Over Temperature Limit Count:   0/0

SCT Temperature History Version:     2
Temperature Sampling Period:         1 minute
Temperature Logging Interval:        1 minute
Min/Max recommended Temperature:      0/60 Celsius
Min/Max Temperature Limit:           -40/65 Celsius
Temperature History Size (Index):    128 (35)

Index    Estimated Time   Temperature Celsius
  36    2021-08-13 17:31    20  *
  37    2021-08-13 17:32    19  -
  38    2021-08-13 17:33    19  -
  39    2021-08-13 17:34    20  *
  40    2021-08-13 17:35    19  -
  41    2021-08-13 17:36    19  -
  42    2021-08-13 17:37    20  *
  43    2021-08-13 17:38    19  -
 ...    ..( 15 skipped).    ..  -
  59    2021-08-13 17:54    19  -
  60    2021-08-13 17:55    20  *
  61    2021-08-13 17:56    20  *
  62    2021-08-13 17:57    19  -
  63    2021-08-13 17:58    20  *
  64    2021-08-13 17:59    19  -
 ...    ..(  8 skipped).    ..  -
  73    2021-08-13 18:08    19  -
  74    2021-08-13 18:09    20  *
  75    2021-08-13 18:10    20  *
  76    2021-08-13 18:11    19  -
  77    2021-08-13 18:12    19  -
  78    2021-08-13 18:13    20  *
  79    2021-08-13 18:14    19  -
  80    2021-08-13 18:15    20  *
 ...    ..(  3 skipped).    ..  *
  84    2021-08-13 18:19    20  *
  85    2021-08-13 18:20    19  -
  86    2021-08-13 18:21    19  -
  87    2021-08-13 18:22    19  -
  88    2021-08-13 18:23    20  *
  89    2021-08-13 18:24    19  -
 ...    ..( 12 skipped).    ..  -
 102    2021-08-13 18:37    19  -
 103    2021-08-13 18:38    20  *
 104    2021-08-13 18:39    21  **
 105    2021-08-13 18:40    22  ***
 106    2021-08-13 18:41    22  ***
 107    2021-08-13 18:42    23  ****
 108    2021-08-13 18:43    23  ****
 109    2021-08-13 18:44    24  *****
 ...    ..(  3 skipped).    ..  *****
 113    2021-08-13 18:48    24  *****
 114    2021-08-13 18:49    25  ******
 ...    ..(  4 skipped).    ..  ******
 119    2021-08-13 18:54    25  ******
 120    2021-08-13 18:55    24  *****
 121    2021-08-13 18:56    25  ******
 ...    ..(  3 skipped).    ..  ******
 125    2021-08-13 19:00    25  ******
 126    2021-08-13 19:01    24  *****
 127    2021-08-13 19:02    25  ******
 ...    ..(  2 skipped).    ..  ******
   2    2021-08-13 19:05    25  ******
   3    2021-08-13 19:06    24  *****
   4    2021-08-13 19:07    25  ******
 ...    ..(  2 skipped).    ..  ******
   7    2021-08-13 19:10    25  ******
   8    2021-08-13 19:11    24  *****
   9    2021-08-13 19:12    25  ******
 ...    ..( 22 skipped).    ..  ******
  32    2021-08-13 19:35    25  ******
  33    2021-08-13 19:36     ?  -
  34    2021-08-13 19:37     ?  -
  35    2021-08-13 19:38     ?  -

SCT Error Recovery Control:
           Read:     85 (8.5 seconds)
          Write:     85 (8.5 seconds)

Device Statistics (GP/SMART Log 0x04) not supported

Pending Defects log (GP Log 0x0c) not supported

SATA Phy Event Counters (GP Log 0x11)
ID      Size     Value  Description
0x0001  2            0  Command failed due to ICRC error
0x0002  2            0  R_ERR response for data FIS
0x0003  2            0  R_ERR response for device-to-host data FIS
0x0004  2            0  R_ERR response for host-to-device data FIS
0x0005  2            0  R_ERR response for non-data FIS
0x0006  2            0  R_ERR response for device-to-host non-data FIS
0x0007  2            0  R_ERR response for host-to-device non-data FIS
0x0009  2            1  Transition from drive PhyRdy to drive PhyNRdy
0x000a  2            0  Device-to-host register FISes sent due to a COMRESET
0x000b  2            0  CRC errors within host-to-device FIS
0x000d  2            0  Non-CRC errors within host-to-device FIS

