{
  "json_format_version": [
    1,
    0
  ],
  "smartctl": {
    "version": [
      7,
      2
    ],
    "svn_revision": "5155",
    "platform_info": "x86_64-linux-5.11.0-25-generic",
    "build_info": "(local build)",
    "argv": [
      "smartctl",
      "-jx",
      "/dev/sdb"
    ],
    "exit_status": 64
  },
  "device": {
    "name": "/dev/sdb",
    "info_name": "/dev/sdb [SAT]",
    "type": "sat",
    "protocol": "ATA"
  },
  "model_family": "Toshiba 2.5\" HDD MQ01ABF...",
  "model_name": "TOSHIBA MQ01ABF050",
  "serial_number": "95FCSCWRS",
  "wwn": {
    "naa": 5,
    "oui": 57,
    "id": 28013237383
  },
  "firmware_version": "AM0P2C",
  "user_capacity": {
    "blocks": 976773168,
    "bytes": 500107862016
  },
  "logical_block_size": 512,
  "physical_block_size": 4096,
  "rotation_rate": 5400,
  "form_factor": {
    "ata_value": 3,
    "name": "2.5 inches"
  },
  "trim": {
    "supported": false
  },
  "in_smartctl_database": true,
  "ata_version": {
    "string": "ATA8-ACS (minor revision not indicated)",
    "major_value": 504,
    "minor_value": 0
  },
  "sata_version": {
    "string": "SATA 3.0",
    "value": 63
  },
  "interface_speed": {
    "max": {
      "sata_value": 14,
      "string": "6.0 Gb/s",
      "units_per_second": 60,
      "bits_per_unit": 100000000
    },
    "current": {
      "sata_value": 3,
      "string": "6.0 Gb/s",
      "units_per_second": 60,
      "bits_per_unit": 100000000
    }
  },
  "local_time": {
    "time_t": 1629058469,
    "asctime": "Sun Aug 15 14:14:29 2021 MDT"
  },
  "ata_apm": {
    "enabled": true,
    "level": 254,
    "string": "maximum performance",
    "max_performance": true,
    "min_power": false,
    "with_standby": false
  },
  "read_lookahead": {
    "enabled": true
  },
  "write_cache": {
    "enabled": true
  },
  "ata_security": {
    "state": 33,
    "string": "Disabled, NOT FROZEN [SEC1]",
    "enabled": false,
    "frozen": false
  },
  "smart_status": {
    "passed": true
  },
  "ata_smart_data": {
    "offline_data_collection": {
      "status": {
        "value": 128,
        "string": "was never started"
      },
      "completion_seconds": 120
    },
    "self_test": {
      "status": {
        "value": 0,
        "string": "completed without error",
        "passed": true
      },
      "polling_minutes": {
        "short": 2,
        "extended": 102
      }
    },
    "capabilities": {
      "values": [
        81,
        3
      ],
      "exec_offline_immediate_supported": true,
      "offline_is_aborted_upon_new_cmd": false,
      "offline_surface_scan_supported": false,
      "self_tests_supported": true,
      "conveyance_self_test_supported": false,
      "selective_self_test_supported": true,
      "attribute_autosave_enabled": true,
      "error_logging_supported": true,
      "gp_logging_supported": true
    }
  },
  "ata_sct_capabilities": {
    "value": 61,
    "error_recovery_control_supported": true,
    "feature_control_supported": true,
    "data_table_supported": true
  },
  "ata_smart_attributes": {
    "revision": 16,
    "table": [
      {
        "id": 1,
        "name": "Raw_Read_Error_Rate",
        "value": 92,
        "worst": 91,
        "thresh": 50,
        "when_failed": "",
        "flags": {
          "value": 47,
          "string": "POSR-K ",
          "prefailure": true,
          "updated_online": true,
          "performance": true,
          "error_rate": true,
          "event_count": false,
          "auto_keep": true
        },
        "raw": {
          "value": 0,
          "string": "0"
        }
      },
      {
        "id": 2,
        "name": "Throughput_Performance",
        "value": 100,
        "worst": 100,
        "thresh": 50,
        "when_failed": "",
        "flags": {
          "value": 39,
          "string": "POS--K ",
          "prefailure": true,
          "updated_online": true,
          "performance": true,
          "error_rate": false,
          "event_count": false,
          "auto_keep": true
        },
        "raw": {
          "value": 0,
          "string": "0"
        }
      },
      {
        "id": 3,
        "name": "Spin_Up_Time",
        "value": 100,
        "worst": 100,
        "thresh": 2,
        "when_failed": "",
        "flags": {
          "value": 35,
          "string": "PO---K ",
          "prefailure": true,
          "updated_online": true,
          "performance": false,
          "error_rate": false,
          "event_count": false,
          "auto_keep": true
        },
        "raw": {
          "value": 1287,
          "string": "1287"
        }
      },
      {
        "id": 4,
        "name": "Start_Stop_Count",
        "value": 100,
        "worst": 100,
        "thresh": 0,
        "when_failed": "",
        "flags": {
          "value": 50,
          "string": "-O--CK ",
          "prefailure": false,
          "updated_online": true,
          "performance": false,
          "error_rate": false,
          "event_count": true,
          "auto_keep": true
        },
        "raw": {
          "value": 52,
          "string": "52"
        }
      },
      {
        "id": 5,
        "name": "Reallocated_Sector_Ct",
        "value": 92,
        "worst": 92,
        "thresh": 10,
        "when_failed": "",
        "flags": {
          "value": 51,
          "string": "PO--CK ",
          "prefailure": true,
          "updated_online": true,
          "performance": false,
          "error_rate": false,
          "event_count": true,
          "auto_keep": true
        },
        "raw": {
          "value": 1440,
          "string": "1440"
        }
      },
      {
        "id": 7,
        "name": "Seek_Error_Rate",
        "value": 100,
        "worst": 100,
        "thresh": 50,
        "when_failed": "",
        "flags": {
          "value": 47,
          "string": "POSR-K ",
          "prefailure": true,
          "updated_online": true,
          "performance": true,
          "error_rate": true,
          "event_count": false,
          "auto_keep": true
        },
        "raw": {
          "value": 0,
          "string": "0"
        }
      },
      {
        "id": 8,
        "name": "Seek_Time_Performance",
        "value": 100,
        "worst": 100,
        "thresh": 50,
        "when_failed": "",
        "flags": {
          "value": 37,
          "string": "P-S--K ",
          "prefailure": true,
          "updated_online": false,
          "performance": true,
          "error_rate": false,
          "event_count": false,
          "auto_keep": true
        },
        "raw": {
          "value": 0,
          "string": "0"
        }
      },
      {
        "id": 9,
        "name": "Power_On_Hours",
        "value": 100,
        "worst": 100,
        "thresh": 0,
        "when_failed": "",
        "flags": {
          "value": 50,
          "string": "-O--CK ",
          "prefailure": false,
          "updated_online": true,
          "performance": false,
          "error_rate": false,
          "event_count": true,
          "auto_keep": true
        },
        "raw": {
          "value": 20,
          "string": "20"
        }
      },
      {
        "id": 10,
        "name": "Spin_Retry_Count",
        "value": 101,
        "worst": 100,
        "thresh": 30,
        "when_failed": "",
        "flags": {
          "value": 51,
          "string": "PO--CK ",
          "prefailure": true,
          "updated_online": true,
          "performance": false,
          "error_rate": false,
          "event_count": true,
          "auto_keep": true
        },
        "raw": {
          "value": 0,
          "string": "0"
        }
      },
      {
        "id": 12,
        "name": "Power_Cycle_Count",
        "value": 100,
        "worst": 100,
        "thresh": 0,
        "when_failed": "",
        "flags": {
          "value": 50,
          "string": "-O--CK ",
          "prefailure": false,
          "updated_online": true,
          "performance": false,
          "error_rate": false,
          "event_count": true,
          "auto_keep": true
        },
        "raw": {
          "value": 52,
          "string": "52"
        }
      },
      {
        "id": 183,
        "name": "Runtime_Bad_Block",
        "value": 100,
        "worst": 100,
        "thresh": 1,
        "when_failed": "",
        "flags": {
          "value": 50,
          "string": "-O--CK ",
          "prefailure": false,
          "updated_online": true,
          "performance": false,
          "error_rate": false,
          "event_count": true,
          "auto_keep": true
        },
        "raw": {
          "value": 103,
          "string": "103"
        }
      },
      {
        "id": 184,
        "name": "End-to-End_Error",
        "value": 100,
        "worst": 100,
        "thresh": 97,
        "when_failed": "",
        "flags": {
          "value": 51,
          "string": "PO--CK ",
          "prefailure": true,
          "updated_online": true,
          "performance": false,
          "error_rate": false,
          "event_count": true,
          "auto_keep": true
        },
        "raw": {
          "value": 0,
          "string": "0"
        }
      },
      {
        "id": 185,
        "name": "Unknown_Attribute",
        "value": 100,
        "worst": 100,
        "thresh": 1,
        "when_failed": "",
        "flags": {
          "value": 50,
          "string": "-O--CK ",
          "prefailure": false,
          "updated_online": true,
          "performance": false,
          "error_rate": false,
          "event_count": true,
          "auto_keep": true
        },
        "raw": {
          "value": 619,
          "string": "619"
        }
      },
      {
        "id": 187,
        "name": "Reported_Uncorrect",
        "value": 1,
        "worst": 1,
        "thresh": 0,
        "when_failed": "",
        "flags": {
          "value": 50,
          "string": "-O--CK ",
          "prefailure": false,
          "updated_online": true,
          "performance": false,
          "error_rate": false,
          "event_count": true,
          "auto_keep": true
        },
        "raw": {
          "value": 804,
          "string": "804"
        }
      },
      {
        "id": 188,
        "name": "Command_Timeout",
        "value": 100,
        "worst": 100,
        "thresh": 0,
        "when_failed": "",
        "flags": {
          "value": 50,
          "string": "-O--CK ",
          "prefailure": false,
          "updated_online": true,
          "performance": false,
          "error_rate": false,
          "event_count": true,
          "auto_keep": true
        },
        "raw": {
          "value": 0,
          "string": "0"
        }
      },
      {
        "id": 189,
        "name": "High_Fly_Writes",
        "value": 100,
        "worst": 100,
        "thresh": 1,
        "when_failed": "",
        "flags": {
          "value": 58,
          "string": "-O-RCK ",
          "prefailure": false,
          "updated_online": true,
          "performance": false,
          "error_rate": true,
          "event_count": true,
          "auto_keep": true
        },
        "raw": {
          "value": 0,
          "string": "0"
        }
      },
      {
        "id": 190,
        "name": "Airflow_Temperature_Cel",
        "value": 76,
        "worst": 56,
        "thresh": 40,
        "when_failed": "",
        "flags": {
          "value": 34,
          "string": "-O---K ",
          "prefailure": false,
          "updated_online": true,
          "performance": false,
          "error_rate": false,
          "event_count": false,
          "auto_keep": true
        },
        "raw": {
          "value": 404160536,
          "string": "24 (Min/Max 23/24)"
        }
      },
      {
        "id": 191,
        "name": "G-Sense_Error_Rate",
        "value": 100,
        "worst": 100,
        "thresh": 0,
        "when_failed": "",
        "flags": {
          "value": 50,
          "string": "-O--CK ",
          "prefailure": false,
          "updated_online": true,
          "performance": false,
          "error_rate": false,
          "event_count": true,
          "auto_keep": true
        },
        "raw": {
          "value": 0,
          "string": "0"
        }
      },
      {
        "id": 192,
        "name": "Power-Off_Retract_Count",
        "value": 100,
        "worst": 100,
        "thresh": 0,
        "when_failed": "",
        "flags": {
          "value": 34,
          "string": "-O---K ",
          "prefailure": false,
          "updated_online": true,
          "performance": false,
          "error_rate": false,
          "event_count": false,
          "auto_keep": true
        },
        "raw": {
          "value": 3342387,
          "string": "3342387"
        }
      },
      {
        "id": 193,
        "name": "Load_Cycle_Count",
        "value": 100,
        "worst": 100,
        "thresh": 0,
        "when_failed": "",
        "flags": {
          "value": 50,
          "string": "-O--CK ",
          "prefailure": false,
          "updated_online": true,
          "performance": false,
          "error_rate": false,
          "event_count": true,
          "auto_keep": true
        },
        "raw": {
          "value": 52,
          "string": "52"
        }
      },
      {
        "id": 194,
        "name": "Temperature_Celsius",
        "value": 76,
        "worst": 56,
        "thresh": 40,
        "when_failed": "",
        "flags": {
          "value": 34,
          "string": "-O---K ",
          "prefailure": false,
          "updated_online": true,
          "performance": false,
          "error_rate": false,
          "event_count": false,
          "auto_keep": true
        },
        "raw": {
          "value": 404160536,
          "string": "24 (Min/Max 23/24)"
        }
      },
      {
        "id": 196,
        "name": "Reallocated_Event_Count",
        "value": 100,
        "worst": 100,
        "thresh": 0,
        "when_failed": "",
        "flags": {
          "value": 50,
          "string": "-O--CK ",
          "prefailure": false,
          "updated_online": true,
          "performance": false,
          "error_rate": false,
          "event_count": true,
          "auto_keep": true
        },
        "raw": {
          "value": 74,
          "string": "74"
        }
      },
      {
        "id": 197,
        "name": "Current_Pending_Sector",
        "value": 100,
        "worst": 100,
        "thresh": 0,
        "when_failed": "",
        "flags": {
          "value": 50,
          "string": "-O--CK ",
          "prefailure": false,
          "updated_online": true,
          "performance": false,
          "error_rate": false,
          "event_count": true,
          "auto_keep": true
        },
        "raw": {
          "value": 40,
          "string": "40"
        }
      },
      {
        "id": 199,
        "name": "UDMA_CRC_Error_Count",
        "value": 200,
        "worst": 253,
        "thresh": 0,
        "when_failed": "",
        "flags": {
          "value": 50,
          "string": "-O--CK ",
          "prefailure": false,
          "updated_online": true,
          "performance": false,
          "error_rate": false,
          "event_count": true,
          "auto_keep": true
        },
        "raw": {
          "value": 0,
          "string": "0"
        }
      }
    ]
  },
  "power_on_time": {
    "hours": 20
  },
  "power_cycle_count": 52,
  "temperature": {
    "current": 24,
    "power_cycle_min": 23,
    "power_cycle_max": 24,
    "lifetime_min": 23,
    "lifetime_max": 44,
    "op_limit_min": 0,
    "op_limit_max": 60,
    "limit_min": 0,
    "limit_max": 60,
    "lifetime_over_limit_minutes": 0,
    "lifetime_under_limit_minutes": 0
  },
  "ata_log_directory": {
    "gp_dir_version": 1,
    "smart_dir_version": 1,
    "smart_dir_multi_sector": true,
    "table": [
      {
        "address": 0,
        "name": "Log Directory",
        "read": true,
        "write": false,
        "gp_sectors": 1,
        "smart_sectors": 1
      },
      {
        "address": 1,
        "name": "Summary SMART error log",
        "read": true,
        "write": false,
        "smart_sectors": 1
      },
      {
        "address": 2,
        "name": "Comprehensive SMART error log",
        "read": true,
        "write": false,
        "smart_sectors": 51
      },
      {
        "address": 3,
        "name": "Ext. Comprehensive SMART error log",
        "read": true,
        "write": false,
        "gp_sectors": 64
      },
      {
        "address": 4,
        "name": "Device Statistics log",
        "read": true,
        "write": false,
        "gp_sectors": 8,
        "smart_sectors": 8
      },
      {
        "address": 6,
        "name": "SMART self-test log",
        "read": true,
        "write": false,
        "smart_sectors": 1
      },
      {
        "address": 7,
        "name": "Extended self-test log",
        "read": true,
        "write": false,
        "gp_sectors": 1
      },
      {
        "address": 9,
        "name": "Selective self-test log",
        "read": true,
        "write": true,
        "smart_sectors": 1
      },
      {
        "address": 16,
        "name": "NCQ Command Error log",
        "read": true,
        "write": false,
        "gp_sectors": 1
      },
      {
        "address": 17,
        "name": "SATA Phy Event Counters log",
        "read": true,
        "write": false,
        "gp_sectors": 1
      },
      {
        "address": 128,
        "name": "Host vendor specific log",
        "read": true,
        "write": true,
        "gp_sectors": 16,
        "smart_sectors": 16
      },
      {
        "address": 129,
        "name": "Host vendor specific log",
        "read": true,
        "write": true,
        "gp_sectors": 16,
        "smart_sectors": 16
      },
      {
        "address": 130,
        "name": "Host vendor specific log",
        "read": true,
        "write": true,
        "gp_sectors": 16,
        "smart_sectors": 16
      },
      {
        "address": 131,
        "name": "Host vendor specific log",
        "read": true,
        "write": true,
        "gp_sectors": 16,
        "smart_sectors": 16
      },
      {
        "address": 132,
        "name": "Host vendor specific log",
        "read": true,
        "write": true,
        "gp_sectors": 16,
        "smart_sectors": 16
      },
      {
        "address": 133,
        "name": "Host vendor specific log",
        "read": true,
        "write": true,
        "gp_sectors": 16,
        "smart_sectors": 16
      },
      {
        "address": 134,
        "name": "Host vendor specific log",
        "read": true,
        "write": true,
        "gp_sectors": 16,
        "smart_sectors": 16
      },
      {
        "address": 135,
        "name": "Host vendor specific log",
        "read": true,
        "write": true,
        "gp_sectors": 16,
        "smart_sectors": 16
      },
      {
        "address": 136,
        "name": "Host vendor specific log",
        "read": true,
        "write": true,
        "gp_sectors": 16,
        "smart_sectors": 16
      },
      {
        "address": 137,
        "name": "Host vendor specific log",
        "read": true,
        "write": true,
        "gp_sectors": 16,
        "smart_sectors": 16
      },
      {
        "address": 138,
        "name": "Host vendor specific log",
        "read": true,
        "write": true,
        "gp_sectors": 16,
        "smart_sectors": 16
      },
      {
        "address": 139,
        "name": "Host vendor specific log",
        "read": true,
        "write": true,
        "gp_sectors": 16,
        "smart_sectors": 16
      },
      {
        "address": 140,
        "name": "Host vendor specific log",
        "read": true,
        "write": true,
        "gp_sectors": 16,
        "smart_sectors": 16
      },
      {
        "address": 141,
        "name": "Host vendor specific log",
        "read": true,
        "write": true,
        "gp_sectors": 16,
        "smart_sectors": 16
      },
      {
        "address": 142,
        "name": "Host vendor specific log",
        "read": true,
        "write": true,
        "gp_sectors": 16,
        "smart_sectors": 16
      },
      {
        "address": 143,
        "name": "Host vendor specific log",
        "read": true,
        "write": true,
        "gp_sectors": 16,
        "smart_sectors": 16
      },
      {
        "address": 144,
        "name": "Host vendor specific log",
        "read": true,
        "write": true,
        "gp_sectors": 16,
        "smart_sectors": 16
      },
      {
        "address": 145,
        "name": "Host vendor specific log",
        "read": true,
        "write": true,
        "gp_sectors": 16,
        "smart_sectors": 16
      },
      {
        "address": 146,
        "name": "Host vendor specific log",
        "read": true,
        "write": true,
        "gp_sectors": 16,
        "smart_sectors": 16
      },
      {
        "address": 147,
        "name": "Host vendor specific log",
        "read": true,
        "write": true,
        "gp_sectors": 16,
        "smart_sectors": 16
      },
      {
        "address": 148,
        "name": "Host vendor specific log",
        "read": true,
        "write": true,
        "gp_sectors": 16,
        "smart_sectors": 16
      },
      {
        "address": 149,
        "name": "Host vendor specific log",
        "read": true,
        "write": true,
        "gp_sectors": 16,
        "smart_sectors": 16
      },
      {
        "address": 150,
        "name": "Host vendor specific log",
        "read": true,
        "write": true,
        "gp_sectors": 16,
        "smart_sectors": 16
      },
      {
        "address": 151,
        "name": "Host vendor specific log",
        "read": true,
        "write": true,
        "gp_sectors": 16,
        "smart_sectors": 16
      },
      {
        "address": 152,
        "name": "Host vendor specific log",
        "read": true,
        "write": true,
        "gp_sectors": 16,
        "smart_sectors": 16
      },
      {
        "address": 153,
        "name": "Host vendor specific log",
        "read": true,
        "write": true,
        "gp_sectors": 16,
        "smart_sectors": 16
      },
      {
        "address": 154,
        "name": "Host vendor specific log",
        "read": true,
        "write": true,
        "gp_sectors": 16,
        "smart_sectors": 16
      },
      {
        "address": 155,
        "name": "Host vendor specific log",
        "read": true,
        "write": true,
        "gp_sectors": 16,
        "smart_sectors": 16
      },
      {
        "address": 156,
        "name": "Host vendor specific log",
        "read": true,
        "write": true,
        "gp_sectors": 16,
        "smart_sectors": 16
      },
      {
        "address": 157,
        "name": "Host vendor specific log",
        "read": true,
        "write": true,
        "gp_sectors": 16,
        "smart_sectors": 16
      },
      {
        "address": 158,
        "name": "Host vendor specific log",
        "read": true,
        "write": true,
        "gp_sectors": 16,
        "smart_sectors": 16
      },
      {
        "address": 159,
        "name": "Host vendor specific log",
        "read": true,
        "write": true,
        "gp_sectors": 16,
        "smart_sectors": 16
      },
      {
        "address": 224,
        "name": "SCT Command/Status",
        "read": true,
        "write": true,
        "gp_sectors": 1,
        "smart_sectors": 1
      },
      {
        "address": 225,
        "name": "SCT Data Transfer",
        "read": true,
        "write": true,
        "gp_sectors": 1,
        "smart_sectors": 1
      }
    ]
  },
  "ata_smart_error_log": {
    "extended": {
      "revision": 1,
      "sectors": 64,
      "count": 804,
      "logged_count": 256,
      "table": [
        {
          "error_number": 804,
          "log_index": 35,
          "lifetime_hours": 20,
          "device_state": {
            "value": 3,
            "string": "active or idle"
          },
          "completion_registers": {
            "error": 64,
            "status": 81,
            "count": 0,
            "lba": 325084688,
            "device": 227,
            "device_control": 0
          },
          "error_description": "Error: UNC at LBA = 0x13606610 = 325084688",
          "previous_commands": [
            {
              "registers": {
                "command": 66,
                "features": 0,
                "count": 256,
                "lba": 325084672,
                "device": 227,
                "device_control": 0
              },
              "powerup_milliseconds": 27455,
              "command_name": "READ VERIFY SECTOR(S) EXT"
            },
            {
              "registers": {
                "command": 66,
                "features": 0,
                "count": 256,
                "lba": 325084416,
                "device": 227,
                "device_control": 0
              },
              "powerup_milliseconds": 19260,
              "command_name": "READ VERIFY SECTOR(S) EXT"
            },
            {
              "registers": {
                "command": 66,
                "features": 0,
                "count": 256,
                "lba": 325084160,
                "device": 227,
                "device_control": 0
              },
              "powerup_milliseconds": 19237,
              "command_name": "READ VERIFY SECTOR(S) EXT"
            },
            {
              "registers": {
                "command": 66,
                "features": 0,
                "count": 256,
                "lba": 325083904,
                "device": 227,
                "device_control": 0
              },
              "powerup_milliseconds": 19214,
              "command_name": "READ VERIFY SECTOR(S) EXT"
            },
            {
              "registers": {
                "command": 66,
                "features": 0,
                "count": 256,
                "lba": 325083648,
                "device": 227,
                "device_control": 0
              },
              "powerup_milliseconds": 19192,
              "command_name": "READ VERIFY SECTOR(S) EXT"
            }
          ]
        },
        {
          "error_number": 803,
          "log_index": 34,
          "lifetime_hours": 20,
          "device_state": {
            "value": 3,
            "string": "active or idle"
          },
          "completion_registers": {
            "error": 64,
            "status": 81,
            "count": 0,
            "lba": 325079480,
            "device": 227,
            "device_control": 0
          },
          "error_description": "Error: UNC at LBA = 0x136051b8 = 325079480",
          "previous_commands": [
            {
              "registers": {
                "command": 66,
                "features": 0,
                "count": 256,
                "lba": 325079296,
                "device": 227,
                "device_control": 0
              },
              "powerup_milliseconds": 535029,
              "command_name": "READ VERIFY SECTOR(S) EXT"
            },
            {
              "registers": {
                "command": 66,
                "features": 0,
                "count": 256,
                "lba": 325079040,
                "device": 227,
                "device_control": 0
              },
              "powerup_milliseconds": 526160,
              "command_name": "READ VERIFY SECTOR(S) EXT"
            },
            {
              "registers": {
                "command": 66,
                "features": 0,
                "count": 256,
                "lba": 325078784,
                "device": 227,
                "device_control": 0
              },
              "powerup_milliseconds": 526069,
              "command_name": "READ VERIFY SECTOR(S) EXT"
            },
            {
              "registers": {
                "command": 66,
                "features": 0,
                "count": 256,
                "lba": 325078528,
                "device": 227,
                "device_control": 0
              },
              "powerup_milliseconds": 526012,
              "command_name": "READ VERIFY SECTOR(S) EXT"
            },
            {
              "registers": {
                "command": 66,
                "features": 0,
                "count": 256,
                "lba": 325078272,
                "device": 227,
                "device_control": 0
              },
              "powerup_milliseconds": 525911,
              "command_name": "READ VERIFY SECTOR(S) EXT"
            }
          ]
        },
        {
          "error_number": 802,
          "log_index": 33,
          "lifetime_hours": 20,
          "device_state": {
            "value": 3,
            "string": "active or idle"
          },
          "completion_registers": {
            "error": 64,
            "status": 81,
            "count": 0,
            "lba": 325077168,
            "device": 227,
            "device_control": 0
          },
          "error_description": "Error: UNC at LBA = 0x136048b0 = 325077168",
          "previous_commands": [
            {
              "registers": {
                "command": 66,
                "features": 0,
                "count": 256,
                "lba": 325076992,
                "device": 227,
                "device_control": 0
              },
              "powerup_milliseconds": 504793,
              "command_name": "READ VERIFY SECTOR(S) EXT"
            },
            {
              "registers": {
                "command": 66,
                "features": 0,
                "count": 256,
                "lba": 325076736,
                "device": 227,
                "device_control": 0
              },
              "powerup_milliseconds": 502725,
              "command_name": "READ VERIFY SECTOR(S) EXT"
            },
            {
              "registers": {
                "command": 66,
                "features": 0,
                "count": 256,
                "lba": 325076480,
                "device": 227,
                "device_control": 0
              },
              "powerup_milliseconds": 502656,
              "command_name": "READ VERIFY SECTOR(S) EXT"
            },
            {
              "registers": {
                "command": 66,
                "features": 0,
                "count": 256,
                "lba": 325076224,
                "device": 227,
                "device_control": 0
              },
              "powerup_milliseconds": 502634,
              "command_name": "READ VERIFY SECTOR(S) EXT"
            },
            {
              "registers": {
                "command": 66,
                "features": 0,
                "count": 256,
                "lba": 325075968,
                "device": 227,
                "device_control": 0
              },
              "powerup_milliseconds": 502609,
              "command_name": "READ VERIFY SECTOR(S) EXT"
            }
          ]
        },
        {
          "error_number": 801,
          "log_index": 32,
          "lifetime_hours": 20,
          "device_state": {
            "value": 3,
            "string": "active or idle"
          },
          "completion_registers": {
            "error": 64,
            "status": 81,
            "count": 0,
            "lba": 325006408,
            "device": 227,
            "device_control": 0
          },
          "error_description": "Error: UNC at LBA = 0x135f3448 = 325006408",
          "previous_commands": [
            {
              "registers": {
                "command": 66,
                "features": 0,
                "count": 256,
                "lba": 325006336,
                "device": 227,
                "device_control": 0
              },
              "powerup_milliseconds": 330786,
              "command_name": "READ VERIFY SECTOR(S) EXT"
            },
            {
              "registers": {
                "command": 66,
                "features": 0,
                "count": 256,
                "lba": 325006080,
                "device": 227,
                "device_control": 0
              },
              "powerup_milliseconds": 316572,
              "command_name": "READ VERIFY SECTOR(S) EXT"
            },
            {
              "registers": {
                "command": 66,
                "features": 0,
                "count": 256,
                "lba": 325005824,
                "device": 227,
                "device_control": 0
              },
              "powerup_milliseconds": 316449,
              "command_name": "READ VERIFY SECTOR(S) EXT"
            },
            {
              "registers": {
                "command": 66,
                "features": 0,
                "count": 256,
                "lba": 325005568,
                "device": 227,
                "device_control": 0
              },
              "powerup_milliseconds": 316382,
              "command_name": "READ VERIFY SECTOR(S) EXT"
            },
            {
              "registers": {
                "command": 66,
                "features": 0,
                "count": 256,
                "lba": 325005312,
                "device": 227,
                "device_control": 0
              },
              "powerup_milliseconds": 316347,
              "command_name": "READ VERIFY SECTOR(S) EXT"
            }
          ]
        },
        {
          "error_number": 800,
          "log_index": 31,
          "lifetime_hours": 20,
          "device_state": {
            "value": 3,
            "string": "active or idle"
          },
          "completion_registers": {
            "error": 64,
            "status": 81,
            "count": 0,
            "lba": 324568328,
            "device": 227,
            "device_control": 0
          },
          "error_description": "Error: UNC at LBA = 0x13588508 = 324568328",
          "previous_commands": [
            {
              "registers": {
                "command": 66,
                "features": 0,
                "count": 256,
                "lba": 324568320,
                "device": 227,
                "device_control": 0
              },
              "powerup_milliseconds": 48461,
              "command_name": "READ VERIFY SECTOR(S) EXT"
            },
            {
              "registers": {
                "command": 66,
                "features": 0,
                "count": 256,
                "lba": 324568064,
                "device": 227,
                "device_control": 0
              },
              "powerup_milliseconds": 48440,
              "command_name": "READ VERIFY SECTOR(S) EXT"
            },
            {
              "registers": {
                "command": 255,
                "features": 65535,
                "count": 65535,
                "lba": 281474976710655,
                "device": 255,
                "device_control": 12
              },
              "powerup_milliseconds": 48438,
              "command_name": "[VENDOR SPECIFIC]"
            },
            {
              "registers": {
                "command": 52,
                "features": 0,
                "count": 256,
                "lba": 324568064,
                "device": 227,
                "device_control": 0
              },
              "powerup_milliseconds": 48267,
              "command_name": "WRITE SECTORS(S) EXT"
            },
            {
              "registers": {
                "command": 255,
                "features": 65535,
                "count": 65535,
                "lba": 281474976710655,
                "device": 255,
                "device_control": 12
              },
              "powerup_milliseconds": 48262,
              "command_name": "[VENDOR SPECIFIC]"
            }
          ]
        },
        {
          "error_number": 799,
          "log_index": 30,
          "lifetime_hours": 20,
          "device_state": {
            "value": 3,
            "string": "active or idle"
          },
          "completion_registers": {
            "error": 64,
            "status": 81,
            "count": 0,
            "lba": 324568264,
            "device": 227,
            "device_control": 0
          },
          "error_description": "Error: UNC at LBA = 0x135884c8 = 324568264",
          "previous_commands": [
            {
              "registers": {
                "command": 66,
                "features": 0,
                "count": 256,
                "lba": 324568064,
                "device": 227,
                "device_control": 0
              },
              "powerup_milliseconds": 35200,
              "command_name": "READ VERIFY SECTOR(S) EXT"
            },
            {
              "registers": {
                "command": 66,
                "features": 0,
                "count": 256,
                "lba": 324567808,
                "device": 227,
                "device_control": 0
              },
              "powerup_milliseconds": 35088,
              "command_name": "READ VERIFY SECTOR(S) EXT"
            },
            {
              "registers": {
                "command": 66,
                "features": 0,
                "count": 256,
                "lba": 324567552,
                "device": 227,
                "device_control": 0
              },
              "powerup_milliseconds": 35052,
              "command_name": "READ VERIFY SECTOR(S) EXT"
            },
            {
              "registers": {
                "command": 66,
                "features": 0,
                "count": 256,
                "lba": 324567296,
                "device": 227,
                "device_control": 0
              },
              "powerup_milliseconds": 35029,
              "command_name": "READ VERIFY SECTOR(S) EXT"
            },
            {
              "registers": {
                "command": 66,
                "features": 0,
                "count": 256,
                "lba": 324567040,
                "device": 227,
                "device_control": 0
              },
              "powerup_milliseconds": 35007,
              "command_name": "READ VERIFY SECTOR(S) EXT"
            }
          ]
        },
        {
          "error_number": 798,
          "log_index": 29,
          "lifetime_hours": 20,
          "device_state": {
            "value": 3,
            "string": "active or idle"
          },
          "completion_registers": {
            "error": 64,
            "status": 81,
            "count": 0,
            "lba": 324565800,
            "device": 227,
            "device_control": 0
          },
          "error_description": "Error: UNC at LBA = 0x13587b28 = 324565800",
          "previous_commands": [
            {
              "registers": {
                "command": 66,
                "features": 0,
                "count": 256,
                "lba": 324565760,
                "device": 227,
                "device_control": 0
              },
              "powerup_milliseconds": 3371949,
              "command_name": "READ VERIFY SECTOR(S) EXT"
            },
            {
              "registers": {
                "command": 255,
                "features": 65535,
                "count": 65535,
                "lba": 281474976710655,
                "device": 255,
                "device_control": 12
              },
              "powerup_milliseconds": 3371946,
              "command_name": "[VENDOR SPECIFIC]"
            },
            {
              "registers": {
                "command": 52,
                "features": 0,
                "count": 256,
                "lba": 324565760,
                "device": 227,
                "device_control": 0
              },
              "powerup_milliseconds": 3370356,
              "command_name": "WRITE SECTORS(S) EXT"
            },
            {
              "registers": {
                "command": 255,
                "features": 65535,
                "count": 65535,
                "lba": 281474976710655,
                "device": 255,
                "device_control": 12
              },
              "powerup_milliseconds": 3370351,
              "command_name": "[VENDOR SPECIFIC]"
            },
            {
              "registers": {
                "command": 66,
                "features": 0,
                "count": 256,
                "lba": 324565760,
                "device": 227,
                "device_control": 0
              },
              "powerup_milliseconds": 3366482,
              "command_name": "READ VERIFY SECTOR(S) EXT"
            }
          ]
        },
        {
          "error_number": 797,
          "log_index": 28,
          "lifetime_hours": 20,
          "device_state": {
            "value": 3,
            "string": "active or idle"
          },
          "completion_registers": {
            "error": 64,
            "status": 81,
            "count": 0,
            "lba": 324565856,
            "device": 227,
            "device_control": 0
          },
          "error_description": "Error: UNC at LBA = 0x13587b60 = 324565856",
          "previous_commands": [
            {
              "registers": {
                "command": 66,
                "features": 0,
                "count": 256,
                "lba": 324565760,
                "device": 227,
                "device_control": 0
              },
              "powerup_milliseconds": 3356022,
              "command_name": "READ VERIFY SECTOR(S) EXT"
            },
            {
              "registers": {
                "command": 66,
                "features": 0,
                "count": 256,
                "lba": 324565504,
                "device": 227,
                "device_control": 0
              },
              "powerup_milliseconds": 3348620,
              "command_name": "READ VERIFY SECTOR(S) EXT"
            },
            {
              "registers": {
                "command": 66,
                "features": 0,
                "count": 256,
                "lba": 324565248,
                "device": 227,
                "device_control": 0
              },
              "powerup_milliseconds": 3348553,
              "command_name": "READ VERIFY SECTOR(S) EXT"
            },
            {
              "registers": {
                "command": 66,
                "features": 0,
                "count": 256,
                "lba": 324564992,
                "device": 227,
                "device_control": 0
              },
              "powerup_milliseconds": 3348507,
              "command_name": "READ VERIFY SECTOR(S) EXT"
            },
            {
              "registers": {
                "command": 66,
                "features": 0,
                "count": 256,
                "lba": 324564736,
                "device": 227,
                "device_control": 0
              },
              "powerup_milliseconds": 3348473,
              "command_name": "READ VERIFY SECTOR(S) EXT"
            }
          ]
        }
      ]
    }
  },
  "ata_smart_self_test_log": {
    "extended": {
      "revision": 1,
      "sectors": 1,
      "count": 0
    }
  },
  "ata_smart_selective_self_test_log": {
    "revision": 1,
    "table": [
      {
        "lba_min": 0,
        "lba_max": 0,
        "status": {
          "value": 0,
          "string": "Not_testing"
        }
      },
      {
        "lba_min": 0,
        "lba_max": 0,
        "status": {
          "value": 0,
          "string": "Not_testing"
        }
      },
      {
        "lba_min": 0,
        "lba_max": 0,
        "status": {
          "value": 0,
          "string": "Not_testing"
        }
      },
      {
        "lba_min": 0,
        "lba_max": 0,
        "status": {
          "value": 0,
          "string": "Not_testing"
        }
      },
      {
        "lba_min": 0,
        "lba_max": 0,
        "status": {
          "value": 0,
          "string": "Not_testing"
        }
      }
    ],
    "flags": {
      "value": 0,
      "remainder_scan_enabled": false
    },
    "power_up_scan_resume_minutes": 0
  },
  "ata_sct_status": {
    "format_version": 2,
    "sct_version": 1,
    "device_state": {
      "value": 0,
      "string": "Active"
    },
    "temperature": {
      "current": 24,
      "power_cycle_min": 23,
      "power_cycle_max": 24,
      "lifetime_min": 23,
      "lifetime_max": 44,
      "under_limit_count": 0,
      "over_limit_count": 0
    }
  },
  "ata_sct_temperature_history": {
    "version": 2,
    "sampling_period_minutes": 1,
    "logging_interval_minutes": 1,
    "temperature": {
      "op_limit_min": 0,
      "op_limit_max": 60,
      "limit_min": 0,
      "limit_max": 60
    },
    "size": 478,
    "index": 0
  },
  "ata_sct_erc": {
    "read": {
      "enabled": false
    },
    "write": {
      "enabled": false
    }
  },
  "ata_device_statistics": {
    "pages": [
      {
        "number": 1,
        "name": "General Statistics",
        "revision": 2,
        "table": [
          {
            "offset": 8,
            "name": "Lifetime Power-On Resets",
            "size": 4,
            "value": 52,
            "flags": {
              "value": 192,
              "string": "V--- ",
              "valid": true,
              "normalized": false,
              "supports_dsn": false,
              "monitored_condition_met": false
            }
          },
          {
            "offset": 16,
            "name": "Power-on Hours",
            "size": 4,
            "value": 20,
            "flags": {
              "value": 192,
              "string": "V--- ",
              "valid": true,
              "normalized": false,
              "supports_dsn": false,
              "monitored_condition_met": false
            }
          },
          {
            "offset": 24,
            "name": "Logical Sectors Written",
            "size": 6,
            "value": 616493,
            "flags": {
              "value": 192,
              "string": "V--- ",
              "valid": true,
              "normalized": false,
              "supports_dsn": false,
              "monitored_condition_met": false
            }
          },
          {
            "offset": 32,
            "name": "Number of Write Commands",
            "size": 6,
            "value": 38409,
            "flags": {
              "value": 192,
              "string": "V--- ",
              "valid": true,
              "normalized": false,
              "supports_dsn": false,
              "monitored_condition_met": false
            }
          },
          {
            "offset": 40,
            "name": "Logical Sectors Read",
            "size": 6,
            "value": 3408,
            "flags": {
              "value": 192,
              "string": "V--- ",
              "valid": true,
              "normalized": false,
              "supports_dsn": false,
              "monitored_condition_met": false
            }
          },
          {
            "offset": 48,
            "name": "Number of Read Commands",
            "size": 6,
            "value": 56,
            "flags": {
              "value": 192,
              "string": "V--- ",
              "valid": true,
              "normalized": false,
              "supports_dsn": false,
              "monitored_condition_met": false
            }
          }
        ]
      },
      {
        "number": 2,
        "name": "Free-Fall Statistics",
        "revision": 1,
        "table": [
          {
            "offset": 16,
            "name": "Overlimit Shock Events",
            "size": 4,
            "value": 0,
            "flags": {
              "value": 192,
              "string": "V--- ",
              "valid": true,
              "normalized": false,
              "supports_dsn": false,
              "monitored_condition_met": false
            }
          }
        ]
      },
      {
        "number": 3,
        "name": "Rotating Media Statistics",
        "revision": 1,
        "table": [
          {
            "offset": 8,
            "name": "Spindle Motor Power-on Hours",
            "size": 4,
            "value": 20,
            "flags": {
              "value": 192,
              "string": "V--- ",
              "valid": true,
              "normalized": false,
              "supports_dsn": false,
              "monitored_condition_met": false
            }
          },
          {
            "offset": 16,
            "name": "Head Flying Hours",
            "size": 4,
            "value": 20,
            "flags": {
              "value": 192,
              "string": "V--- ",
              "valid": true,
              "normalized": false,
              "supports_dsn": false,
              "monitored_condition_met": false
            }
          },
          {
            "offset": 24,
            "name": "Head Load Events",
            "size": 4,
            "value": 52,
            "flags": {
              "value": 192,
              "string": "V--- ",
              "valid": true,
              "normalized": false,
              "supports_dsn": false,
              "monitored_condition_met": false
            }
          },
          {
            "offset": 32,
            "name": "Number of Reallocated Logical Sectors",
            "size": 4,
            "value": 1520,
            "flags": {
              "value": 192,
              "string": "V--- ",
              "valid": true,
              "normalized": false,
              "supports_dsn": false,
              "monitored_condition_met": false
            }
          },
          {
            "offset": 40,
            "name": "Read Recovery Attempts",
            "size": 4,
            "value": 20941,
            "flags": {
              "value": 192,
              "string": "V--- ",
              "valid": true,
              "normalized": false,
              "supports_dsn": false,
              "monitored_condition_met": false
            }
          },
          {
            "offset": 48,
            "name": "Number of Mechanical Start Failures",
            "size": 4,
            "value": 0,
            "flags": {
              "value": 192,
              "string": "V--- ",
              "valid": true,
              "normalized": false,
              "supports_dsn": false,
              "monitored_condition_met": false
            }
          }
        ]
      },
      {
        "number": 4,
        "name": "General Errors Statistics",
        "revision": 1,
        "table": [
          {
            "offset": 8,
            "name": "Number of Reported Uncorrectable Errors",
            "size": 4,
            "value": 804,
            "flags": {
              "value": 192,
              "string": "V--- ",
              "valid": true,
              "normalized": false,
              "supports_dsn": false,
              "monitored_condition_met": false
            }
          },
          {
            "offset": 16,
            "name": "Resets Between Cmd Acceptance and Completion",
            "size": 4,
            "value": 0,
            "flags": {
              "value": 192,
              "string": "V--- ",
              "valid": true,
              "normalized": false,
              "supports_dsn": false,
              "monitored_condition_met": false
            }
          }
        ]
      },
      {
        "number": 5,
        "name": "Temperature Statistics",
        "revision": 1,
        "table": [
          {
            "offset": 8,
            "name": "Current Temperature",
            "size": 1,
            "value": 24,
            "flags": {
              "value": 192,
              "string": "V--- ",
              "valid": true,
              "normalized": false,
              "supports_dsn": false,
              "monitored_condition_met": false
            }
          },
          {
            "offset": 16,
            "name": "Average Short Term Temperature",
            "size": 1,
            "flags": {
              "value": 160,
              "string": "-N-- ",
              "valid": false,
              "normalized": true,
              "supports_dsn": false,
              "monitored_condition_met": false
            }
          },
          {
            "offset": 24,
            "name": "Average Long Term Temperature",
            "size": 1,
            "flags": {
              "value": 160,
              "string": "-N-- ",
              "valid": false,
              "normalized": true,
              "supports_dsn": false,
              "monitored_condition_met": false
            }
          },
          {
            "offset": 32,
            "name": "Highest Temperature",
            "size": 1,
            "value": 44,
            "flags": {
              "value": 192,
              "string": "V--- ",
              "valid": true,
              "normalized": false,
              "supports_dsn": false,
              "monitored_condition_met": false
            }
          },
          {
            "offset": 40,
            "name": "Lowest Temperature",
            "size": 1,
            "value": 23,
            "flags": {
              "value": 192,
              "string": "V--- ",
              "valid": true,
              "normalized": false,
              "supports_dsn": false,
              "monitored_condition_met": false
            }
          },
          {
            "offset": 48,
            "name": "Highest Average Short Term Temperature",
            "size": 1,
            "flags": {
              "value": 160,
              "string": "-N-- ",
              "valid": false,
              "normalized": true,
              "supports_dsn": false,
              "monitored_condition_met": false
            }
          },
          {
            "offset": 56,
            "name": "Lowest Average Short Term Temperature",
            "size": 1,
            "flags": {
              "value": 160,
              "string": "-N-- ",
              "valid": false,
              "normalized": true,
              "supports_dsn": false,
              "monitored_condition_met": false
            }
          },
          {
            "offset": 64,
            "name": "Highest Average Long Term Temperature",
            "size": 1,
            "flags": {
              "value": 160,
              "string": "-N-- ",
              "valid": false,
              "normalized": true,
              "supports_dsn": false,
              "monitored_condition_met": false
            }
          },
          {
            "offset": 72,
            "name": "Lowest Average Long Term Temperature",
            "size": 1,
            "flags": {
              "value": 160,
              "string": "-N-- ",
              "valid": false,
              "normalized": true,
              "supports_dsn": false,
              "monitored_condition_met": false
            }
          },
          {
            "offset": 80,
            "name": "Time in Over-Temperature",
            "size": 4,
            "value": 0,
            "flags": {
              "value": 192,
              "string": "V--- ",
              "valid": true,
              "normalized": false,
              "supports_dsn": false,
              "monitored_condition_met": false
            }
          },
          {
            "offset": 88,
            "name": "Specified Maximum Operating Temperature",
            "size": 1,
            "value": 60,
            "flags": {
              "value": 192,
              "string": "V--- ",
              "valid": true,
              "normalized": false,
              "supports_dsn": false,
              "monitored_condition_met": false
            }
          },
          {
            "offset": 96,
            "name": "Time in Under-Temperature",
            "size": 4,
            "value": 0,
            "flags": {
              "value": 192,
              "string": "V--- ",
              "valid": true,
              "normalized": false,
              "supports_dsn": false,
              "monitored_condition_met": false
            }
          },
          {
            "offset": 104,
            "name": "Specified Minimum Operating Temperature",
            "size": 1,
            "value": 0,
            "flags": {
              "value": 192,
              "string": "V--- ",
              "valid": true,
              "normalized": false,
              "supports_dsn": false,
              "monitored_condition_met": false
            }
          }
        ]
      },
      {
        "number": 6,
        "name": "Transport Statistics",
        "revision": 1,
        "table": [
          {
            "offset": 8,
            "name": "Number of Hardware Resets",
            "size": 4,
            "value": 52,
            "flags": {
              "value": 192,
              "string": "V--- ",
              "valid": true,
              "normalized": false,
              "supports_dsn": false,
              "monitored_condition_met": false
            }
          },
          {
            "offset": 24,
            "name": "Number of Interface CRC Errors",
            "size": 4,
            "value": 0,
            "flags": {
              "value": 192,
              "string": "V--- ",
              "valid": true,
              "normalized": false,
              "supports_dsn": false,
              "monitored_condition_met": false
            }
          }
        ]
      },
      {
        "number": 7,
        "name": "Solid State Device Statistics",
        "revision": 1,
        "table": [
          {
            "offset": 8,
            "name": "Percentage Used Endurance Indicator",
            "size": 1,
            "value": 0,
            "flags": {
              "value": 224,
              "string": "VN-- ",
              "valid": true,
              "normalized": true,
              "supports_dsn": false,
              "monitored_condition_met": false
            }
          }
        ]
      }
    ]
  },
  "sata_phy_event_counters": {
    "table": [
      {
        "id": 1,
        "name": "Command failed due to ICRC error",
        "size": 4,
        "value": 0,
        "overflow": false
      },
      {
        "id": 2,
        "name": "R_ERR response for data FIS",
        "size": 4,
        "value": 0,
        "overflow": false
      },
      {
        "id": 3,
        "name": "R_ERR response for device-to-host data FIS",
        "size": 4,
        "value": 0,
        "overflow": false
      },
      {
        "id": 4,
        "name": "R_ERR response for host-to-device data FIS",
        "size": 4,
        "value": 0,
        "overflow": false
      },
      {
        "id": 5,
        "name": "R_ERR response for non-data FIS",
        "size": 4,
        "value": 0,
        "overflow": false
      },
      {
        "id": 6,
        "name": "R_ERR response for device-to-host non-data FIS",
        "size": 4,
        "value": 0,
        "overflow": false
      },
      {
        "id": 7,
        "name": "R_ERR response for host-to-device non-data FIS",
        "size": 4,
        "value": 0,
        "overflow": false
      },
      {
        "id": 8,
        "name": "Device-to-host non-data FIS retries",
        "size": 4,
        "value": 0,
        "overflow": false
      },
      {
        "id": 9,
        "name": "Transition from drive PhyRdy to drive PhyNRdy",
        "size": 4,
        "value": 1,
        "overflow": false
      },
      {
        "id": 10,
        "name": "Device-to-host register FISes sent due to a COMRESET",
        "size": 4,
        "value": 0,
        "overflow": false
      },
      {
        "id": 11,
        "name": "CRC errors within host-to-device FIS",
        "size": 4,
        "value": 0,
        "overflow": false
      },
      {
        "id": 13,
        "name": "Non-CRC errors within host-to-device FIS",
        "size": 4,
        "value": 0,
        "overflow": false
      },
      {
        "id": 15,
        "name": "R_ERR response for host-to-device data FIS, CRC",
        "size": 4,
        "value": 0,
        "overflow": false
      },
      {
        "id": 16,
        "name": "R_ERR response for host-to-device data FIS, non-CRC",
        "size": 4,
        "value": 0,
        "overflow": false
      },
      {
        "id": 18,
        "name": "R_ERR response for host-to-device non-data FIS, CRC",
        "size": 4,
        "value": 0,
        "overflow": false
      },
      {
        "id": 19,
        "name": "R_ERR response for host-to-device non-data FIS, non-CRC",
        "size": 4,
        "value": 0,
        "overflow": false
      }
    ],
    "reset": false
  }
}
