{
  "json_format_version": [
    1,
    0
  ],
  "smartctl": {
    "version": [
      7,
      2
    ],
    "svn_revision": "5155",
    "platform_info": "x86_64-linux-5.11.2-pmagic",
    "build_info": "(local build)",
    "argv": [
      "smartctl",
      "-jx",
      "/dev/sdf"
    ],
    "exit_status": 0
  },
  "device": {
    "name": "/dev/sdf",
    "info_name": "/dev/sdf",
    "type": "scsi",
    "protocol": "SCSI"
  },
  "vendor": "HP",
  "product": "EG0300FBDSP",
  "model_name": "HP EG0300FBDSP",
  "revision": "HPD4",
  "scsi_version": "SPC-3",
  "user_capacity": {
    "blocks": 585937500,
    "bytes": 300000000000
  },
  "logical_block_size": 512,
  "rotation_rate": 10025,
  "form_factor": {
    "scsi_value": 3,
    "name": "2.5 inches"
  },
  "serial_number": "ECA1PC10CP9L1203",
  "device_type": {
    "scsi_value": 0,
    "name": "disk"
  },
  "local_time": {
    "time_t": 1631493038,
    "asctime": "Sun Sep 12 19:30:38 2021 CDT"
  },
  "smart_status": {
    "passed": true
  },
  "temperature": {
    "current": 32,
    "drive_trip": 65
  },
  "scsi_grown_defect_list": 0,
  "scsi_error_counter_log": {
    "read": {
      "errors_corrected_by_eccfast": 0,
      "errors_corrected_by_eccdelayed": 5106,
      "errors_corrected_by_rereads_rewrites": 0,
      "total_errors_corrected": 0,
      "correction_algorithm_invocations": 0,
      "gigabytes_processed": "1954160.567",
      "total_uncorrected_errors": 0
    },
    "write": {
      "errors_corrected_by_eccfast": 0,
      "errors_corrected_by_eccdelayed": 0,
      "errors_corrected_by_rereads_rewrites": 0,
      "total_errors_corrected": 0,
      "correction_algorithm_invocations": 0,
      "gigabytes_processed": "253786.902",
      "total_uncorrected_errors": 0
    }
  },
  "power_on_time": {
    "hours": 56705,
    "minutes": 35
  }
}
