{
  "json_format_version": [
    1,
    0
  ],
  "smartctl": {
    "version": [
      7,
      2
    ],
    "svn_revision": "5155",
    "platform_info": "x86_64-linux-5.11.0-25-generic",
    "build_info": "(local build)",
    "argv": [
      "smartctl",
      "-jx",
      "/dev/sdb"
    ],
    "exit_status": 0
  },
  "device": {
    "name": "/dev/sdb",
    "info_name": "/dev/sdb [SAT]",
    "type": "sat",
    "protocol": "ATA"
  },
  "model_name": "LITEONIT LCM-128M3S 2.5\" 7mm 128GB",
  "serial_number": "TW00RNVG550852C82991",
  "ata_additional_product_id": "WQDA",
  "firmware_version": "WQDA",
  "user_capacity": {
    "blocks": 250069680,
    "bytes": 128035676160
  },
  "logical_block_size": 512,
  "physical_block_size": 512,
  "rotation_rate": 0,
  "trim": {
    "supported": true,
    "deterministic": false,
    "zeroed": false
  },
  "in_smartctl_database": false,
  "ata_version": {
    "string": "ATA8-ACS, ATA/ATAPI-7 T13/1532D revision 4a",
    "major_value": 510,
    "minor_value": 33
  },
  "sata_version": {
    "string": "SATA 3.0",
    "value": 53
  },
  "interface_speed": {
    "max": {
      "sata_value": 14,
      "string": "6.0 Gb/s",
      "units_per_second": 60,
      "bits_per_unit": 100000000
    }
  },
  "local_time": {
    "time_t": 1629867325,
    "asctime": "Tue Aug 24 22:55:25 2021 MDT"
  },
  "ata_aam": {
    "enabled": false
  },
  "read_lookahead": {
    "enabled": true
  },
  "write_cache": {
    "enabled": true
  },
  "ata_security": {
    "state": 33,
    "string": "Disabled, NOT FROZEN [SEC1]",
    "enabled": false,
    "frozen": false
  },
  "smart_status": {
    "passed": true
  },
  "ata_smart_data": {
    "offline_data_collection": {
      "status": {
        "value": 0,
        "string": "was never started"
      },
      "completion_seconds": 10
    },
    "self_test": {
      "status": {
        "value": 0,
        "string": "completed without error",
        "passed": true
      },
      "polling_minutes": {
        "short": 1,
        "extended": 10
      }
    },
    "capabilities": {
      "values": [
        21,
        2
      ],
      "exec_offline_immediate_supported": true,
      "offline_is_aborted_upon_new_cmd": true,
      "offline_surface_scan_supported": false,
      "self_tests_supported": true,
      "conveyance_self_test_supported": false,
      "selective_self_test_supported": false,
      "attribute_autosave_enabled": false,
      "error_logging_supported": true,
      "gp_logging_supported": true
    }
  },
  "ata_sct_capabilities": {
    "value": 61,
    "error_recovery_control_supported": true,
    "feature_control_supported": true,
    "data_table_supported": true
  },
  "ata_smart_attributes": {
    "revision": 1,
    "table": [
      {
        "id": 5,
        "name": "Reallocated_Sector_Ct",
        "value": 100,
        "worst": 100,
        "thresh": 0,
        "when_failed": "",
        "flags": {
          "value": 3,
          "string": "PO---- ",
          "prefailure": true,
          "updated_online": true,
          "performance": false,
          "error_rate": false,
          "event_count": false,
          "auto_keep": false
        },
        "raw": {
          "value": 0,
          "string": "0"
        }
      },
      {
        "id": 12,
        "name": "Power_Cycle_Count",
        "value": 100,
        "worst": 100,
        "thresh": 0,
        "when_failed": "",
        "flags": {
          "value": 3,
          "string": "PO---- ",
          "prefailure": true,
          "updated_online": true,
          "performance": false,
          "error_rate": false,
          "event_count": false,
          "auto_keep": false
        },
        "raw": {
          "value": 632,
          "string": "632"
        }
      },
      {
        "id": 175,
        "name": "Program_Fail_Count_Chip",
        "value": 100,
        "worst": 100,
        "thresh": 0,
        "when_failed": "",
        "flags": {
          "value": 3,
          "string": "PO---- ",
          "prefailure": true,
          "updated_online": true,
          "performance": false,
          "error_rate": false,
          "event_count": false,
          "auto_keep": false
        },
        "raw": {
          "value": 0,
          "string": "0"
        }
      },
      {
        "id": 176,
        "name": "Erase_Fail_Count_Chip",
        "value": 100,
        "worst": 100,
        "thresh": 0,
        "when_failed": "",
        "flags": {
          "value": 3,
          "string": "PO---- ",
          "prefailure": true,
          "updated_online": true,
          "performance": false,
          "error_rate": false,
          "event_count": false,
          "auto_keep": false
        },
        "raw": {
          "value": 0,
          "string": "0"
        }
      },
      {
        "id": 177,
        "name": "Wear_Leveling_Count",
        "value": 100,
        "worst": 100,
        "thresh": 0,
        "when_failed": "",
        "flags": {
          "value": 3,
          "string": "PO---- ",
          "prefailure": true,
          "updated_online": true,
          "performance": false,
          "error_rate": false,
          "event_count": false,
          "auto_keep": false
        },
        "raw": {
          "value": 123920,
          "string": "123920"
        }
      },
      {
        "id": 178,
        "name": "Used_Rsvd_Blk_Cnt_Chip",
        "value": 100,
        "worst": 100,
        "thresh": 0,
        "when_failed": "",
        "flags": {
          "value": 3,
          "string": "PO---- ",
          "prefailure": true,
          "updated_online": true,
          "performance": false,
          "error_rate": false,
          "event_count": false,
          "auto_keep": false
        },
        "raw": {
          "value": 2,
          "string": "2"
        }
      },
      {
        "id": 179,
        "name": "Used_Rsvd_Blk_Cnt_Tot",
        "value": 100,
        "worst": 100,
        "thresh": 0,
        "when_failed": "",
        "flags": {
          "value": 3,
          "string": "PO---- ",
          "prefailure": true,
          "updated_online": true,
          "performance": false,
          "error_rate": false,
          "event_count": false,
          "auto_keep": false
        },
        "raw": {
          "value": 3,
          "string": "3"
        }
      },
      {
        "id": 180,
        "name": "Unused_Rsvd_Blk_Cnt_Tot",
        "value": 98,
        "worst": 98,
        "thresh": 5,
        "when_failed": "",
        "flags": {
          "value": 3,
          "string": "PO---- ",
          "prefailure": true,
          "updated_online": true,
          "performance": false,
          "error_rate": false,
          "event_count": false,
          "auto_keep": false
        },
        "raw": {
          "value": 1568,
          "string": "1568"
        }
      },
      {
        "id": 181,
        "name": "Program_Fail_Cnt_Total",
        "value": 100,
        "worst": 100,
        "thresh": 0,
        "when_failed": "",
        "flags": {
          "value": 3,
          "string": "PO---- ",
          "prefailure": true,
          "updated_online": true,
          "performance": false,
          "error_rate": false,
          "event_count": false,
          "auto_keep": false
        },
        "raw": {
          "value": 0,
          "string": "0"
        }
      },
      {
        "id": 182,
        "name": "Erase_Fail_Count_Total",
        "value": 100,
        "worst": 100,
        "thresh": 0,
        "when_failed": "",
        "flags": {
          "value": 3,
          "string": "PO---- ",
          "prefailure": true,
          "updated_online": true,
          "performance": false,
          "error_rate": false,
          "event_count": false,
          "auto_keep": false
        },
        "raw": {
          "value": 0,
          "string": "0"
        }
      },
      {
        "id": 187,
        "name": "Reported_Uncorrect",
        "value": 100,
        "worst": 100,
        "thresh": 0,
        "when_failed": "",
        "flags": {
          "value": 3,
          "string": "PO---- ",
          "prefailure": true,
          "updated_online": true,
          "performance": false,
          "error_rate": false,
          "event_count": false,
          "auto_keep": false
        },
        "raw": {
          "value": 3,
          "string": "3"
        }
      },
      {
        "id": 195,
        "name": "Hardware_ECC_Recovered",
        "value": 100,
        "worst": 100,
        "thresh": 0,
        "when_failed": "",
        "flags": {
          "value": 3,
          "string": "PO---- ",
          "prefailure": true,
          "updated_online": true,
          "performance": false,
          "error_rate": false,
          "event_count": false,
          "auto_keep": false
        },
        "raw": {
          "value": 0,
          "string": "0"
        }
      },
      {
        "id": 241,
        "name": "Total_LBAs_Written",
        "value": 100,
        "worst": 100,
        "thresh": 0,
        "when_failed": "",
        "flags": {
          "value": 3,
          "string": "PO---- ",
          "prefailure": true,
          "updated_online": true,
          "performance": false,
          "error_rate": false,
          "event_count": false,
          "auto_keep": false
        },
        "raw": {
          "value": 115926,
          "string": "115926"
        }
      },
      {
        "id": 242,
        "name": "Total_LBAs_Read",
        "value": 100,
        "worst": 100,
        "thresh": 0,
        "when_failed": "",
        "flags": {
          "value": 3,
          "string": "PO---- ",
          "prefailure": true,
          "updated_online": true,
          "performance": false,
          "error_rate": false,
          "event_count": false,
          "auto_keep": false
        },
        "raw": {
          "value": 219172,
          "string": "219172"
        }
      }
    ]
  },
  "power_cycle_count": 632,
  "ata_log_directory": {
    "gp_dir_version": 0,
    "smart_dir_version": 0,
    "smart_dir_multi_sector": false,
    "table": [
      {
        "address": 0,
        "name": "Log Directory",
        "read": true,
        "write": false,
        "gp_sectors": 1,
        "smart_sectors": 1
      },
      {
        "address": 1,
        "name": "Summary SMART error log",
        "read": true,
        "write": false,
        "gp_sectors": 1,
        "smart_sectors": 1
      },
      {
        "address": 6,
        "name": "SMART self-test log",
        "read": true,
        "write": false,
        "gp_sectors": 1,
        "smart_sectors": 1
      },
      {
        "address": 7,
        "name": "Extended self-test log",
        "read": true,
        "write": false,
        "gp_sectors": 1,
        "smart_sectors": 1
      },
      {
        "address": 16,
        "name": "NCQ Command Error log",
        "read": true,
        "write": false,
        "gp_sectors": 1,
        "smart_sectors": 1
      },
      {
        "address": 17,
        "name": "SATA Phy Event Counters log",
        "read": true,
        "write": false,
        "gp_sectors": 1,
        "smart_sectors": 1
      },
      {
        "address": 128,
        "name": "Host vendor specific log",
        "read": true,
        "write": true,
        "gp_sectors": 1,
        "smart_sectors": 1
      },
      {
        "address": 129,
        "name": "Host vendor specific log",
        "read": true,
        "write": true,
        "gp_sectors": 1,
        "smart_sectors": 1
      },
      {
        "address": 130,
        "name": "Host vendor specific log",
        "read": true,
        "write": true,
        "gp_sectors": 1,
        "smart_sectors": 1
      },
      {
        "address": 131,
        "name": "Host vendor specific log",
        "read": true,
        "write": true,
        "gp_sectors": 1,
        "smart_sectors": 1
      },
      {
        "address": 132,
        "name": "Host vendor specific log",
        "read": true,
        "write": true,
        "gp_sectors": 1,
        "smart_sectors": 1
      },
      {
        "address": 133,
        "name": "Host vendor specific log",
        "read": true,
        "write": true,
        "gp_sectors": 1,
        "smart_sectors": 1
      },
      {
        "address": 134,
        "name": "Host vendor specific log",
        "read": true,
        "write": true,
        "gp_sectors": 1,
        "smart_sectors": 1
      },
      {
        "address": 135,
        "name": "Host vendor specific log",
        "read": true,
        "write": true,
        "gp_sectors": 1,
        "smart_sectors": 1
      },
      {
        "address": 136,
        "name": "Host vendor specific log",
        "read": true,
        "write": true,
        "gp_sectors": 1,
        "smart_sectors": 1
      },
      {
        "address": 137,
        "name": "Host vendor specific log",
        "read": true,
        "write": true,
        "gp_sectors": 1,
        "smart_sectors": 1
      },
      {
        "address": 138,
        "name": "Host vendor specific log",
        "read": true,
        "write": true,
        "gp_sectors": 1,
        "smart_sectors": 1
      },
      {
        "address": 139,
        "name": "Host vendor specific log",
        "read": true,
        "write": true,
        "gp_sectors": 1,
        "smart_sectors": 1
      },
      {
        "address": 140,
        "name": "Host vendor specific log",
        "read": true,
        "write": true,
        "gp_sectors": 1,
        "smart_sectors": 1
      },
      {
        "address": 141,
        "name": "Host vendor specific log",
        "read": true,
        "write": true,
        "gp_sectors": 1,
        "smart_sectors": 1
      },
      {
        "address": 142,
        "name": "Host vendor specific log",
        "read": true,
        "write": true,
        "gp_sectors": 1,
        "smart_sectors": 1
      },
      {
        "address": 143,
        "name": "Host vendor specific log",
        "read": true,
        "write": true,
        "gp_sectors": 1,
        "smart_sectors": 1
      },
      {
        "address": 144,
        "name": "Host vendor specific log",
        "read": true,
        "write": true,
        "gp_sectors": 1,
        "smart_sectors": 1
      },
      {
        "address": 145,
        "name": "Host vendor specific log",
        "read": true,
        "write": true,
        "gp_sectors": 1,
        "smart_sectors": 1
      },
      {
        "address": 146,
        "name": "Host vendor specific log",
        "read": true,
        "write": true,
        "gp_sectors": 1,
        "smart_sectors": 1
      },
      {
        "address": 147,
        "name": "Host vendor specific log",
        "read": true,
        "write": true,
        "gp_sectors": 1,
        "smart_sectors": 1
      },
      {
        "address": 148,
        "name": "Host vendor specific log",
        "read": true,
        "write": true,
        "gp_sectors": 1,
        "smart_sectors": 1
      },
      {
        "address": 149,
        "name": "Host vendor specific log",
        "read": true,
        "write": true,
        "gp_sectors": 1,
        "smart_sectors": 1
      },
      {
        "address": 150,
        "name": "Host vendor specific log",
        "read": true,
        "write": true,
        "gp_sectors": 1,
        "smart_sectors": 1
      },
      {
        "address": 151,
        "name": "Host vendor specific log",
        "read": true,
        "write": true,
        "gp_sectors": 1,
        "smart_sectors": 1
      },
      {
        "address": 152,
        "name": "Host vendor specific log",
        "read": true,
        "write": true,
        "gp_sectors": 1,
        "smart_sectors": 1
      },
      {
        "address": 153,
        "name": "Host vendor specific log",
        "read": true,
        "write": true,
        "gp_sectors": 1,
        "smart_sectors": 1
      },
      {
        "address": 154,
        "name": "Host vendor specific log",
        "read": true,
        "write": true,
        "gp_sectors": 1,
        "smart_sectors": 1
      },
      {
        "address": 155,
        "name": "Host vendor specific log",
        "read": true,
        "write": true,
        "gp_sectors": 1,
        "smart_sectors": 1
      },
      {
        "address": 156,
        "name": "Host vendor specific log",
        "read": true,
        "write": true,
        "gp_sectors": 1,
        "smart_sectors": 1
      },
      {
        "address": 157,
        "name": "Host vendor specific log",
        "read": true,
        "write": true,
        "gp_sectors": 1,
        "smart_sectors": 1
      },
      {
        "address": 158,
        "name": "Host vendor specific log",
        "read": true,
        "write": true,
        "gp_sectors": 1,
        "smart_sectors": 1
      },
      {
        "address": 159,
        "name": "Host vendor specific log",
        "read": true,
        "write": true,
        "gp_sectors": 1,
        "smart_sectors": 1
      },
      {
        "address": 224,
        "name": "SCT Command/Status",
        "read": true,
        "write": true,
        "gp_sectors": 1,
        "smart_sectors": 1
      },
      {
        "address": 225,
        "name": "SCT Data Transfer",
        "read": true,
        "write": true,
        "gp_sectors": 1,
        "smart_sectors": 1
      }
    ]
  },
  "ata_smart_error_log": {
    "summary": {
      "revision": 1,
      "count": 0,
      "logged_count": 0,
      "table": [
        {
          "error_number": 0,
          "lifetime_hours": 0,
          "completion_registers": {
            "error": 0,
            "status": 0,
            "count": 0,
            "lba": 9692672,
            "device": 0
          },
          "previous_commands": [
            {
              "registers": {
                "command": 1,
                "features": 0,
                "count": 0,
                "lba": 2604544,
                "device": 15,
                "device_control": 0
              },
              "powerup_milliseconds": 0,
              "command_name": "[RESERVED]"
            },
            {
              "registers": {
                "command": 4,
                "features": 0,
                "count": 0,
                "lba": 2303488,
                "device": 185,
                "device_control": 0
              },
              "powerup_milliseconds": 0,
              "command_name": "[RESERVED]"
            },
            {
              "registers": {
                "command": 2,
                "features": 0,
                "count": 0,
                "lba": 12253184,
                "device": 56,
                "device_control": 0
              },
              "powerup_milliseconds": 0,
              "command_name": "[RESERVED]"
            },
            {
              "registers": {
                "command": 2,
                "features": 0,
                "count": 0,
                "lba": 12252672,
                "device": 56,
                "device_control": 0
              },
              "powerup_milliseconds": 0,
              "command_name": "[RESERVED]"
            },
            {
              "registers": {
                "command": 0,
                "features": 0,
                "count": 0,
                "lba": 5123,
                "device": 0,
                "device_control": 0
              },
              "powerup_milliseconds": 0,
              "command_name": "NOP [Abort queued commands]"
            }
          ]
        },
        {
          "error_number": -1,
          "lifetime_hours": 0,
          "completion_registers": {
            "error": 0,
            "status": 0,
            "count": 138,
            "lba": 28233,
            "device": 0
          },
          "previous_commands": [
            {
              "registers": {
                "command": 0,
                "features": 0,
                "count": 215,
                "lba": 4005,
                "device": 0,
                "device_control": 0
              },
              "powerup_milliseconds": 0,
              "command_name": "NOP [Abort queued commands]"
            },
            {
              "registers": {
                "command": 0,
                "features": 0,
                "count": 213,
                "lba": 4005,
                "device": 0,
                "device_control": 0
              },
              "powerup_milliseconds": 0,
              "command_name": "NOP [Abort queued commands]"
            },
            {
              "registers": {
                "command": 0,
                "features": 0,
                "count": 177,
                "lba": 3176,
                "device": 0,
                "device_control": 0
              },
              "powerup_milliseconds": 0,
              "command_name": "NOP [Abort queued commands]"
            },
            {
              "registers": {
                "command": 0,
                "features": 0,
                "count": 35,
                "lba": 3485,
                "device": 0,
                "device_control": 0
              },
              "powerup_milliseconds": 0,
              "command_name": "NOP [Abort queued commands]"
            },
            {
              "registers": {
                "command": 0,
                "features": 3,
                "count": 2,
                "lba": 0,
                "device": 0,
                "device_control": 0
              },
              "powerup_milliseconds": 0,
              "command_name": "NOP [Reserved subcommand] [OBS-ACS-2]"
            }
          ]
        },
        {
          "error_number": -2,
          "lifetime_hours": 0,
          "completion_registers": {
            "error": 157,
            "status": 71,
            "count": 13,
            "lba": 0,
            "device": 0
          },
          "error_description": "Error: ABRT",
          "previous_commands": [
            {
              "registers": {
                "command": 0,
                "features": 152,
                "count": 13,
                "lba": 0,
                "device": 0,
                "device_control": 116
              },
              "powerup_milliseconds": 0,
              "command_name": "NOP [Reserved subcommand] [OBS-ACS-2]"
            },
            {
              "registers": {
                "command": 0,
                "features": 152,
                "count": 13,
                "lba": 0,
                "device": 0,
                "device_control": 116
              },
              "powerup_milliseconds": 0,
              "command_name": "NOP [Reserved subcommand] [OBS-ACS-2]"
            },
            {
              "registers": {
                "command": 0,
                "features": 152,
                "count": 13,
                "lba": 0,
                "device": 0,
                "device_control": 113
              },
              "powerup_milliseconds": 0,
              "command_name": "NOP [Reserved subcommand] [OBS-ACS-2]"
            },
            {
              "registers": {
                "command": 0,
                "features": 71,
                "count": 5,
                "lba": 0,
                "device": 0,
                "device_control": 109
              },
              "powerup_milliseconds": 0,
              "command_name": "NOP [Reserved subcommand] [OBS-ACS-2]"
            }
          ]
        },
        {
          "error_number": -3,
          "lifetime_hours": 768,
          "completion_registers": {
            "error": 0,
            "status": 52,
            "count": 0,
            "lba": 9371648,
            "device": 202
          },
          "error_description": "Device Fault",
          "previous_commands": [
            {
              "registers": {
                "command": 0,
                "features": 0,
                "count": 0,
                "lba": 0,
                "device": 0,
                "device_control": 5
              },
              "powerup_milliseconds": 1198325760,
              "command_name": "NOP [Abort queued commands]"
            },
            {
              "registers": {
                "command": 0,
                "features": 0,
                "count": 0,
                "lba": 0,
                "device": 0,
                "device_control": 5
              },
              "powerup_milliseconds": 1120993280,
              "command_name": "NOP [Abort queued commands]"
            },
            {
              "registers": {
                "command": 44,
                "features": 9,
                "count": 0,
                "lba": 11534336,
                "device": 204,
                "device_control": 96
              },
              "powerup_milliseconds": 1121017856,
              "command_name": "[RESERVED]"
            },
            {
              "registers": {
                "command": 0,
                "features": 9,
                "count": 0,
                "lba": 0,
                "device": 0,
                "device_control": 96
              },
              "powerup_milliseconds": 1544880128,
              "command_name": "NOP [Reserved subcommand] [OBS-ACS-2]"
            },
            {
              "registers": {
                "command": 247,
                "features": 0,
                "count": 0,
                "lba": 13633536,
                "device": 113,
                "device_control": 0
              },
              "powerup_milliseconds": 1544904704,
              "command_name": "[VENDOR SPECIFIC]"
            }
          ]
        },
        {
          "error_number": -4,
          "lifetime_hours": 0,
          "completion_registers": {
            "error": 0,
            "status": 0,
            "count": 0,
            "lba": 0,
            "device": 0
          },
          "previous_commands": [
            {
              "registers": {
                "command": 223,
                "features": 0,
                "count": 0,
                "lba": 0,
                "device": 93,
                "device_control": 0
              },
              "powerup_milliseconds": 15,
              "command_name": "MEDIA UNLOCK [OBS-8]"
            },
            {
              "registers": {
                "command": 223,
                "features": 0,
                "count": 0,
                "lba": 0,
                "device": 93,
                "device_control": 0
              },
              "powerup_milliseconds": 15,
              "command_name": "MEDIA UNLOCK [OBS-8]"
            },
            {
              "registers": {
                "command": 0,
                "features": 0,
                "count": 0,
                "lba": 196608,
                "device": 0,
                "device_control": 0
              },
              "powerup_milliseconds": 0,
              "command_name": "NOP [Abort queued commands]"
            }
          ]
        }
      ]
    }
  },
  "ata_smart_self_test_log": {
    "extended": {
      "revision": 1,
      "sectors": 1,
      "table": [
        {
          "type": {
            "value": 1,
            "string": "Short offline"
          },
          "status": {
            "value": 0,
            "string": "Completed without error",
            "passed": true
          },
          "lifetime_hours": 0
        }
      ],
      "count": 1,
      "error_count_total": 0,
      "error_count_outdated": 0
    }
  },
  "ata_sct_status": {
    "format_version": 3,
    "sct_version": 1,
    "device_state": {
      "value": 0,
      "string": "Active"
    },
    "temperature": {
      "under_limit_count": 0,
      "over_limit_count": 0
    }
  },
  "ata_sct_temperature_history": {
    "version": 2,
    "sampling_period_minutes": 0,
    "logging_interval_minutes": 0,
    "size": 128,
    "index": 0
  },
  "ata_sct_erc": {
    "read": {
      "enabled": true,
      "deciseconds": 2
    },
    "write": {
      "enabled": true,
      "deciseconds": 2
    }
  },
  "sata_phy_event_counters": {
    "table": [
      {
        "id": 1,
        "name": "Command failed due to ICRC error",
        "size": 2,
        "value": 0,
        "overflow": false
      },
      {
        "id": 2,
        "name": "R_ERR response for data FIS",
        "size": 2,
        "value": 0,
        "overflow": false
      },
      {
        "id": 3,
        "name": "R_ERR response for device-to-host data FIS",
        "size": 2,
        "value": 0,
        "overflow": false
      },
      {
        "id": 4,
        "name": "R_ERR response for host-to-device data FIS",
        "size": 2,
        "value": 0,
        "overflow": false
      },
      {
        "id": 5,
        "name": "R_ERR response for non-data FIS",
        "size": 2,
        "value": 0,
        "overflow": false
      },
      {
        "id": 6,
        "name": "R_ERR response for device-to-host non-data FIS",
        "size": 2,
        "value": 0,
        "overflow": false
      },
      {
        "id": 7,
        "name": "R_ERR response for host-to-device non-data FIS",
        "size": 2,
        "value": 0,
        "overflow": false
      },
      {
        "id": 8,
        "name": "Device-to-host non-data FIS retries",
        "size": 2,
        "value": 0,
        "overflow": false
      },
      {
        "id": 9,
        "name": "Transition from drive PhyRdy to drive PhyNRdy",
        "size": 2,
        "value": 0,
        "overflow": false
      },
      {
        "id": 10,
        "name": "Device-to-host register FISes sent due to a COMRESET",
        "size": 2,
        "value": 2,
        "overflow": false
      },
      {
        "id": 11,
        "name": "CRC errors within host-to-device FIS",
        "size": 2,
        "value": 0,
        "overflow": false
      },
      {
        "id": 13,
        "name": "Non-CRC errors within host-to-device FIS",
        "size": 2,
        "value": 0,
        "overflow": false
      },
      {
        "id": 15,
        "name": "R_ERR response for host-to-device data FIS, CRC",
        "size": 2,
        "value": 0,
        "overflow": false
      },
      {
        "id": 16,
        "name": "R_ERR response for host-to-device data FIS, non-CRC",
        "size": 2,
        "value": 0,
        "overflow": false
      },
      {
        "id": 18,
        "name": "R_ERR response for host-to-device non-data FIS, CRC",
        "size": 2,
        "value": 0,
        "overflow": false
      },
      {
        "id": 19,
        "name": "R_ERR response for host-to-device non-data FIS, non-CRC",
        "size": 2,
        "value": 0,
        "overflow": false
      }
    ],
    "reset": false
  }
}
