{
  "json_format_version": [
    1,
    0
  ],
  "smartctl": {
    "version": [
      7,
      1
    ],
    "svn_revision": "5022",
    "platform_info": "x86_64-linux-5.8.0-50-generic",
    "build_info": "(local build)",
    "argv": [
      "smartctl",
      "-x",
      "-j",
      "/dev/sdb"
    ],
    "exit_status": 192
  },
  "device": {
    "name": "/dev/sdb",
    "info_name": "/dev/sdb [SAT]",
    "type": "sat",
    "protocol": "ATA"
  },
  "model_family": "Seagate Samsung SpinPoint F4 EG (AF)",
  "model_name": "ST2000DL004 HD204UI",
  "serial_number": "S2H7J90C615627",
  "wwn": {
    "naa": 5,
    "oui": 1231,
    "id": 8719446115
  },
  "firmware_version": "1AQ10001",
  "user_capacity": {
    "blocks": 3907029168,
    "bytes": 2000398934016
  },
  "logical_block_size": 512,
  "physical_block_size": 512,
  "rotation_rate": 5400,
  "form_factor": {
    "ata_value": 2,
    "name": "3.5 inches"
  },
  "in_smartctl_database": true,
  "ata_version": {
    "string": "ATA8-ACS T13/1699-D revision 6",
    "major_value": 511,
    "minor_value": 40
  },
  "sata_version": {
    "string": "SATA 2.6",
    "value": 31
  },
  "interface_speed": {
    "max": {
      "sata_value": 6,
      "string": "3.0 Gb/s",
      "units_per_second": 30,
      "bits_per_unit": 100000000
    }
  },
  "local_time": {
    "time_t": 1620153133,
    "asctime": "Tue May  4 12:32:13 2021 MDT"
  },
  "ata_aam": {
    "enabled": false
  },
  "ata_apm": {
    "enabled": true,
    "level": 254,
    "string": "maximum performance",
    "max_performance": true,
    "min_power": false,
    "with_standby": false
  },
  "read_lookahead": {
    "enabled": true
  },
  "write_cache": {
    "enabled": true
  },
  "ata_security": {
    "state": 33,
    "string": "Disabled, NOT FROZEN [SEC1]",
    "enabled": false,
    "frozen": false
  },
  "smart_status": {
    "passed": true
  },
  "ata_smart_data": {
    "offline_data_collection": {
      "status": {
        "value": 0,
        "string": "was never started"
      },
      "completion_seconds": 20760
    },
    "self_test": {
      "status": {
        "value": 121,
        "string": "completed with error (read test element)",
        "passed": false
      },
      "polling_minutes": {
        "short": 2,
        "extended": 346
      }
    },
    "capabilities": {
      "values": [
        91,
        3
      ],
      "exec_offline_immediate_supported": true,
      "offline_is_aborted_upon_new_cmd": false,
      "offline_surface_scan_supported": true,
      "self_tests_supported": true,
      "conveyance_self_test_supported": false,
      "selective_self_test_supported": true,
      "attribute_autosave_enabled": true,
      "error_logging_supported": true,
      "gp_logging_supported": true
    }
  },
  "ata_sct_capabilities": {
    "value": 63,
    "error_recovery_control_supported": true,
    "feature_control_supported": true,
    "data_table_supported": true
  },
  "ata_smart_attributes": {
    "revision": 16,
    "table": [
      {
        "id": 1,
        "name": "Raw_Read_Error_Rate",
        "value": 100,
        "worst": 100,
        "thresh": 51,
        "when_failed": "",
        "flags": {
          "value": 47,
          "string": "POSR-K ",
          "prefailure": true,
          "updated_online": true,
          "performance": true,
          "error_rate": true,
          "event_count": false,
          "auto_keep": true
        },
        "raw": {
          "value": 11347,
          "string": "11347"
        }
      },
      {
        "id": 2,
        "name": "Throughput_Performance",
        "value": 252,
        "worst": 252,
        "thresh": 0,
        "when_failed": "",
        "flags": {
          "value": 38,
          "string": "-OS--K ",
          "prefailure": false,
          "updated_online": true,
          "performance": true,
          "error_rate": false,
          "event_count": false,
          "auto_keep": true
        },
        "raw": {
          "value": 0,
          "string": "0"
        }
      },
      {
        "id": 3,
        "name": "Spin_Up_Time",
        "value": 67,
        "worst": 64,
        "thresh": 25,
        "when_failed": "",
        "flags": {
          "value": 35,
          "string": "PO---K ",
          "prefailure": true,
          "updated_online": true,
          "performance": false,
          "error_rate": false,
          "event_count": false,
          "auto_keep": true
        },
        "raw": {
          "value": 10143,
          "string": "10143"
        }
      },
      {
        "id": 4,
        "name": "Start_Stop_Count",
        "value": 97,
        "worst": 97,
        "thresh": 0,
        "when_failed": "",
        "flags": {
          "value": 50,
          "string": "-O--CK ",
          "prefailure": false,
          "updated_online": true,
          "performance": false,
          "error_rate": false,
          "event_count": true,
          "auto_keep": true
        },
        "raw": {
          "value": 3309,
          "string": "3309"
        }
      },
      {
        "id": 5,
        "name": "Reallocated_Sector_Ct",
        "value": 252,
        "worst": 252,
        "thresh": 10,
        "when_failed": "",
        "flags": {
          "value": 51,
          "string": "PO--CK ",
          "prefailure": true,
          "updated_online": true,
          "performance": false,
          "error_rate": false,
          "event_count": true,
          "auto_keep": true
        },
        "raw": {
          "value": 0,
          "string": "0"
        }
      },
      {
        "id": 7,
        "name": "Seek_Error_Rate",
        "value": 252,
        "worst": 252,
        "thresh": 51,
        "when_failed": "",
        "flags": {
          "value": 46,
          "string": "-OSR-K ",
          "prefailure": false,
          "updated_online": true,
          "performance": true,
          "error_rate": true,
          "event_count": false,
          "auto_keep": true
        },
        "raw": {
          "value": 0,
          "string": "0"
        }
      },
      {
        "id": 8,
        "name": "Seek_Time_Performance",
        "value": 252,
        "worst": 252,
        "thresh": 15,
        "when_failed": "",
        "flags": {
          "value": 36,
          "string": "--S--K ",
          "prefailure": false,
          "updated_online": false,
          "performance": true,
          "error_rate": false,
          "event_count": false,
          "auto_keep": true
        },
        "raw": {
          "value": 0,
          "string": "0"
        }
      },
      {
        "id": 9,
        "name": "Power_On_Hours",
        "value": 100,
        "worst": 100,
        "thresh": 0,
        "when_failed": "",
        "flags": {
          "value": 50,
          "string": "-O--CK ",
          "prefailure": false,
          "updated_online": true,
          "performance": false,
          "error_rate": false,
          "event_count": true,
          "auto_keep": true
        },
        "raw": {
          "value": 19090,
          "string": "19090"
        }
      },
      {
        "id": 10,
        "name": "Spin_Retry_Count",
        "value": 252,
        "worst": 252,
        "thresh": 51,
        "when_failed": "",
        "flags": {
          "value": 50,
          "string": "-O--CK ",
          "prefailure": false,
          "updated_online": true,
          "performance": false,
          "error_rate": false,
          "event_count": true,
          "auto_keep": true
        },
        "raw": {
          "value": 0,
          "string": "0"
        }
      },
      {
        "id": 11,
        "name": "Calibration_Retry_Count",
        "value": 252,
        "worst": 252,
        "thresh": 0,
        "when_failed": "",
        "flags": {
          "value": 50,
          "string": "-O--CK ",
          "prefailure": false,
          "updated_online": true,
          "performance": false,
          "error_rate": false,
          "event_count": true,
          "auto_keep": true
        },
        "raw": {
          "value": 0,
          "string": "0"
        }
      },
      {
        "id": 12,
        "name": "Power_Cycle_Count",
        "value": 100,
        "worst": 100,
        "thresh": 0,
        "when_failed": "",
        "flags": {
          "value": 50,
          "string": "-O--CK ",
          "prefailure": false,
          "updated_online": true,
          "performance": false,
          "error_rate": false,
          "event_count": true,
          "auto_keep": true
        },
        "raw": {
          "value": 984,
          "string": "984"
        }
      },
      {
        "id": 181,
        "name": "Program_Fail_Cnt_Total",
        "value": 100,
        "worst": 100,
        "thresh": 0,
        "when_failed": "",
        "flags": {
          "value": 34,
          "string": "-O---K ",
          "prefailure": false,
          "updated_online": true,
          "performance": false,
          "error_rate": false,
          "event_count": false,
          "auto_keep": true
        },
        "raw": {
          "value": 11942766,
          "string": "11942766"
        }
      },
      {
        "id": 191,
        "name": "G-Sense_Error_Rate",
        "value": 99,
        "worst": 99,
        "thresh": 0,
        "when_failed": "",
        "flags": {
          "value": 34,
          "string": "-O---K ",
          "prefailure": false,
          "updated_online": true,
          "performance": false,
          "error_rate": false,
          "event_count": false,
          "auto_keep": true
        },
        "raw": {
          "value": 17957,
          "string": "17957"
        }
      },
      {
        "id": 192,
        "name": "Power-Off_Retract_Count",
        "value": 252,
        "worst": 252,
        "thresh": 0,
        "when_failed": "",
        "flags": {
          "value": 34,
          "string": "-O---K ",
          "prefailure": false,
          "updated_online": true,
          "performance": false,
          "error_rate": false,
          "event_count": false,
          "auto_keep": true
        },
        "raw": {
          "value": 0,
          "string": "0"
        }
      },
      {
        "id": 194,
        "name": "Temperature_Celsius",
        "value": 64,
        "worst": 61,
        "thresh": 0,
        "when_failed": "",
        "flags": {
          "value": 2,
          "string": "-O---- ",
          "prefailure": false,
          "updated_online": true,
          "performance": false,
          "error_rate": false,
          "event_count": false,
          "auto_keep": false
        },
        "raw": {
          "value": 171799412760,
          "string": "24 (Min/Max 11/40)"
        }
      },
      {
        "id": 195,
        "name": "Hardware_ECC_Recovered",
        "value": 100,
        "worst": 100,
        "thresh": 0,
        "when_failed": "",
        "flags": {
          "value": 58,
          "string": "-O-RCK ",
          "prefailure": false,
          "updated_online": true,
          "performance": false,
          "error_rate": true,
          "event_count": true,
          "auto_keep": true
        },
        "raw": {
          "value": 0,
          "string": "0"
        }
      },
      {
        "id": 196,
        "name": "Reallocated_Event_Count",
        "value": 252,
        "worst": 252,
        "thresh": 0,
        "when_failed": "",
        "flags": {
          "value": 50,
          "string": "-O--CK ",
          "prefailure": false,
          "updated_online": true,
          "performance": false,
          "error_rate": false,
          "event_count": true,
          "auto_keep": true
        },
        "raw": {
          "value": 0,
          "string": "0"
        }
      },
      {
        "id": 197,
        "name": "Current_Pending_Sector",
        "value": 100,
        "worst": 100,
        "thresh": 0,
        "when_failed": "",
        "flags": {
          "value": 50,
          "string": "-O--CK ",
          "prefailure": false,
          "updated_online": true,
          "performance": false,
          "error_rate": false,
          "event_count": true,
          "auto_keep": true
        },
        "raw": {
          "value": 12,
          "string": "12"
        }
      },
      {
        "id": 198,
        "name": "Offline_Uncorrectable",
        "value": 252,
        "worst": 252,
        "thresh": 0,
        "when_failed": "",
        "flags": {
          "value": 48,
          "string": "----CK ",
          "prefailure": false,
          "updated_online": false,
          "performance": false,
          "error_rate": false,
          "event_count": true,
          "auto_keep": true
        },
        "raw": {
          "value": 0,
          "string": "0"
        }
      },
      {
        "id": 199,
        "name": "UDMA_CRC_Error_Count",
        "value": 200,
        "worst": 200,
        "thresh": 0,
        "when_failed": "",
        "flags": {
          "value": 54,
          "string": "-OS-CK ",
          "prefailure": false,
          "updated_online": true,
          "performance": true,
          "error_rate": false,
          "event_count": true,
          "auto_keep": true
        },
        "raw": {
          "value": 0,
          "string": "0"
        }
      },
      {
        "id": 200,
        "name": "Multi_Zone_Error_Rate",
        "value": 100,
        "worst": 100,
        "thresh": 0,
        "when_failed": "",
        "flags": {
          "value": 42,
          "string": "-O-R-K ",
          "prefailure": false,
          "updated_online": true,
          "performance": false,
          "error_rate": true,
          "event_count": false,
          "auto_keep": true
        },
        "raw": {
          "value": 757,
          "string": "757"
        }
      },
      {
        "id": 223,
        "name": "Load_Retry_Count",
        "value": 252,
        "worst": 252,
        "thresh": 0,
        "when_failed": "",
        "flags": {
          "value": 50,
          "string": "-O--CK ",
          "prefailure": false,
          "updated_online": true,
          "performance": false,
          "error_rate": false,
          "event_count": true,
          "auto_keep": true
        },
        "raw": {
          "value": 0,
          "string": "0"
        }
      },
      {
        "id": 225,
        "name": "Load_Cycle_Count",
        "value": 80,
        "worst": 80,
        "thresh": 0,
        "when_failed": "",
        "flags": {
          "value": 50,
          "string": "-O--CK ",
          "prefailure": false,
          "updated_online": true,
          "performance": false,
          "error_rate": false,
          "event_count": true,
          "auto_keep": true
        },
        "raw": {
          "value": 209893,
          "string": "209893"
        }
      }
    ]
  },
  "power_on_time": {
    "hours": 19090
  },
  "power_cycle_count": 984,
  "temperature": {
    "current": 24,
    "power_cycle_min": 21,
    "power_cycle_max": 24,
    "lifetime_min": 11,
    "lifetime_max": 61,
    "op_limit_max": 80,
    "op_limit_min": -5,
    "limit_min": -10,
    "limit_max": 85
  },
  "ata_log_directory": {
    "gp_dir_version": 1,
    "smart_dir_version": 1,
    "smart_dir_multi_sector": true,
    "table": [
      {
        "address": 0,
        "name": "Log Directory",
        "read": true,
        "write": false,
        "gp_sectors": 1,
        "smart_sectors": 1
      },
      {
        "address": 1,
        "name": "Summary SMART error log",
        "read": true,
        "write": false,
        "smart_sectors": 1
      },
      {
        "address": 2,
        "name": "Comprehensive SMART error log",
        "read": true,
        "write": false,
        "smart_sectors": 2
      },
      {
        "address": 3,
        "name": "Ext. Comprehensive SMART error log",
        "read": true,
        "write": false,
        "gp_sectors": 2
      },
      {
        "address": 6,
        "name": "SMART self-test log",
        "read": true,
        "write": false,
        "smart_sectors": 1
      },
      {
        "address": 7,
        "name": "Extended self-test log",
        "read": true,
        "write": false,
        "gp_sectors": 2
      },
      {
        "address": 8,
        "name": "Power Conditions log",
        "read": true,
        "write": false,
        "gp_sectors": 2
      },
      {
        "address": 9,
        "name": "Selective self-test log",
        "read": true,
        "write": true,
        "smart_sectors": 1
      },
      {
        "address": 16,
        "name": "NCQ Command Error log",
        "read": true,
        "write": false,
        "gp_sectors": 1
      },
      {
        "address": 17,
        "name": "SATA Phy Event Counters log",
        "read": true,
        "write": false,
        "gp_sectors": 1
      },
      {
        "address": 128,
        "name": "Host vendor specific log",
        "read": true,
        "write": true,
        "gp_sectors": 16,
        "smart_sectors": 16
      },
      {
        "address": 129,
        "name": "Host vendor specific log",
        "read": true,
        "write": true,
        "gp_sectors": 16,
        "smart_sectors": 16
      },
      {
        "address": 130,
        "name": "Host vendor specific log",
        "read": true,
        "write": true,
        "gp_sectors": 16,
        "smart_sectors": 16
      },
      {
        "address": 131,
        "name": "Host vendor specific log",
        "read": true,
        "write": true,
        "gp_sectors": 16,
        "smart_sectors": 16
      },
      {
        "address": 132,
        "name": "Host vendor specific log",
        "read": true,
        "write": true,
        "gp_sectors": 16,
        "smart_sectors": 16
      },
      {
        "address": 133,
        "name": "Host vendor specific log",
        "read": true,
        "write": true,
        "gp_sectors": 16,
        "smart_sectors": 16
      },
      {
        "address": 134,
        "name": "Host vendor specific log",
        "read": true,
        "write": true,
        "gp_sectors": 16,
        "smart_sectors": 16
      },
      {
        "address": 135,
        "name": "Host vendor specific log",
        "read": true,
        "write": true,
        "gp_sectors": 16,
        "smart_sectors": 16
      },
      {
        "address": 136,
        "name": "Host vendor specific log",
        "read": true,
        "write": true,
        "gp_sectors": 16,
        "smart_sectors": 16
      },
      {
        "address": 137,
        "name": "Host vendor specific log",
        "read": true,
        "write": true,
        "gp_sectors": 16,
        "smart_sectors": 16
      },
      {
        "address": 138,
        "name": "Host vendor specific log",
        "read": true,
        "write": true,
        "gp_sectors": 16,
        "smart_sectors": 16
      },
      {
        "address": 139,
        "name": "Host vendor specific log",
        "read": true,
        "write": true,
        "gp_sectors": 16,
        "smart_sectors": 16
      },
      {
        "address": 140,
        "name": "Host vendor specific log",
        "read": true,
        "write": true,
        "gp_sectors": 16,
        "smart_sectors": 16
      },
      {
        "address": 141,
        "name": "Host vendor specific log",
        "read": true,
        "write": true,
        "gp_sectors": 16,
        "smart_sectors": 16
      },
      {
        "address": 142,
        "name": "Host vendor specific log",
        "read": true,
        "write": true,
        "gp_sectors": 16,
        "smart_sectors": 16
      },
      {
        "address": 143,
        "name": "Host vendor specific log",
        "read": true,
        "write": true,
        "gp_sectors": 16,
        "smart_sectors": 16
      },
      {
        "address": 144,
        "name": "Host vendor specific log",
        "read": true,
        "write": true,
        "gp_sectors": 16,
        "smart_sectors": 16
      },
      {
        "address": 145,
        "name": "Host vendor specific log",
        "read": true,
        "write": true,
        "gp_sectors": 16,
        "smart_sectors": 16
      },
      {
        "address": 146,
        "name": "Host vendor specific log",
        "read": true,
        "write": true,
        "gp_sectors": 16,
        "smart_sectors": 16
      },
      {
        "address": 147,
        "name": "Host vendor specific log",
        "read": true,
        "write": true,
        "gp_sectors": 16,
        "smart_sectors": 16
      },
      {
        "address": 148,
        "name": "Host vendor specific log",
        "read": true,
        "write": true,
        "gp_sectors": 16,
        "smart_sectors": 16
      },
      {
        "address": 149,
        "name": "Host vendor specific log",
        "read": true,
        "write": true,
        "gp_sectors": 16,
        "smart_sectors": 16
      },
      {
        "address": 150,
        "name": "Host vendor specific log",
        "read": true,
        "write": true,
        "gp_sectors": 16,
        "smart_sectors": 16
      },
      {
        "address": 151,
        "name": "Host vendor specific log",
        "read": true,
        "write": true,
        "gp_sectors": 16,
        "smart_sectors": 16
      },
      {
        "address": 152,
        "name": "Host vendor specific log",
        "read": true,
        "write": true,
        "gp_sectors": 16,
        "smart_sectors": 16
      },
      {
        "address": 153,
        "name": "Host vendor specific log",
        "read": true,
        "write": true,
        "gp_sectors": 16,
        "smart_sectors": 16
      },
      {
        "address": 154,
        "name": "Host vendor specific log",
        "read": true,
        "write": true,
        "gp_sectors": 16,
        "smart_sectors": 16
      },
      {
        "address": 155,
        "name": "Host vendor specific log",
        "read": true,
        "write": true,
        "gp_sectors": 16,
        "smart_sectors": 16
      },
      {
        "address": 156,
        "name": "Host vendor specific log",
        "read": true,
        "write": true,
        "gp_sectors": 16,
        "smart_sectors": 16
      },
      {
        "address": 157,
        "name": "Host vendor specific log",
        "read": true,
        "write": true,
        "gp_sectors": 16,
        "smart_sectors": 16
      },
      {
        "address": 158,
        "name": "Host vendor specific log",
        "read": true,
        "write": true,
        "gp_sectors": 16,
        "smart_sectors": 16
      },
      {
        "address": 159,
        "name": "Host vendor specific log",
        "read": true,
        "write": true,
        "gp_sectors": 16,
        "smart_sectors": 16
      },
      {
        "address": 224,
        "name": "SCT Command/Status",
        "read": true,
        "write": true,
        "gp_sectors": 1,
        "smart_sectors": 1
      },
      {
        "address": 225,
        "name": "SCT Data Transfer",
        "read": true,
        "write": true,
        "gp_sectors": 1,
        "smart_sectors": 1
      }
    ]
  },
  "ata_smart_error_log": {
    "extended": {
      "revision": 1,
      "sectors": 2,
      "count": 8721,
      "logged_count": 8,
      "table": [
        {
          "error_number": 8721,
          "log_index": 0,
          "lifetime_hours": 19087,
          "device_state": {
            "value": 3,
            "string": "active or idle"
          },
          "completion_registers": {
            "error": 64,
            "status": 81,
            "count": 8,
            "lba": 7071160,
            "device": 64,
            "device_control": 0
          },
          "error_description": "Error: UNC at LBA = 0x006be5b8 = 7071160",
          "previous_commands": [
            {
              "registers": {
                "command": 96,
                "features": 218,
                "count": 8,
                "lba": 7071160,
                "device": 64,
                "device_control": 8
              },
              "powerup_milliseconds": 100634,
              "command_name": "READ FPDMA QUEUED"
            },
            {
              "registers": {
                "command": 96,
                "features": 218,
                "count": 8,
                "lba": 7071160,
                "device": 64,
                "device_control": 8
              },
              "powerup_milliseconds": 100634,
              "command_name": "READ FPDMA QUEUED"
            },
            {
              "registers": {
                "command": 96,
                "features": 218,
                "count": 8,
                "lba": 7071152,
                "device": 64,
                "device_control": 8
              },
              "powerup_milliseconds": 100634,
              "command_name": "READ FPDMA QUEUED"
            },
            {
              "registers": {
                "command": 96,
                "features": 218,
                "count": 8,
                "lba": 7071144,
                "device": 64,
                "device_control": 8
              },
              "powerup_milliseconds": 100634,
              "command_name": "READ FPDMA QUEUED"
            },
            {
              "registers": {
                "command": 96,
                "features": 218,
                "count": 8,
                "lba": 7071136,
                "device": 64,
                "device_control": 8
              },
              "powerup_milliseconds": 100634,
              "command_name": "READ FPDMA QUEUED"
            }
          ]
        },
        {
          "error_number": 8720,
          "log_index": 7,
          "lifetime_hours": 19087,
          "device_state": {
            "value": 3,
            "string": "active or idle"
          },
          "completion_registers": {
            "error": 64,
            "status": 81,
            "count": 8,
            "lba": 68640,
            "device": 64,
            "device_control": 0
          },
          "error_description": "Error: UNC at LBA = 0x00010c20 = 68640",
          "previous_commands": [
            {
              "registers": {
                "command": 96,
                "features": 218,
                "count": 8,
                "lba": 68640,
                "device": 64,
                "device_control": 8
              },
              "powerup_milliseconds": 99631,
              "command_name": "READ FPDMA QUEUED"
            },
            {
              "registers": {
                "command": 96,
                "features": 218,
                "count": 8,
                "lba": 68640,
                "device": 64,
                "device_control": 8
              },
              "powerup_milliseconds": 99632,
              "command_name": "READ FPDMA QUEUED"
            },
            {
              "registers": {
                "command": 96,
                "features": 218,
                "count": 8,
                "lba": 6352896,
                "device": 64,
                "device_control": 8
              },
              "powerup_milliseconds": 99632,
              "command_name": "READ FPDMA QUEUED"
            },
            {
              "registers": {
                "command": 96,
                "features": 218,
                "count": 8,
                "lba": 6352888,
                "device": 64,
                "device_control": 8
              },
              "powerup_milliseconds": 99632,
              "command_name": "READ FPDMA QUEUED"
            },
            {
              "registers": {
                "command": 96,
                "features": 218,
                "count": 8,
                "lba": 6352880,
                "device": 64,
                "device_control": 8
              },
              "powerup_milliseconds": 99632,
              "command_name": "READ FPDMA QUEUED"
            }
          ]
        },
        {
          "error_number": 8719,
          "log_index": 6,
          "lifetime_hours": 19086,
          "device_state": {
            "value": 3,
            "string": "active or idle"
          },
          "completion_registers": {
            "error": 64,
            "status": 81,
            "count": 8,
            "lba": 4728552,
            "device": 64,
            "device_control": 0
          },
          "error_description": "Error: UNC at LBA = 0x004826e8 = 4728552",
          "previous_commands": [
            {
              "registers": {
                "command": 96,
                "features": 218,
                "count": 8,
                "lba": 4728552,
                "device": 64,
                "device_control": 8
              },
              "powerup_milliseconds": 96541,
              "command_name": "READ FPDMA QUEUED"
            },
            {
              "registers": {
                "command": 96,
                "features": 218,
                "count": 8,
                "lba": 4728552,
                "device": 64,
                "device_control": 8
              },
              "powerup_milliseconds": 96542,
              "command_name": "READ FPDMA QUEUED"
            },
            {
              "registers": {
                "command": 96,
                "features": 218,
                "count": 8,
                "lba": 4728544,
                "device": 64,
                "device_control": 8
              },
              "powerup_milliseconds": 96542,
              "command_name": "READ FPDMA QUEUED"
            },
            {
              "registers": {
                "command": 96,
                "features": 218,
                "count": 8,
                "lba": 3501384,
                "device": 64,
                "device_control": 8
              },
              "powerup_milliseconds": 96542,
              "command_name": "READ FPDMA QUEUED"
            },
            {
              "registers": {
                "command": 96,
                "features": 218,
                "count": 8,
                "lba": 3501376,
                "device": 64,
                "device_control": 8
              },
              "powerup_milliseconds": 96542,
              "command_name": "READ FPDMA QUEUED"
            }
          ]
        },
        {
          "error_number": 8718,
          "log_index": 5,
          "lifetime_hours": 19084,
          "device_state": {
            "value": 3,
            "string": "active or idle"
          },
          "completion_registers": {
            "error": 64,
            "status": 81,
            "count": 8,
            "lba": 16490880,
            "device": 64,
            "device_control": 0
          },
          "error_description": "Error: UNC at LBA = 0x00fba180 = 16490880",
          "previous_commands": [
            {
              "registers": {
                "command": 96,
                "features": 218,
                "count": 8,
                "lba": 16490880,
                "device": 64,
                "device_control": 8
              },
              "powerup_milliseconds": 89568,
              "command_name": "READ FPDMA QUEUED"
            },
            {
              "registers": {
                "command": 96,
                "features": 218,
                "count": 8,
                "lba": 16490880,
                "device": 64,
                "device_control": 8
              },
              "powerup_milliseconds": 89569,
              "command_name": "READ FPDMA QUEUED"
            },
            {
              "registers": {
                "command": 96,
                "features": 218,
                "count": 8,
                "lba": 16490872,
                "device": 64,
                "device_control": 8
              },
              "powerup_milliseconds": 89569,
              "command_name": "READ FPDMA QUEUED"
            },
            {
              "registers": {
                "command": 96,
                "features": 218,
                "count": 8,
                "lba": 20914112,
                "device": 64,
                "device_control": 8
              },
              "powerup_milliseconds": 89569,
              "command_name": "READ FPDMA QUEUED"
            },
            {
              "registers": {
                "command": 96,
                "features": 218,
                "count": 8,
                "lba": 20914104,
                "device": 64,
                "device_control": 8
              },
              "powerup_milliseconds": 89569,
              "command_name": "READ FPDMA QUEUED"
            }
          ]
        },
        {
          "error_number": 8717,
          "log_index": 4,
          "lifetime_hours": 19084,
          "device_state": {
            "value": 3,
            "string": "active or idle"
          },
          "completion_registers": {
            "error": 64,
            "status": 81,
            "count": 8,
            "lba": 6294776,
            "device": 64,
            "device_control": 0
          },
          "error_description": "Error: UNC at LBA = 0x00600cf8 = 6294776",
          "previous_commands": [
            {
              "registers": {
                "command": 96,
                "features": 16,
                "count": 8,
                "lba": 6294776,
                "device": 64,
                "device_control": 8
              },
              "powerup_milliseconds": 89445,
              "command_name": "READ FPDMA QUEUED"
            },
            {
              "registers": {
                "command": 96,
                "features": 16,
                "count": 8,
                "lba": 6294776,
                "device": 64,
                "device_control": 8
              },
              "powerup_milliseconds": 89446,
              "command_name": "READ FPDMA QUEUED"
            },
            {
              "registers": {
                "command": 96,
                "features": 16,
                "count": 8,
                "lba": 5454568,
                "device": 64,
                "device_control": 8
              },
              "powerup_milliseconds": 89446,
              "command_name": "READ FPDMA QUEUED"
            },
            {
              "registers": {
                "command": 96,
                "features": 16,
                "count": 8,
                "lba": 6549616,
                "device": 64,
                "device_control": 8
              },
              "powerup_milliseconds": 89446,
              "command_name": "READ FPDMA QUEUED"
            },
            {
              "registers": {
                "command": 96,
                "features": 16,
                "count": 8,
                "lba": 6549608,
                "device": 64,
                "device_control": 8
              },
              "powerup_milliseconds": 89446,
              "command_name": "READ FPDMA QUEUED"
            }
          ]
        },
        {
          "error_number": 8716,
          "log_index": 3,
          "lifetime_hours": 19084,
          "device_state": {
            "value": 3,
            "string": "active or idle"
          },
          "completion_registers": {
            "error": 64,
            "status": 81,
            "count": 8,
            "lba": 6294776,
            "device": 64,
            "device_control": 0
          },
          "error_description": "Error: UNC at LBA = 0x00600cf8 = 6294776",
          "previous_commands": [
            {
              "registers": {
                "command": 96,
                "features": 16,
                "count": 8,
                "lba": 6294776,
                "device": 64,
                "device_control": 8
              },
              "powerup_milliseconds": 89445,
              "command_name": "READ FPDMA QUEUED"
            },
            {
              "registers": {
                "command": 96,
                "features": 16,
                "count": 8,
                "lba": 6294776,
                "device": 64,
                "device_control": 8
              },
              "powerup_milliseconds": 89445,
              "command_name": "READ FPDMA QUEUED"
            },
            {
              "registers": {
                "command": 96,
                "features": 16,
                "count": 8,
                "lba": 5448,
                "device": 64,
                "device_control": 8
              },
              "powerup_milliseconds": 89445,
              "command_name": "READ FPDMA QUEUED"
            },
            {
              "registers": {
                "command": 96,
                "features": 16,
                "count": 8,
                "lba": 5440,
                "device": 64,
                "device_control": 8
              },
              "powerup_milliseconds": 89445,
              "command_name": "READ FPDMA QUEUED"
            },
            {
              "registers": {
                "command": 96,
                "features": 16,
                "count": 8,
                "lba": 4740904,
                "device": 64,
                "device_control": 8
              },
              "powerup_milliseconds": 89445,
              "command_name": "READ FPDMA QUEUED"
            }
          ]
        },
        {
          "error_number": 8715,
          "log_index": 2,
          "lifetime_hours": 19084,
          "device_state": {
            "value": 3,
            "string": "active or idle"
          },
          "completion_registers": {
            "error": 64,
            "status": 81,
            "count": 8,
            "lba": 6294776,
            "device": 64,
            "device_control": 0
          },
          "error_description": "Error: UNC at LBA = 0x00600cf8 = 6294776",
          "previous_commands": [
            {
              "registers": {
                "command": 96,
                "features": 16,
                "count": 8,
                "lba": 6294776,
                "device": 64,
                "device_control": 8
              },
              "powerup_milliseconds": 89379,
              "command_name": "READ FPDMA QUEUED"
            },
            {
              "registers": {
                "command": 96,
                "features": 16,
                "count": 8,
                "lba": 6294776,
                "device": 64,
                "device_control": 8
              },
              "powerup_milliseconds": 89381,
              "command_name": "READ FPDMA QUEUED"
            },
            {
              "registers": {
                "command": 96,
                "features": 16,
                "count": 8,
                "lba": 18122680,
                "device": 64,
                "device_control": 8
              },
              "powerup_milliseconds": 89381,
              "command_name": "READ FPDMA QUEUED"
            },
            {
              "registers": {
                "command": 96,
                "features": 16,
                "count": 8,
                "lba": 18122672,
                "device": 64,
                "device_control": 8
              },
              "powerup_milliseconds": 89381,
              "command_name": "READ FPDMA QUEUED"
            },
            {
              "registers": {
                "command": 96,
                "features": 16,
                "count": 8,
                "lba": 86015680,
                "device": 64,
                "device_control": 8
              },
              "powerup_milliseconds": 89381,
              "command_name": "READ FPDMA QUEUED"
            }
          ]
        },
        {
          "error_number": 8714,
          "log_index": 1,
          "lifetime_hours": 19084,
          "device_state": {
            "value": 3,
            "string": "active or idle"
          },
          "completion_registers": {
            "error": 64,
            "status": 81,
            "count": 8,
            "lba": 6294776,
            "device": 64,
            "device_control": 0
          },
          "error_description": "Error: UNC at LBA = 0x00600cf8 = 6294776",
          "previous_commands": [
            {
              "registers": {
                "command": 96,
                "features": 16,
                "count": 8,
                "lba": 6294776,
                "device": 64,
                "device_control": 8
              },
              "powerup_milliseconds": 89378,
              "command_name": "READ FPDMA QUEUED"
            },
            {
              "registers": {
                "command": 96,
                "features": 16,
                "count": 8,
                "lba": 6294776,
                "device": 64,
                "device_control": 8
              },
              "powerup_milliseconds": 89380,
              "command_name": "READ FPDMA QUEUED"
            },
            {
              "registers": {
                "command": 96,
                "features": 16,
                "count": 8,
                "lba": 7618384,
                "device": 64,
                "device_control": 8
              },
              "powerup_milliseconds": 89380,
              "command_name": "READ FPDMA QUEUED"
            },
            {
              "registers": {
                "command": 96,
                "features": 16,
                "count": 8,
                "lba": 7618376,
                "device": 64,
                "device_control": 8
              },
              "powerup_milliseconds": 89379,
              "command_name": "READ FPDMA QUEUED"
            },
            {
              "registers": {
                "command": 96,
                "features": 16,
                "count": 8,
                "lba": 25377320,
                "device": 64,
                "device_control": 8
              },
              "powerup_milliseconds": 89379,
              "command_name": "READ FPDMA QUEUED"
            }
          ]
        }
      ]
    }
  },
  "ata_smart_self_test_log": {
    "extended": {
      "revision": 1,
      "sectors": 2,
      "table": [
        {
          "type": {
            "value": 1,
            "string": "Short offline"
          },
          "status": {
            "value": 121,
            "string": "Completed: read failure",
            "remaining_percent": 90,
            "passed": false
          },
          "lifetime_hours": 19059,
          "lba": 331520
        }
      ],
      "count": 1,
      "error_count_total": 1,
      "error_count_outdated": 0
    }
  },
  "ata_smart_selective_self_test_log": {
    "revision": 0,
    "table": [
      {
        "lba_min": 0,
        "lba_max": 0,
        "status": {
          "value": 121,
          "string": "Completed_read_failure",
          "remaining_percent": 9
        },
        "current_lba_min": 0,
        "current_lba_max": 65535
      },
      {
        "lba_min": 0,
        "lba_max": 0,
        "status": {
          "value": 121,
          "string": "Not_testing"
        }
      },
      {
        "lba_min": 0,
        "lba_max": 0,
        "status": {
          "value": 121,
          "string": "Not_testing"
        }
      },
      {
        "lba_min": 0,
        "lba_max": 0,
        "status": {
          "value": 121,
          "string": "Not_testing"
        }
      },
      {
        "lba_min": 0,
        "lba_max": 0,
        "status": {
          "value": 121,
          "string": "Not_testing"
        }
      }
    ],
    "flags": {
      "value": 0,
      "remainder_scan_enabled": false
    },
    "power_up_scan_resume_minutes": 0
  },
  "ata_sct_status": {
    "format_version": 2,
    "sct_version": 256,
    "device_state": {
      "value": 0,
      "string": "Active"
    },
    "temperature": {
      "current": 24,
      "power_cycle_min": 21,
      "power_cycle_max": 24,
      "lifetime_min": 11,
      "lifetime_max": 61,
      "op_limit_max": 80,
      "under_limit_count": 0,
      "over_limit_count": 0
    }
  },
  "ata_sct_temperature_history": {
    "version": 2,
    "sampling_period_minutes": 5,
    "logging_interval_minutes": 5,
    "temperature": {
      "op_limit_min": -5,
      "op_limit_max": 80,
      "limit_min": -10,
      "limit_max": 85
    },
    "size": 128,
    "index": 50,
    "table": [
      24,
      28,
      28,
      28,
      28,
      28,
      28,
      28,
      28,
      28,
      28,
      28,
      28,
      28,
      28,
      28,
      28,
      28,
      28,
      28,
      28,
      28,
      28,
      28,
      28,
      28,
      28,
      28,
      28,
      28,
      28,
      29,
      29,
      29,
      29,
      29,
      29,
      29,
      29,
      29,
      29,
      29,
      28,
      27,
      28,
      28,
      28,
      28,
      28,
      28,
      28,
      28,
      28,
      28,
      28,
      28,
      28,
      28,
      28,
      28,
      28,
      28,
      28,
      28,
      28,
      27,
      28,
      28,
      28,
      28,
      28,
      28,
      28,
      28,
      27,
      27,
      27,
      28,
      27,
      27,
      27,
      27,
      27,
      27,
      27,
      27,
      27,
      27,
      28,
      27,
      27,
      27,
      27,
      27,
      27,
      26,
      27,
      27,
      27,
      27,
      27,
      27,
      27,
      26,
      26,
      27,
      27,
      27,
      27,
      26,
      26,
      27,
      27,
      26,
      26,
      26,
      27,
      26,
      26,
      26,
      26,
      27,
      27,
      27,
      27,
      26,
      26,
      23
    ]
  },
  "ata_sct_erc": {
    "read": {
      "enabled": false
    },
    "write": {
      "enabled": false
    }
  },
  "sata_phy_event_counters": {
    "table": [
      {
        "id": 1,
        "name": "Command failed due to ICRC error",
        "size": 4,
        "value": 0,
        "overflow": false
      },
      {
        "id": 2,
        "name": "R_ERR response for data FIS",
        "size": 4,
        "value": 0,
        "overflow": false
      },
      {
        "id": 3,
        "name": "R_ERR response for device-to-host data FIS",
        "size": 4,
        "value": 0,
        "overflow": false
      },
      {
        "id": 4,
        "name": "R_ERR response for host-to-device data FIS",
        "size": 4,
        "value": 0,
        "overflow": false
      },
      {
        "id": 5,
        "name": "R_ERR response for non-data FIS",
        "size": 4,
        "value": 0,
        "overflow": false
      },
      {
        "id": 6,
        "name": "R_ERR response for device-to-host non-data FIS",
        "size": 4,
        "value": 0,
        "overflow": false
      },
      {
        "id": 7,
        "name": "R_ERR response for host-to-device non-data FIS",
        "size": 4,
        "value": 0,
        "overflow": false
      },
      {
        "id": 8,
        "name": "Device-to-host non-data FIS retries",
        "size": 4,
        "value": 0,
        "overflow": false
      },
      {
        "id": 9,
        "name": "Transition from drive PhyRdy to drive PhyNRdy",
        "size": 4,
        "value": 1,
        "overflow": false
      },
      {
        "id": 10,
        "name": "Device-to-host register FISes sent due to a COMRESET",
        "size": 4,
        "value": 0,
        "overflow": false
      },
      {
        "id": 11,
        "name": "CRC errors within host-to-device FIS",
        "size": 4,
        "value": 0,
        "overflow": false
      },
      {
        "id": 13,
        "name": "Non-CRC errors within host-to-device FIS",
        "size": 4,
        "value": 0,
        "overflow": false
      },
      {
        "id": 15,
        "name": "R_ERR response for host-to-device data FIS, CRC",
        "size": 4,
        "value": 0,
        "overflow": false
      },
      {
        "id": 16,
        "name": "R_ERR response for host-to-device data FIS, non-CRC",
        "size": 4,
        "value": 0,
        "overflow": false
      },
      {
        "id": 18,
        "name": "R_ERR response for host-to-device non-data FIS, CRC",
        "size": 4,
        "value": 0,
        "overflow": false
      },
      {
        "id": 19,
        "name": "R_ERR response for host-to-device non-data FIS, non-CRC",
        "size": 4,
        "value": 0,
        "overflow": false
      },
      {
        "id": 36352,
        "name": "Vendor specific",
        "size": 4,
        "value": 0,
        "overflow": false
      },
      {
        "id": 36353,
        "name": "Vendor specific",
        "size": 4,
        "value": 0,
        "overflow": false
      },
      {
        "id": 36354,
        "name": "Vendor specific",
        "size": 4,
        "value": 0,
        "overflow": false
      },
      {
        "id": 36355,
        "name": "Vendor specific",
        "size": 4,
        "value": 0,
        "overflow": false
      },
      {
        "id": 36356,
        "name": "Vendor specific",
        "size": 4,
        "value": 0,
        "overflow": false
      },
      {
        "id": 36357,
        "name": "Vendor specific",
        "size": 4,
        "value": 0,
        "overflow": false
      },
      {
        "id": 36358,
        "name": "Vendor specific",
        "size": 4,
        "value": 0,
        "overflow": false
      },
      {
        "id": 36359,
        "name": "Vendor specific",
        "size": 4,
        "value": 0,
        "overflow": false
      },
      {
        "id": 36360,
        "name": "Vendor specific",
        "size": 4,
        "value": 0,
        "overflow": false
      },
      {
        "id": 36361,
        "name": "Vendor specific",
        "size": 4,
        "value": 0,
        "overflow": false
      },
      {
        "id": 36362,
        "name": "Vendor specific",
        "size": 4,
        "value": 0,
        "overflow": false
      },
      {
        "id": 36363,
        "name": "Vendor specific",
        "size": 4,
        "value": 0,
        "overflow": false
      },
      {
        "id": 36364,
        "name": "Vendor specific",
        "size": 4,
        "value": 0,
        "overflow": false
      },
      {
        "id": 36365,
        "name": "Vendor specific",
        "size": 4,
        "value": 0,
        "overflow": false
      },
      {
        "id": 36366,
        "name": "Vendor specific",
        "size": 4,
        "value": 0,
        "overflow": false
      },
      {
        "id": 36367,
        "name": "Vendor specific",
        "size": 4,
        "value": 0,
        "overflow": false
      },
      {
        "id": 36368,
        "name": "Vendor specific",
        "size": 4,
        "value": 0,
        "overflow": false
      },
      {
        "id": 36369,
        "name": "Vendor specific",
        "size": 4,
        "value": 0,
        "overflow": false
      }
    ],
    "reset": false
  }
}
