
  +--------------------------------------------------------------------------+
  | ReadSpeed: Hyper-accurate mass storage read-performance benchmark. rel 1 |
  |  Benchmarked values are in megabytes read per second at five locations.  |
  +--------------------------------------------------------------------------+

Driv Size  Drive Identity     Location:    0      25%     50%     75%     100
---- ----- ---------------------------- ------- ------- ------- ------- -------
 81  120GB CT120BX100SSD1                539.4   542.2   542.3   542.3   541.6 
---- ----- ---------------------------- ------- ------- ------- ------- -------
                                         367.1   530.8   533.9   533.3   531.3 
                                         444.6   540.1   541.2   540.6   540.3 
                                         542.4   542.4   542.4   542.3   536.8 
                                         542.3   542.3   542.4   542.4   537.8 
                                         542.3   542.3   542.3   542.3   542.4 
                                         542.3   542.3   542.4   542.4   542.3 
                                         542.4   542.4   542.4   542.4   535.5 
                                         542.3   542.4   542.3   542.3   538.4 
                                         542.5   542.3   542.4   542.4   542.3 
                                         542.3   542.4   542.4   542.3   542.4 
                                         542.3   542.4   542.3   542.5   538.7 
                                         542.5   542.3   542.3   542.4   542.5 
                                         542.4   542.2   542.3   542.3   542.4 
                                         542.4   542.4   542.4   542.5   542.4 
                                         542.2   542.3   542.4   542.3   542.3 
                                         542.4   542.4   542.4   542.3   536.5 
                                         542.4   542.3   542.4   542.3   542.3 
                                         542.4   542.4   542.4   542.4   542.5 
                                         542.4   542.3   542.3   542.3   542.4 
                                         542.3   542.4   542.3   542.3   542.3 
                                         542.3   542.3   542.3   542.4   542.3 
                                         542.4   542.4   542.5   542.4   536.8 
                                         542.4   542.4   542.4   542.4   542.3 
                                         542.3   542.4   542.3   542.3   542.4 
                                         542.4   542.3   542.4   542.4   540.7 
                                         542.3   542.4   542.3   542.3   542.3 
                                         542.4   542.3   542.3   542.3   541.2 
                                         542.3   542.4   542.4   542.4   542.4 
                                         542.4   542.4   542.4   542.3   542.2 
                                         542.3   542.3   542.3   542.4   542.5 
                                         542.4   542.4   542.4   542.3   542.4 
                                         542.3   542.4   542.3   542.4   542.4 
                                         542.4   542.4   542.4   542.4   542.4 
                                         542.3   542.3   542.3   542.4   529.8 
                                         542.4   542.4   542.3   542.3   542.3 
                                         542.4   542.3   542.4   542.3   542.2 
                                         542.3   542.3   542.4   542.4   542.4 
                                         542.4   542.4   542.4   542.3   542.3 
                                         542.3   542.3   542.4   542.3   542.3 
                                         542.3   542.3   542.3   542.4   539.5 
                                         542.3   542.3   542.4   542.4   542.4 
                                         542.4   542.3   542.3   542.4   542.3 
                                         542.4   542.4   542.3   542.3   542.2 
                                         542.3   542.4   542.4   542.3   542.4 
                                         542.4   542.4   542.3   542.2   542.3 
                                         542.4   542.3   542.3   542.5   542.4 
                                         542.3   542.4   542.3   542.3   542.4 
                                         542.4   542.4   542.4   542.3   542.3 
                                         542.3   542.4   542.3   542.4   542.4 
                                         542.5   542.3   542.3   542.3   542.4 
                                         542.3   542.3   542.3   542.4   537.7 
                                         542.4   542.4   542.4   542.4   542.3 
                                         542.3   542.4   542.3   542.4   536.8 
                                         542.4   542.3   542.4   542.4   542.4 
                                         542.3   542.4   542.4   542.3   540.5 
                                         542.4   542.3   542.4   542.3   542.5 
                                         542.3   542.4   542.4   542.3   541.6 
                                         542.4   542.3   542.4   542.4   542.4 
                                         542.4   542.4   542.3   542.4   542.3 
                                         542.3   542.3   542.4   542.3   542.4 
                                         542.4   542.4   542.3   542.4   542.3 
                                         542.4   542.3   542.3   542.4   542.4 
                                         542.3   542.4   542.3   542.3   538.1 
                                         542.3   542.3   542.4   542.3   542.3 
                                         542.3   542.3   542.4   542.2   542.4 
                                         542.4   542.4   542.4   542.5   542.4 
                                         542.4   542.4   542.2   542.2   539.0 
                                         542.4   542.3   542.4   542.4   540.2 
                                         542.3   542.3   542.3   542.4   542.4 
                                         542.3   542.4   542.4   542.4   542.3 
                                         542.4   542.3   542.4   542.2   542.4 
                                         542.4   542.3   542.4   542.5   542.4 
                                         542.4   542.4   542.4   542.4   542.3 
                                         542.4   542.4   542.3   542.4   542.4 
                                         542.4   542.3   542.4   542.3   542.3 
                                         542.4   542.3   542.4   542.4   542.4 
                                         542.4   542.4   542.4   542.4   542.3 
                                         542.3   542.4   542.3   542.3   542.4 
                                         542.3   542.3   542.3   542.3   542.4 
                                         542.3   542.4   542.3   542.4   542.4 
                                         542.4   542.4   542.3   542.3   542.3 
                                         542.4   542.4   542.4   542.3   542.3 
                                         542.4   542.2   542.3   542.3   542.4 
                                         542.3   542.5   542.4   542.4   542.4 
                                         542.3   542.3   542.4   542.3   542.3 
                                         542.3   542.4   542.4   542.3   542.3 
                                         542.4   542.3   542.4   542.4   542.4 
                                         542.4   542.3   542.4   542.3   542.4 
                                         542.3   542.4   542.3   542.4   542.4 
                                         542.3   542.3   542.4   542.3   542.4 
                                         542.4   542.3   542.4   542.3   542.4 
                                         542.3   542.4   542.3   542.4   542.3 
                                         542.4   542.4   542.4   542.4   542.3 
                                         542.3   542.4   542.4   542.3   542.4 
                                         542.4   542.2   542.4   542.3   542.4 
                                         542.4   542.5   542.4   542.3   542.4 
                                         542.3   542.4   542.3   542.3   542.3 
                                         542.3   542.3   542.5   542.4   542.4 
                                         542.3   542.3   542.4   542.4   542.3 
                                         542.4   542.4   542.4   542.4   542.4 
                                         542.3   542.3   542.3   542.4   542.3 
                                         542.4   542.4   542.4   542.3   542.3 
                                         542.4   542.3   542.3   542.4   542.3 
                                         542.3   542.4   542.3   542.4   542.4 
                                         542.3   542.3   542.3   542.4   542.3 
                                         542.3   542.3   542.4   542.4   542.3 
                                         542.3   542.3   542.3   542.3   542.3 
                                         542.5   542.4   542.4   542.4   542.4 
                                         542.3   542.3   542.3   542.3   542.4 
                                         542.3   542.4   542.4   542.4   542.4 
                                         542.3   542.3   542.4   542.3   542.3 
                                         542.4   542.3   542.4   542.3   542.3 
                                         542.4   542.4   542.4   542.3   542.3 
                                         542.4   542.4   542.4   542.4   542.4 
                                         542.4   542.3   542.4   542.3   542.3 
                                         542.3   542.4   542.2   542.4   542.4 
                                         542.3   542.3   542.4   542.3   542.4 
                                         542.4   542.4   542.4   542.4   542.3 
                                         542.4   542.3   542.4   542.3   542.4 
                                         542.3   542.4   542.3   542.4   542.3 
                                         542.3   542.3   542.3   542.3   542.4 
                                         542.4   542.4   542.3   542.4   542.3 
                                         542.4   542.4   542.3   542.3   542.4 
                                         542.4   542.3   542.4   542.4   542.4 
                                         542.4   542.4   542.4   542.4   542.3 
                                         542.4   542.3   542.3   542.4   542.3 
                                         542.3   542.4   542.4   542.4   542.4 
                                         542.3   542.3   542.4   542.4   542.3 


                  Benchmarked: Sunday, 2021-01-10 at 23:35
 -----------------------------------------------------------------------------
   See the ReadSpeed forums at forums.grc.com for help and community support.  

