smartctl 7.1 2019-12-30 r5022 [x86_64-linux-5.11.0-25-generic] (local build)
Copyright (C) 2002-19, Bruce Allen, Christian Franke, www.smartmontools.org

=== START OF INFORMATION SECTION ===
Model Family:     SK hynix SATA SSDs
Device Model:     SK hynix SC308 SATA 128GB
Serial Number:    EI74N047710104E4E
Firmware Version: 30001P10
User Capacity:    128,035,676,160 bytes [128 GB]
Sector Sizes:     512 bytes logical, 4096 bytes physical
Rotation Rate:    Solid State Device
Form Factor:      M.2
Device is:        In smartctl database [for details use: -P show]
ATA Version is:   ACS-2 (minor revision not indicated)
SATA Version is:  SATA 3.1, 6.0 Gb/s (current: 6.0 Gb/s)
Local Time is:    Mon Aug  9 17:58:35 2021 MDT
SMART support is: Available - device has SMART capability.
SMART support is: Enabled
AAM feature is:   Unavailable
APM level is:     254 (maximum performance)
Rd look-ahead is: Enabled
Write cache is:   Enabled
DSN feature is:   Unavailable
ATA Security is:  Disabled, NOT FROZEN [SEC1]
Wt Cache Reorder: Unavailable

=== START OF READ SMART DATA SECTION ===
SMART overall-health self-assessment test result: FAILED!
Drive failure expected in less than 24 hours. SAVE ALL DATA.
See vendor-specific Attribute list for failed Attributes.

General SMART Values:
Offline data collection status:  (0x02)	Offline data collection activity
					was completed without error.
					Auto Offline Data Collection: Disabled.
Self-test execution status:      (  32)	The self-test routine was interrupted
					by the host with a hard or soft reset.
Total time to complete Offline 
data collection: 		(  104) seconds.
Offline data collection
capabilities: 			 (0x19) SMART execute Offline immediate.
					No Auto Offline data collection support.
					Suspend Offline collection upon new
					command.
					Offline surface scan supported.
					Self-test supported.
					No Conveyance Self-test supported.
					No Selective Self-test supported.
SMART capabilities:            (0x0002)	Does not save SMART data before
					entering power-saving mode.
					Supports SMART auto save timer.
Error logging capability:        (0x01)	Error logging supported.
					General Purpose Logging supported.
Short self-test routine 
recommended polling time: 	 (   2) minutes.
Extended self-test routine
recommended polling time: 	 (  10) minutes.

SMART Attributes Data Structure revision number: 0
Vendor Specific SMART Attributes with Thresholds:
ID# ATTRIBUTE_NAME          FLAGS    VALUE WORST THRESH FAIL RAW_VALUE
  1 Raw_Read_Error_Rate     POSR--   166   166   006    -    0
  5 Retired_Block_Count     -O--CK   253   100   036    -    0
  9 Power_On_Hours          -O--CK   083   083   000    -    15450
 12 Power_Cycle_Count       -O--CK   100   100   020    -    536
100 Total_Erase_Count       -O--CK   100   100   000    -    36716284
171 Program_Fail_Count      -O--CK   253   253   000    -    0
172 Erase_Fail_Count        -O--CK   253   253   000    -    0
174 Unexpect_Power_Loss_Ct  ----CK   100   100   000    -    151
175 Program_Fail_Count_Chip -O--CK   253   253   000    -    0
176 Unused_Rsvd_Blk_Cnt_Tot -O--CK   253   253   000    -    0
177 Wear_Leveling_Count     -O--CK   001   001   000    -    1118
178 Used_Rsvd_Blk_Cnt_Chip  -O--CK   100   100   000    -    27
179 Used_Rsvd_Blk_Cnt_Tot   -O--CK   100   100   000    -    102
180 Erase_Fail_Count        -O--CK   100   100   000    -    2538
181 Non4k_Aligned_Access    -O--CK   253   253   000    -    0
182 Erase_Fail_Count_Total  -O--CK   253   253   000    -    0
183 SATA_Downshift_Count    -O--CK   253   253   000    -    0
187 Reported_Uncorrect      -O--CK   100   100   000    -    1
188 Command_Timeout         -O--CK   253   253   000    -    0
191 Unknown_SSD_Attribute   -O--CK   253   253   000    -    0
194 Temperature_Celsius     -O----   026   000   000    -    26 (Min/Max 0/54)
195 Hardware_ECC_Recovered  -O--CK   001   001   000    -    4294967295
199 UDMA_CRC_Error_Count    -O--CK   253   253   000    -    0
201 Percent_Lifetime_Remain -OSR--   100   100   000    -    0
204 Soft_ECC_Correction     -OSR--   100   001   000    -    3624
231 SSD_Life_Left           PO--CK   001   001   010    NOW  106
234 Unknown_SK_hynix_Attrib -O--CK   100   100   000    -    303019028864
241 Total_Writes_GiB        -O--CK   100   100   000    -    26851018548
242 Total_Reads_GiB         -O--CK   100   100   000    -    22136857359
250 Read_Retry_Count        -O--CK   099   099   000    -    44305185
                            ||||||_ K auto-keep
                            |||||__ C event count
                            ||||___ R error rate
                            |||____ S speed/performance
                            ||_____ O updated online
                            |______ P prefailure warning

General Purpose Log Directory Version 1
SMART           Log Directory Version 1 [multi-sector log support]
Address    Access  R/W   Size  Description
0x00       GPL,SL  R/O      1  Log Directory
0x01           SL  R/O      1  Summary SMART error log
0x02           SL  R/O      4  Comprehensive SMART error log
0x03       GPL     R/O      5  Ext. Comprehensive SMART error log
0x04       GPL,SL  R/O      8  Device Statistics log
0x06           SL  R/O      1  SMART self-test log
0x07       GPL     R/O      2  Extended self-test log
0x10       GPL     R/O      1  NCQ Command Error log
0x11       GPL     R/O      1  SATA Phy Event Counters log
0x30       GPL     R/O      8  IDENTIFY DEVICE data log
0x80-0x9f  GPL,SL  R/W     16  Host vendor specific log

SMART Extended Comprehensive Error Log Version: 1 (5 sectors)
Device Error Count: 10
	CR     = Command Register
	FEATR  = Features Register
	COUNT  = Count (was: Sector Count) Register
	LBA_48 = Upper bytes of LBA High/Mid/Low Registers ]  ATA-8
	LH     = LBA High (was: Cylinder High) Register    ]   LBA
	LM     = LBA Mid (was: Cylinder Low) Register      ] Register
	LL     = LBA Low (was: Sector Number) Register     ]
	DV     = Device (was: Device/Head) Register
	DC     = Device Control Register
	ER     = Error register
	ST     = Status register
Powered_Up_Time is measured from power on, and printed as
DDd+hh:mm:SS.sss where DD=days, hh=hours, mm=minutes,
SS=sec, and sss=millisec. It "wraps" after 49.710 days.

Error 10 [9] occurred at disk power-on lifetime: 15450 hours (643 days + 18 hours)
  When the command that caused the error occurred, the device was active or idle.

  After command completion occurred, registers were:
  ER -- ST COUNT  LBA_48  LH LM LL DV DC
  -- -- -- == -- == == == -- -- -- -- --
  10 -- 51 00 00 00 00 00 00 00 00 e0 00  Error: IDNF

  Commands leading to the command that caused the error were:
  CR FEATR COUNT  LBA_48  LH LM LL DV DC  Powered_Up_Time  Command/Feature_Name
  -- == -- == -- == == == -- -- -- -- --  ---------------  --------------------
  b0 00 d5 00 01 00 00 00 c2 4f e0 00 00     00:04:17.230  SMART READ LOG
  20 00 00 00 01 00 00 00 00 00 00 40 40     00:04:17.220  READ SECTOR(S)
  b0 00 d0 00 01 00 00 00 c2 4f 00 00 00     00:04:17.220  SMART READ DATA
  b0 00 d5 00 01 00 00 00 c2 4f 9a 00 00     00:04:17.220  SMART READ LOG
  ec 00 00 00 01 00 00 00 00 00 00 40 40     00:04:17.220  IDENTIFY DEVICE

Error 9 [8] occurred at disk power-on lifetime: 15450 hours (643 days + 18 hours)
  When the command that caused the error occurred, the device was active or idle.

  After command completion occurred, registers were:
  ER -- ST COUNT  LBA_48  LH LM LL DV DC
  -- -- -- == -- == == == -- -- -- -- --
  10 -- 51 00 00 00 00 00 00 00 00 e0 00  Error: IDNF

  Commands leading to the command that caused the error were:
  CR FEATR COUNT  LBA_48  LH LM LL DV DC  Powered_Up_Time  Command/Feature_Name
  -- == -- == -- == == == -- -- -- -- --  ---------------  --------------------
  b0 00 d5 00 01 00 00 00 c2 4f e0 00 00     00:00:43.510  SMART READ LOG
  20 00 00 00 01 00 00 00 00 00 00 40 40     00:00:43.500  READ SECTOR(S)
  b0 00 d0 00 01 00 00 00 c2 4f 00 00 00     00:00:43.500  SMART READ DATA
  b0 00 d5 00 01 00 00 00 c2 4f 9a 00 00     00:00:43.500  SMART READ LOG
  ec 00 00 00 01 00 00 00 00 00 00 40 40     00:00:43.500  IDENTIFY DEVICE

Error 8 [7] occurred at disk power-on lifetime: 14837 hours (618 days + 5 hours)
  When the command that caused the error occurred, the device was active or idle.

  After command completion occurred, registers were:
  ER -- ST COUNT  LBA_48  LH LM LL DV DC
  -- -- -- == -- == == == -- -- -- -- --
  10 -- 51 00 00 00 00 00 00 00 00 e0 00  Error: IDNF

  Commands leading to the command that caused the error were:
  CR FEATR COUNT  LBA_48  LH LM LL DV DC  Powered_Up_Time  Command/Feature_Name
  -- == -- == -- == == == -- -- -- -- --  ---------------  --------------------
  b0 00 d5 00 01 00 00 00 c2 4f e0 00 00     07:01:26.710  SMART READ LOG
  20 00 00 00 01 00 00 00 00 00 00 40 40     07:01:26.690  READ SECTOR(S)
  b0 00 d5 00 01 00 00 00 c2 4f 9a 00 00     07:01:26.220  SMART READ LOG
  ec 00 00 00 01 00 00 00 00 00 00 40 40     07:01:26.220  IDENTIFY DEVICE
  25 00 00 00 20 00 00 00 00 00 02 40 40     07:01:23.820  READ DMA EXT

Error 7 [6] occurred at disk power-on lifetime: 11980 hours (499 days + 4 hours)
  When the command that caused the error occurred, the device was active or idle.

  After command completion occurred, registers were:
  ER -- ST COUNT  LBA_48  LH LM LL DV DC
  -- -- -- == -- == == == -- -- -- -- --
  10 -- 51 00 00 00 00 00 00 00 00 e0 00  Error: IDNF

  Commands leading to the command that caused the error were:
  CR FEATR COUNT  LBA_48  LH LM LL DV DC  Powered_Up_Time  Command/Feature_Name
  -- == -- == -- == == == -- -- -- -- --  ---------------  --------------------
  b0 00 d5 00 01 00 00 00 c2 4f e0 00 00     05:41:11.600  SMART READ LOG
  20 00 00 00 01 00 00 00 00 00 00 40 40     05:41:11.600  READ SECTOR(S)
  b0 00 d5 00 01 00 00 00 c2 4f 9a 00 00     05:41:11.600  SMART READ LOG
  ec 00 00 00 01 00 00 00 00 00 00 40 40     05:41:11.600  IDENTIFY DEVICE
  25 00 00 00 20 00 00 00 00 00 02 40 40     05:41:09.180  READ DMA EXT

Error 6 [5] occurred at disk power-on lifetime: 10282 hours (428 days + 10 hours)
  When the command that caused the error occurred, the device was active or idle.

  After command completion occurred, registers were:
  ER -- ST COUNT  LBA_48  LH LM LL DV DC
  -- -- -- == -- == == == -- -- -- -- --
  10 -- 51 00 00 00 00 00 00 00 00 e0 00  Error: IDNF

  Commands leading to the command that caused the error were:
  CR FEATR COUNT  LBA_48  LH LM LL DV DC  Powered_Up_Time  Command/Feature_Name
  -- == -- == -- == == == -- -- -- -- --  ---------------  --------------------
  b0 00 d5 00 01 00 00 00 c2 4f e0 00 00     05:30:53.480  SMART READ LOG
  20 00 00 00 01 00 00 00 00 00 00 40 40     05:30:53.480  READ SECTOR(S)
  b0 00 d5 00 01 00 00 00 c2 4f 9a 00 00     05:30:53.480  SMART READ LOG
  ec 00 00 00 01 00 00 00 00 00 00 40 40     05:30:53.480  IDENTIFY DEVICE
  25 00 00 00 20 00 00 00 00 00 02 40 40     05:30:51.100  READ DMA EXT

Error 5 [4] occurred at disk power-on lifetime: 9322 hours (388 days + 10 hours)
  When the command that caused the error occurred, the device was active or idle.

  After command completion occurred, registers were:
  ER -- ST COUNT  LBA_48  LH LM LL DV DC
  -- -- -- == -- == == == -- -- -- -- --
  10 -- 51 00 00 00 00 00 00 00 00 e0 00  Error: IDNF

  Commands leading to the command that caused the error were:
  CR FEATR COUNT  LBA_48  LH LM LL DV DC  Powered_Up_Time  Command/Feature_Name
  -- == -- == -- == == == -- -- -- -- --  ---------------  --------------------
  b0 00 d5 00 01 00 00 00 c2 4f e0 00 00     00:01:06.070  SMART READ LOG
  20 00 00 00 01 00 00 00 00 00 00 40 40     00:01:06.070  READ SECTOR(S)
  b0 00 d5 00 01 00 00 00 c2 4f 9a 00 00     00:01:06.070  SMART READ LOG
  ec 00 00 00 01 00 00 00 00 00 00 40 40     00:01:06.070  IDENTIFY DEVICE
  ec 00 00 00 01 00 00 00 00 00 00 40 40     00:01:03.680  IDENTIFY DEVICE

Error 4 [3] occurred at disk power-on lifetime: 8338 hours (347 days + 10 hours)
  When the command that caused the error occurred, the device was active or idle.

  After command completion occurred, registers were:
  ER -- ST COUNT  LBA_48  LH LM LL DV DC
  -- -- -- == -- == == == -- -- -- -- --
  10 -- 51 00 00 00 00 00 00 00 00 e0 00  Error: IDNF

  Commands leading to the command that caused the error were:
  CR FEATR COUNT  LBA_48  LH LM LL DV DC  Powered_Up_Time  Command/Feature_Name
  -- == -- == -- == == == -- -- -- -- --  ---------------  --------------------
  b0 00 d5 00 01 00 00 00 c2 4f e0 00 00     00:00:25.000  SMART READ LOG
  20 00 00 00 01 00 00 00 00 00 00 40 40     00:00:24.980  READ SECTOR(S)
  b0 00 d5 00 01 00 00 00 c2 4f 9a 00 00     00:00:24.440  SMART READ LOG
  ec 00 00 00 01 00 00 00 00 00 00 40 40     00:00:24.440  IDENTIFY DEVICE
  ec 00 00 00 01 00 00 00 00 00 00 40 40     00:00:22.040  IDENTIFY DEVICE

Error 3 [2] occurred at disk power-on lifetime: 8338 hours (347 days + 10 hours)
  When the command that caused the error occurred, the device was active or idle.

  After command completion occurred, registers were:
  ER -- ST COUNT  LBA_48  LH LM LL DV DC
  -- -- -- == -- == == == -- -- -- -- --
  10 -- 51 00 00 00 00 00 00 00 00 e0 00  Error: IDNF

  Commands leading to the command that caused the error were:
  CR FEATR COUNT  LBA_48  LH LM LL DV DC  Powered_Up_Time  Command/Feature_Name
  -- == -- == -- == == == -- -- -- -- --  ---------------  --------------------
  b0 00 d5 00 01 00 00 00 c2 4f e0 00 00     00:00:19.190  SMART READ LOG
  20 00 00 00 01 00 00 00 00 00 00 40 40     00:00:19.190  READ SECTOR(S)
  b0 00 d5 00 01 00 00 00 c2 4f 9a 00 00     00:00:19.190  SMART READ LOG
  ec 00 00 00 01 00 00 00 00 00 00 40 40     00:00:19.190  IDENTIFY DEVICE
  ec 00 00 00 01 00 00 00 00 00 00 40 40     00:00:16.790  IDENTIFY DEVICE

SMART Extended Self-test Log Version: 1 (2 sectors)
Num  Test_Description    Status                  Remaining  LifeTime(hours)  LBA_of_first_error
# 1  Short offline       Completed without error       00%      9322         -
# 2  Short offline       Completed without error       00%      8338         -
# 3  Extended offline    Completed without error       00%      8335         -
# 4  Short offline       Completed without error       00%         1         -

Selective Self-tests/Logging not supported

SCT Commands not supported

Device Statistics (GP Log 0x04)
Page  Offset Size        Value Flags Description
0x01  =====  =               =  ===  == General Statistics (empty) ==
0x04  =====  =               =  ===  == General Errors Statistics (empty) ==
0x05  =====  =               =  ===  == Temperature Statistics (empty) ==
0x06  =====  =               =  ===  == Transport Statistics (empty) ==
0x07  =====  =               =  ===  == Solid State Device Statistics (empty) ==
                                |||_ C monitored condition met
                                ||__ D supports DSN
                                |___ N normalized value

Pending Defects log (GP Log 0x0c) not supported

SATA Phy Event Counters (GP Log 0x11)
ID      Size     Value  Description
0x0001  2            0  Command failed due to ICRC error
0x000a  2            1  Device-to-host register FISes sent due to a COMRESET

