{
  "json_format_version": [
    1,
    0
  ],
  "smartctl": {
    "version": [
      7,
      1
    ],
    "svn_revision": "5022",
    "platform_info": "x86_64-linux-5.8.0-50-generic",
    "build_info": "(local build)",
    "argv": [
      "smartctl",
      "-x",
      "-j",
      "/dev/sdc"
    ],
    "exit_status": 4
  },
  "device": {
    "name": "/dev/sdc",
    "info_name": "/dev/sdc [SAT]",
    "type": "sat",
    "protocol": "ATA"
  },
  "model_name": "EDGE Boost Pro SSD",
  "serial_number": "ED150721AS2006797",
  "wwn": {
    "naa": 5,
    "oui": 8947988,
    "id": 4295232081
  },
  "firmware_version": "603ABBF0",
  "user_capacity": {
    "blocks": 234441648,
    "bytes": 120034123776
  },
  "logical_block_size": 512,
  "physical_block_size": 512,
  "rotation_rate": 0,
  "in_smartctl_database": false,
  "ata_version": {
    "string": "ATA8-ACS, ACS-2 T13/2015-D revision 3",
    "major_value": 508,
    "minor_value": 272
  },
  "sata_version": {
    "string": "SATA 3.0",
    "value": 63
  },
  "interface_speed": {
    "max": {
      "sata_value": 14,
      "string": "6.0 Gb/s",
      "units_per_second": 60,
      "bits_per_unit": 100000000
    },
    "current": {
      "sata_value": 3,
      "string": "6.0 Gb/s",
      "units_per_second": 60,
      "bits_per_unit": 100000000
    }
  },
  "local_time": {
    "time_t": 1619689110,
    "asctime": "Thu Apr 29 03:38:30 2021 MDT"
  },
  "ata_apm": {
    "enabled": true,
    "level": 254,
    "string": "maximum performance",
    "max_performance": true,
    "min_power": false,
    "with_standby": false
  },
  "read_lookahead": {
    "enabled": false
  },
  "write_cache": {
    "enabled": true
  },
  "ata_security": {
    "state": 33,
    "string": "Disabled, NOT FROZEN [SEC1]",
    "enabled": false,
    "frozen": false
  },
  "smart_status": {
    "passed": true
  },
  "ata_smart_data": {
    "offline_data_collection": {
      "status": {
        "value": 130,
        "string": "was completed without error",
        "passed": true
      },
      "completion_seconds": 0
    },
    "self_test": {
      "status": {
        "value": 0,
        "string": "completed without error",
        "passed": true
      },
      "polling_minutes": {
        "short": 1,
        "extended": 48,
        "conveyance": 2
      }
    },
    "capabilities": {
      "values": [
        125,
        3
      ],
      "exec_offline_immediate_supported": true,
      "offline_is_aborted_upon_new_cmd": true,
      "offline_surface_scan_supported": true,
      "self_tests_supported": true,
      "conveyance_self_test_supported": true,
      "selective_self_test_supported": true,
      "attribute_autosave_enabled": true,
      "error_logging_supported": true,
      "gp_logging_supported": true
    }
  },
  "ata_sct_capabilities": {
    "value": 37,
    "error_recovery_control_supported": false,
    "feature_control_supported": false,
    "data_table_supported": true
  },
  "ata_smart_attributes": {
    "revision": 10,
    "table": [
      {
        "id": 1,
        "name": "Raw_Read_Error_Rate",
        "value": 120,
        "worst": 120,
        "thresh": 50,
        "when_failed": "",
        "flags": {
          "value": 50,
          "string": "-O--CK ",
          "prefailure": false,
          "updated_online": true,
          "performance": false,
          "error_rate": false,
          "event_count": true,
          "auto_keep": true
        },
        "raw": {
          "value": 0,
          "string": "0"
        }
      },
      {
        "id": 5,
        "name": "Reallocated_Sector_Ct",
        "value": 100,
        "worst": 100,
        "thresh": 3,
        "when_failed": "",
        "flags": {
          "value": 51,
          "string": "PO--CK ",
          "prefailure": true,
          "updated_online": true,
          "performance": false,
          "error_rate": false,
          "event_count": true,
          "auto_keep": true
        },
        "raw": {
          "value": 0,
          "string": "0"
        }
      },
      {
        "id": 9,
        "name": "Power_On_Hours",
        "value": 100,
        "worst": 100,
        "thresh": 0,
        "when_failed": "",
        "flags": {
          "value": 50,
          "string": "-O--CK ",
          "prefailure": false,
          "updated_online": true,
          "performance": false,
          "error_rate": false,
          "event_count": true,
          "auto_keep": true
        },
        "raw": {
          "value": 111076444209152,
          "string": "0 (101 6 0)"
        }
      },
      {
        "id": 12,
        "name": "Power_Cycle_Count",
        "value": 100,
        "worst": 100,
        "thresh": 0,
        "when_failed": "",
        "flags": {
          "value": 50,
          "string": "-O--CK ",
          "prefailure": false,
          "updated_online": true,
          "performance": false,
          "error_rate": false,
          "event_count": true,
          "auto_keep": true
        },
        "raw": {
          "value": 5,
          "string": "5"
        }
      },
      {
        "id": 171,
        "name": "Unknown_Attribute",
        "value": 100,
        "worst": 100,
        "thresh": 0,
        "when_failed": "",
        "flags": {
          "value": 10,
          "string": "-O-R-- ",
          "prefailure": false,
          "updated_online": true,
          "performance": false,
          "error_rate": true,
          "event_count": false,
          "auto_keep": false
        },
        "raw": {
          "value": 0,
          "string": "0"
        }
      },
      {
        "id": 172,
        "name": "Unknown_Attribute",
        "value": 100,
        "worst": 100,
        "thresh": 0,
        "when_failed": "",
        "flags": {
          "value": 50,
          "string": "-O--CK ",
          "prefailure": false,
          "updated_online": true,
          "performance": false,
          "error_rate": false,
          "event_count": true,
          "auto_keep": true
        },
        "raw": {
          "value": 0,
          "string": "0"
        }
      },
      {
        "id": 174,
        "name": "Unknown_Attribute",
        "value": 0,
        "worst": 0,
        "thresh": 0,
        "when_failed": "",
        "flags": {
          "value": 48,
          "string": "----CK ",
          "prefailure": false,
          "updated_online": false,
          "performance": false,
          "error_rate": false,
          "event_count": true,
          "auto_keep": true
        },
        "raw": {
          "value": 5,
          "string": "5"
        }
      },
      {
        "id": 177,
        "name": "Wear_Leveling_Count",
        "value": 0,
        "worst": 0,
        "thresh": 0,
        "when_failed": "",
        "flags": {
          "value": 0,
          "string": "------ ",
          "prefailure": false,
          "updated_online": false,
          "performance": false,
          "error_rate": false,
          "event_count": false,
          "auto_keep": false
        },
        "raw": {
          "value": 1,
          "string": "1"
        }
      },
      {
        "id": 181,
        "name": "Program_Fail_Cnt_Total",
        "value": 100,
        "worst": 100,
        "thresh": 0,
        "when_failed": "",
        "flags": {
          "value": 10,
          "string": "-O-R-- ",
          "prefailure": false,
          "updated_online": true,
          "performance": false,
          "error_rate": true,
          "event_count": false,
          "auto_keep": false
        },
        "raw": {
          "value": 0,
          "string": "0"
        }
      },
      {
        "id": 182,
        "name": "Erase_Fail_Count_Total",
        "value": 100,
        "worst": 100,
        "thresh": 0,
        "when_failed": "",
        "flags": {
          "value": 50,
          "string": "-O--CK ",
          "prefailure": false,
          "updated_online": true,
          "performance": false,
          "error_rate": false,
          "event_count": true,
          "auto_keep": true
        },
        "raw": {
          "value": 0,
          "string": "0"
        }
      },
      {
        "id": 187,
        "name": "Reported_Uncorrect",
        "value": 100,
        "worst": 100,
        "thresh": 0,
        "when_failed": "",
        "flags": {
          "value": 18,
          "string": "-O--C- ",
          "prefailure": false,
          "updated_online": true,
          "performance": false,
          "error_rate": false,
          "event_count": true,
          "auto_keep": false
        },
        "raw": {
          "value": 0,
          "string": "0"
        }
      },
      {
        "id": 190,
        "name": "Airflow_Temperature_Cel",
        "value": 30,
        "worst": 61,
        "thresh": 0,
        "when_failed": "",
        "flags": {
          "value": 0,
          "string": "------ ",
          "prefailure": false,
          "updated_online": false,
          "performance": false,
          "error_rate": false,
          "event_count": false,
          "auto_keep": false
        },
        "raw": {
          "value": 1013616279582,
          "string": "30 (Min/Max -20/61)"
        }
      },
      {
        "id": 194,
        "name": "Temperature_Celsius",
        "value": 30,
        "worst": 61,
        "thresh": 0,
        "when_failed": "",
        "flags": {
          "value": 34,
          "string": "-O---K ",
          "prefailure": false,
          "updated_online": true,
          "performance": false,
          "error_rate": false,
          "event_count": false,
          "auto_keep": true
        },
        "raw": {
          "value": 1013616279582,
          "string": "30 (Min/Max -20/61)"
        }
      },
      {
        "id": 195,
        "name": "Hardware_ECC_Recovered",
        "value": 120,
        "worst": 120,
        "thresh": 0,
        "when_failed": "",
        "flags": {
          "value": 28,
          "string": "--SRC- ",
          "prefailure": false,
          "updated_online": false,
          "performance": true,
          "error_rate": true,
          "event_count": true,
          "auto_keep": false
        },
        "raw": {
          "value": 0,
          "string": "0"
        }
      },
      {
        "id": 196,
        "name": "Reallocated_Event_Count",
        "value": 100,
        "worst": 100,
        "thresh": 3,
        "when_failed": "",
        "flags": {
          "value": 51,
          "string": "PO--CK ",
          "prefailure": true,
          "updated_online": true,
          "performance": false,
          "error_rate": false,
          "event_count": true,
          "auto_keep": true
        },
        "raw": {
          "value": 0,
          "string": "0"
        }
      },
      {
        "id": 201,
        "name": "Unknown_SSD_Attribute",
        "value": 120,
        "worst": 120,
        "thresh": 0,
        "when_failed": "",
        "flags": {
          "value": 28,
          "string": "--SRC- ",
          "prefailure": false,
          "updated_online": false,
          "performance": true,
          "error_rate": true,
          "event_count": true,
          "auto_keep": false
        },
        "raw": {
          "value": 0,
          "string": "0"
        }
      },
      {
        "id": 204,
        "name": "Soft_ECC_Correction",
        "value": 120,
        "worst": 120,
        "thresh": 0,
        "when_failed": "",
        "flags": {
          "value": 28,
          "string": "--SRC- ",
          "prefailure": false,
          "updated_online": false,
          "performance": true,
          "error_rate": true,
          "event_count": true,
          "auto_keep": false
        },
        "raw": {
          "value": 0,
          "string": "0"
        }
      },
      {
        "id": 230,
        "name": "Unknown_SSD_Attribute",
        "value": 100,
        "worst": 100,
        "thresh": 0,
        "when_failed": "",
        "flags": {
          "value": 19,
          "string": "PO--C- ",
          "prefailure": true,
          "updated_online": true,
          "performance": false,
          "error_rate": false,
          "event_count": true,
          "auto_keep": false
        },
        "raw": {
          "value": 100,
          "string": "100"
        }
      },
      {
        "id": 231,
        "name": "Unknown_SSD_Attribute",
        "value": 81,
        "worst": 81,
        "thresh": 10,
        "when_failed": "",
        "flags": {
          "value": 19,
          "string": "PO--C- ",
          "prefailure": true,
          "updated_online": true,
          "performance": false,
          "error_rate": false,
          "event_count": true,
          "auto_keep": false
        },
        "raw": {
          "value": 12884901888,
          "string": "12884901888"
        }
      },
      {
        "id": 233,
        "name": "Media_Wearout_Indicator",
        "value": 0,
        "worst": 0,
        "thresh": 0,
        "when_failed": "",
        "flags": {
          "value": 50,
          "string": "-O--CK ",
          "prefailure": false,
          "updated_online": true,
          "performance": false,
          "error_rate": false,
          "event_count": true,
          "auto_keep": true
        },
        "raw": {
          "value": 4294967209,
          "string": "4294967209"
        }
      },
      {
        "id": 234,
        "name": "Unknown_Attribute",
        "value": 0,
        "worst": 0,
        "thresh": 0,
        "when_failed": "",
        "flags": {
          "value": 50,
          "string": "-O--CK ",
          "prefailure": false,
          "updated_online": true,
          "performance": false,
          "error_rate": false,
          "event_count": true,
          "auto_keep": true
        },
        "raw": {
          "value": 23,
          "string": "23"
        }
      },
      {
        "id": 241,
        "name": "Total_LBAs_Written",
        "value": 0,
        "worst": 0,
        "thresh": 0,
        "when_failed": "",
        "flags": {
          "value": 50,
          "string": "-O--CK ",
          "prefailure": false,
          "updated_online": true,
          "performance": false,
          "error_rate": false,
          "event_count": true,
          "auto_keep": true
        },
        "raw": {
          "value": 23,
          "string": "23"
        }
      },
      {
        "id": 242,
        "name": "Total_LBAs_Read",
        "value": 0,
        "worst": 0,
        "thresh": 0,
        "when_failed": "",
        "flags": {
          "value": 50,
          "string": "-O--CK ",
          "prefailure": false,
          "updated_online": true,
          "performance": false,
          "error_rate": false,
          "event_count": true,
          "auto_keep": true
        },
        "raw": {
          "value": 27,
          "string": "27"
        }
      }
    ]
  },
  "power_on_time": {
    "hours": 0
  },
  "power_cycle_count": 5,
  "temperature": {
    "current": 30,
    "power_cycle_min": -20,
    "power_cycle_max": 61,
    "lifetime_min": 26,
    "lifetime_max": 36,
    "op_limit_min": 0,
    "op_limit_max": 65,
    "limit_min": 0,
    "limit_max": 70,
    "lifetime_over_limit_minutes": 0,
    "lifetime_under_limit_minutes": 0
  },
  "ata_log_directory": {
    "gp_dir_version": 1,
    "smart_dir_version": 1,
    "smart_dir_multi_sector": true,
    "table": [
      {
        "address": 0,
        "name": "Log Directory",
        "read": true,
        "write": false,
        "gp_sectors": 1,
        "smart_sectors": 1
      },
      {
        "address": 4,
        "name": "Device Statistics log",
        "read": true,
        "write": false,
        "gp_sectors": 16,
        "smart_sectors": 16
      },
      {
        "address": 6,
        "name": "SMART self-test log",
        "read": true,
        "write": false,
        "smart_sectors": 1
      },
      {
        "address": 7,
        "name": "Extended self-test log",
        "read": true,
        "write": false,
        "gp_sectors": 1
      },
      {
        "address": 9,
        "name": "Selective self-test log",
        "read": true,
        "write": true,
        "smart_sectors": 1
      },
      {
        "address": 16,
        "name": "NCQ Command Error log",
        "read": true,
        "write": false,
        "gp_sectors": 1
      },
      {
        "address": 17,
        "name": "SATA Phy Event Counters log",
        "read": true,
        "write": false,
        "gp_sectors": 1
      },
      {
        "address": 128,
        "name": "Host vendor specific log",
        "read": true,
        "write": true,
        "gp_sectors": 16,
        "smart_sectors": 16
      },
      {
        "address": 129,
        "name": "Host vendor specific log",
        "read": true,
        "write": true,
        "gp_sectors": 16,
        "smart_sectors": 16
      },
      {
        "address": 130,
        "name": "Host vendor specific log",
        "read": true,
        "write": true,
        "gp_sectors": 16,
        "smart_sectors": 16
      },
      {
        "address": 131,
        "name": "Host vendor specific log",
        "read": true,
        "write": true,
        "gp_sectors": 16,
        "smart_sectors": 16
      },
      {
        "address": 132,
        "name": "Host vendor specific log",
        "read": true,
        "write": true,
        "gp_sectors": 16,
        "smart_sectors": 16
      },
      {
        "address": 133,
        "name": "Host vendor specific log",
        "read": true,
        "write": true,
        "gp_sectors": 16,
        "smart_sectors": 16
      },
      {
        "address": 134,
        "name": "Host vendor specific log",
        "read": true,
        "write": true,
        "gp_sectors": 16,
        "smart_sectors": 16
      },
      {
        "address": 135,
        "name": "Host vendor specific log",
        "read": true,
        "write": true,
        "gp_sectors": 16,
        "smart_sectors": 16
      },
      {
        "address": 136,
        "name": "Host vendor specific log",
        "read": true,
        "write": true,
        "gp_sectors": 16,
        "smart_sectors": 16
      },
      {
        "address": 137,
        "name": "Host vendor specific log",
        "read": true,
        "write": true,
        "gp_sectors": 16,
        "smart_sectors": 16
      },
      {
        "address": 138,
        "name": "Host vendor specific log",
        "read": true,
        "write": true,
        "gp_sectors": 16,
        "smart_sectors": 16
      },
      {
        "address": 139,
        "name": "Host vendor specific log",
        "read": true,
        "write": true,
        "gp_sectors": 16,
        "smart_sectors": 16
      },
      {
        "address": 140,
        "name": "Host vendor specific log",
        "read": true,
        "write": true,
        "gp_sectors": 16,
        "smart_sectors": 16
      },
      {
        "address": 141,
        "name": "Host vendor specific log",
        "read": true,
        "write": true,
        "gp_sectors": 16,
        "smart_sectors": 16
      },
      {
        "address": 142,
        "name": "Host vendor specific log",
        "read": true,
        "write": true,
        "gp_sectors": 16,
        "smart_sectors": 16
      },
      {
        "address": 143,
        "name": "Host vendor specific log",
        "read": true,
        "write": true,
        "gp_sectors": 16,
        "smart_sectors": 16
      },
      {
        "address": 144,
        "name": "Host vendor specific log",
        "read": true,
        "write": true,
        "gp_sectors": 16,
        "smart_sectors": 16
      },
      {
        "address": 145,
        "name": "Host vendor specific log",
        "read": true,
        "write": true,
        "gp_sectors": 16,
        "smart_sectors": 16
      },
      {
        "address": 146,
        "name": "Host vendor specific log",
        "read": true,
        "write": true,
        "gp_sectors": 16,
        "smart_sectors": 16
      },
      {
        "address": 147,
        "name": "Host vendor specific log",
        "read": true,
        "write": true,
        "gp_sectors": 16,
        "smart_sectors": 16
      },
      {
        "address": 148,
        "name": "Host vendor specific log",
        "read": true,
        "write": true,
        "gp_sectors": 16,
        "smart_sectors": 16
      },
      {
        "address": 149,
        "name": "Host vendor specific log",
        "read": true,
        "write": true,
        "gp_sectors": 16,
        "smart_sectors": 16
      },
      {
        "address": 150,
        "name": "Host vendor specific log",
        "read": true,
        "write": true,
        "gp_sectors": 16,
        "smart_sectors": 16
      },
      {
        "address": 151,
        "name": "Host vendor specific log",
        "read": true,
        "write": true,
        "gp_sectors": 16,
        "smart_sectors": 16
      },
      {
        "address": 152,
        "name": "Host vendor specific log",
        "read": true,
        "write": true,
        "gp_sectors": 16,
        "smart_sectors": 16
      },
      {
        "address": 153,
        "name": "Host vendor specific log",
        "read": true,
        "write": true,
        "gp_sectors": 16,
        "smart_sectors": 16
      },
      {
        "address": 154,
        "name": "Host vendor specific log",
        "read": true,
        "write": true,
        "gp_sectors": 16,
        "smart_sectors": 16
      },
      {
        "address": 155,
        "name": "Host vendor specific log",
        "read": true,
        "write": true,
        "gp_sectors": 16,
        "smart_sectors": 16
      },
      {
        "address": 156,
        "name": "Host vendor specific log",
        "read": true,
        "write": true,
        "gp_sectors": 16,
        "smart_sectors": 16
      },
      {
        "address": 157,
        "name": "Host vendor specific log",
        "read": true,
        "write": true,
        "gp_sectors": 16,
        "smart_sectors": 16
      },
      {
        "address": 158,
        "name": "Host vendor specific log",
        "read": true,
        "write": true,
        "gp_sectors": 16,
        "smart_sectors": 16
      },
      {
        "address": 159,
        "name": "Host vendor specific log",
        "read": true,
        "write": true,
        "gp_sectors": 16,
        "smart_sectors": 16
      },
      {
        "address": 183,
        "name": "Device vendor specific log",
        "gp_sectors": 16,
        "smart_sectors": 16
      },
      {
        "address": 224,
        "name": "SCT Command/Status",
        "read": true,
        "write": true,
        "gp_sectors": 1,
        "smart_sectors": 1
      },
      {
        "address": 225,
        "name": "SCT Data Transfer",
        "read": true,
        "write": true,
        "gp_sectors": 1,
        "smart_sectors": 1
      }
    ]
  },
  "ata_smart_self_test_log": {
    "extended": {
      "revision": 1,
      "sectors": 1,
      "table": [
        {
          "type": {
            "value": 129,
            "string": "Short captive"
          },
          "status": {
            "value": 0,
            "string": "Completed without error",
            "passed": true
          },
          "lifetime_hours": 0
        }
      ],
      "count": 1,
      "error_count_total": 0,
      "error_count_outdated": 0
    }
  },
  "ata_smart_selective_self_test_log": {
    "revision": 1,
    "table": [
      {
        "lba_min": 0,
        "lba_max": 0,
        "status": {
          "value": 0,
          "string": "Not_testing"
        }
      },
      {
        "lba_min": 0,
        "lba_max": 0,
        "status": {
          "value": 0,
          "string": "Not_testing"
        }
      },
      {
        "lba_min": 0,
        "lba_max": 0,
        "status": {
          "value": 0,
          "string": "Not_testing"
        }
      },
      {
        "lba_min": 0,
        "lba_max": 0,
        "status": {
          "value": 0,
          "string": "Not_testing"
        }
      },
      {
        "lba_min": 0,
        "lba_max": 0,
        "status": {
          "value": 0,
          "string": "Not_testing"
        }
      }
    ],
    "flags": {
      "value": 0,
      "remainder_scan_enabled": false
    },
    "power_up_scan_resume_minutes": 0
  },
  "ata_sct_status": {
    "format_version": 3,
    "sct_version": 0,
    "device_state": {
      "value": 0,
      "string": "Active"
    },
    "temperature": {
      "current": 30,
      "power_cycle_min": -20,
      "power_cycle_max": 61,
      "lifetime_min": -20,
      "lifetime_max": 61,
      "under_limit_count": 0,
      "over_limit_count": 0
    }
  },
  "ata_sct_temperature_history": {
    "version": 2,
    "sampling_period_minutes": 1,
    "logging_interval_minutes": 10,
    "temperature": {
      "op_limit_min": 0,
      "op_limit_max": 65,
      "limit_min": 0,
      "limit_max": 70
    },
    "size": 478,
    "index": 14,
    "table": [
      null,
      null,
      null,
      null,
      null,
      null,
      null,
      null,
      null,
      null,
      null,
      null,
      null,
      null,
      null,
      null,
      null,
      null,
      null,
      null,
      null,
      null,
      null,
      null,
      null,
      null,
      null,
      null,
      null,
      null,
      null,
      null,
      null,
      null,
      null,
      null,
      null,
      null,
      null,
      null,
      null,
      null,
      null,
      null,
      null,
      null,
      null,
      null,
      null,
      null,
      null,
      null,
      null,
      null,
      null,
      null,
      null,
      null,
      null,
      null,
      null,
      null,
      null,
      null,
      null,
      null,
      null,
      null,
      null,
      null,
      null,
      null,
      null,
      null,
      null,
      null,
      null,
      null,
      null,
      null,
      null,
      null,
      null,
      null,
      null,
      null,
      null,
      null,
      null,
      null,
      null,
      null,
      null,
      null,
      null,
      null,
      null,
      null,
      null,
      null,
      null,
      null,
      null,
      null,
      null,
      null,
      null,
      null,
      null,
      null,
      null,
      null,
      null,
      null,
      null,
      null,
      null,
      null,
      null,
      null,
      null,
      null,
      null,
      null,
      null,
      null,
      null,
      null,
      null,
      null,
      null,
      null,
      null,
      null,
      null,
      null,
      null,
      null,
      null,
      null,
      null,
      null,
      null,
      null,
      null,
      null,
      null,
      null,
      null,
      null,
      null,
      null,
      null,
      null,
      null,
      null,
      null,
      null,
      null,
      null,
      null,
      null,
      null,
      null,
      null,
      null,
      null,
      null,
      null,
      null,
      null,
      null,
      null,
      null,
      null,
      null,
      null,
      null,
      null,
      null,
      null,
      null,
      null,
      null,
      null,
      null,
      null,
      null,
      null,
      null,
      null,
      null,
      null,
      null,
      null,
      null,
      null,
      null,
      null,
      null,
      null,
      null,
      null,
      null,
      null,
      null,
      null,
      null,
      null,
      null,
      null,
      null,
      null,
      null,
      null,
      null,
      null,
      null,
      null,
      null,
      null,
      null,
      null,
      null,
      null,
      null,
      null,
      null,
      null,
      null,
      null,
      null,
      null,
      null,
      null,
      null,
      null,
      null,
      null,
      null,
      null,
      null,
      null,
      null,
      null,
      null,
      null,
      null,
      null,
      null,
      null,
      null,
      null,
      null,
      null,
      null,
      null,
      null,
      null,
      null,
      null,
      null,
      null,
      null,
      null,
      null,
      null,
      null,
      null,
      null,
      null,
      null,
      null,
      null,
      null,
      null,
      null,
      null,
      null,
      null,
      null,
      null,
      null,
      null,
      null,
      null,
      null,
      null,
      null,
      null,
      null,
      null,
      null,
      null,
      null,
      null,
      null,
      null,
      null,
      null,
      null,
      null,
      null,
      null,
      null,
      null,
      null,
      null,
      null,
      null,
      null,
      null,
      null,
      null,
      null,
      null,
      null,
      null,
      null,
      null,
      null,
      null,
      null,
      null,
      null,
      null,
      null,
      null,
      null,
      null,
      null,
      null,
      null,
      null,
      null,
      null,
      null,
      null,
      null,
      null,
      null,
      null,
      null,
      null,
      null,
      null,
      null,
      null,
      null,
      null,
      null,
      null,
      null,
      null,
      null,
      null,
      null,
      null,
      null,
      null,
      null,
      null,
      null,
      null,
      null,
      null,
      null,
      null,
      null,
      null,
      null,
      null,
      null,
      null,
      null,
      null,
      null,
      null,
      null,
      null,
      null,
      null,
      null,
      null,
      null,
      null,
      null,
      null,
      null,
      null,
      null,
      null,
      null,
      null,
      null,
      null,
      null,
      null,
      null,
      null,
      null,
      null,
      null,
      null,
      null,
      null,
      null,
      null,
      null,
      null,
      null,
      null,
      null,
      null,
      null,
      null,
      null,
      null,
      null,
      null,
      null,
      null,
      null,
      null,
      null,
      null,
      null,
      null,
      null,
      null,
      null,
      null,
      null,
      null,
      null,
      null,
      null,
      null,
      null,
      null,
      null,
      null,
      null,
      null,
      null,
      null,
      null,
      null,
      null,
      null,
      null,
      null,
      null,
      null,
      null,
      null,
      null,
      null,
      null,
      null,
      null,
      null,
      null,
      null,
      35,
      null,
      26,
      null,
      null,
      30,
      null,
      34,
      36,
      null,
      null,
      null,
      32
    ]
  },
  "ata_device_statistics": {
    "pages": [
      {
        "number": 1,
        "name": "General Statistics",
        "revision": 2,
        "table": [
          {
            "offset": 8,
            "name": "Lifetime Power-On Resets",
            "size": 4,
            "value": 5,
            "flags": {
              "value": 192,
              "string": "V--- ",
              "valid": true,
              "normalized": false,
              "supports_dsn": false,
              "monitored_condition_met": false
            }
          },
          {
            "offset": 16,
            "name": "Power-on Hours",
            "size": 4,
            "value": 0,
            "flags": {
              "value": 192,
              "string": "V--- ",
              "valid": true,
              "normalized": false,
              "supports_dsn": false,
              "monitored_condition_met": false
            }
          },
          {
            "offset": 24,
            "name": "Logical Sectors Written",
            "size": 6,
            "value": 50326482,
            "flags": {
              "value": 192,
              "string": "V--- ",
              "valid": true,
              "normalized": false,
              "supports_dsn": false,
              "monitored_condition_met": false
            }
          },
          {
            "offset": 40,
            "name": "Logical Sectors Read",
            "size": 6,
            "value": 58075399,
            "flags": {
              "value": 192,
              "string": "V--- ",
              "valid": true,
              "normalized": false,
              "supports_dsn": false,
              "monitored_condition_met": false
            }
          }
        ]
      },
      {
        "number": 4,
        "name": "General Errors Statistics",
        "revision": 1,
        "table": [
          {
            "offset": 8,
            "name": "Number of Reported Uncorrectable Errors",
            "size": 4,
            "value": 0,
            "flags": {
              "value": 192,
              "string": "V--- ",
              "valid": true,
              "normalized": false,
              "supports_dsn": false,
              "monitored_condition_met": false
            }
          },
          {
            "offset": 16,
            "name": "Resets Between Cmd Acceptance and Completion",
            "size": 4,
            "value": 0,
            "flags": {
              "value": 192,
              "string": "V--- ",
              "valid": true,
              "normalized": false,
              "supports_dsn": false,
              "monitored_condition_met": false
            }
          }
        ]
      },
      {
        "number": 5,
        "name": "Temperature Statistics",
        "revision": 1,
        "table": [
          {
            "offset": 8,
            "name": "Current Temperature",
            "size": 1,
            "value": 30,
            "flags": {
              "value": 192,
              "string": "V--- ",
              "valid": true,
              "normalized": false,
              "supports_dsn": false,
              "monitored_condition_met": false
            }
          },
          {
            "offset": 16,
            "name": "Average Short Term Temperature",
            "size": 1,
            "flags": {
              "value": 128,
              "string": "---- ",
              "valid": false,
              "normalized": false,
              "supports_dsn": false,
              "monitored_condition_met": false
            }
          },
          {
            "offset": 24,
            "name": "Average Long Term Temperature",
            "size": 1,
            "flags": {
              "value": 128,
              "string": "---- ",
              "valid": false,
              "normalized": false,
              "supports_dsn": false,
              "monitored_condition_met": false
            }
          },
          {
            "offset": 32,
            "name": "Highest Temperature",
            "size": 1,
            "value": 36,
            "flags": {
              "value": 192,
              "string": "V--- ",
              "valid": true,
              "normalized": false,
              "supports_dsn": false,
              "monitored_condition_met": false
            }
          },
          {
            "offset": 40,
            "name": "Lowest Temperature",
            "size": 1,
            "value": 26,
            "flags": {
              "value": 192,
              "string": "V--- ",
              "valid": true,
              "normalized": false,
              "supports_dsn": false,
              "monitored_condition_met": false
            }
          },
          {
            "offset": 48,
            "name": "Highest Average Short Term Temperature",
            "size": 1,
            "flags": {
              "value": 128,
              "string": "---- ",
              "valid": false,
              "normalized": false,
              "supports_dsn": false,
              "monitored_condition_met": false
            }
          },
          {
            "offset": 56,
            "name": "Lowest Average Short Term Temperature",
            "size": 1,
            "flags": {
              "value": 128,
              "string": "---- ",
              "valid": false,
              "normalized": false,
              "supports_dsn": false,
              "monitored_condition_met": false
            }
          },
          {
            "offset": 64,
            "name": "Highest Average Long Term Temperature",
            "size": 1,
            "flags": {
              "value": 128,
              "string": "---- ",
              "valid": false,
              "normalized": false,
              "supports_dsn": false,
              "monitored_condition_met": false
            }
          },
          {
            "offset": 72,
            "name": "Lowest Average Long Term Temperature",
            "size": 1,
            "flags": {
              "value": 128,
              "string": "---- ",
              "valid": false,
              "normalized": false,
              "supports_dsn": false,
              "monitored_condition_met": false
            }
          },
          {
            "offset": 80,
            "name": "Time in Over-Temperature",
            "size": 4,
            "value": 0,
            "flags": {
              "value": 192,
              "string": "V--- ",
              "valid": true,
              "normalized": false,
              "supports_dsn": false,
              "monitored_condition_met": false
            }
          },
          {
            "offset": 88,
            "name": "Specified Maximum Operating Temperature",
            "size": 1,
            "value": 65,
            "flags": {
              "value": 192,
              "string": "V--- ",
              "valid": true,
              "normalized": false,
              "supports_dsn": false,
              "monitored_condition_met": false
            }
          },
          {
            "offset": 96,
            "name": "Time in Under-Temperature",
            "size": 4,
            "value": 0,
            "flags": {
              "value": 192,
              "string": "V--- ",
              "valid": true,
              "normalized": false,
              "supports_dsn": false,
              "monitored_condition_met": false
            }
          },
          {
            "offset": 104,
            "name": "Specified Minimum Operating Temperature",
            "size": 1,
            "value": 0,
            "flags": {
              "value": 192,
              "string": "V--- ",
              "valid": true,
              "normalized": false,
              "supports_dsn": false,
              "monitored_condition_met": false
            }
          }
        ]
      },
      {
        "number": 6,
        "name": "Transport Statistics",
        "revision": 1,
        "table": [
          {
            "offset": 8,
            "name": "Number of Hardware Resets",
            "size": 4,
            "value": 0,
            "flags": {
              "value": 192,
              "string": "V--- ",
              "valid": true,
              "normalized": false,
              "supports_dsn": false,
              "monitored_condition_met": false
            }
          },
          {
            "offset": 16,
            "name": "Number of ASR Events",
            "size": 4,
            "value": 17,
            "flags": {
              "value": 192,
              "string": "V--- ",
              "valid": true,
              "normalized": false,
              "supports_dsn": false,
              "monitored_condition_met": false
            }
          },
          {
            "offset": 24,
            "name": "Number of Interface CRC Errors",
            "size": 4,
            "value": 1,
            "flags": {
              "value": 192,
              "string": "V--- ",
              "valid": true,
              "normalized": false,
              "supports_dsn": false,
              "monitored_condition_met": false
            }
          }
        ]
      },
      {
        "number": 7,
        "name": "Solid State Device Statistics",
        "revision": 1,
        "table": [
          {
            "offset": 8,
            "name": "Percentage Used Endurance Indicator",
            "size": 1,
            "value": 20,
            "flags": {
              "value": 192,
              "string": "V--- ",
              "valid": true,
              "normalized": false,
              "supports_dsn": false,
              "monitored_condition_met": false
            }
          }
        ]
      }
    ]
  },
  "sata_phy_event_counters": {
    "table": [
      {
        "id": 1,
        "name": "Command failed due to ICRC error",
        "size": 2,
        "value": 0,
        "overflow": false
      },
      {
        "id": 3,
        "name": "R_ERR response for device-to-host data FIS",
        "size": 2,
        "value": 0,
        "overflow": false
      },
      {
        "id": 4,
        "name": "R_ERR response for host-to-device data FIS",
        "size": 2,
        "value": 0,
        "overflow": false
      },
      {
        "id": 6,
        "name": "R_ERR response for device-to-host non-data FIS",
        "size": 2,
        "value": 0,
        "overflow": false
      },
      {
        "id": 7,
        "name": "R_ERR response for host-to-device non-data FIS",
        "size": 2,
        "value": 0,
        "overflow": false
      },
      {
        "id": 8,
        "name": "Device-to-host non-data FIS retries",
        "size": 2,
        "value": 0,
        "overflow": false
      },
      {
        "id": 9,
        "name": "Transition from drive PhyRdy to drive PhyNRdy",
        "size": 2,
        "value": 1,
        "overflow": false
      },
      {
        "id": 10,
        "name": "Device-to-host register FISes sent due to a COMRESET",
        "size": 2,
        "value": 1,
        "overflow": false
      },
      {
        "id": 15,
        "name": "R_ERR response for host-to-device data FIS, CRC",
        "size": 2,
        "value": 0,
        "overflow": false
      },
      {
        "id": 16,
        "name": "R_ERR response for host-to-device data FIS, non-CRC",
        "size": 2,
        "value": 0,
        "overflow": false
      },
      {
        "id": 18,
        "name": "R_ERR response for host-to-device non-data FIS, CRC",
        "size": 2,
        "value": 0,
        "overflow": false
      },
      {
        "id": 19,
        "name": "R_ERR response for host-to-device non-data FIS, non-CRC",
        "size": 2,
        "value": 0,
        "overflow": false
      },
      {
        "id": 2,
        "name": "R_ERR response for data FIS",
        "size": 2,
        "value": 0,
        "overflow": false
      },
      {
        "id": 5,
        "name": "R_ERR response for non-data FIS",
        "size": 2,
        "value": 0,
        "overflow": false
      },
      {
        "id": 11,
        "name": "CRC errors within host-to-device FIS",
        "size": 2,
        "value": 0,
        "overflow": false
      },
      {
        "id": 13,
        "name": "Non-CRC errors within host-to-device FIS",
        "size": 2,
        "value": 0,
        "overflow": false
      }
    ],
    "reset": false
  }
}
