{
  "json_format_version": [
    1,
    0
  ],
  "smartctl": {
    "version": [
      7,
      1
    ],
    "svn_revision": "5022",
    "platform_info": "x86_64-linux-5.11.0-25-generic",
    "build_info": "(local build)",
    "argv": [
      "smartctl",
      "-jx",
      "/dev/sdb"
    ],
    "exit_status": 64
  },
  "device": {
    "name": "/dev/sdb",
    "info_name": "/dev/sdb [SAT]",
    "type": "sat",
    "protocol": "ATA"
  },
  "model_family": "Hitachi/HGST Travelstar 5K750",
  "model_name": "Hitachi HTS547575A9E384",
  "serial_number": "J1140021E0YY2J",
  "wwn": {
    "naa": 5,
    "oui": 3274,
    "id": 30800650084
  },
  "firmware_version": "JE4OA50A",
  "user_capacity": {
    "blocks": 1465149168,
    "bytes": 750156374016
  },
  "logical_block_size": 512,
  "physical_block_size": 4096,
  "rotation_rate": 5400,
  "form_factor": {
    "ata_value": 3,
    "name": "2.5 inches"
  },
  "in_smartctl_database": true,
  "ata_version": {
    "string": "ATA8-ACS T13/1699-D revision 6",
    "major_value": 508,
    "minor_value": 40
  },
  "sata_version": {
    "string": "SATA 2.6",
    "value": 31
  },
  "interface_speed": {
    "max": {
      "sata_value": 6,
      "string": "3.0 Gb/s",
      "units_per_second": 30,
      "bits_per_unit": 100000000
    }
  },
  "local_time": {
    "time_t": 1628891407,
    "asctime": "Fri Aug 13 15:50:07 2021 MDT"
  },
  "ata_apm": {
    "enabled": true,
    "level": 254,
    "string": "maximum performance",
    "max_performance": true,
    "min_power": false,
    "with_standby": false
  },
  "read_lookahead": {
    "enabled": true
  },
  "write_cache": {
    "enabled": true
  },
  "ata_security": {
    "state": 33,
    "string": "Disabled, NOT FROZEN [SEC1]",
    "enabled": false,
    "frozen": false
  },
  "smart_status": {
    "passed": true
  },
  "ata_smart_data": {
    "offline_data_collection": {
      "status": {
        "value": 0,
        "string": "was never started"
      },
      "completion_seconds": 45
    },
    "self_test": {
      "status": {
        "value": 0,
        "string": "completed without error",
        "passed": true
      },
      "polling_minutes": {
        "short": 2,
        "extended": 203
      }
    },
    "capabilities": {
      "values": [
        91,
        3
      ],
      "exec_offline_immediate_supported": true,
      "offline_is_aborted_upon_new_cmd": false,
      "offline_surface_scan_supported": true,
      "self_tests_supported": true,
      "conveyance_self_test_supported": false,
      "selective_self_test_supported": true,
      "attribute_autosave_enabled": true,
      "error_logging_supported": true,
      "gp_logging_supported": true
    }
  },
  "ata_sct_capabilities": {
    "value": 61,
    "error_recovery_control_supported": true,
    "feature_control_supported": true,
    "data_table_supported": true
  },
  "ata_smart_attributes": {
    "revision": 16,
    "table": [
      {
        "id": 1,
        "name": "Raw_Read_Error_Rate",
        "value": 93,
        "worst": 93,
        "thresh": 62,
        "when_failed": "",
        "flags": {
          "value": 47,
          "string": "POSR-K ",
          "prefailure": true,
          "updated_online": true,
          "performance": true,
          "error_rate": true,
          "event_count": false,
          "auto_keep": true
        },
        "raw": {
          "value": 2424832,
          "string": "2424832"
        }
      },
      {
        "id": 2,
        "name": "Throughput_Performance",
        "value": 100,
        "worst": 100,
        "thresh": 40,
        "when_failed": "",
        "flags": {
          "value": 37,
          "string": "P-S--K ",
          "prefailure": true,
          "updated_online": false,
          "performance": true,
          "error_rate": false,
          "event_count": false,
          "auto_keep": true
        },
        "raw": {
          "value": 0,
          "string": "0"
        }
      },
      {
        "id": 3,
        "name": "Spin_Up_Time",
        "value": 100,
        "worst": 100,
        "thresh": 33,
        "when_failed": "",
        "flags": {
          "value": 35,
          "string": "PO---K ",
          "prefailure": true,
          "updated_online": true,
          "performance": false,
          "error_rate": false,
          "event_count": false,
          "auto_keep": true
        },
        "raw": {
          "value": 73014444033,
          "string": "1"
        }
      },
      {
        "id": 4,
        "name": "Start_Stop_Count",
        "value": 100,
        "worst": 100,
        "thresh": 0,
        "when_failed": "",
        "flags": {
          "value": 50,
          "string": "-O--CK ",
          "prefailure": false,
          "updated_online": true,
          "performance": false,
          "error_rate": false,
          "event_count": true,
          "auto_keep": true
        },
        "raw": {
          "value": 8,
          "string": "8"
        }
      },
      {
        "id": 5,
        "name": "Reallocated_Sector_Ct",
        "value": 97,
        "worst": 97,
        "thresh": 5,
        "when_failed": "",
        "flags": {
          "value": 51,
          "string": "PO--CK ",
          "prefailure": true,
          "updated_online": true,
          "performance": false,
          "error_rate": false,
          "event_count": true,
          "auto_keep": true
        },
        "raw": {
          "value": 16258744,
          "string": "5816 (0 248)"
        }
      },
      {
        "id": 7,
        "name": "Seek_Error_Rate",
        "value": 100,
        "worst": 100,
        "thresh": 67,
        "when_failed": "",
        "flags": {
          "value": 47,
          "string": "POSR-K ",
          "prefailure": true,
          "updated_online": true,
          "performance": true,
          "error_rate": true,
          "event_count": false,
          "auto_keep": true
        },
        "raw": {
          "value": 0,
          "string": "0"
        }
      },
      {
        "id": 8,
        "name": "Seek_Time_Performance",
        "value": 100,
        "worst": 100,
        "thresh": 40,
        "when_failed": "",
        "flags": {
          "value": 37,
          "string": "P-S--K ",
          "prefailure": true,
          "updated_online": false,
          "performance": true,
          "error_rate": false,
          "event_count": false,
          "auto_keep": true
        },
        "raw": {
          "value": 0,
          "string": "0"
        }
      },
      {
        "id": 9,
        "name": "Power_On_Hours",
        "value": 100,
        "worst": 100,
        "thresh": 0,
        "when_failed": "",
        "flags": {
          "value": 50,
          "string": "-O--CK ",
          "prefailure": false,
          "updated_online": true,
          "performance": false,
          "error_rate": false,
          "event_count": true,
          "auto_keep": true
        },
        "raw": {
          "value": 0,
          "string": "0"
        }
      },
      {
        "id": 10,
        "name": "Spin_Retry_Count",
        "value": 100,
        "worst": 100,
        "thresh": 60,
        "when_failed": "",
        "flags": {
          "value": 51,
          "string": "PO--CK ",
          "prefailure": true,
          "updated_online": true,
          "performance": false,
          "error_rate": false,
          "event_count": true,
          "auto_keep": true
        },
        "raw": {
          "value": 0,
          "string": "0"
        }
      },
      {
        "id": 12,
        "name": "Power_Cycle_Count",
        "value": 100,
        "worst": 100,
        "thresh": 0,
        "when_failed": "",
        "flags": {
          "value": 50,
          "string": "-O--CK ",
          "prefailure": false,
          "updated_online": true,
          "performance": false,
          "error_rate": false,
          "event_count": true,
          "auto_keep": true
        },
        "raw": {
          "value": 8,
          "string": "8"
        }
      },
      {
        "id": 183,
        "name": "Runtime_Bad_Block",
        "value": 100,
        "worst": 100,
        "thresh": 0,
        "when_failed": "",
        "flags": {
          "value": 50,
          "string": "-O--CK ",
          "prefailure": false,
          "updated_online": true,
          "performance": false,
          "error_rate": false,
          "event_count": true,
          "auto_keep": true
        },
        "raw": {
          "value": 0,
          "string": "0"
        }
      },
      {
        "id": 184,
        "name": "End-to-End_Error",
        "value": 100,
        "worst": 100,
        "thresh": 97,
        "when_failed": "",
        "flags": {
          "value": 51,
          "string": "PO--CK ",
          "prefailure": true,
          "updated_online": true,
          "performance": false,
          "error_rate": false,
          "event_count": true,
          "auto_keep": true
        },
        "raw": {
          "value": 0,
          "string": "0"
        }
      },
      {
        "id": 187,
        "name": "Reported_Uncorrect",
        "value": 100,
        "worst": 100,
        "thresh": 0,
        "when_failed": "",
        "flags": {
          "value": 50,
          "string": "-O--CK ",
          "prefailure": false,
          "updated_online": true,
          "performance": false,
          "error_rate": false,
          "event_count": true,
          "auto_keep": true
        },
        "raw": {
          "value": 2424832,
          "string": "2424832"
        }
      },
      {
        "id": 188,
        "name": "Command_Timeout",
        "value": 100,
        "worst": 100,
        "thresh": 0,
        "when_failed": "",
        "flags": {
          "value": 50,
          "string": "-O--CK ",
          "prefailure": false,
          "updated_online": true,
          "performance": false,
          "error_rate": false,
          "event_count": true,
          "auto_keep": true
        },
        "raw": {
          "value": 0,
          "string": "0"
        }
      },
      {
        "id": 190,
        "name": "Airflow_Temperature_Cel",
        "value": 75,
        "worst": 71,
        "thresh": 45,
        "when_failed": "",
        "flags": {
          "value": 34,
          "string": "-O---K ",
          "prefailure": false,
          "updated_online": true,
          "performance": false,
          "error_rate": false,
          "event_count": false,
          "auto_keep": true
        },
        "raw": {
          "value": 387514393,
          "string": "25 (Min/Max 23/25)"
        }
      },
      {
        "id": 191,
        "name": "G-Sense_Error_Rate",
        "value": 100,
        "worst": 100,
        "thresh": 0,
        "when_failed": "",
        "flags": {
          "value": 50,
          "string": "-O--CK ",
          "prefailure": false,
          "updated_online": true,
          "performance": false,
          "error_rate": false,
          "event_count": true,
          "auto_keep": true
        },
        "raw": {
          "value": 0,
          "string": "0"
        }
      },
      {
        "id": 192,
        "name": "Power-Off_Retract_Count",
        "value": 100,
        "worst": 100,
        "thresh": 0,
        "when_failed": "",
        "flags": {
          "value": 50,
          "string": "-O--CK ",
          "prefailure": false,
          "updated_online": true,
          "performance": false,
          "error_rate": false,
          "event_count": true,
          "auto_keep": true
        },
        "raw": {
          "value": 524296,
          "string": "524296"
        }
      },
      {
        "id": 193,
        "name": "Load_Cycle_Count",
        "value": 100,
        "worst": 100,
        "thresh": 0,
        "when_failed": "",
        "flags": {
          "value": 50,
          "string": "-O--CK ",
          "prefailure": false,
          "updated_online": true,
          "performance": false,
          "error_rate": false,
          "event_count": true,
          "auto_keep": true
        },
        "raw": {
          "value": 12,
          "string": "12"
        }
      },
      {
        "id": 196,
        "name": "Reallocated_Event_Count",
        "value": 84,
        "worst": 84,
        "thresh": 0,
        "when_failed": "",
        "flags": {
          "value": 50,
          "string": "-O--CK ",
          "prefailure": false,
          "updated_online": true,
          "performance": false,
          "error_rate": false,
          "event_count": true,
          "auto_keep": true
        },
        "raw": {
          "value": 583,
          "string": "583"
        }
      },
      {
        "id": 197,
        "name": "Current_Pending_Sector",
        "value": 100,
        "worst": 100,
        "thresh": 0,
        "when_failed": "",
        "flags": {
          "value": 50,
          "string": "-O--CK ",
          "prefailure": false,
          "updated_online": true,
          "performance": false,
          "error_rate": false,
          "event_count": true,
          "auto_keep": true
        },
        "raw": {
          "value": 184,
          "string": "184"
        }
      },
      {
        "id": 198,
        "name": "Offline_Uncorrectable",
        "value": 100,
        "worst": 100,
        "thresh": 0,
        "when_failed": "",
        "flags": {
          "value": 48,
          "string": "----CK ",
          "prefailure": false,
          "updated_online": false,
          "performance": false,
          "error_rate": false,
          "event_count": true,
          "auto_keep": true
        },
        "raw": {
          "value": 0,
          "string": "0"
        }
      },
      {
        "id": 199,
        "name": "UDMA_CRC_Error_Count",
        "value": 100,
        "worst": 100,
        "thresh": 0,
        "when_failed": "",
        "flags": {
          "value": 54,
          "string": "-OS-CK ",
          "prefailure": false,
          "updated_online": true,
          "performance": true,
          "error_rate": false,
          "event_count": true,
          "auto_keep": true
        },
        "raw": {
          "value": 0,
          "string": "0"
        }
      },
      {
        "id": 223,
        "name": "Load_Retry_Count",
        "value": 100,
        "worst": 100,
        "thresh": 0,
        "when_failed": "",
        "flags": {
          "value": 42,
          "string": "-O-R-K ",
          "prefailure": false,
          "updated_online": true,
          "performance": false,
          "error_rate": true,
          "event_count": false,
          "auto_keep": true
        },
        "raw": {
          "value": 0,
          "string": "0"
        }
      }
    ]
  },
  "power_on_time": {
    "hours": 0
  },
  "power_cycle_count": 8,
  "temperature": {
    "current": 25,
    "power_cycle_min": 23,
    "power_cycle_max": 25,
    "lifetime_min": 23,
    "lifetime_max": 29,
    "op_limit_max": 60,
    "op_limit_min": 0,
    "limit_min": -40,
    "limit_max": 65
  },
  "ata_log_directory": {
    "gp_dir_version": 1,
    "smart_dir_version": 1,
    "smart_dir_multi_sector": true,
    "table": [
      {
        "address": 0,
        "name": "Log Directory",
        "read": true,
        "write": false,
        "gp_sectors": 1,
        "smart_sectors": 1
      },
      {
        "address": 1,
        "name": "Summary SMART error log",
        "read": true,
        "write": false,
        "smart_sectors": 1
      },
      {
        "address": 2,
        "name": "Comprehensive SMART error log",
        "read": true,
        "write": false,
        "smart_sectors": 1
      },
      {
        "address": 3,
        "name": "Ext. Comprehensive SMART error log",
        "read": true,
        "write": false,
        "gp_sectors": 1
      },
      {
        "address": 6,
        "name": "SMART self-test log",
        "read": true,
        "write": false,
        "smart_sectors": 1
      },
      {
        "address": 7,
        "name": "Extended self-test log",
        "read": true,
        "write": false,
        "gp_sectors": 1
      },
      {
        "address": 9,
        "name": "Selective self-test log",
        "read": true,
        "write": true,
        "smart_sectors": 1
      },
      {
        "address": 16,
        "name": "NCQ Command Error log",
        "read": true,
        "write": false,
        "gp_sectors": 1
      },
      {
        "address": 17,
        "name": "SATA Phy Event Counters log",
        "read": true,
        "write": false,
        "gp_sectors": 1
      },
      {
        "address": 128,
        "name": "Host vendor specific log",
        "read": true,
        "write": true,
        "gp_sectors": 16,
        "smart_sectors": 16
      },
      {
        "address": 129,
        "name": "Host vendor specific log",
        "read": true,
        "write": true,
        "gp_sectors": 16,
        "smart_sectors": 16
      },
      {
        "address": 130,
        "name": "Host vendor specific log",
        "read": true,
        "write": true,
        "gp_sectors": 16,
        "smart_sectors": 16
      },
      {
        "address": 131,
        "name": "Host vendor specific log",
        "read": true,
        "write": true,
        "gp_sectors": 16,
        "smart_sectors": 16
      },
      {
        "address": 132,
        "name": "Host vendor specific log",
        "read": true,
        "write": true,
        "gp_sectors": 16,
        "smart_sectors": 16
      },
      {
        "address": 133,
        "name": "Host vendor specific log",
        "read": true,
        "write": true,
        "gp_sectors": 16,
        "smart_sectors": 16
      },
      {
        "address": 134,
        "name": "Host vendor specific log",
        "read": true,
        "write": true,
        "gp_sectors": 16,
        "smart_sectors": 16
      },
      {
        "address": 135,
        "name": "Host vendor specific log",
        "read": true,
        "write": true,
        "gp_sectors": 16,
        "smart_sectors": 16
      },
      {
        "address": 136,
        "name": "Host vendor specific log",
        "read": true,
        "write": true,
        "gp_sectors": 16,
        "smart_sectors": 16
      },
      {
        "address": 137,
        "name": "Host vendor specific log",
        "read": true,
        "write": true,
        "gp_sectors": 16,
        "smart_sectors": 16
      },
      {
        "address": 138,
        "name": "Host vendor specific log",
        "read": true,
        "write": true,
        "gp_sectors": 16,
        "smart_sectors": 16
      },
      {
        "address": 139,
        "name": "Host vendor specific log",
        "read": true,
        "write": true,
        "gp_sectors": 16,
        "smart_sectors": 16
      },
      {
        "address": 140,
        "name": "Host vendor specific log",
        "read": true,
        "write": true,
        "gp_sectors": 16,
        "smart_sectors": 16
      },
      {
        "address": 141,
        "name": "Host vendor specific log",
        "read": true,
        "write": true,
        "gp_sectors": 16,
        "smart_sectors": 16
      },
      {
        "address": 142,
        "name": "Host vendor specific log",
        "read": true,
        "write": true,
        "gp_sectors": 16,
        "smart_sectors": 16
      },
      {
        "address": 143,
        "name": "Host vendor specific log",
        "read": true,
        "write": true,
        "gp_sectors": 16,
        "smart_sectors": 16
      },
      {
        "address": 144,
        "name": "Host vendor specific log",
        "read": true,
        "write": true,
        "gp_sectors": 16,
        "smart_sectors": 16
      },
      {
        "address": 145,
        "name": "Host vendor specific log",
        "read": true,
        "write": true,
        "gp_sectors": 16,
        "smart_sectors": 16
      },
      {
        "address": 146,
        "name": "Host vendor specific log",
        "read": true,
        "write": true,
        "gp_sectors": 16,
        "smart_sectors": 16
      },
      {
        "address": 147,
        "name": "Host vendor specific log",
        "read": true,
        "write": true,
        "gp_sectors": 16,
        "smart_sectors": 16
      },
      {
        "address": 148,
        "name": "Host vendor specific log",
        "read": true,
        "write": true,
        "gp_sectors": 16,
        "smart_sectors": 16
      },
      {
        "address": 149,
        "name": "Host vendor specific log",
        "read": true,
        "write": true,
        "gp_sectors": 16,
        "smart_sectors": 16
      },
      {
        "address": 150,
        "name": "Host vendor specific log",
        "read": true,
        "write": true,
        "gp_sectors": 16,
        "smart_sectors": 16
      },
      {
        "address": 151,
        "name": "Host vendor specific log",
        "read": true,
        "write": true,
        "gp_sectors": 16,
        "smart_sectors": 16
      },
      {
        "address": 152,
        "name": "Host vendor specific log",
        "read": true,
        "write": true,
        "gp_sectors": 16,
        "smart_sectors": 16
      },
      {
        "address": 153,
        "name": "Host vendor specific log",
        "read": true,
        "write": true,
        "gp_sectors": 16,
        "smart_sectors": 16
      },
      {
        "address": 154,
        "name": "Host vendor specific log",
        "read": true,
        "write": true,
        "gp_sectors": 16,
        "smart_sectors": 16
      },
      {
        "address": 155,
        "name": "Host vendor specific log",
        "read": true,
        "write": true,
        "gp_sectors": 16,
        "smart_sectors": 16
      },
      {
        "address": 156,
        "name": "Host vendor specific log",
        "read": true,
        "write": true,
        "gp_sectors": 16,
        "smart_sectors": 16
      },
      {
        "address": 157,
        "name": "Host vendor specific log",
        "read": true,
        "write": true,
        "gp_sectors": 16,
        "smart_sectors": 16
      },
      {
        "address": 158,
        "name": "Host vendor specific log",
        "read": true,
        "write": true,
        "gp_sectors": 16,
        "smart_sectors": 16
      },
      {
        "address": 159,
        "name": "Host vendor specific log",
        "read": true,
        "write": true,
        "gp_sectors": 16,
        "smart_sectors": 16
      },
      {
        "address": 224,
        "name": "SCT Command/Status",
        "read": true,
        "write": true,
        "gp_sectors": 1,
        "smart_sectors": 1
      },
      {
        "address": 225,
        "name": "SCT Data Transfer",
        "read": true,
        "write": true,
        "gp_sectors": 1,
        "smart_sectors": 1
      }
    ]
  },
  "ata_smart_error_log": {
    "extended": {
      "revision": 1,
      "sectors": 1,
      "count": 23,
      "logged_count": 4,
      "table": [
        {
          "error_number": 23,
          "log_index": 2,
          "lifetime_hours": 833,
          "device_state": {
            "value": 3,
            "string": "active or idle"
          },
          "completion_registers": {
            "error": 64,
            "status": 81,
            "count": 538,
            "lba": 49607728,
            "device": 2,
            "device_control": 0
          },
          "error_description": "Error: UNC 538 sectors at LBA = 0x02f4f430 = 49607728",
          "previous_commands": [
            {
              "registers": {
                "command": 37,
                "features": 0,
                "count": 3274,
                "lba": 49604992,
                "device": 224,
                "device_control": 0
              },
              "powerup_milliseconds": 125042,
              "command_name": "READ DMA EXT"
            },
            {
              "registers": {
                "command": 37,
                "features": 0,
                "count": 538,
                "lba": 49607728,
                "device": 2,
                "device_control": 4
              },
              "powerup_milliseconds": 125026,
              "command_name": "READ DMA EXT"
            },
            {
              "registers": {
                "command": 37,
                "features": 0,
                "count": 3274,
                "lba": 49604992,
                "device": 224,
                "device_control": 0
              },
              "powerup_milliseconds": 121898,
              "command_name": "READ DMA EXT"
            },
            {
              "registers": {
                "command": 37,
                "features": 0,
                "count": 538,
                "lba": 49607728,
                "device": 2,
                "device_control": 4
              },
              "powerup_milliseconds": 121882,
              "command_name": "READ DMA EXT"
            },
            {
              "registers": {
                "command": 37,
                "features": 0,
                "count": 3274,
                "lba": 49604992,
                "device": 224,
                "device_control": 0
              },
              "powerup_milliseconds": 118747,
              "command_name": "READ DMA EXT"
            }
          ]
        },
        {
          "error_number": 22,
          "log_index": 1,
          "lifetime_hours": 833,
          "device_state": {
            "value": 3,
            "string": "active or idle"
          },
          "completion_registers": {
            "error": 64,
            "status": 81,
            "count": 538,
            "lba": 49607728,
            "device": 2,
            "device_control": 0
          },
          "error_description": "Error: UNC 538 sectors at LBA = 0x02f4f430 = 49607728",
          "previous_commands": [
            {
              "registers": {
                "command": 37,
                "features": 0,
                "count": 3274,
                "lba": 49604992,
                "device": 224,
                "device_control": 0
              },
              "powerup_milliseconds": 121898,
              "command_name": "READ DMA EXT"
            },
            {
              "registers": {
                "command": 37,
                "features": 0,
                "count": 538,
                "lba": 49607728,
                "device": 2,
                "device_control": 4
              },
              "powerup_milliseconds": 121882,
              "command_name": "READ DMA EXT"
            },
            {
              "registers": {
                "command": 37,
                "features": 0,
                "count": 3274,
                "lba": 49604992,
                "device": 224,
                "device_control": 0
              },
              "powerup_milliseconds": 118747,
              "command_name": "READ DMA EXT"
            },
            {
              "registers": {
                "command": 37,
                "features": 0,
                "count": 538,
                "lba": 49607728,
                "device": 2,
                "device_control": 4
              },
              "powerup_milliseconds": 118726,
              "command_name": "READ DMA EXT"
            },
            {
              "registers": {
                "command": 37,
                "features": 0,
                "count": 3274,
                "lba": 49604992,
                "device": 224,
                "device_control": 0
              },
              "powerup_milliseconds": 115591,
              "command_name": "READ DMA EXT"
            }
          ]
        },
        {
          "error_number": 21,
          "log_index": 0,
          "lifetime_hours": 833,
          "device_state": {
            "value": 3,
            "string": "active or idle"
          },
          "completion_registers": {
            "error": 64,
            "status": 81,
            "count": 538,
            "lba": 49607728,
            "device": 2,
            "device_control": 0
          },
          "error_description": "Error: UNC 538 sectors at LBA = 0x02f4f430 = 49607728",
          "previous_commands": [
            {
              "registers": {
                "command": 37,
                "features": 0,
                "count": 3274,
                "lba": 49604992,
                "device": 224,
                "device_control": 0
              },
              "powerup_milliseconds": 118747,
              "command_name": "READ DMA EXT"
            },
            {
              "registers": {
                "command": 37,
                "features": 0,
                "count": 538,
                "lba": 49607728,
                "device": 2,
                "device_control": 4
              },
              "powerup_milliseconds": 118726,
              "command_name": "READ DMA EXT"
            },
            {
              "registers": {
                "command": 37,
                "features": 0,
                "count": 3274,
                "lba": 49604992,
                "device": 224,
                "device_control": 0
              },
              "powerup_milliseconds": 115591,
              "command_name": "READ DMA EXT"
            },
            {
              "registers": {
                "command": 37,
                "features": 0,
                "count": 538,
                "lba": 49607728,
                "device": 2,
                "device_control": 4
              },
              "powerup_milliseconds": 115570,
              "command_name": "READ DMA EXT"
            },
            {
              "registers": {
                "command": 37,
                "features": 0,
                "count": 3274,
                "lba": 49604992,
                "device": 224,
                "device_control": 0
              },
              "powerup_milliseconds": 112450,
              "command_name": "READ DMA EXT"
            }
          ]
        },
        {
          "error_number": 20,
          "log_index": 3,
          "lifetime_hours": 833,
          "device_state": {
            "value": 3,
            "string": "active or idle"
          },
          "completion_registers": {
            "error": 64,
            "status": 81,
            "count": 538,
            "lba": 49607728,
            "device": 2,
            "device_control": 0
          },
          "error_description": "Error: UNC 538 sectors at LBA = 0x02f4f430 = 49607728",
          "previous_commands": [
            {
              "registers": {
                "command": 37,
                "features": 0,
                "count": 3274,
                "lba": 49604992,
                "device": 224,
                "device_control": 0
              },
              "powerup_milliseconds": 115591,
              "command_name": "READ DMA EXT"
            },
            {
              "registers": {
                "command": 37,
                "features": 0,
                "count": 538,
                "lba": 49607728,
                "device": 2,
                "device_control": 4
              },
              "powerup_milliseconds": 115570,
              "command_name": "READ DMA EXT"
            },
            {
              "registers": {
                "command": 37,
                "features": 0,
                "count": 3274,
                "lba": 49604992,
                "device": 224,
                "device_control": 0
              },
              "powerup_milliseconds": 112450,
              "command_name": "READ DMA EXT"
            },
            {
              "registers": {
                "command": 37,
                "features": 0,
                "count": 538,
                "lba": 49607727,
                "device": 226,
                "device_control": 4
              },
              "powerup_milliseconds": 112429,
              "command_name": "READ DMA EXT"
            },
            {
              "registers": {
                "command": 37,
                "features": 0,
                "count": 3274,
                "lba": 49604992,
                "device": 224,
                "device_control": 0
              },
              "powerup_milliseconds": 106395,
              "command_name": "READ DMA EXT"
            }
          ]
        }
      ]
    }
  },
  "ata_smart_self_test_log": {
    "extended": {
      "revision": 1,
      "sectors": 1,
      "count": 0
    }
  },
  "ata_smart_selective_self_test_log": {
    "revision": 1,
    "table": [
      {
        "lba_min": 0,
        "lba_max": 0,
        "status": {
          "value": 0,
          "string": "Not_testing"
        }
      },
      {
        "lba_min": 0,
        "lba_max": 0,
        "status": {
          "value": 0,
          "string": "Not_testing"
        }
      },
      {
        "lba_min": 0,
        "lba_max": 0,
        "status": {
          "value": 0,
          "string": "Not_testing"
        }
      },
      {
        "lba_min": 0,
        "lba_max": 0,
        "status": {
          "value": 0,
          "string": "Not_testing"
        }
      },
      {
        "lba_min": 0,
        "lba_max": 0,
        "status": {
          "value": 0,
          "string": "Not_testing"
        }
      }
    ],
    "flags": {
      "value": 0,
      "remainder_scan_enabled": false
    },
    "power_up_scan_resume_minutes": 0
  },
  "ata_sct_status": {
    "format_version": 3,
    "sct_version": 256,
    "device_state": {
      "value": 0,
      "string": "Active"
    },
    "temperature": {
      "current": 25,
      "power_cycle_min": 23,
      "power_cycle_max": 25,
      "lifetime_min": 23,
      "lifetime_max": 29,
      "op_limit_max": 25,
      "under_limit_count": 0,
      "over_limit_count": 0
    }
  },
  "ata_sct_temperature_history": {
    "version": 2,
    "sampling_period_minutes": 1,
    "logging_interval_minutes": 1,
    "temperature": {
      "op_limit_min": 0,
      "op_limit_max": 60,
      "limit_min": -40,
      "limit_max": 65
    },
    "size": 128,
    "index": 26,
    "table": [
      46,
      46,
      46,
      46,
      46,
      46,
      46,
      46,
      46,
      46,
      46,
      46,
      46,
      46,
      46,
      46,
      46,
      46,
      46,
      46,
      46,
      46,
      46,
      46,
      null,
      22,
      24,
      25,
      26,
      null,
      37,
      37,
      37,
      37,
      38,
      38,
      38,
      38,
      39,
      39,
      39,
      40,
      40,
      40,
      40,
      40,
      40,
      41,
      41,
      41,
      41,
      41,
      41,
      42,
      42,
      42,
      42,
      42,
      42,
      42,
      42,
      42,
      42,
      42,
      42,
      42,
      42,
      43,
      42,
      43,
      43,
      43,
      43,
      43,
      43,
      43,
      43,
      43,
      43,
      43,
      43,
      43,
      43,
      43,
      43,
      43,
      43,
      43,
      44,
      43,
      44,
      44,
      44,
      44,
      44,
      44,
      44,
      44,
      44,
      44,
      null,
      null,
      20,
      22,
      23,
      24,
      25,
      26,
      27,
      28,
      29,
      null,
      40,
      40,
      40,
      null,
      null,
      null,
      null,
      null,
      null,
      null,
      null,
      null,
      null,
      null,
      null,
      24
    ]
  },
  "ata_sct_erc": {
    "read": {
      "enabled": true,
      "deciseconds": 85
    },
    "write": {
      "enabled": true,
      "deciseconds": 85
    }
  },
  "sata_phy_event_counters": {
    "table": [
      {
        "id": 1,
        "name": "Command failed due to ICRC error",
        "size": 2,
        "value": 0,
        "overflow": false
      },
      {
        "id": 2,
        "name": "R_ERR response for data FIS",
        "size": 2,
        "value": 0,
        "overflow": false
      },
      {
        "id": 3,
        "name": "R_ERR response for device-to-host data FIS",
        "size": 2,
        "value": 0,
        "overflow": false
      },
      {
        "id": 4,
        "name": "R_ERR response for host-to-device data FIS",
        "size": 2,
        "value": 0,
        "overflow": false
      },
      {
        "id": 5,
        "name": "R_ERR response for non-data FIS",
        "size": 2,
        "value": 0,
        "overflow": false
      },
      {
        "id": 6,
        "name": "R_ERR response for device-to-host non-data FIS",
        "size": 2,
        "value": 0,
        "overflow": false
      },
      {
        "id": 7,
        "name": "R_ERR response for host-to-device non-data FIS",
        "size": 2,
        "value": 0,
        "overflow": false
      },
      {
        "id": 9,
        "name": "Transition from drive PhyRdy to drive PhyNRdy",
        "size": 2,
        "value": 0,
        "overflow": false
      },
      {
        "id": 10,
        "name": "Device-to-host register FISes sent due to a COMRESET",
        "size": 2,
        "value": 0,
        "overflow": false
      },
      {
        "id": 11,
        "name": "CRC errors within host-to-device FIS",
        "size": 2,
        "value": 0,
        "overflow": false
      },
      {
        "id": 13,
        "name": "Non-CRC errors within host-to-device FIS",
        "size": 2,
        "value": 0,
        "overflow": false
      }
    ],
    "reset": false
  }
}
