{
  "json_format_version": [
    1,
    0
  ],
  "smartctl": {
    "version": [
      7,
      1
    ],
    "svn_revision": "5022",
    "platform_info": "x86_64-linux-5.8.0-50-generic",
    "build_info": "(local build)",
    "argv": [
      "smartctl",
      "-x",
      "-j",
      "/dev/sdc"
    ],
    "exit_status": 0
  },
  "device": {
    "name": "/dev/sdc",
    "info_name": "/dev/sdc [SAT]",
    "type": "sat",
    "protocol": "ATA"
  },
  "model_family": "Western Digital Red",
  "model_name": "WDC WD60EFRX-68L0BN1",
  "serial_number": "WD-WX82D50L1262",
  "wwn": {
    "naa": 5,
    "oui": 5358,
    "id": 10337876029
  },
  "firmware_version": "82.00A82",
  "user_capacity": {
    "blocks": 11721045168,
    "bytes": 6001175126016
  },
  "logical_block_size": 512,
  "physical_block_size": 4096,
  "rotation_rate": 5700,
  "in_smartctl_database": true,
  "ata_version": {
    "string": "ACS-2, ACS-3 T13/2161-D revision 3b",
    "major_value": 1022,
    "minor_value": 31
  },
  "sata_version": {
    "string": "SATA 3.1",
    "value": 126
  },
  "interface_speed": {
    "max": {
      "sata_value": 14,
      "string": "6.0 Gb/s",
      "units_per_second": 60,
      "bits_per_unit": 100000000
    },
    "current": {
      "sata_value": 3,
      "string": "6.0 Gb/s",
      "units_per_second": 60,
      "bits_per_unit": 100000000
    }
  },
  "local_time": {
    "time_t": 1619692309,
    "asctime": "Thu Apr 29 04:31:49 2021 MDT"
  },
  "read_lookahead": {
    "enabled": true
  },
  "write_cache": {
    "enabled": true
  },
  "ata_security": {
    "state": 33,
    "string": "Disabled, NOT FROZEN [SEC1]",
    "enabled": false,
    "frozen": false
  },
  "smart_status": {
    "passed": true
  },
  "ata_smart_data": {
    "offline_data_collection": {
      "status": {
        "value": 0,
        "string": "was never started"
      },
      "completion_seconds": 3164
    },
    "self_test": {
      "status": {
        "value": 0,
        "string": "completed without error",
        "passed": true
      },
      "polling_minutes": {
        "short": 2,
        "extended": 685,
        "conveyance": 5
      }
    },
    "capabilities": {
      "values": [
        123,
        3
      ],
      "exec_offline_immediate_supported": true,
      "offline_is_aborted_upon_new_cmd": false,
      "offline_surface_scan_supported": true,
      "self_tests_supported": true,
      "conveyance_self_test_supported": true,
      "selective_self_test_supported": true,
      "attribute_autosave_enabled": true,
      "error_logging_supported": true,
      "gp_logging_supported": true
    }
  },
  "ata_sct_capabilities": {
    "value": 12349,
    "error_recovery_control_supported": true,
    "feature_control_supported": true,
    "data_table_supported": true
  },
  "ata_smart_attributes": {
    "revision": 16,
    "table": [
      {
        "id": 1,
        "name": "Raw_Read_Error_Rate",
        "value": 200,
        "worst": 200,
        "thresh": 51,
        "when_failed": "",
        "flags": {
          "value": 47,
          "string": "POSR-K ",
          "prefailure": true,
          "updated_online": true,
          "performance": true,
          "error_rate": true,
          "event_count": false,
          "auto_keep": true
        },
        "raw": {
          "value": 0,
          "string": "0"
        }
      },
      {
        "id": 3,
        "name": "Spin_Up_Time",
        "value": 100,
        "worst": 253,
        "thresh": 21,
        "when_failed": "",
        "flags": {
          "value": 39,
          "string": "POS--K ",
          "prefailure": true,
          "updated_online": true,
          "performance": true,
          "error_rate": false,
          "event_count": false,
          "auto_keep": true
        },
        "raw": {
          "value": 0,
          "string": "0"
        }
      },
      {
        "id": 4,
        "name": "Start_Stop_Count",
        "value": 100,
        "worst": 100,
        "thresh": 0,
        "when_failed": "",
        "flags": {
          "value": 50,
          "string": "-O--CK ",
          "prefailure": false,
          "updated_online": true,
          "performance": false,
          "error_rate": false,
          "event_count": true,
          "auto_keep": true
        },
        "raw": {
          "value": 2,
          "string": "2"
        }
      },
      {
        "id": 5,
        "name": "Reallocated_Sector_Ct",
        "value": 200,
        "worst": 200,
        "thresh": 140,
        "when_failed": "",
        "flags": {
          "value": 51,
          "string": "PO--CK ",
          "prefailure": true,
          "updated_online": true,
          "performance": false,
          "error_rate": false,
          "event_count": true,
          "auto_keep": true
        },
        "raw": {
          "value": 0,
          "string": "0"
        }
      },
      {
        "id": 7,
        "name": "Seek_Error_Rate",
        "value": 200,
        "worst": 200,
        "thresh": 0,
        "when_failed": "",
        "flags": {
          "value": 46,
          "string": "-OSR-K ",
          "prefailure": false,
          "updated_online": true,
          "performance": true,
          "error_rate": true,
          "event_count": false,
          "auto_keep": true
        },
        "raw": {
          "value": 0,
          "string": "0"
        }
      },
      {
        "id": 9,
        "name": "Power_On_Hours",
        "value": 100,
        "worst": 100,
        "thresh": 0,
        "when_failed": "",
        "flags": {
          "value": 50,
          "string": "-O--CK ",
          "prefailure": false,
          "updated_online": true,
          "performance": false,
          "error_rate": false,
          "event_count": true,
          "auto_keep": true
        },
        "raw": {
          "value": 124,
          "string": "124"
        }
      },
      {
        "id": 10,
        "name": "Spin_Retry_Count",
        "value": 100,
        "worst": 253,
        "thresh": 0,
        "when_failed": "",
        "flags": {
          "value": 50,
          "string": "-O--CK ",
          "prefailure": false,
          "updated_online": true,
          "performance": false,
          "error_rate": false,
          "event_count": true,
          "auto_keep": true
        },
        "raw": {
          "value": 0,
          "string": "0"
        }
      },
      {
        "id": 11,
        "name": "Calibration_Retry_Count",
        "value": 100,
        "worst": 253,
        "thresh": 0,
        "when_failed": "",
        "flags": {
          "value": 50,
          "string": "-O--CK ",
          "prefailure": false,
          "updated_online": true,
          "performance": false,
          "error_rate": false,
          "event_count": true,
          "auto_keep": true
        },
        "raw": {
          "value": 0,
          "string": "0"
        }
      },
      {
        "id": 12,
        "name": "Power_Cycle_Count",
        "value": 100,
        "worst": 100,
        "thresh": 0,
        "when_failed": "",
        "flags": {
          "value": 50,
          "string": "-O--CK ",
          "prefailure": false,
          "updated_online": true,
          "performance": false,
          "error_rate": false,
          "event_count": true,
          "auto_keep": true
        },
        "raw": {
          "value": 2,
          "string": "2"
        }
      },
      {
        "id": 192,
        "name": "Power-Off_Retract_Count",
        "value": 200,
        "worst": 200,
        "thresh": 0,
        "when_failed": "",
        "flags": {
          "value": 50,
          "string": "-O--CK ",
          "prefailure": false,
          "updated_online": true,
          "performance": false,
          "error_rate": false,
          "event_count": true,
          "auto_keep": true
        },
        "raw": {
          "value": 0,
          "string": "0"
        }
      },
      {
        "id": 193,
        "name": "Load_Cycle_Count",
        "value": 200,
        "worst": 200,
        "thresh": 0,
        "when_failed": "",
        "flags": {
          "value": 50,
          "string": "-O--CK ",
          "prefailure": false,
          "updated_online": true,
          "performance": false,
          "error_rate": false,
          "event_count": true,
          "auto_keep": true
        },
        "raw": {
          "value": 2,
          "string": "2"
        }
      },
      {
        "id": 194,
        "name": "Temperature_Celsius",
        "value": 126,
        "worst": 115,
        "thresh": 0,
        "when_failed": "",
        "flags": {
          "value": 34,
          "string": "-O---K ",
          "prefailure": false,
          "updated_online": true,
          "performance": false,
          "error_rate": false,
          "event_count": false,
          "auto_keep": true
        },
        "raw": {
          "value": 26,
          "string": "26"
        }
      },
      {
        "id": 196,
        "name": "Reallocated_Event_Count",
        "value": 200,
        "worst": 200,
        "thresh": 0,
        "when_failed": "",
        "flags": {
          "value": 50,
          "string": "-O--CK ",
          "prefailure": false,
          "updated_online": true,
          "performance": false,
          "error_rate": false,
          "event_count": true,
          "auto_keep": true
        },
        "raw": {
          "value": 0,
          "string": "0"
        }
      },
      {
        "id": 197,
        "name": "Current_Pending_Sector",
        "value": 200,
        "worst": 200,
        "thresh": 0,
        "when_failed": "",
        "flags": {
          "value": 50,
          "string": "-O--CK ",
          "prefailure": false,
          "updated_online": true,
          "performance": false,
          "error_rate": false,
          "event_count": true,
          "auto_keep": true
        },
        "raw": {
          "value": 0,
          "string": "0"
        }
      },
      {
        "id": 198,
        "name": "Offline_Uncorrectable",
        "value": 100,
        "worst": 253,
        "thresh": 0,
        "when_failed": "",
        "flags": {
          "value": 48,
          "string": "----CK ",
          "prefailure": false,
          "updated_online": false,
          "performance": false,
          "error_rate": false,
          "event_count": true,
          "auto_keep": true
        },
        "raw": {
          "value": 0,
          "string": "0"
        }
      },
      {
        "id": 199,
        "name": "UDMA_CRC_Error_Count",
        "value": 200,
        "worst": 200,
        "thresh": 0,
        "when_failed": "",
        "flags": {
          "value": 50,
          "string": "-O--CK ",
          "prefailure": false,
          "updated_online": true,
          "performance": false,
          "error_rate": false,
          "event_count": true,
          "auto_keep": true
        },
        "raw": {
          "value": 0,
          "string": "0"
        }
      },
      {
        "id": 200,
        "name": "Multi_Zone_Error_Rate",
        "value": 200,
        "worst": 200,
        "thresh": 0,
        "when_failed": "",
        "flags": {
          "value": 8,
          "string": "---R-- ",
          "prefailure": false,
          "updated_online": false,
          "performance": false,
          "error_rate": true,
          "event_count": false,
          "auto_keep": false
        },
        "raw": {
          "value": 0,
          "string": "0"
        }
      }
    ]
  },
  "power_on_time": {
    "hours": 124
  },
  "power_cycle_count": 2,
  "temperature": {
    "current": 26,
    "power_cycle_min": 25,
    "power_cycle_max": 25,
    "lifetime_min": 29,
    "lifetime_max": 37,
    "op_limit_min": 0,
    "op_limit_max": 60,
    "limit_min": -41,
    "limit_max": 85,
    "lifetime_over_limit_minutes": 0,
    "lifetime_under_limit_minutes": 0
  },
  "ata_log_directory": {
    "gp_dir_version": 1,
    "smart_dir_version": 1,
    "smart_dir_multi_sector": true,
    "table": [
      {
        "address": 0,
        "name": "Log Directory",
        "read": true,
        "write": false,
        "gp_sectors": 1,
        "smart_sectors": 1
      },
      {
        "address": 1,
        "name": "Summary SMART error log",
        "read": true,
        "write": false,
        "smart_sectors": 1
      },
      {
        "address": 2,
        "name": "Comprehensive SMART error log",
        "read": true,
        "write": false,
        "smart_sectors": 5
      },
      {
        "address": 3,
        "name": "Ext. Comprehensive SMART error log",
        "read": true,
        "write": false,
        "gp_sectors": 6
      },
      {
        "address": 4,
        "name": "Device Statistics log",
        "read": true,
        "write": false,
        "gp_sectors": 8,
        "smart_sectors": 8
      },
      {
        "address": 6,
        "name": "SMART self-test log",
        "read": true,
        "write": false,
        "smart_sectors": 1
      },
      {
        "address": 7,
        "name": "Extended self-test log",
        "read": true,
        "write": false,
        "gp_sectors": 1
      },
      {
        "address": 9,
        "name": "Selective self-test log",
        "read": true,
        "write": true,
        "smart_sectors": 1
      },
      {
        "address": 12,
        "name": "Pending Defects log",
        "read": true,
        "write": false,
        "gp_sectors": 2048
      },
      {
        "address": 16,
        "name": "NCQ Command Error log",
        "read": true,
        "write": false,
        "gp_sectors": 1
      },
      {
        "address": 17,
        "name": "SATA Phy Event Counters log",
        "read": true,
        "write": false,
        "gp_sectors": 1
      },
      {
        "address": 33,
        "name": "Write stream error log",
        "read": true,
        "write": false,
        "gp_sectors": 1
      },
      {
        "address": 34,
        "name": "Read stream error log",
        "read": true,
        "write": false,
        "gp_sectors": 1
      },
      {
        "address": 48,
        "name": "IDENTIFY DEVICE data log",
        "read": true,
        "write": false,
        "gp_sectors": 9,
        "smart_sectors": 9
      },
      {
        "address": 128,
        "name": "Host vendor specific log",
        "read": true,
        "write": true,
        "gp_sectors": 16,
        "smart_sectors": 16
      },
      {
        "address": 129,
        "name": "Host vendor specific log",
        "read": true,
        "write": true,
        "gp_sectors": 16,
        "smart_sectors": 16
      },
      {
        "address": 130,
        "name": "Host vendor specific log",
        "read": true,
        "write": true,
        "gp_sectors": 16,
        "smart_sectors": 16
      },
      {
        "address": 131,
        "name": "Host vendor specific log",
        "read": true,
        "write": true,
        "gp_sectors": 16,
        "smart_sectors": 16
      },
      {
        "address": 132,
        "name": "Host vendor specific log",
        "read": true,
        "write": true,
        "gp_sectors": 16,
        "smart_sectors": 16
      },
      {
        "address": 133,
        "name": "Host vendor specific log",
        "read": true,
        "write": true,
        "gp_sectors": 16,
        "smart_sectors": 16
      },
      {
        "address": 134,
        "name": "Host vendor specific log",
        "read": true,
        "write": true,
        "gp_sectors": 16,
        "smart_sectors": 16
      },
      {
        "address": 135,
        "name": "Host vendor specific log",
        "read": true,
        "write": true,
        "gp_sectors": 16,
        "smart_sectors": 16
      },
      {
        "address": 136,
        "name": "Host vendor specific log",
        "read": true,
        "write": true,
        "gp_sectors": 16,
        "smart_sectors": 16
      },
      {
        "address": 137,
        "name": "Host vendor specific log",
        "read": true,
        "write": true,
        "gp_sectors": 16,
        "smart_sectors": 16
      },
      {
        "address": 138,
        "name": "Host vendor specific log",
        "read": true,
        "write": true,
        "gp_sectors": 16,
        "smart_sectors": 16
      },
      {
        "address": 139,
        "name": "Host vendor specific log",
        "read": true,
        "write": true,
        "gp_sectors": 16,
        "smart_sectors": 16
      },
      {
        "address": 140,
        "name": "Host vendor specific log",
        "read": true,
        "write": true,
        "gp_sectors": 16,
        "smart_sectors": 16
      },
      {
        "address": 141,
        "name": "Host vendor specific log",
        "read": true,
        "write": true,
        "gp_sectors": 16,
        "smart_sectors": 16
      },
      {
        "address": 142,
        "name": "Host vendor specific log",
        "read": true,
        "write": true,
        "gp_sectors": 16,
        "smart_sectors": 16
      },
      {
        "address": 143,
        "name": "Host vendor specific log",
        "read": true,
        "write": true,
        "gp_sectors": 16,
        "smart_sectors": 16
      },
      {
        "address": 144,
        "name": "Host vendor specific log",
        "read": true,
        "write": true,
        "gp_sectors": 16,
        "smart_sectors": 16
      },
      {
        "address": 145,
        "name": "Host vendor specific log",
        "read": true,
        "write": true,
        "gp_sectors": 16,
        "smart_sectors": 16
      },
      {
        "address": 146,
        "name": "Host vendor specific log",
        "read": true,
        "write": true,
        "gp_sectors": 16,
        "smart_sectors": 16
      },
      {
        "address": 147,
        "name": "Host vendor specific log",
        "read": true,
        "write": true,
        "gp_sectors": 16,
        "smart_sectors": 16
      },
      {
        "address": 148,
        "name": "Host vendor specific log",
        "read": true,
        "write": true,
        "gp_sectors": 16,
        "smart_sectors": 16
      },
      {
        "address": 149,
        "name": "Host vendor specific log",
        "read": true,
        "write": true,
        "gp_sectors": 16,
        "smart_sectors": 16
      },
      {
        "address": 150,
        "name": "Host vendor specific log",
        "read": true,
        "write": true,
        "gp_sectors": 16,
        "smart_sectors": 16
      },
      {
        "address": 151,
        "name": "Host vendor specific log",
        "read": true,
        "write": true,
        "gp_sectors": 16,
        "smart_sectors": 16
      },
      {
        "address": 152,
        "name": "Host vendor specific log",
        "read": true,
        "write": true,
        "gp_sectors": 16,
        "smart_sectors": 16
      },
      {
        "address": 153,
        "name": "Host vendor specific log",
        "read": true,
        "write": true,
        "gp_sectors": 16,
        "smart_sectors": 16
      },
      {
        "address": 154,
        "name": "Host vendor specific log",
        "read": true,
        "write": true,
        "gp_sectors": 16,
        "smart_sectors": 16
      },
      {
        "address": 155,
        "name": "Host vendor specific log",
        "read": true,
        "write": true,
        "gp_sectors": 16,
        "smart_sectors": 16
      },
      {
        "address": 156,
        "name": "Host vendor specific log",
        "read": true,
        "write": true,
        "gp_sectors": 16,
        "smart_sectors": 16
      },
      {
        "address": 157,
        "name": "Host vendor specific log",
        "read": true,
        "write": true,
        "gp_sectors": 16,
        "smart_sectors": 16
      },
      {
        "address": 158,
        "name": "Host vendor specific log",
        "read": true,
        "write": true,
        "gp_sectors": 16,
        "smart_sectors": 16
      },
      {
        "address": 159,
        "name": "Host vendor specific log",
        "read": true,
        "write": true,
        "gp_sectors": 16,
        "smart_sectors": 16
      },
      {
        "address": 160,
        "name": "Device vendor specific log",
        "gp_sectors": 16,
        "smart_sectors": 16
      },
      {
        "address": 161,
        "name": "Device vendor specific log",
        "gp_sectors": 16,
        "smart_sectors": 16
      },
      {
        "address": 162,
        "name": "Device vendor specific log",
        "gp_sectors": 16,
        "smart_sectors": 16
      },
      {
        "address": 163,
        "name": "Device vendor specific log",
        "gp_sectors": 16,
        "smart_sectors": 16
      },
      {
        "address": 164,
        "name": "Device vendor specific log",
        "gp_sectors": 16,
        "smart_sectors": 16
      },
      {
        "address": 165,
        "name": "Device vendor specific log",
        "gp_sectors": 16,
        "smart_sectors": 16
      },
      {
        "address": 166,
        "name": "Device vendor specific log",
        "gp_sectors": 16,
        "smart_sectors": 16
      },
      {
        "address": 167,
        "name": "Device vendor specific log",
        "gp_sectors": 16,
        "smart_sectors": 16
      },
      {
        "address": 168,
        "name": "Device vendor specific log",
        "gp_sectors": 1,
        "smart_sectors": 1
      },
      {
        "address": 169,
        "name": "Device vendor specific log",
        "gp_sectors": 1,
        "smart_sectors": 1
      },
      {
        "address": 170,
        "name": "Device vendor specific log",
        "gp_sectors": 1,
        "smart_sectors": 1
      },
      {
        "address": 171,
        "name": "Device vendor specific log",
        "gp_sectors": 1,
        "smart_sectors": 1
      },
      {
        "address": 172,
        "name": "Device vendor specific log",
        "gp_sectors": 1,
        "smart_sectors": 1
      },
      {
        "address": 173,
        "name": "Device vendor specific log",
        "gp_sectors": 1,
        "smart_sectors": 1
      },
      {
        "address": 174,
        "name": "Device vendor specific log",
        "gp_sectors": 1,
        "smart_sectors": 1
      },
      {
        "address": 175,
        "name": "Device vendor specific log",
        "gp_sectors": 1,
        "smart_sectors": 1
      },
      {
        "address": 176,
        "name": "Device vendor specific log",
        "gp_sectors": 1,
        "smart_sectors": 1
      },
      {
        "address": 177,
        "name": "Device vendor specific log",
        "gp_sectors": 1,
        "smart_sectors": 1
      },
      {
        "address": 178,
        "name": "Device vendor specific log",
        "gp_sectors": 1,
        "smart_sectors": 1
      },
      {
        "address": 179,
        "name": "Device vendor specific log",
        "gp_sectors": 1,
        "smart_sectors": 1
      },
      {
        "address": 180,
        "name": "Device vendor specific log",
        "gp_sectors": 1,
        "smart_sectors": 1
      },
      {
        "address": 181,
        "name": "Device vendor specific log",
        "gp_sectors": 1,
        "smart_sectors": 1
      },
      {
        "address": 182,
        "name": "Device vendor specific log",
        "gp_sectors": 1,
        "smart_sectors": 1
      },
      {
        "address": 183,
        "name": "Device vendor specific log",
        "gp_sectors": 54,
        "smart_sectors": 54
      },
      {
        "address": 189,
        "name": "Device vendor specific log",
        "gp_sectors": 1,
        "smart_sectors": 1
      },
      {
        "address": 192,
        "name": "Device vendor specific log",
        "gp_sectors": 1,
        "smart_sectors": 1
      },
      {
        "address": 193,
        "name": "Device vendor specific log",
        "gp_sectors": 93
      },
      {
        "address": 224,
        "name": "SCT Command/Status",
        "read": true,
        "write": true,
        "gp_sectors": 1,
        "smart_sectors": 1
      },
      {
        "address": 225,
        "name": "SCT Data Transfer",
        "read": true,
        "write": true,
        "gp_sectors": 1,
        "smart_sectors": 1
      }
    ]
  },
  "ata_smart_error_log": {
    "extended": {
      "revision": 1,
      "sectors": 6,
      "count": 0
    }
  },
  "ata_smart_self_test_log": {
    "extended": {
      "revision": 1,
      "sectors": 1,
      "table": [
        {
          "type": {
            "value": 2,
            "string": "Extended offline"
          },
          "status": {
            "value": 0,
            "string": "Completed without error",
            "passed": true
          },
          "lifetime_hours": 110
        },
        {
          "type": {
            "value": 3,
            "string": "Conveyance offline"
          },
          "status": {
            "value": 0,
            "string": "Completed without error",
            "passed": true
          },
          "lifetime_hours": 0
        },
        {
          "type": {
            "value": 1,
            "string": "Short offline"
          },
          "status": {
            "value": 0,
            "string": "Completed without error",
            "passed": true
          },
          "lifetime_hours": 0
        }
      ],
      "count": 3,
      "error_count_total": 0,
      "error_count_outdated": 0
    }
  },
  "ata_smart_selective_self_test_log": {
    "revision": 1,
    "table": [
      {
        "lba_min": 0,
        "lba_max": 0,
        "status": {
          "value": 0,
          "string": "Not_testing"
        }
      },
      {
        "lba_min": 0,
        "lba_max": 0,
        "status": {
          "value": 0,
          "string": "Not_testing"
        }
      },
      {
        "lba_min": 0,
        "lba_max": 0,
        "status": {
          "value": 0,
          "string": "Not_testing"
        }
      },
      {
        "lba_min": 0,
        "lba_max": 0,
        "status": {
          "value": 0,
          "string": "Not_testing"
        }
      },
      {
        "lba_min": 0,
        "lba_max": 0,
        "status": {
          "value": 0,
          "string": "Not_testing"
        }
      }
    ],
    "flags": {
      "value": 0,
      "remainder_scan_enabled": false
    },
    "power_up_scan_resume_minutes": 0
  },
  "ata_sct_status": {
    "format_version": 3,
    "sct_version": 258,
    "device_state": {
      "value": 0,
      "string": "Active"
    },
    "temperature": {
      "current": 25,
      "power_cycle_min": 25,
      "power_cycle_max": 25,
      "lifetime_min": 25,
      "lifetime_max": 37,
      "under_limit_count": 0,
      "over_limit_count": 0
    },
    "vendor_specific": [
      1,
      0,
      0,
      0,
      0,
      0,
      0,
      0,
      0,
      0,
      0,
      0,
      0,
      0,
      0,
      0,
      0,
      0,
      0,
      0,
      0,
      0,
      0,
      0,
      0,
      0,
      0,
      0,
      0,
      0,
      0,
      0
    ]
  },
  "ata_sct_temperature_history": {
    "version": 2,
    "sampling_period_minutes": 1,
    "logging_interval_minutes": 1,
    "temperature": {
      "op_limit_min": 0,
      "op_limit_max": 60,
      "limit_min": -41,
      "limit_max": 85
    },
    "size": 478,
    "index": 275,
    "table": [
      34,
      34,
      34,
      34,
      34,
      34,
      34,
      34,
      34,
      34,
      34,
      34,
      34,
      34,
      34,
      34,
      34,
      34,
      34,
      34,
      34,
      34,
      34,
      34,
      34,
      34,
      34,
      34,
      34,
      34,
      34,
      34,
      34,
      34,
      34,
      34,
      34,
      34,
      34,
      34,
      34,
      34,
      34,
      34,
      34,
      34,
      34,
      34,
      34,
      34,
      34,
      34,
      34,
      34,
      34,
      34,
      34,
      34,
      34,
      34,
      34,
      34,
      34,
      34,
      34,
      34,
      34,
      34,
      34,
      34,
      34,
      34,
      34,
      34,
      34,
      34,
      34,
      34,
      34,
      34,
      34,
      34,
      34,
      34,
      34,
      34,
      34,
      34,
      34,
      34,
      34,
      34,
      34,
      34,
      34,
      34,
      34,
      34,
      34,
      34,
      34,
      34,
      34,
      34,
      34,
      34,
      34,
      34,
      34,
      34,
      34,
      34,
      34,
      34,
      34,
      34,
      34,
      34,
      34,
      34,
      34,
      34,
      34,
      34,
      34,
      34,
      34,
      34,
      34,
      34,
      34,
      34,
      34,
      34,
      34,
      34,
      34,
      34,
      34,
      34,
      34,
      34,
      34,
      34,
      34,
      34,
      34,
      34,
      34,
      34,
      34,
      34,
      34,
      34,
      34,
      34,
      34,
      34,
      34,
      34,
      34,
      34,
      34,
      34,
      34,
      34,
      34,
      34,
      34,
      34,
      34,
      34,
      34,
      34,
      34,
      34,
      34,
      34,
      34,
      34,
      34,
      34,
      34,
      34,
      34,
      34,
      34,
      34,
      34,
      34,
      34,
      34,
      34,
      34,
      34,
      34,
      34,
      34,
      34,
      34,
      34,
      34,
      34,
      34,
      34,
      34,
      34,
      34,
      34,
      34,
      34,
      34,
      34,
      34,
      34,
      34,
      34,
      34,
      34,
      34,
      34,
      34,
      34,
      34,
      34,
      34,
      34,
      34,
      34,
      34,
      34,
      34,
      34,
      34,
      34,
      34,
      34,
      34,
      34,
      34,
      34,
      34,
      34,
      34,
      34,
      34,
      34,
      34,
      34,
      34,
      34,
      34,
      34,
      34,
      34,
      34,
      34,
      34,
      34,
      34,
      34,
      34,
      34,
      34,
      34,
      34,
      34,
      34,
      34,
      34,
      34,
      34,
      34,
      34,
      34,
      34,
      34,
      34,
      34,
      34,
      34,
      34,
      34,
      34,
      34,
      34,
      34,
      34,
      34,
      34,
      34,
      34,
      34,
      34,
      34,
      34,
      34,
      34,
      34,
      34,
      34,
      34,
      34,
      34,
      34,
      34,
      34,
      34,
      34,
      34,
      34,
      34,
      34,
      34,
      34,
      34,
      34,
      34,
      34,
      34,
      34,
      34,
      34,
      34,
      34,
      34,
      34,
      34,
      34,
      34,
      34,
      34,
      34,
      34,
      34,
      34,
      34,
      34,
      34,
      34,
      34,
      34,
      34,
      34,
      34,
      34,
      34,
      34,
      34,
      34,
      34,
      34,
      34,
      34,
      34,
      34,
      34,
      34,
      34,
      34,
      34,
      34,
      34,
      34,
      34,
      34,
      34,
      34,
      34,
      34,
      34,
      34,
      34,
      34,
      34,
      34,
      34,
      34,
      34,
      34,
      34,
      34,
      34,
      34,
      34,
      34,
      34,
      34,
      34,
      34,
      34,
      34,
      34,
      34,
      34,
      34,
      34,
      34,
      34,
      34,
      34,
      34,
      34,
      34,
      34,
      34,
      34,
      34,
      34,
      34,
      34,
      34,
      34,
      34,
      34,
      34,
      34,
      34,
      34,
      34,
      34,
      34,
      34,
      34,
      34,
      34,
      34,
      34,
      34,
      34,
      34,
      34,
      34,
      34,
      34,
      34,
      34,
      34,
      34,
      34,
      34,
      34,
      34,
      34,
      34,
      34,
      34,
      34,
      34,
      34,
      34,
      34,
      34,
      34,
      34,
      34,
      34,
      34,
      34,
      34,
      34,
      34,
      34,
      34,
      34,
      34,
      34,
      34,
      34,
      34,
      34,
      34,
      34,
      34,
      34,
      null,
      25,
      25
    ]
  },
  "ata_sct_erc": {
    "read": {
      "enabled": true,
      "deciseconds": 70
    },
    "write": {
      "enabled": true,
      "deciseconds": 70
    }
  },
  "ata_device_statistics": {
    "pages": [
      {
        "number": 1,
        "name": "General Statistics",
        "revision": 2,
        "table": [
          {
            "offset": 8,
            "name": "Lifetime Power-On Resets",
            "size": 4,
            "value": 2,
            "flags": {
              "value": 192,
              "string": "V--- ",
              "valid": true,
              "normalized": false,
              "supports_dsn": false,
              "monitored_condition_met": false
            }
          },
          {
            "offset": 16,
            "name": "Power-on Hours",
            "size": 4,
            "value": 124,
            "flags": {
              "value": 192,
              "string": "V--- ",
              "valid": true,
              "normalized": false,
              "supports_dsn": false,
              "monitored_condition_met": false
            }
          },
          {
            "offset": 24,
            "name": "Logical Sectors Written",
            "size": 6,
            "value": 46884180684,
            "flags": {
              "value": 192,
              "string": "V--- ",
              "valid": true,
              "normalized": false,
              "supports_dsn": false,
              "monitored_condition_met": false
            }
          },
          {
            "offset": 32,
            "name": "Number of Write Commands",
            "size": 6,
            "value": 91571334,
            "flags": {
              "value": 192,
              "string": "V--- ",
              "valid": true,
              "normalized": false,
              "supports_dsn": false,
              "monitored_condition_met": false
            }
          },
          {
            "offset": 40,
            "name": "Logical Sectors Read",
            "size": 6,
            "value": 46884199873,
            "flags": {
              "value": 192,
              "string": "V--- ",
              "valid": true,
              "normalized": false,
              "supports_dsn": false,
              "monitored_condition_met": false
            }
          },
          {
            "offset": 48,
            "name": "Number of Read Commands",
            "size": 6,
            "value": 91571038,
            "flags": {
              "value": 192,
              "string": "V--- ",
              "valid": true,
              "normalized": false,
              "supports_dsn": false,
              "monitored_condition_met": false
            }
          }
        ]
      },
      {
        "number": 3,
        "name": "Rotating Media Statistics",
        "revision": 1,
        "table": [
          {
            "offset": 8,
            "name": "Spindle Motor Power-on Hours",
            "size": 4,
            "value": 123,
            "flags": {
              "value": 192,
              "string": "V--- ",
              "valid": true,
              "normalized": false,
              "supports_dsn": false,
              "monitored_condition_met": false
            }
          },
          {
            "offset": 16,
            "name": "Head Flying Hours",
            "size": 4,
            "value": 123,
            "flags": {
              "value": 192,
              "string": "V--- ",
              "valid": true,
              "normalized": false,
              "supports_dsn": false,
              "monitored_condition_met": false
            }
          },
          {
            "offset": 24,
            "name": "Head Load Events",
            "size": 4,
            "value": 2,
            "flags": {
              "value": 192,
              "string": "V--- ",
              "valid": true,
              "normalized": false,
              "supports_dsn": false,
              "monitored_condition_met": false
            }
          },
          {
            "offset": 32,
            "name": "Number of Reallocated Logical Sectors",
            "size": 4,
            "value": 0,
            "flags": {
              "value": 192,
              "string": "V--- ",
              "valid": true,
              "normalized": false,
              "supports_dsn": false,
              "monitored_condition_met": false
            }
          },
          {
            "offset": 40,
            "name": "Read Recovery Attempts",
            "size": 4,
            "value": 0,
            "flags": {
              "value": 192,
              "string": "V--- ",
              "valid": true,
              "normalized": false,
              "supports_dsn": false,
              "monitored_condition_met": false
            }
          },
          {
            "offset": 48,
            "name": "Number of Mechanical Start Failures",
            "size": 4,
            "value": 0,
            "flags": {
              "value": 192,
              "string": "V--- ",
              "valid": true,
              "normalized": false,
              "supports_dsn": false,
              "monitored_condition_met": false
            }
          }
        ]
      },
      {
        "number": 4,
        "name": "General Errors Statistics",
        "revision": 1,
        "table": [
          {
            "offset": 8,
            "name": "Number of Reported Uncorrectable Errors",
            "size": 4,
            "value": 0,
            "flags": {
              "value": 192,
              "string": "V--- ",
              "valid": true,
              "normalized": false,
              "supports_dsn": false,
              "monitored_condition_met": false
            }
          },
          {
            "offset": 16,
            "name": "Resets Between Cmd Acceptance and Completion",
            "size": 4,
            "value": 0,
            "flags": {
              "value": 192,
              "string": "V--- ",
              "valid": true,
              "normalized": false,
              "supports_dsn": false,
              "monitored_condition_met": false
            }
          }
        ]
      },
      {
        "number": 5,
        "name": "Temperature Statistics",
        "revision": 1,
        "table": [
          {
            "offset": 8,
            "name": "Current Temperature",
            "size": 1,
            "value": 26,
            "flags": {
              "value": 192,
              "string": "V--- ",
              "valid": true,
              "normalized": false,
              "supports_dsn": false,
              "monitored_condition_met": false
            }
          },
          {
            "offset": 16,
            "name": "Average Short Term Temperature",
            "size": 1,
            "value": 34,
            "flags": {
              "value": 192,
              "string": "V--- ",
              "valid": true,
              "normalized": false,
              "supports_dsn": false,
              "monitored_condition_met": false
            }
          },
          {
            "offset": 24,
            "name": "Average Long Term Temperature",
            "size": 1,
            "flags": {
              "value": 128,
              "string": "---- ",
              "valid": false,
              "normalized": false,
              "supports_dsn": false,
              "monitored_condition_met": false
            }
          },
          {
            "offset": 32,
            "name": "Highest Temperature",
            "size": 1,
            "value": 37,
            "flags": {
              "value": 192,
              "string": "V--- ",
              "valid": true,
              "normalized": false,
              "supports_dsn": false,
              "monitored_condition_met": false
            }
          },
          {
            "offset": 40,
            "name": "Lowest Temperature",
            "size": 1,
            "value": 29,
            "flags": {
              "value": 192,
              "string": "V--- ",
              "valid": true,
              "normalized": false,
              "supports_dsn": false,
              "monitored_condition_met": false
            }
          },
          {
            "offset": 48,
            "name": "Highest Average Short Term Temperature",
            "size": 1,
            "value": 35,
            "flags": {
              "value": 192,
              "string": "V--- ",
              "valid": true,
              "normalized": false,
              "supports_dsn": false,
              "monitored_condition_met": false
            }
          },
          {
            "offset": 56,
            "name": "Lowest Average Short Term Temperature",
            "size": 1,
            "value": 34,
            "flags": {
              "value": 192,
              "string": "V--- ",
              "valid": true,
              "normalized": false,
              "supports_dsn": false,
              "monitored_condition_met": false
            }
          },
          {
            "offset": 64,
            "name": "Highest Average Long Term Temperature",
            "size": 1,
            "flags": {
              "value": 128,
              "string": "---- ",
              "valid": false,
              "normalized": false,
              "supports_dsn": false,
              "monitored_condition_met": false
            }
          },
          {
            "offset": 72,
            "name": "Lowest Average Long Term Temperature",
            "size": 1,
            "flags": {
              "value": 128,
              "string": "---- ",
              "valid": false,
              "normalized": false,
              "supports_dsn": false,
              "monitored_condition_met": false
            }
          },
          {
            "offset": 80,
            "name": "Time in Over-Temperature",
            "size": 4,
            "value": 0,
            "flags": {
              "value": 192,
              "string": "V--- ",
              "valid": true,
              "normalized": false,
              "supports_dsn": false,
              "monitored_condition_met": false
            }
          },
          {
            "offset": 88,
            "name": "Specified Maximum Operating Temperature",
            "size": 1,
            "value": 60,
            "flags": {
              "value": 192,
              "string": "V--- ",
              "valid": true,
              "normalized": false,
              "supports_dsn": false,
              "monitored_condition_met": false
            }
          },
          {
            "offset": 96,
            "name": "Time in Under-Temperature",
            "size": 4,
            "value": 0,
            "flags": {
              "value": 192,
              "string": "V--- ",
              "valid": true,
              "normalized": false,
              "supports_dsn": false,
              "monitored_condition_met": false
            }
          },
          {
            "offset": 104,
            "name": "Specified Minimum Operating Temperature",
            "size": 1,
            "value": 0,
            "flags": {
              "value": 192,
              "string": "V--- ",
              "valid": true,
              "normalized": false,
              "supports_dsn": false,
              "monitored_condition_met": false
            }
          }
        ]
      },
      {
        "number": 6,
        "name": "Transport Statistics",
        "revision": 1,
        "table": [
          {
            "offset": 8,
            "name": "Number of Hardware Resets",
            "size": 4,
            "value": 10,
            "flags": {
              "value": 192,
              "string": "V--- ",
              "valid": true,
              "normalized": false,
              "supports_dsn": false,
              "monitored_condition_met": false
            }
          },
          {
            "offset": 16,
            "name": "Number of ASR Events",
            "size": 4,
            "value": 5,
            "flags": {
              "value": 192,
              "string": "V--- ",
              "valid": true,
              "normalized": false,
              "supports_dsn": false,
              "monitored_condition_met": false
            }
          },
          {
            "offset": 24,
            "name": "Number of Interface CRC Errors",
            "size": 4,
            "value": 0,
            "flags": {
              "value": 192,
              "string": "V--- ",
              "valid": true,
              "normalized": false,
              "supports_dsn": false,
              "monitored_condition_met": false
            }
          }
        ]
      }
    ]
  },
  "ata_pending_defects_log": {
    "size": 65535,
    "count": 0
  },
  "sata_phy_event_counters": {
    "table": [
      {
        "id": 1,
        "name": "Command failed due to ICRC error",
        "size": 2,
        "value": 0,
        "overflow": false
      },
      {
        "id": 2,
        "name": "R_ERR response for data FIS",
        "size": 2,
        "value": 0,
        "overflow": false
      },
      {
        "id": 3,
        "name": "R_ERR response for device-to-host data FIS",
        "size": 2,
        "value": 0,
        "overflow": false
      },
      {
        "id": 4,
        "name": "R_ERR response for host-to-device data FIS",
        "size": 2,
        "value": 0,
        "overflow": false
      },
      {
        "id": 5,
        "name": "R_ERR response for non-data FIS",
        "size": 2,
        "value": 0,
        "overflow": false
      },
      {
        "id": 6,
        "name": "R_ERR response for device-to-host non-data FIS",
        "size": 2,
        "value": 0,
        "overflow": false
      },
      {
        "id": 7,
        "name": "R_ERR response for host-to-device non-data FIS",
        "size": 2,
        "value": 0,
        "overflow": false
      },
      {
        "id": 8,
        "name": "Device-to-host non-data FIS retries",
        "size": 2,
        "value": 0,
        "overflow": false
      },
      {
        "id": 9,
        "name": "Transition from drive PhyRdy to drive PhyNRdy",
        "size": 2,
        "value": 0,
        "overflow": false
      },
      {
        "id": 10,
        "name": "Device-to-host register FISes sent due to a COMRESET",
        "size": 2,
        "value": 1,
        "overflow": false
      },
      {
        "id": 11,
        "name": "CRC errors within host-to-device FIS",
        "size": 2,
        "value": 0,
        "overflow": false
      },
      {
        "id": 13,
        "name": "Non-CRC errors within host-to-device FIS",
        "size": 2,
        "value": 0,
        "overflow": false
      },
      {
        "id": 15,
        "name": "R_ERR response for host-to-device data FIS, CRC",
        "size": 2,
        "value": 0,
        "overflow": false
      },
      {
        "id": 18,
        "name": "R_ERR response for host-to-device non-data FIS, CRC",
        "size": 2,
        "value": 0,
        "overflow": false
      },
      {
        "id": 32768,
        "name": "Vendor specific",
        "size": 4,
        "value": 109,
        "overflow": false
      }
    ],
    "reset": false
  }
}
