smartctl 7.2 2020-12-30 r5155 [x86_64-linux-5.13.0-21-generic] (local build)
Copyright (C) 2002-20, Bruce Allen, Christian Franke, www.smartmontools.org

=== START OF INFORMATION SECTION ===
Model Family:     Western Digital Caviar Blue (SATA)
Device Model:     WDC WD5000AAKS-00TMA0
Serial Number:    WD-WCAPW1584331
LU WWN Device Id: 5 0014ee 2003b3f91
Firmware Version: 12.01C01
User Capacity:    500,107,862,016 bytes [500 GB]
Sector Size:      512 bytes logical/physical
Device is:        In smartctl database [for details use: -P show]
ATA Version is:   ATA/ATAPI-7 (minor revision not indicated)
Local Time is:    Mon Jan  3 19:21:44 2022 MST
SMART support is: Available - device has SMART capability.
SMART support is: Enabled
AAM level is:     254 (maximum performance), recommended: 128
APM feature is:   Unavailable
Rd look-ahead is: Enabled
Write cache is:   Enabled
DSN feature is:   Unavailable
ATA Security is:  Disabled, NOT FROZEN [SEC1]
Wt Cache Reorder: Enabled

=== START OF READ SMART DATA SECTION ===
SMART overall-health self-assessment test result: PASSED

General SMART Values:
Offline data collection status:  (0x84)	Offline data collection activity
					was suspended by an interrupting command from host.
					Auto Offline Data Collection: Enabled.
Self-test execution status:      (   0)	The previous self-test routine completed
					without error or no self-test has ever 
					been run.
Total time to complete Offline 
data collection: 		(12600) seconds.
Offline data collection
capabilities: 			 (0x7b) SMART execute Offline immediate.
					Auto Offline data collection on/off support.
					Suspend Offline collection upon new
					command.
					Offline surface scan supported.
					Self-test supported.
					Conveyance Self-test supported.
					Selective Self-test supported.
SMART capabilities:            (0x0003)	Saves SMART data before entering
					power-saving mode.
					Supports SMART auto save timer.
Error logging capability:        (0x01)	Error logging supported.
					General Purpose Logging supported.
Short self-test routine 
recommended polling time: 	 (   2) minutes.
Extended self-test routine
recommended polling time: 	 ( 157) minutes.
Conveyance self-test routine
recommended polling time: 	 (   6) minutes.
SCT capabilities: 	       (0x303f)	SCT Status supported.
					SCT Error Recovery Control supported.
					SCT Feature Control supported.
					SCT Data Table supported.

SMART Attributes Data Structure revision number: 16
Vendor Specific SMART Attributes with Thresholds:
ID# ATTRIBUTE_NAME          FLAGS    VALUE WORST THRESH FAIL RAW_VALUE
  1 Raw_Read_Error_Rate     POSR--   200   200   051    -    0
  3 Spin_Up_Time            PO----   168   162   021    -    6566
  4 Start_Stop_Count        -O--CK   094   094   000    -    6374
  5 Reallocated_Sector_Ct   PO--CK   200   200   140    -    0
  7 Seek_Error_Rate         -OSR--   200   200   051    -    0
  9 Power_On_Hours          -O--CK   064   064   000    -    26302
 10 Spin_Retry_Count        -O--C-   100   100   051    -    0
 11 Calibration_Retry_Count -O--C-   100   100   051    -    0
 12 Power_Cycle_Count       -O--CK   100   100   000    -    266
192 Power-Off_Retract_Count -O--CK   200   200   000    -    69
193 Load_Cycle_Count        -O--CK   198   198   000    -    6372
194 Temperature_Celsius     -O---K   127   078   000    -    23
196 Reallocated_Event_Count -O--CK   200   200   000    -    0
197 Current_Pending_Sector  -O--C-   200   200   000    -    0
198 Offline_Uncorrectable   ----C-   200   200   000    -    0
199 UDMA_CRC_Error_Count    -OSRCK   200   200   000    -    0
200 Multi_Zone_Error_Rate   ---R--   200   200   051    -    0
                            ||||||_ K auto-keep
                            |||||__ C event count
                            ||||___ R error rate
                            |||____ S speed/performance
                            ||_____ O updated online
                            |______ P prefailure warning

General Purpose Log Directory Version 1
SMART           Log Directory Version 1 [multi-sector log support]
Address    Access  R/W   Size  Description
0x00       GPL,SL  R/O      1  Log Directory
0x01           SL  R/O      1  Summary SMART error log
0x02           SL  R/O      5  Comprehensive SMART error log
0x03       GPL     R/O      6  Ext. Comprehensive SMART error log
0x06           SL  R/O      1  SMART self-test log
0x07       GPL     R/O      1  Extended self-test log
0x09           SL  R/W      1  Selective self-test log
0x10       GPL     R/O      1  NCQ Command Error log
0x11       GPL     R/O      1  SATA Phy Event Counters log
0x80-0x9f  GPL,SL  R/W     16  Host vendor specific log
0xa0-0xa7  GPL,SL  VS      16  Device vendor specific log
0xa8-0xb7  GPL,SL  VS       1  Device vendor specific log
0xc0       GPL,SL  VS       1  Device vendor specific log
0xe0       GPL,SL  R/W      1  SCT Command/Status
0xe1       GPL,SL  R/W      1  SCT Data Transfer

SMART Extended Comprehensive Error Log Version: 1 (6 sectors)
No Errors Logged

SMART Extended Self-test Log Version: 1 (1 sectors)
No self-tests have been logged.  [To run self-tests, use: smartctl -t]

SMART Selective self-test log data structure revision number 1
 SPAN  MIN_LBA  MAX_LBA  CURRENT_TEST_STATUS
    1        0        0  Not_testing
    2        0        0  Not_testing
    3        0        0  Not_testing
    4        0        0  Not_testing
    5        0        0  Not_testing
Selective self-test flags (0x0):
  After scanning selected spans, do NOT read-scan remainder of disk.
If Selective self-test is pending on power-up, resume after 0 minute delay.

SCT Status Version:                  2
SCT Version (vendor specific):       258 (0x0102)
Device State:                        SMART Off-line Data Collection executing in background (4)
Current Temperature:                    23 Celsius
Power Cycle Min/Max Temperature:     --/23 Celsius
Lifetime    Min/Max Temperature:     --/72 Celsius

SCT Temperature History Version:     2
Temperature Sampling Period:         1 minute
Temperature Logging Interval:        1 minute
Min/Max recommended Temperature:      0/60 Celsius
Min/Max Temperature Limit:           -40/85 Celsius
Temperature History Size (Index):    478 (372)

Index    Estimated Time   Temperature Celsius
 373    2022-01-03 11:24     0  -
 ...    ..(103 skipped).    ..  -
 477    2022-01-03 13:08     0  -
   0    2022-01-03 13:09    42  ***********************
 ...    ..( 77 skipped).    ..  ***********************
  78    2022-01-03 14:27    42  ***********************
  79    2022-01-03 14:28    41  **********************
 ...    ..(  5 skipped).    ..  **********************
  85    2022-01-03 14:34    41  **********************
  86    2022-01-03 14:35     ?  -
  87    2022-01-03 14:36    24  *****
  88    2022-01-03 14:37     ?  -
  89    2022-01-03 14:38    13  -
  90    2022-01-03 14:39    14  -
  91    2022-01-03 14:40    15  -
  92    2022-01-03 14:41    17  -
  93    2022-01-03 14:42    18  -
  94    2022-01-03 14:43    19  -
  95    2022-01-03 14:44    20  *
  96    2022-01-03 14:45    21  **
  97    2022-01-03 14:46    22  ***
  98    2022-01-03 14:47    23  ****
  99    2022-01-03 14:48    24  *****
 100    2022-01-03 14:49    25  ******
 101    2022-01-03 14:50    26  *******
 102    2022-01-03 14:51    26  *******
 103    2022-01-03 14:52    27  ********
 104    2022-01-03 14:53    27  ********
 105    2022-01-03 14:54    28  *********
 106    2022-01-03 14:55    29  **********
 107    2022-01-03 14:56    29  **********
 108    2022-01-03 14:57    30  ***********
 109    2022-01-03 14:58    30  ***********
 110    2022-01-03 14:59    31  ************
 111    2022-01-03 15:00    31  ************
 112    2022-01-03 15:01    31  ************
 113    2022-01-03 15:02    32  *************
 114    2022-01-03 15:03    32  *************
 115    2022-01-03 15:04    32  *************
 116    2022-01-03 15:05    33  **************
 ...    ..(  2 skipped).    ..  **************
 119    2022-01-03 15:08    33  **************
 120    2022-01-03 15:09    34  ***************
 121    2022-01-03 15:10    34  ***************
 122    2022-01-03 15:11    34  ***************
 123    2022-01-03 15:12    35  ****************
 ...    ..(  3 skipped).    ..  ****************
 127    2022-01-03 15:16    35  ****************
 128    2022-01-03 15:17     0  -
 ...    ..(243 skipped).    ..  -
 372    2022-01-03 19:21     0  -

SCT Error Recovery Control:
           Read: Disabled
          Write: Disabled

Device Statistics (GP/SMART Log 0x04) not supported

Pending Defects log (GP Log 0x0c) not supported

SATA Phy Event Counters (GP Log 0x11)
ID      Size     Value  Description
0x0001  2            0  Command failed due to ICRC error
0x0002  2            0  R_ERR response for data FIS
0x0003  2            0  R_ERR response for device-to-host data FIS
0x0004  2            0  R_ERR response for host-to-device data FIS
0x0005  2            0  R_ERR response for non-data FIS
0x0006  2            0  R_ERR response for device-to-host non-data FIS
0x0007  2            0  R_ERR response for host-to-device non-data FIS
0x000a  2            1  Device-to-host register FISes sent due to a COMRESET
0x8000  4          191  Vendor specific

