
  +--------------------------------------------------------------------------+
  | ReadSpeed: Hyper-accurate mass storage read-performance benchmark. rel 1 |
  |  Benchmarked values are in megabytes read per second at five locations.  |
  +--------------------------------------------------------------------------+

Driv Size  Drive Identity     Location:    0      25%     50%     75%     100
---- ----- ---------------------------- ------- ------- ------- ------- -------
 81  8.0GB SB M2 SSD                     517.5   524.8   524.9   521.4   520.9 
---- ----- ---------------------------- ------- ------- ------- ------- -------
                                         517.6   524.7   524.9   521.3   520.9 
                                         517.5   524.8   525.0   521.5   520.9 
                                         517.6   524.8   524.9   521.5   520.9 
                                         517.5   524.8   524.9   521.3   520.9 
                                         517.5   524.8   525.0   521.3   520.9 
                                         517.5   524.8   524.9   521.5   520.9 
                                         517.5   524.7   524.9   521.5   520.9 
                                         517.5   524.8   524.9   521.3   521.0 
                                         517.5   524.8   524.9   521.3   520.9 
                                         517.5   524.8   524.9   521.5   521.0 
                                         517.5   524.8   525.0   521.5   520.9 
                                         517.5   524.8   525.0   521.4   520.9 
                                         517.5   524.7   524.9   521.3   521.0 
                                         517.5   524.8   525.0   521.5   520.9 
                                         517.5   524.8   524.9   521.6   520.9 
                                         517.5   524.7   525.0   521.4   521.0 
                                         517.5   524.8   524.9   521.3   520.8 
                                         517.6   524.8   525.0   521.4   520.9 
                                         517.5   524.8   525.0   521.5   520.9 
                                         517.5   524.7   525.0   521.4   521.0 
                                         517.5   524.7   524.9   521.3   520.9 
                                         517.5   524.8   525.0   521.5   520.9 
                                         517.5   524.8   524.9   521.5   520.9 
                                         517.5   524.8   525.0   521.5   521.0 
                                         517.6   524.8   525.0   521.3   520.9 
                                         517.5   524.8   524.9   521.5   520.9 
                                         517.5   524.8   524.9   521.6   520.9 
                                         517.6   524.7   524.9   521.4   521.0 
                                         517.5   524.8   525.0   521.3   520.8 
                                         517.5   524.7   524.9   521.5   521.0 
                                         517.5   524.8   525.0   521.5   521.0 
                                         517.5   524.8   525.0   521.4   520.9 
                                         517.5   524.7   524.9   521.3   520.9 
                                         517.5   524.8   525.0   521.5   520.8 
                                         517.5   524.8   524.9   521.5   520.9 
                                         517.6   524.7   525.0   521.3   521.0 
                                         517.5   524.8   525.0   521.3   520.9 
                                         517.5   524.7   524.9   521.6   520.9 
                                         517.5   524.7   524.9   521.6   520.9 
                                         517.6   524.8   525.0   521.5   520.9 
                                         517.5   524.8   525.0   521.3   521.0 
                                         517.5   524.8   525.0   521.5   520.9 
                                         517.5   524.7   525.0   521.6   520.9 
                                         517.6   524.8   524.9   521.4   520.9 
                                         517.5   524.8   525.0   521.4   520.9 
                                         517.5   524.7   524.9   521.5   520.9 
                                         517.5   524.8   524.9   521.5   520.8 
                                         517.5   524.8   524.9   521.4   520.9 
                                         517.5   524.8   524.9   521.4   521.0 
                                         517.5   524.8   525.0   521.6   520.9 
                                         517.5   524.8   525.0   521.5   520.9 
                                         517.6   524.8   524.9   521.4   521.0 
                                         517.5   524.8   525.0   521.3   520.9 
                                         517.5   524.8   525.0   521.5   521.0 
                                         517.6   524.8   524.9   521.5   520.9 
                                         517.5   524.8   525.0   521.3   520.9 
                                         517.5   524.8   525.0   521.3   521.0 
                                         517.6   524.8   525.0   521.5   520.9 
                                         517.5   524.7   524.9   521.5   520.9 
                                         517.5   524.8   524.9   521.5   520.9 
                                         517.5   524.8   525.0   521.3   520.9 
                                         517.5   524.7   525.0   521.6   521.0 
                                         517.6   524.7   525.0   521.6   520.9 
                                         517.5   524.8   524.9   521.4   521.0 


                  Benchmarked: Sunday, 2021-03-21 at 06:29
 -----------------------------------------------------------------------------
   See the ReadSpeed forums at forums.grc.com for help and community support.  

