
  +--------------------------------------------------------------------------+
  | ReadSpeed: Hyper-accurate mass storage read-performance benchmark. rel 1 |
  |  Benchmarked values are in megabytes read per second at five locations.  |
  +--------------------------------------------------------------------------+

Driv Size  Drive Identity     Location:    0      25%     50%     75%     100
---- ----- ---------------------------- ------- ------- ------- ------- -------
 81  8.0GB SB M2 SSD                     517.2   524.4   524.6   521.2   520.5 
---- ----- ---------------------------- ------- ------- ------- ------- -------
                                         517.1   524.5   524.7   521.2   520.8 
                                         517.0   524.5   524.6   521.2   520.5 
                                         517.3   524.4   524.6   521.3   520.1 
                                         517.2   524.3   524.6   520.8   520.9 
                                         517.2   524.5   524.8   521.1   520.5 
                                         517.3   524.2   524.5   520.9   521.1 
                                         517.1   524.3   524.5   520.9   520.7 
                                         517.3   524.6   525.0   520.9   520.5 
                                         516.9   524.3   524.4   520.9   520.3 
                                         517.5   524.4   524.9   520.9   520.7 
                                         517.2   524.6   524.6   520.8   520.7 
                                         517.0   524.4   524.5   521.7   520.4 
                                         517.4   524.3   524.7   521.3   520.4 
                                         517.1   524.5   524.7   521.4   520.6 
                                         517.3   524.6   524.6   521.0   520.4 
                                         517.2   524.4   524.8   521.5   520.9 
                                         517.1   524.3   524.5   521.1   520.4 
                                         517.1   524.4   524.7   521.2   520.5 
                                         517.4   524.5   524.7   521.5   520.3 
                                         517.2   524.4   524.6   520.8   520.8 
                                         517.3   524.6   524.6   521.4   520.5 
                                         517.1   524.5   524.6   521.2   520.5 
                                         517.1   524.4   524.8   521.2   520.6 
                                         517.4   524.3   524.5   521.4   520.5 
                                         517.2   524.4   524.7   521.2   520.5 
                                         516.9   524.7   524.6   521.4   521.0 
                                         517.1   524.5   524.5   521.3   520.0 
                                         517.1   524.3   524.7   521.1   520.7 
                                         517.3   524.5   524.5   520.9   520.9 
                                         517.2   524.3   524.8   521.6   520.4 
                                         517.2   524.5   524.6   521.1   520.5 
                                         517.1   524.4   524.6   521.4   520.7 
                                         517.2   524.3   524.8   521.6   520.4 
                                         517.0   524.7   524.5   521.1   520.8 
                                         517.2   524.5   524.5   521.3   520.6 
                                         517.3   524.3   524.8   521.2   520.5 
                                         516.9   524.5   524.7   521.0   520.4 
                                         517.5   524.4   524.5   520.9   520.8 
                                         517.3   524.4   524.6   520.9   520.5 
                                         517.1   524.4   524.8   520.7   520.6 
                                         517.3   524.3   524.3   520.9   520.6 
                                         517.2   524.7   525.0   521.1   520.6 
                                         517.0   524.2   524.3   520.8   520.6 
                                         517.2   524.7   524.9   521.4   520.3 
                                         517.3   524.5   524.4   521.5   520.6 
                                         517.2   524.4   524.8   521.3   520.4 
                                         517.2   524.4   524.8   520.9   520.7 
                                         517.2   524.5   524.6   521.6   520.4 
                                         517.3   524.4   524.5   521.2   520.0 
                                         517.0   524.4   524.8   521.3   520.7 
                                         517.3   524.7   524.8   521.3   520.6 
                                         517.1   524.3   524.5   521.3   520.4 
                                         517.2   524.4   524.4   520.9   520.1 
                                         517.2   524.5   524.9   521.5   520.6 
                                         517.1   524.6   524.4   521.3   520.6 
                                         517.2   524.3   524.8   521.2   520.3 
                                         517.0   524.5   524.7   521.1   520.7 
                                         517.2   524.4   524.6   520.9   520.6 
                                         517.0   524.5   524.6   520.8   520.3 
                                         517.5   524.5   524.5   521.6   520.7 
                                         517.3   524.2   524.7   521.2   520.7 
                                         517.2   524.6   524.5   521.3   520.6 
                                         517.0   524.3   524.8   521.2   520.4 
                                         517.2   524.5   524.6   521.8   520.5 
                                         517.4   524.2   524.7   521.3   520.8 
                                         517.1   524.7   524.6   521.0   520.8 
                                         517.2   524.5   524.5   521.3   520.1 
                                         517.2   524.5   524.7   521.4   520.8 
                                         516.9   524.5   524.8   520.9   520.3 
                                         517.4   524.5   524.6   520.7   520.6 
                                         517.1   524.6   524.4   520.8   520.6 
                                         517.0   524.4   525.0   521.0   520.5 
                                         517.2   524.4   524.6   520.9   520.3 
                                         517.5   524.5   524.6   520.8   520.9 
                                         517.1   524.2   524.4   521.1   520.3 
                                         517.0   524.7   525.0   521.2   520.7 
                                         517.2   524.4   524.7   521.0   520.5 
                                         517.3   524.5   524.5   521.3   520.1 
                                         517.2   524.4   524.9   521.1   520.5 
                                         517.1   524.3   524.6   521.7   520.3 
                                         517.0   524.5   524.6   521.4   520.2 
                                         517.4   524.3   524.8   521.3   520.8 
                                         516.9   524.6   524.6   521.4   520.4 
                                         517.5   524.3   524.7   521.0   520.1 
                                         516.9   524.6   524.6   521.2   520.9 
                                         517.4   524.7   524.6   521.1   520.8 
                                         517.2   524.4   524.3   521.6   520.4 
                                         517.0   524.3   524.9   521.5   520.7 
                                         517.1   524.6   524.7   520.9   520.5 
                                         517.3   524.5   524.5   521.3   520.7 
                                         517.3   524.4   524.5   521.0   520.4 
                                         517.0   524.3   524.8   521.4   520.8 
                                         517.1   524.5   524.6   521.2   520.7 
                                         517.4   524.5   524.7   521.1   520.5 
                                         516.8   524.2   524.5   521.3   520.1 
                                         517.3   524.6   524.8   521.1   520.8 
                                         517.3   524.6   524.7   521.0   520.5 
                                         517.2   524.5   524.7   521.3   520.8 
                                         517.3   524.4   524.7   521.3   520.3 
                                         517.3   524.2   524.6   521.1   520.9 
                                         516.9   524.7   524.7   520.8   520.4 
                                         517.4   524.4   524.5   520.8   520.8 
                                         517.3   524.1   524.4   520.9   520.3 
                                         517.3   524.6   524.9   521.0   520.8 
                                         517.0   524.7   524.6   521.0   520.5 
                                         517.3   524.3   524.6   520.7   520.2 
                                         516.9   524.5   524.7   520.9   520.6 
                                         517.5   524.5   524.6   521.0   520.5 
                                         517.1   524.4   524.8   521.3   520.6 
                                         517.1   524.4   524.7   521.3   520.6 
                                         517.2   524.2   524.6   521.2   520.4 
                                         517.1   524.7   524.6   521.2   520.6 
                                         517.2   524.5   524.8   521.3   520.4 
                                         517.2   524.4   524.5   521.0   520.7 
                                         516.9   524.2   524.7   521.1   520.0 
                                         517.5   524.6   524.7   520.9   520.6 
                                         517.3   524.3   524.4   521.1   520.2 
                                         517.3   524.8   524.7   521.4   521.1 
                                         516.9   524.4   524.8   521.2   520.3 
                                         517.4   524.3   524.6   520.9   520.6 
                                         517.3   524.4   524.7   521.1   520.7 
                                         517.0   524.9   524.5   520.9   520.7 
                                         517.3   524.4   524.7   521.1   520.7 
                                         517.2   524.2   524.6   521.6   520.8 
                                         517.2   524.3   524.3   521.2   520.4 
                                         517.2   524.6   524.9   521.5   520.6 
                                         517.0   524.7   524.6   521.1   520.5 
                                         517.3   524.3   524.5   520.9   520.6 
                                         517.0   524.5   524.6   521.3   520.7 
                                         517.3   524.5   524.9   521.2   520.6 
                                         517.0   524.5   524.5   521.2   520.7 
                                         517.5   524.4   524.5   521.4   520.2 
                                         517.1   524.5   524.8   520.9   520.4 
                                         517.2   524.2   524.6   521.0   521.0 
                                         517.0   524.5   524.6   521.2   520.5 
                                         517.5   524.4   524.7   520.8   520.8 
                                         517.1   524.5   524.5   521.0   520.6 
                                         517.2   524.6   524.6   520.9   520.6 
                                         517.1   524.1   524.8   520.9   520.1 
                                         517.3   524.6   524.6   521.0   520.6 
                                         517.1   524.4   524.6   520.9   520.5 
                                         517.1   524.4   524.6   521.1   520.1 
                                         517.0   524.6   524.7   521.2   520.7 
                                         517.2   524.4   524.7   521.1   520.3 
                                         517.2   524.2   524.7   521.2   520.5 
                                         517.2   524.7   524.5   521.3   520.3 
                                         517.3   524.3   524.4   521.3   520.8 
                                         517.1   524.5   524.9   520.8   520.3 
                                         517.2   524.4   524.7   521.4   520.6 
                                         517.1   524.5   524.5   521.3   520.6 
                                         517.3   524.4   524.4   520.9   520.6 
                                         517.0   524.3   524.8   521.5   520.6 
                                         517.2   524.6   524.4   520.9   520.4 
                                         517.3   524.3   524.8   521.5   520.7 
                                         517.1   524.2   524.8   521.4   520.3 
                                         517.3   524.6   524.5   521.1   520.6 
                                         517.0   524.4   524.6   521.1   520.6 
                                         517.4   524.4   524.8   521.2   520.4 
                                         517.2   524.5   524.6   521.4   520.3 
                                         517.2   524.4   524.6   521.3   520.7 
                                         517.2   524.4   524.6   521.1   520.5 
                                         517.2   524.4   524.7   521.6   520.5 
                                         517.2   524.3   524.7   521.3   520.6 
                                         517.1   524.5   524.7   521.1   520.4 
                                         517.0   524.6   524.7   520.6   520.7 
                                         517.4   524.6   524.7   521.2   520.4 
                                         517.1   524.2   524.6   520.9   520.6 
                                         517.3   524.7   524.5   520.9   520.9 
                                         517.2   524.5   524.9   520.7   520.6 
                                         517.3   524.3   524.6   520.9   520.5 
                                         517.1   524.3   524.3   521.0   520.4 
                                         517.1   524.3   524.9   521.5   520.5 
                                         517.3   524.4   524.5   521.2   520.3 
                                         517.0   524.6   524.6   521.3   520.7 
                                         517.1   524.3   524.5   521.2   520.3 
                                         517.4   524.6   525.0   521.4   521.0 
                                         517.2   524.1   524.6   521.3   520.6 
                                         517.2   524.6   524.7   521.2   520.4 
                                         517.3   524.5   524.6   521.1   520.4 
                                         517.2   524.4   524.6   521.2   520.5 
                                         517.0   524.3   524.5   521.4   520.7 
                                         517.4   524.2   524.7   521.3   520.6 
                                         517.3   524.6   524.6   521.1   520.5 
                                         517.0   524.3   524.8   521.2   520.6 
                                         517.0   524.5   524.5   521.1   520.6 
                                         517.4   524.4   524.7   521.4   520.6 
                                         517.3   524.5   524.3   521.6   520.3 
                                         517.2   524.4   524.9   521.4   520.4 
                                         516.8   524.4   524.6   521.0   520.6 
                                         517.4   524.4   524.7   521.6   520.8 
                                         517.0   524.4   524.6   520.9   520.5 
                                         517.3   524.3   524.6   521.7   520.4 
                                         517.3   524.5   524.6   521.2   520.3 
                                         517.0   524.3   524.9   521.4   520.6 
                                         517.1   524.3   524.8   521.0   520.5 
                                         517.2   524.6   524.6   521.5   520.8 
                                         516.9   524.6   524.7   520.4   520.9 
                                         517.6   524.5   524.8   521.1   520.4 
                                         516.9   524.5   524.6   520.9   520.4 
                                         517.4   524.3   524.4   520.9   520.4 
                                         517.1   524.2   524.8   521.1   520.7 
                                         517.1   524.5   524.6   521.0   520.5 
                                         517.4   524.5   524.4   520.7   520.6 
                                         517.0   524.3   524.8   521.5   520.4 
                                         517.1   524.6   524.7   521.3   520.4 
                                         517.4   524.0   524.7   521.1   520.4 
                                         517.1   524.0   524.5   521.3   520.7 
                                         517.2   524.7   524.7   521.1   520.3 
                                         516.9   524.5   524.4   520.9   520.2 
                                         517.0   524.5   524.7   521.7   520.7 
                                         517.0   524.3   524.4   521.0   520.5 
                                         517.4   524.5   524.9   521.0   520.8 
                                         517.2   524.1   524.7   521.0   520.4 
                                         517.2   524.1   524.6   521.0   521.0 
                                         516.4   524.4   524.7   521.5   520.5 
                                         518.0   524.3   524.5   521.4   520.5 
                                         517.2   524.6   524.7   521.3   520.4 
                                         517.0   524.4   524.6   521.4   520.3 
                                         517.0   524.4   524.7   520.7   520.3 
                                         517.4   524.4   524.6   521.3   520.9 
                                         517.0   524.6   524.6   521.3   520.6 
                                         517.5   523.9   524.5   521.2   520.4 
                                         517.2   524.3   524.8   521.1   520.9 
                                         517.2   524.4   524.5   521.6   520.6 
                                         517.2   524.6   524.9   521.2   520.1 
                                         517.1   524.4   524.5   521.5   521.1 
                                         517.2   524.3   524.8   521.1   520.5 
                                         517.2   524.3   524.5   521.1   520.4 
                                         517.2   524.5   524.5   520.8   520.6 
                                         517.1   524.0   524.9   520.8   520.7 
                                         517.4   523.8   524.7   521.1   520.0 
                                         517.3   524.7   524.5   521.1   520.8 
                                         517.0   524.2   524.5   520.7   520.5 
                                         517.3   524.8   525.0   521.3   520.6 
                                         517.0   524.2   524.6   520.8   520.5 
                                         517.4   524.6   524.7   521.2   520.7 
                                         517.3   524.1   524.6   520.8   520.6 
                                         517.3   524.3   524.6   521.6   520.4 
                                         517.2   523.9   524.6   521.2   520.5 
                                         516.9   524.7   524.5   521.1   520.3 
                                         517.2   524.5   524.7   521.4   520.7 
                                         517.2   524.6   524.6   521.3   520.4 
                                         517.2   524.3   524.5   521.3   520.4 
                                         517.3   524.6   524.7   521.0   520.6 
                                         517.2   524.4   524.8   521.1   520.7 
                                         517.1   523.9   524.7   521.0   520.6 
                                         517.2   524.2   524.6   521.5   520.6 
                                         516.9   524.6   524.6   521.5   520.4 
                                         517.2   524.1   524.4   521.4   520.6 
                                         517.2   524.8   524.9   520.8   520.8 
                                         517.1   524.4   524.7   521.2   520.2 
                                         517.3   524.4   524.6   521.2   520.8 
                                         517.2   524.4   524.5   521.4   520.7 
                                         517.2   523.9   525.0   521.2   520.6 
                                         517.0   524.4   524.5   521.4   520.4 
                                         517.2   524.3   524.6   521.1   520.7 
                                         517.2   524.6   524.7   521.4   520.4 
                                         517.1   524.5   524.5   521.2   520.7 
                                         516.9   524.5   524.5   521.3   520.4 
                                         517.4   524.3   524.9   521.1   520.3 
                                         517.2   524.5   524.6   520.8   520.4 
                                         517.2   523.9   524.6   520.9   520.3 
                                         517.2   523.8   524.4   520.8   520.3 
                                         517.4   524.7   524.9   520.9   521.0 
                                         517.2   524.5   524.7   521.0   520.5 
                                         517.2   524.3   524.5   520.7   520.6 
                                         516.9   524.3   524.8   520.7   520.7 
                                         517.5   524.5   524.5   521.1   520.4 
                                         517.0   524.5   524.7   521.4   520.5 
                                         517.1   524.1   524.7   521.2   520.3 
                                         517.3   524.2   524.4   521.4   520.7 
                                         517.0   524.4   524.9   521.5   520.4 
                                         517.4   524.1   524.8   521.3   520.6 
                                         517.1   524.6   524.4   521.2   520.3 
                                         516.9   524.3   524.5   521.3   520.5 
                                         517.4   524.8   524.8   521.1   520.9 
                                         516.9   524.3   524.5   521.2   520.7 
                                         517.5   524.1   524.9   521.6   520.8 
                                         517.0   524.1   524.4   521.1   520.8 
                                         517.2   524.5   525.0   521.6   520.4 
                                         517.0   524.5   524.6   521.3   520.6 
                                         517.3   524.4   524.5   521.1   520.6 
                                         517.4   524.4   524.8   521.3   520.5 
                                         517.2   524.4   524.5   521.1   520.3 
                                         517.1   524.4   524.7   521.6   520.6 
                                         517.3   524.1   524.7   521.2   520.6 
                                         517.2   524.1   524.6   520.8   520.5 
                                         517.3   524.3   524.7   521.2   520.7 
                                         517.3   524.2   524.6   521.2   520.6 
                                         517.2   524.7   524.7   521.5   520.8 
                                         517.1   524.5   524.7   521.5   520.1 
                                         517.3   524.3   524.7   520.6   520.7 
                                         517.2   524.3   524.6   521.1   520.7 
                                         517.3   524.2   524.6   520.7   520.5 
                                         517.1   524.0   524.8   520.9   520.7 
                                         517.1   524.3   524.5   521.1   520.3 
                                         517.4   524.5   524.8   520.7   520.4 
                                         517.2   524.4   524.6   521.1   520.6 
                                         517.3   524.4   524.8   520.5   520.6 
                                         517.0   524.4   524.7   521.5   520.5 
                                         517.3   524.6   524.6   521.2   520.1 
                                         517.3   524.0   524.6   521.1   520.8 
                                         517.0   524.0   524.5   521.1   520.6 
                                         517.0   524.7   524.7   521.6   520.5 
                                         517.1   524.4   524.7   521.1   520.6 
                                         517.1   524.4   524.4   521.4   520.5 
                                         517.0   524.4   524.8   521.3   520.4 
                                         517.4   524.6   524.6   521.1   520.8 
                                         516.8   524.5   524.7   521.4   520.5 
                                         517.5   524.4   524.6   521.5   520.6 
                                         517.2   524.1   524.7   521.4   520.7 
                                         517.1   524.7   524.6   521.3   520.3 
                                         517.2   524.2   524.7   521.0   520.7 
                                         517.4   524.5   524.6   521.0   520.4 
                                         517.2   524.5   524.7   521.3   520.4 
                                         517.1   524.4   524.6   521.3   520.6 
                                         517.1   524.2   524.4   521.2   520.5 
                                         517.3   524.6   524.9   521.2   520.7 
                                         517.2   524.5   524.8   521.5   520.3 
                                         517.0   524.4   524.5   521.2   521.1 
                                         517.3   524.2   524.8   521.4   520.5 
                                         517.0   524.9   524.6   521.2   520.5 
                                         517.3   524.4   524.7   521.2   520.4 
                                         517.4   524.2   524.7   520.8   520.9 
                                         517.2   524.5   524.7   521.2   520.5 
                                         517.2   524.4   524.6   520.8   520.7 
                                         517.3   524.5   524.6   520.9   520.3 
                                         517.2   524.5   524.6   521.0   520.8 
                                         517.0   524.2   524.8   520.7   520.3 
                                         517.4   524.8   524.4   520.8   520.9 
                                         517.2   524.0   524.5   521.0   520.5 
                                         517.1   524.7   524.7   521.4   520.4 
                                         517.2   524.5   524.8   521.3   520.4 
                                         517.3   524.2   524.6   521.2   520.4 
                                         517.1   524.5   524.3   521.3   520.6 
                                         517.2   524.4   524.8   521.3   520.6 
                                         517.2   524.5   524.4   521.2   520.6 
                                         517.3   524.4   525.0   521.2   520.4 
                                         517.1   524.2   524.3   521.4   520.6 
                                         517.3   524.5   524.8   521.0   520.4 
                                         517.1   524.4   524.5   521.7   520.3 
                                         517.2   524.3   524.8   520.9   520.9 
                                         517.3   524.7   524.4   521.1   520.4 
                                         517.1   524.2   524.8   521.2   520.6 
                                         517.4   524.5   524.8   521.3   520.1 
                                         517.2   524.3   524.5   521.2   521.0 
                                         517.0   524.4   524.7   521.0   520.0 
                                         517.2   524.3   524.5   521.4   520.8 
                                         517.1   524.6   524.5   521.0   520.0 
                                         517.4   524.3   524.8   521.5   520.5 
                                         517.1   524.6   524.7   521.0   520.2 
                                         517.2   524.3   524.6   521.0   520.9 
                                         517.3   524.2   524.8   521.3   521.1 
                                         517.2   524.9   524.5   521.2   520.6 
                                         517.2   524.5   524.8   521.0   520.5 
                                         517.3   524.3   524.6   521.2   520.5 
                                         517.1   524.6   524.6   520.8   520.6 
                                         517.2   524.5   524.5   521.1   520.5 
                                         517.1   524.6   524.8   520.8   520.5 
                                         517.2   524.4   524.7   520.7   520.7 
                                         517.1   524.4   524.5   521.1   520.6 
                                         517.3   524.5   524.9   521.0   520.5 
                                         516.9   524.3   524.7   520.8   520.8 
                                         517.4   524.4   524.5   521.3   520.3 
                                         517.3   524.5   524.8   521.3   520.5 
                                         517.2   524.5   524.6   521.1   520.5 
                                         517.1   524.1   524.7   521.2   520.4 
                                         517.3   524.7   524.4   521.0   520.4 
                                         516.9   524.1   524.7   521.4   520.5 
                                         517.3   524.8   524.6   521.3   520.3 
                                         517.3   524.1   524.9   521.1   520.8 
                                         517.1   524.7   524.6   520.7   520.6 
                                         517.1   524.4   524.7   521.3   520.7 
                                         517.1   524.4   524.6   521.2   520.5 
                                         516.9   524.4   524.5   520.9   520.5 
                                         517.4   524.5   524.6   521.3   520.6 
                                         517.2   524.5   524.7   521.0   520.4 
                                         517.4   524.3   524.5   521.6   520.6 
                                         516.9   524.3   524.6   521.3   520.5 
                                         517.3   524.7   524.8   521.4   520.5 
                                         517.4   524.4   524.5   521.3   520.4 
                                         516.9   524.3   524.7   521.0   520.6 
                                         517.4   524.5   524.3   521.3   520.3 
                                         517.0   524.5   524.9   521.5   520.9 
                                         517.3   524.3   524.7   521.1   520.5 
                                         517.0   524.5   524.6   521.0   520.4 
                                         517.3   524.2   524.5   521.3   520.5 
                                         517.2   524.6   525.0   521.2   520.5 
                                         517.1   524.3   524.6   520.7   520.6 
                                         517.1   524.5   524.5   521.2   520.9 
                                         517.2   524.5   524.8   520.8   520.2 
                                         517.2   524.5   524.7   520.8   520.9 
                                         516.9   524.5   524.5   520.8   520.2 
                                         517.4   524.4   524.7   521.1   520.9 
                                         517.0   524.4   524.6   520.7   520.6 
                                         517.5   524.4   524.6   521.3   520.8 
                                         517.2   524.3   524.7   521.1   520.8 
                                         517.3   524.5   524.5   521.4   520.3 
                                         517.3   524.4   524.6   521.4   520.3 
                                         517.1   524.4   524.5   521.1   520.4 
                                         517.1   524.4   524.8   521.2   520.6 
                                         517.3   524.4   524.6   521.3   520.3 
                                         516.9   524.6   524.5   521.3   520.5 
                                         517.5   524.5   525.0   521.1   520.9 
                                         517.3   524.5   524.3   521.1   520.7 
                                         517.0   524.4   524.8   521.2   520.5 
                                         517.2   524.5   524.9   521.3   520.7 
                                         517.2   524.5   524.5   521.2   520.5 
                                         517.0   524.5   524.6   520.9   520.6 
                                         517.6   524.3   524.6   521.4   520.6 
                                         517.1   524.5   524.5   521.0   520.3 
                                         517.2   524.4   524.9   521.6   520.5 
                                         517.0   524.4   524.6   521.0   520.6 
                                         517.5   524.5   524.6   521.5   520.5 
                                         517.1   524.2   524.6   521.4   520.3 
                                         517.5   524.7   524.6   521.2   520.6 
                                         516.9   524.4   524.7   521.3   520.7 
                                         517.4   524.6   524.6   521.2   520.6 
                                         517.1   524.3   524.3   521.0   520.6 
                                         517.3   524.5   525.0   521.3   520.5 
                                         517.1   524.4   524.3   521.2   520.3 
                                         516.9   524.5   524.8   520.6   520.9 
                                         517.4   524.1   524.7   520.7   520.4 
                                         517.2   524.7   524.6   521.3   520.7 
                                         517.1   524.1   524.8   521.0   520.4 
                                         517.1   524.7   524.6   520.8   520.3 
                                         517.2   524.5   524.5   520.9   520.7 
                                         517.1   524.4   524.9   521.1   520.5 
                                         517.3   524.5   524.6   521.3   520.4 
                                         517.0   524.4   524.6   521.3   520.5 
                                         517.2   524.5   524.8   521.2   520.3 
                                         517.4   524.5   524.4   521.1   520.3 
                                         517.0   524.3   524.7   521.3   520.4 
                                         517.2   524.4   524.7   521.0   520.3 
                                         517.2   524.6   524.7   521.5   520.6 
                                         517.1   524.3   524.7   520.8   520.8 
                                         517.2   524.5   524.6   521.1   520.7 
                                         517.1   524.4   524.7   521.5   520.4 
                                         517.3   524.6   524.5   521.0   520.7 
                                         517.1   524.3   524.7   521.6   520.5 
                                         517.1   524.5   524.5   520.6   520.5 
                                         517.3   524.3   524.7   521.3   520.6 
                                         517.2   524.6   524.4   521.1   520.4 
                                         517.1   524.4   525.0   521.1   520.6 
                                         517.3   524.4   524.5   521.4   520.5 
                                         517.1   524.6   524.7   521.2   520.5 
                                         517.0   524.2   524.5   520.8   520.8 
                                         517.4   524.6   524.7   521.6   520.5 
                                         516.9   524.2   524.5   521.1   520.5 
                                         517.4   524.8   525.0   521.3   520.7 
                                         517.3   524.4   524.3   521.4   520.5 
                                         517.1   524.4   524.9   521.0   520.4 
                                         517.0   524.5   524.6   520.8   520.2 
                                         517.5   524.5   524.7   521.0   520.7 
                                         517.1   524.4   524.8   521.0   520.3 
                                         517.2   524.5   524.5   520.8   520.7 
                                         517.2   524.2   524.7   521.0   520.5 
                                         517.4   524.7   524.7   520.8   520.6 
                                         517.4   524.1   524.7   520.5   520.5 
                                         517.3   524.6   524.5   521.4   520.1 
                                         516.9   524.3   524.5   521.4   520.4 
                                         517.4   524.8   525.0   521.4   520.2 
                                         517.0   524.2   524.3   521.1   520.6 
                                         517.6   524.6   524.9   521.7   520.7 
                                         517.0   524.3   524.7   520.8   520.5 
                                         517.2   524.4   524.7   521.6   520.5 
                                         517.1   524.3   524.6   521.0   520.1 
                                         517.2   524.6   524.6   521.2   520.7 
                                         516.9   524.5   524.4   521.0   520.6 
                                         517.4   524.4   524.7   521.6   520.7 
                                         517.2   524.4   524.9   521.2   520.5 
                                         517.1   524.4   524.5   521.2   520.6 
                                         517.3   524.5   524.4   520.7   520.6 
                                         517.1   524.3   525.0   521.4   520.2 
                                         517.1   524.4   524.6   521.4   520.2 
                                         517.4   524.4   524.8   521.4   520.9 
                                         517.2   524.5   524.6   521.0   520.4 
                                         517.2   524.4   524.6   521.4   520.7 
                                         517.1   524.6   524.5   521.3   520.7 
                                         516.9   524.4   524.8   521.0   520.7 
                                         517.3   524.1   524.4   521.1   520.6 
                                         517.1   524.8   525.0   521.7   520.8 
                                         517.2   524.3   524.6   521.3   520.4 
                                         517.4   524.4   524.6   520.8   520.8 
                                         517.2   524.5   524.5   520.9   520.5 
                                         517.3   524.4   524.7   521.2   520.6 
                                         516.9   524.3   524.6   520.7   520.4 
                                         517.4   524.8   524.6   521.1   520.4 
                                         517.4   524.4   524.7   521.0   520.6 
                                         517.2   524.4   524.6   520.8   520.3 
                                         517.2   524.5   524.6   520.9   520.8 
                                         517.2   524.5   524.5   521.4   520.6 
                                         517.2   524.4   524.7   521.1   520.4 
                                         517.2   524.5   524.7   521.2   520.5 
                                         517.0   524.2   524.4   521.3   520.6 
                                         517.4   524.5   524.8   521.3   520.3 
                                         517.2   524.6   524.8   521.1   520.2 
                                         517.0   524.4   524.6   521.1   520.6 
                                         517.1   524.5   524.6   521.0   520.4 
                                         517.2   524.4   524.8   521.2   520.5 
                                         517.3   524.1   524.8   521.3   520.4 
                                         517.1   524.7   524.5   521.2   520.6 
                                         517.2   524.2   524.4   520.8   520.8 
                                         517.1   524.7   524.8   521.5   520.2 
                                         517.2   524.1   524.5   521.1   520.5 
                                         517.0   524.7   524.9   521.6   521.0 
                                         517.2   524.4   524.6   521.3   520.2 
                                         517.2   524.5   524.7   521.3   521.1 
                                         517.2   524.4   524.6   521.3   520.3 
                                         517.2   524.3   523.7   521.1   520.9 
                                         517.3   524.5   525.6   521.5   520.6 
                                         517.2   524.6   524.8   521.5   520.8 


                  Benchmarked: Sunday, 2021-03-21 at 06:41
 -----------------------------------------------------------------------------
   See the ReadSpeed forums at forums.grc.com for help and community support.  

