{
  "json_format_version": [
    1,
    0
  ],
  "smartctl": {
    "version": [
      7,
      1
    ],
    "svn_revision": "5022",
    "platform_info": "x86_64-linux-5.8.0-50-generic",
    "build_info": "(local build)",
    "argv": [
      "smartctl",
      "-x",
      "-j",
      "/dev/sdb"
    ],
    "exit_status": 64
  },
  "device": {
    "name": "/dev/sdb",
    "info_name": "/dev/sdb [SAT]",
    "type": "sat",
    "protocol": "ATA"
  },
  "model_family": "Western Digital Caviar SE Serial ATA",
  "model_name": "WDC WD800JD-75MSA3",
  "serial_number": "WD-WMAM9FE61005",
  "firmware_version": "10.01E04",
  "user_capacity": {
    "blocks": 156250000,
    "bytes": 80000000000
  },
  "logical_block_size": 512,
  "physical_block_size": 512,
  "in_smartctl_database": true,
  "ata_version": {
    "string": "ATA/ATAPI-7 (minor revision not indicated)",
    "major_value": 254,
    "minor_value": 0
  },
  "local_time": {
    "time_t": 1620150213,
    "asctime": "Tue May  4 11:43:33 2021 MDT"
  },
  "ata_aam": {
    "enabled": false
  },
  "read_lookahead": {
    "enabled": true
  },
  "write_cache": {
    "enabled": true
  },
  "ata_security": {
    "state": 1,
    "string": "Disabled, NOT FROZEN [SEC1]",
    "enabled": false,
    "frozen": false
  },
  "smart_status": {
    "passed": true
  },
  "ata_smart_data": {
    "offline_data_collection": {
      "status": {
        "value": 132,
        "string": "was suspended by an interrupting command from host"
      },
      "completion_seconds": 2460
    },
    "self_test": {
      "status": {
        "value": 0,
        "string": "completed without error",
        "passed": true
      },
      "polling_minutes": {
        "short": 2,
        "extended": 33,
        "conveyance": 6
      }
    },
    "capabilities": {
      "values": [
        123,
        3
      ],
      "exec_offline_immediate_supported": true,
      "offline_is_aborted_upon_new_cmd": false,
      "offline_surface_scan_supported": true,
      "self_tests_supported": true,
      "conveyance_self_test_supported": true,
      "selective_self_test_supported": true,
      "attribute_autosave_enabled": true,
      "error_logging_supported": true,
      "gp_logging_supported": true
    }
  },
  "ata_sct_capabilities": {
    "value": 4159,
    "error_recovery_control_supported": true,
    "feature_control_supported": true,
    "data_table_supported": true
  },
  "ata_smart_attributes": {
    "revision": 16,
    "table": [
      {
        "id": 1,
        "name": "Raw_Read_Error_Rate",
        "value": 200,
        "worst": 200,
        "thresh": 51,
        "when_failed": "",
        "flags": {
          "value": 15,
          "string": "POSR-- ",
          "prefailure": true,
          "updated_online": true,
          "performance": true,
          "error_rate": true,
          "event_count": false,
          "auto_keep": false
        },
        "raw": {
          "value": 0,
          "string": "0"
        }
      },
      {
        "id": 3,
        "name": "Spin_Up_Time",
        "value": 176,
        "worst": 161,
        "thresh": 21,
        "when_failed": "",
        "flags": {
          "value": 3,
          "string": "PO---- ",
          "prefailure": true,
          "updated_online": true,
          "performance": false,
          "error_rate": false,
          "event_count": false,
          "auto_keep": false
        },
        "raw": {
          "value": 2158,
          "string": "2158"
        }
      },
      {
        "id": 4,
        "name": "Start_Stop_Count",
        "value": 100,
        "worst": 100,
        "thresh": 0,
        "when_failed": "",
        "flags": {
          "value": 50,
          "string": "-O--CK ",
          "prefailure": false,
          "updated_online": true,
          "performance": false,
          "error_rate": false,
          "event_count": true,
          "auto_keep": true
        },
        "raw": {
          "value": 206,
          "string": "206"
        }
      },
      {
        "id": 5,
        "name": "Reallocated_Sector_Ct",
        "value": 200,
        "worst": 200,
        "thresh": 140,
        "when_failed": "",
        "flags": {
          "value": 51,
          "string": "PO--CK ",
          "prefailure": true,
          "updated_online": true,
          "performance": false,
          "error_rate": false,
          "event_count": true,
          "auto_keep": true
        },
        "raw": {
          "value": 0,
          "string": "0"
        }
      },
      {
        "id": 7,
        "name": "Seek_Error_Rate",
        "value": 200,
        "worst": 200,
        "thresh": 51,
        "when_failed": "",
        "flags": {
          "value": 15,
          "string": "POSR-- ",
          "prefailure": true,
          "updated_online": true,
          "performance": true,
          "error_rate": true,
          "event_count": false,
          "auto_keep": false
        },
        "raw": {
          "value": 0,
          "string": "0"
        }
      },
      {
        "id": 9,
        "name": "Power_On_Hours",
        "value": 18,
        "worst": 18,
        "thresh": 0,
        "when_failed": "",
        "flags": {
          "value": 50,
          "string": "-O--CK ",
          "prefailure": false,
          "updated_online": true,
          "performance": false,
          "error_rate": false,
          "event_count": true,
          "auto_keep": true
        },
        "raw": {
          "value": 60395,
          "string": "60395"
        }
      },
      {
        "id": 10,
        "name": "Spin_Retry_Count",
        "value": 100,
        "worst": 100,
        "thresh": 51,
        "when_failed": "",
        "flags": {
          "value": 19,
          "string": "PO--C- ",
          "prefailure": true,
          "updated_online": true,
          "performance": false,
          "error_rate": false,
          "event_count": true,
          "auto_keep": false
        },
        "raw": {
          "value": 0,
          "string": "0"
        }
      },
      {
        "id": 11,
        "name": "Calibration_Retry_Count",
        "value": 100,
        "worst": 100,
        "thresh": 51,
        "when_failed": "",
        "flags": {
          "value": 18,
          "string": "-O--C- ",
          "prefailure": false,
          "updated_online": true,
          "performance": false,
          "error_rate": false,
          "event_count": true,
          "auto_keep": false
        },
        "raw": {
          "value": 0,
          "string": "0"
        }
      },
      {
        "id": 12,
        "name": "Power_Cycle_Count",
        "value": 100,
        "worst": 100,
        "thresh": 0,
        "when_failed": "",
        "flags": {
          "value": 50,
          "string": "-O--CK ",
          "prefailure": false,
          "updated_online": true,
          "performance": false,
          "error_rate": false,
          "event_count": true,
          "auto_keep": true
        },
        "raw": {
          "value": 139,
          "string": "139"
        }
      },
      {
        "id": 190,
        "name": "Airflow_Temperature_Cel",
        "value": 84,
        "worst": 48,
        "thresh": 45,
        "when_failed": "",
        "flags": {
          "value": 34,
          "string": "-O---K ",
          "prefailure": false,
          "updated_online": true,
          "performance": false,
          "error_rate": false,
          "event_count": false,
          "auto_keep": true
        },
        "raw": {
          "value": 16,
          "string": "16"
        }
      },
      {
        "id": 194,
        "name": "Temperature_Celsius",
        "value": 127,
        "worst": 91,
        "thresh": 0,
        "when_failed": "",
        "flags": {
          "value": 34,
          "string": "-O---K ",
          "prefailure": false,
          "updated_online": true,
          "performance": false,
          "error_rate": false,
          "event_count": false,
          "auto_keep": true
        },
        "raw": {
          "value": 16,
          "string": "16"
        }
      },
      {
        "id": 196,
        "name": "Reallocated_Event_Count",
        "value": 200,
        "worst": 200,
        "thresh": 0,
        "when_failed": "",
        "flags": {
          "value": 50,
          "string": "-O--CK ",
          "prefailure": false,
          "updated_online": true,
          "performance": false,
          "error_rate": false,
          "event_count": true,
          "auto_keep": true
        },
        "raw": {
          "value": 0,
          "string": "0"
        }
      },
      {
        "id": 197,
        "name": "Current_Pending_Sector",
        "value": 150,
        "worst": 150,
        "thresh": 0,
        "when_failed": "",
        "flags": {
          "value": 18,
          "string": "-O--C- ",
          "prefailure": false,
          "updated_online": true,
          "performance": false,
          "error_rate": false,
          "event_count": true,
          "auto_keep": false
        },
        "raw": {
          "value": 661,
          "string": "661"
        }
      },
      {
        "id": 198,
        "name": "Offline_Uncorrectable",
        "value": 150,
        "worst": 150,
        "thresh": 0,
        "when_failed": "",
        "flags": {
          "value": 16,
          "string": "----C- ",
          "prefailure": false,
          "updated_online": false,
          "performance": false,
          "error_rate": false,
          "event_count": true,
          "auto_keep": false
        },
        "raw": {
          "value": 655,
          "string": "655"
        }
      },
      {
        "id": 199,
        "name": "UDMA_CRC_Error_Count",
        "value": 200,
        "worst": 200,
        "thresh": 0,
        "when_failed": "",
        "flags": {
          "value": 62,
          "string": "-OSRCK ",
          "prefailure": false,
          "updated_online": true,
          "performance": true,
          "error_rate": true,
          "event_count": true,
          "auto_keep": true
        },
        "raw": {
          "value": 0,
          "string": "0"
        }
      },
      {
        "id": 200,
        "name": "Multi_Zone_Error_Rate",
        "value": 162,
        "worst": 160,
        "thresh": 51,
        "when_failed": "",
        "flags": {
          "value": 9,
          "string": "P--R-- ",
          "prefailure": true,
          "updated_online": false,
          "performance": false,
          "error_rate": true,
          "event_count": false,
          "auto_keep": false
        },
        "raw": {
          "value": 1243,
          "string": "1243"
        }
      }
    ]
  },
  "power_on_time": {
    "hours": 60395
  },
  "power_cycle_count": 139,
  "temperature": {
    "current": 20,
    "power_cycle_max": 20,
    "lifetime_max": 53,
    "op_limit_min": 5,
    "op_limit_max": 65,
    "limit_min": 1,
    "limit_max": 70
  },
  "ata_log_directory": {
    "gp_dir_version": 1,
    "smart_dir_version": 1,
    "smart_dir_multi_sector": true,
    "table": [
      {
        "address": 0,
        "name": "Log Directory",
        "read": true,
        "write": false,
        "gp_sectors": 1,
        "smart_sectors": 1
      },
      {
        "address": 1,
        "name": "Summary SMART error log",
        "read": true,
        "write": false,
        "smart_sectors": 1
      },
      {
        "address": 2,
        "name": "Comprehensive SMART error log",
        "read": true,
        "write": false,
        "smart_sectors": 5
      },
      {
        "address": 3,
        "name": "Ext. Comprehensive SMART error log",
        "read": true,
        "write": false,
        "gp_sectors": 6
      },
      {
        "address": 6,
        "name": "SMART self-test log",
        "read": true,
        "write": false,
        "smart_sectors": 1
      },
      {
        "address": 7,
        "name": "Extended self-test log",
        "read": true,
        "write": false,
        "gp_sectors": 1
      },
      {
        "address": 9,
        "name": "Selective self-test log",
        "read": true,
        "write": true,
        "smart_sectors": 1
      },
      {
        "address": 16,
        "name": "NCQ Command Error log",
        "read": true,
        "write": false,
        "gp_sectors": 1
      },
      {
        "address": 17,
        "name": "SATA Phy Event Counters log",
        "read": true,
        "write": false,
        "gp_sectors": 1
      },
      {
        "address": 128,
        "name": "Host vendor specific log",
        "read": true,
        "write": true,
        "gp_sectors": 16,
        "smart_sectors": 16
      },
      {
        "address": 129,
        "name": "Host vendor specific log",
        "read": true,
        "write": true,
        "gp_sectors": 16,
        "smart_sectors": 16
      },
      {
        "address": 130,
        "name": "Host vendor specific log",
        "read": true,
        "write": true,
        "gp_sectors": 16,
        "smart_sectors": 16
      },
      {
        "address": 131,
        "name": "Host vendor specific log",
        "read": true,
        "write": true,
        "gp_sectors": 16,
        "smart_sectors": 16
      },
      {
        "address": 132,
        "name": "Host vendor specific log",
        "read": true,
        "write": true,
        "gp_sectors": 16,
        "smart_sectors": 16
      },
      {
        "address": 133,
        "name": "Host vendor specific log",
        "read": true,
        "write": true,
        "gp_sectors": 16,
        "smart_sectors": 16
      },
      {
        "address": 134,
        "name": "Host vendor specific log",
        "read": true,
        "write": true,
        "gp_sectors": 16,
        "smart_sectors": 16
      },
      {
        "address": 135,
        "name": "Host vendor specific log",
        "read": true,
        "write": true,
        "gp_sectors": 16,
        "smart_sectors": 16
      },
      {
        "address": 136,
        "name": "Host vendor specific log",
        "read": true,
        "write": true,
        "gp_sectors": 16,
        "smart_sectors": 16
      },
      {
        "address": 137,
        "name": "Host vendor specific log",
        "read": true,
        "write": true,
        "gp_sectors": 16,
        "smart_sectors": 16
      },
      {
        "address": 138,
        "name": "Host vendor specific log",
        "read": true,
        "write": true,
        "gp_sectors": 16,
        "smart_sectors": 16
      },
      {
        "address": 139,
        "name": "Host vendor specific log",
        "read": true,
        "write": true,
        "gp_sectors": 16,
        "smart_sectors": 16
      },
      {
        "address": 140,
        "name": "Host vendor specific log",
        "read": true,
        "write": true,
        "gp_sectors": 16,
        "smart_sectors": 16
      },
      {
        "address": 141,
        "name": "Host vendor specific log",
        "read": true,
        "write": true,
        "gp_sectors": 16,
        "smart_sectors": 16
      },
      {
        "address": 142,
        "name": "Host vendor specific log",
        "read": true,
        "write": true,
        "gp_sectors": 16,
        "smart_sectors": 16
      },
      {
        "address": 143,
        "name": "Host vendor specific log",
        "read": true,
        "write": true,
        "gp_sectors": 16,
        "smart_sectors": 16
      },
      {
        "address": 144,
        "name": "Host vendor specific log",
        "read": true,
        "write": true,
        "gp_sectors": 16,
        "smart_sectors": 16
      },
      {
        "address": 145,
        "name": "Host vendor specific log",
        "read": true,
        "write": true,
        "gp_sectors": 16,
        "smart_sectors": 16
      },
      {
        "address": 146,
        "name": "Host vendor specific log",
        "read": true,
        "write": true,
        "gp_sectors": 16,
        "smart_sectors": 16
      },
      {
        "address": 147,
        "name": "Host vendor specific log",
        "read": true,
        "write": true,
        "gp_sectors": 16,
        "smart_sectors": 16
      },
      {
        "address": 148,
        "name": "Host vendor specific log",
        "read": true,
        "write": true,
        "gp_sectors": 16,
        "smart_sectors": 16
      },
      {
        "address": 149,
        "name": "Host vendor specific log",
        "read": true,
        "write": true,
        "gp_sectors": 16,
        "smart_sectors": 16
      },
      {
        "address": 150,
        "name": "Host vendor specific log",
        "read": true,
        "write": true,
        "gp_sectors": 16,
        "smart_sectors": 16
      },
      {
        "address": 151,
        "name": "Host vendor specific log",
        "read": true,
        "write": true,
        "gp_sectors": 16,
        "smart_sectors": 16
      },
      {
        "address": 152,
        "name": "Host vendor specific log",
        "read": true,
        "write": true,
        "gp_sectors": 16,
        "smart_sectors": 16
      },
      {
        "address": 153,
        "name": "Host vendor specific log",
        "read": true,
        "write": true,
        "gp_sectors": 16,
        "smart_sectors": 16
      },
      {
        "address": 154,
        "name": "Host vendor specific log",
        "read": true,
        "write": true,
        "gp_sectors": 16,
        "smart_sectors": 16
      },
      {
        "address": 155,
        "name": "Host vendor specific log",
        "read": true,
        "write": true,
        "gp_sectors": 16,
        "smart_sectors": 16
      },
      {
        "address": 156,
        "name": "Host vendor specific log",
        "read": true,
        "write": true,
        "gp_sectors": 16,
        "smart_sectors": 16
      },
      {
        "address": 157,
        "name": "Host vendor specific log",
        "read": true,
        "write": true,
        "gp_sectors": 16,
        "smart_sectors": 16
      },
      {
        "address": 158,
        "name": "Host vendor specific log",
        "read": true,
        "write": true,
        "gp_sectors": 16,
        "smart_sectors": 16
      },
      {
        "address": 159,
        "name": "Host vendor specific log",
        "read": true,
        "write": true,
        "gp_sectors": 16,
        "smart_sectors": 16
      },
      {
        "address": 160,
        "name": "Device vendor specific log",
        "gp_sectors": 16,
        "smart_sectors": 16
      },
      {
        "address": 161,
        "name": "Device vendor specific log",
        "gp_sectors": 16,
        "smart_sectors": 16
      },
      {
        "address": 162,
        "name": "Device vendor specific log",
        "gp_sectors": 16,
        "smart_sectors": 16
      },
      {
        "address": 163,
        "name": "Device vendor specific log",
        "gp_sectors": 16,
        "smart_sectors": 16
      },
      {
        "address": 164,
        "name": "Device vendor specific log",
        "gp_sectors": 16,
        "smart_sectors": 16
      },
      {
        "address": 165,
        "name": "Device vendor specific log",
        "gp_sectors": 16,
        "smart_sectors": 16
      },
      {
        "address": 166,
        "name": "Device vendor specific log",
        "gp_sectors": 16,
        "smart_sectors": 16
      },
      {
        "address": 167,
        "name": "Device vendor specific log",
        "gp_sectors": 16,
        "smart_sectors": 16
      },
      {
        "address": 168,
        "name": "Device vendor specific log",
        "gp_sectors": 1,
        "smart_sectors": 1
      },
      {
        "address": 169,
        "name": "Device vendor specific log",
        "gp_sectors": 1,
        "smart_sectors": 1
      },
      {
        "address": 170,
        "name": "Device vendor specific log",
        "gp_sectors": 1,
        "smart_sectors": 1
      },
      {
        "address": 171,
        "name": "Device vendor specific log",
        "gp_sectors": 1,
        "smart_sectors": 1
      },
      {
        "address": 172,
        "name": "Device vendor specific log",
        "gp_sectors": 1,
        "smart_sectors": 1
      },
      {
        "address": 173,
        "name": "Device vendor specific log",
        "gp_sectors": 1,
        "smart_sectors": 1
      },
      {
        "address": 174,
        "name": "Device vendor specific log",
        "gp_sectors": 1,
        "smart_sectors": 1
      },
      {
        "address": 175,
        "name": "Device vendor specific log",
        "gp_sectors": 1,
        "smart_sectors": 1
      },
      {
        "address": 176,
        "name": "Device vendor specific log",
        "gp_sectors": 1,
        "smart_sectors": 1
      },
      {
        "address": 177,
        "name": "Device vendor specific log",
        "gp_sectors": 1,
        "smart_sectors": 1
      },
      {
        "address": 178,
        "name": "Device vendor specific log",
        "gp_sectors": 1,
        "smart_sectors": 1
      },
      {
        "address": 179,
        "name": "Device vendor specific log",
        "gp_sectors": 1,
        "smart_sectors": 1
      },
      {
        "address": 180,
        "name": "Device vendor specific log",
        "gp_sectors": 1,
        "smart_sectors": 1
      },
      {
        "address": 181,
        "name": "Device vendor specific log",
        "gp_sectors": 1,
        "smart_sectors": 1
      },
      {
        "address": 182,
        "name": "Device vendor specific log",
        "gp_sectors": 1,
        "smart_sectors": 1
      },
      {
        "address": 183,
        "name": "Device vendor specific log",
        "gp_sectors": 1,
        "smart_sectors": 1
      },
      {
        "address": 192,
        "name": "Device vendor specific log",
        "gp_sectors": 1,
        "smart_sectors": 1
      },
      {
        "address": 224,
        "name": "SCT Command/Status",
        "read": true,
        "write": true,
        "gp_sectors": 1,
        "smart_sectors": 1
      },
      {
        "address": 225,
        "name": "SCT Data Transfer",
        "read": true,
        "write": true,
        "gp_sectors": 1,
        "smart_sectors": 1
      }
    ]
  },
  "ata_smart_error_log": {
    "extended": {
      "revision": 1,
      "sectors": 6,
      "count": 1151,
      "logged_count": 24,
      "table": [
        {
          "error_number": 1151,
          "log_index": 22,
          "lifetime_hours": 0,
          "device_state": {
            "value": 0,
            "string": "in an unknown state"
          },
          "completion_registers": {
            "error": 64,
            "status": 0,
            "count": 256,
            "lba": 347892367361,
            "device": 0,
            "device_control": 0
          },
          "previous_commands": [
            {
              "registers": {
                "command": 0,
                "features": 49504,
                "count": 897,
                "lba": 0,
                "device": 0,
                "device_control": 0
              },
              "powerup_milliseconds": 0,
              "command_name": "NOP [Reserved subcommand] [OBS-ACS-2]"
            },
            {
              "registers": {
                "command": 0,
                "features": 2,
                "count": 0,
                "lba": 4127472086784,
                "device": 0,
                "device_control": 0
              },
              "powerup_milliseconds": 63496,
              "command_name": "NOP [Reserved subcommand] [OBS-ACS-2]"
            },
            {
              "registers": {
                "command": 0,
                "features": 5615,
                "count": 890,
                "lba": 34375993344,
                "device": 0,
                "device_control": 0
              },
              "powerup_milliseconds": 227861,
              "command_name": "NOP [Reserved subcommand] [OBS-ACS-2]"
            },
            {
              "registers": {
                "command": 0,
                "features": 2056,
                "count": 248,
                "lba": 3685089435648,
                "device": 0,
                "device_control": 0
              },
              "powerup_milliseconds": 0,
              "command_name": "NOP [Reserved subcommand] [OBS-ACS-2]"
            }
          ]
        },
        {
          "error_number": 1150,
          "log_index": 21,
          "lifetime_hours": 0,
          "device_state": {
            "value": 0,
            "string": "in an unknown state"
          },
          "completion_registers": {
            "error": 64,
            "status": 0,
            "count": 256,
            "lba": 347892367361,
            "device": 0,
            "device_control": 0
          },
          "previous_commands": [
            {
              "registers": {
                "command": 0,
                "features": 5472,
                "count": 890,
                "lba": 0,
                "device": 0,
                "device_control": 0
              },
              "powerup_milliseconds": 0,
              "command_name": "NOP [Reserved subcommand] [OBS-ACS-2]"
            },
            {
              "registers": {
                "command": 0,
                "features": 2,
                "count": 0,
                "lba": 3388737253120,
                "device": 0,
                "device_control": 0
              },
              "powerup_milliseconds": 63496,
              "command_name": "NOP [Reserved subcommand] [OBS-ACS-2]"
            },
            {
              "registers": {
                "command": 0,
                "features": 23279,
                "count": 882,
                "lba": 34375993344,
                "device": 0,
                "device_control": 0
              },
              "powerup_milliseconds": 225882,
              "command_name": "NOP [Reserved subcommand] [OBS-ACS-2]"
            },
            {
              "registers": {
                "command": 0,
                "features": 2056,
                "count": 248,
                "lba": 4183305117696,
                "device": 0,
                "device_control": 0
              },
              "powerup_milliseconds": 0,
              "command_name": "NOP [Reserved subcommand] [OBS-ACS-2]"
            }
          ]
        },
        {
          "error_number": 1149,
          "log_index": 20,
          "lifetime_hours": 0,
          "device_state": {
            "value": 0,
            "string": "in an unknown state"
          },
          "completion_registers": {
            "error": 64,
            "status": 0,
            "count": 256,
            "lba": 347892367361,
            "device": 0,
            "device_control": 0
          },
          "previous_commands": [
            {
              "registers": {
                "command": 0,
                "features": 23136,
                "count": 882,
                "lba": 0,
                "device": 0,
                "device_control": 0
              },
              "powerup_milliseconds": 0,
              "command_name": "NOP [Reserved subcommand] [OBS-ACS-2]"
            },
            {
              "registers": {
                "command": 0,
                "features": 2,
                "count": 0,
                "lba": 3685089472256,
                "device": 0,
                "device_control": 0
              },
              "powerup_milliseconds": 63496,
              "command_name": "NOP [Reserved subcommand] [OBS-ACS-2]"
            },
            {
              "registers": {
                "command": 0,
                "features": 52975,
                "count": 874,
                "lba": 34375993344,
                "device": 0,
                "device_control": 0
              },
              "powerup_milliseconds": 223950,
              "command_name": "NOP [Reserved subcommand] [OBS-ACS-2]"
            },
            {
              "registers": {
                "command": 0,
                "features": 2056,
                "count": 248,
                "lba": 3646433746944,
                "device": 0,
                "device_control": 0
              },
              "powerup_milliseconds": 0,
              "command_name": "NOP [Reserved subcommand] [OBS-ACS-2]"
            }
          ]
        },
        {
          "error_number": 1148,
          "log_index": 19,
          "lifetime_hours": 0,
          "device_state": {
            "value": 0,
            "string": "in an unknown state"
          },
          "completion_registers": {
            "error": 64,
            "status": 0,
            "count": 256,
            "lba": 347892367361,
            "device": 0,
            "device_control": 0
          },
          "previous_commands": [
            {
              "registers": {
                "command": 0,
                "features": 52832,
                "count": 874,
                "lba": 0,
                "device": 0,
                "device_control": 0
              },
              "powerup_milliseconds": 0,
              "command_name": "NOP [Reserved subcommand] [OBS-ACS-2]"
            },
            {
              "registers": {
                "command": 0,
                "features": 2,
                "count": 0,
                "lba": 4183305154304,
                "device": 0,
                "device_control": 0
              },
              "powerup_milliseconds": 63496,
              "command_name": "NOP [Reserved subcommand] [OBS-ACS-2]"
            },
            {
              "registers": {
                "command": 0,
                "features": 20975,
                "count": 867,
                "lba": 34375993344,
                "device": 0,
                "device_control": 0
              },
              "powerup_milliseconds": 222033,
              "command_name": "NOP [Reserved subcommand] [OBS-ACS-2]"
            },
            {
              "registers": {
                "command": 0,
                "features": 2056,
                "count": 248,
                "lba": 4140354461696,
                "device": 0,
                "device_control": 0
              },
              "powerup_milliseconds": 0,
              "command_name": "NOP [Reserved subcommand] [OBS-ACS-2]"
            }
          ]
        },
        {
          "error_number": 1147,
          "log_index": 18,
          "lifetime_hours": 0,
          "device_state": {
            "value": 0,
            "string": "in an unknown state"
          },
          "completion_registers": {
            "error": 64,
            "status": 0,
            "count": 256,
            "lba": 347892367361,
            "device": 0,
            "device_control": 0
          },
          "previous_commands": [
            {
              "registers": {
                "command": 0,
                "features": 20832,
                "count": 867,
                "lba": 0,
                "device": 0,
                "device_control": 0
              },
              "powerup_milliseconds": 0,
              "command_name": "NOP [Reserved subcommand] [OBS-ACS-2]"
            },
            {
              "registers": {
                "command": 0,
                "features": 2,
                "count": 0,
                "lba": 3646433783552,
                "device": 0,
                "device_control": 0
              },
              "powerup_milliseconds": 63496,
              "command_name": "NOP [Reserved subcommand] [OBS-ACS-2]"
            },
            {
              "registers": {
                "command": 0,
                "features": 50415,
                "count": 859,
                "lba": 34375993344,
                "device": 0,
                "device_control": 0
              },
              "powerup_milliseconds": 220100,
              "command_name": "NOP [Reserved subcommand] [OBS-ACS-2]"
            },
            {
              "registers": {
                "command": 0,
                "features": 2056,
                "count": 248,
                "lba": 3337195118592,
                "device": 0,
                "device_control": 0
              },
              "powerup_milliseconds": 0,
              "command_name": "NOP [Reserved subcommand] [OBS-ACS-2]"
            }
          ]
        },
        {
          "error_number": 1146,
          "log_index": 17,
          "lifetime_hours": 0,
          "device_state": {
            "value": 0,
            "string": "in an unknown state"
          },
          "completion_registers": {
            "error": 64,
            "status": 0,
            "count": 256,
            "lba": 347892367361,
            "device": 0,
            "device_control": 0
          },
          "previous_commands": [
            {
              "registers": {
                "command": 0,
                "features": 50272,
                "count": 859,
                "lba": 0,
                "device": 0,
                "device_control": 0
              },
              "powerup_milliseconds": 0,
              "command_name": "NOP [Reserved subcommand] [OBS-ACS-2]"
            },
            {
              "registers": {
                "command": 0,
                "features": 2,
                "count": 0,
                "lba": 4140354498304,
                "device": 0,
                "device_control": 0
              },
              "powerup_milliseconds": 63496,
              "command_name": "NOP [Reserved subcommand] [OBS-ACS-2]"
            },
            {
              "registers": {
                "command": 0,
                "features": 2543,
                "count": 852,
                "lba": 34375993344,
                "device": 0,
                "device_control": 0
              },
              "powerup_milliseconds": 218121,
              "command_name": "NOP [Reserved subcommand] [OBS-ACS-2]"
            },
            {
              "registers": {
                "command": 0,
                "features": 4104,
                "count": 248,
                "lba": 3564827860992,
                "device": 0,
                "device_control": 0
              },
              "powerup_milliseconds": 0,
              "command_name": "NOP [Reserved subcommand] [OBS-ACS-2]"
            }
          ]
        },
        {
          "error_number": 1145,
          "log_index": 16,
          "lifetime_hours": 0,
          "device_state": {
            "value": 0,
            "string": "in an unknown state"
          },
          "completion_registers": {
            "error": 64,
            "status": 0,
            "count": 256,
            "lba": 347892367361,
            "device": 0,
            "device_control": 0
          },
          "previous_commands": [
            {
              "registers": {
                "command": 0,
                "features": 2400,
                "count": 852,
                "lba": 0,
                "device": 0,
                "device_control": 0
              },
              "powerup_milliseconds": 0,
              "command_name": "NOP [Reserved subcommand] [OBS-ACS-2]"
            },
            {
              "registers": {
                "command": 0,
                "features": 2,
                "count": 0,
                "lba": 3337195155200,
                "device": 0,
                "device_control": 0
              },
              "powerup_milliseconds": 63496,
              "command_name": "NOP [Reserved subcommand] [OBS-ACS-2]"
            },
            {
              "registers": {
                "command": 0,
                "features": 15969,
                "count": 844,
                "lba": 68735731712,
                "device": 0,
                "device_control": 0
              },
              "powerup_milliseconds": 216126,
              "command_name": "NOP [Reserved subcommand] [OBS-ACS-2]"
            },
            {
              "registers": {
                "command": 0,
                "features": 2,
                "count": 0,
                "lba": 3564827897600,
                "device": 0,
                "device_control": 0
              },
              "powerup_milliseconds": 30728,
              "command_name": "NOP [Reserved subcommand] [OBS-ACS-2]"
            }
          ]
        },
        {
          "error_number": 1144,
          "log_index": 15,
          "lifetime_hours": 0,
          "device_state": {
            "value": 0,
            "string": "in an unknown state"
          },
          "completion_registers": {
            "error": 64,
            "status": 0,
            "count": 256,
            "lba": 347892367361,
            "device": 0,
            "device_control": 0
          },
          "previous_commands": [
            {
              "registers": {
                "command": 0,
                "features": 15968,
                "count": 844,
                "lba": 0,
                "device": 0,
                "device_control": 0
              },
              "powerup_milliseconds": 0,
              "command_name": "NOP [Reserved subcommand] [OBS-ACS-2]"
            },
            {
              "registers": {
                "command": 0,
                "features": 2056,
                "count": 120,
                "lba": 3564827861248,
                "device": 0,
                "device_control": 0
              },
              "powerup_milliseconds": 63504,
              "command_name": "NOP [Reserved subcommand] [OBS-ACS-2]"
            },
            {
              "registers": {
                "command": 0,
                "features": 21856,
                "count": 836,
                "lba": 512,
                "device": 0,
                "device_control": 0
              },
              "powerup_milliseconds": 216126,
              "command_name": "NOP [Reserved subcommand] [OBS-ACS-2]"
            },
            {
              "registers": {
                "command": 0,
                "features": 8200,
                "count": 112,
                "lba": 3663611584768,
                "device": 0,
                "device_control": 0
              },
              "powerup_milliseconds": 63528,
              "command_name": "NOP [Reserved subcommand] [OBS-ACS-2]"
            }
          ]
        }
      ]
    }
  },
  "ata_smart_self_test_log": {
    "extended": {
      "revision": 1,
      "sectors": 1,
      "table": [
        {
          "type": {
            "value": 1,
            "string": "Short offline"
          },
          "status": {
            "value": 0,
            "string": "Completed without error",
            "passed": true
          },
          "lifetime_hours": 55208
        },
        {
          "type": {
            "value": 1,
            "string": "Short offline"
          },
          "status": {
            "value": 0,
            "string": "Completed without error",
            "passed": true
          },
          "lifetime_hours": 0
        }
      ],
      "count": 2,
      "error_count_total": 0,
      "error_count_outdated": 0
    }
  },
  "ata_smart_selective_self_test_log": {
    "revision": 1,
    "table": [
      {
        "lba_min": 0,
        "lba_max": 0,
        "status": {
          "value": 0,
          "string": "Not_testing"
        }
      },
      {
        "lba_min": 0,
        "lba_max": 0,
        "status": {
          "value": 0,
          "string": "Not_testing"
        }
      },
      {
        "lba_min": 0,
        "lba_max": 0,
        "status": {
          "value": 0,
          "string": "Not_testing"
        }
      },
      {
        "lba_min": 0,
        "lba_max": 0,
        "status": {
          "value": 0,
          "string": "Not_testing"
        }
      },
      {
        "lba_min": 0,
        "lba_max": 0,
        "status": {
          "value": 0,
          "string": "Not_testing"
        }
      }
    ],
    "flags": {
      "value": 0,
      "remainder_scan_enabled": false
    },
    "power_up_scan_resume_minutes": 0
  },
  "ata_sct_status": {
    "format_version": 2,
    "sct_version": 258,
    "device_state": {
      "value": 4,
      "string": "SMART Off-line Data Collection executing in background"
    },
    "temperature": {
      "current": 20,
      "power_cycle_max": 20,
      "lifetime_max": 53
    }
  },
  "ata_sct_temperature_history": {
    "version": 2,
    "sampling_period_minutes": 1,
    "logging_interval_minutes": 1,
    "temperature": {
      "op_limit_min": 5,
      "op_limit_max": 65,
      "limit_min": 1,
      "limit_max": 70
    },
    "size": 128,
    "index": 118,
    "table": [
      38,
      37,
      37,
      36,
      37,
      40,
      41,
      41,
      38,
      38,
      38,
      38,
      37,
      36,
      35,
      35,
      35,
      35,
      35,
      35,
      35,
      39,
      40,
      41,
      38,
      38,
      38,
      38,
      38,
      38,
      38,
      37,
      37,
      37,
      37,
      36,
      35,
      39,
      40,
      41,
      38,
      38,
      38,
      38,
      38,
      38,
      38,
      37,
      37,
      37,
      37,
      36,
      35,
      39,
      39,
      39,
      35,
      35,
      35,
      35,
      35,
      35,
      35,
      35,
      35,
      35,
      35,
      35,
      35,
      39,
      39,
      39,
      35,
      35,
      35,
      35,
      35,
      35,
      35,
      35,
      35,
      35,
      35,
      35,
      35,
      35,
      35,
      35,
      35,
      35,
      35,
      35,
      35,
      35,
      35,
      35,
      35,
      35,
      35,
      35,
      39,
      39,
      39,
      35,
      35,
      35,
      35,
      35,
      35,
      35,
      35,
      35,
      35,
      35,
      35,
      35,
      null,
      null,
      25,
      27,
      29,
      29,
      29,
      29,
      30,
      null,
      18,
      20
    ]
  },
  "ata_sct_erc": {
    "read": {
      "enabled": false
    },
    "write": {
      "enabled": false
    }
  },
  "sata_phy_event_counters": {
    "table": [
      {
        "id": 1,
        "name": "Command failed due to ICRC error",
        "size": 2,
        "value": 0,
        "overflow": false
      },
      {
        "id": 10,
        "name": "Device-to-host register FISes sent due to a COMRESET",
        "size": 2,
        "value": 1,
        "overflow": false
      },
      {
        "id": 32768,
        "name": "Vendor specific",
        "size": 4,
        "value": 137,
        "overflow": false
      }
    ],
    "reset": false
  }
}
