{
  "json_format_version": [
    1,
    0
  ],
  "smartctl": {
    "version": [
      7,
      2
    ],
    "svn_revision": "5155",
    "platform_info": "x86_64-linux-5.11.0-25-generic",
    "build_info": "(local build)",
    "argv": [
      "smartctl",
      "-jx",
      "/dev/sdb"
    ],
    "exit_status": 88
  },
  "device": {
    "name": "/dev/sdb",
    "info_name": "/dev/sdb [SAT]",
    "type": "sat",
    "protocol": "ATA"
  },
  "model_family": "Seagate Samsung SpinPoint M8 (AF)",
  "model_name": "ST1000LM024 HN-M101MBB",
  "serial_number": "S314JA0G863517",
  "wwn": {
    "naa": 5,
    "oui": 1231,
    "id": 8865432767
  },
  "firmware_version": "2BA30003",
  "user_capacity": {
    "blocks": 1953525168,
    "bytes": 1000204886016
  },
  "logical_block_size": 512,
  "physical_block_size": 4096,
  "rotation_rate": 5400,
  "form_factor": {
    "ata_value": 3,
    "name": "2.5 inches"
  },
  "trim": {
    "supported": false
  },
  "in_smartctl_database": true,
  "ata_version": {
    "string": "ATA8-ACS T13/1699-D revision 6",
    "major_value": 511,
    "minor_value": 40
  },
  "sata_version": {
    "string": "SATA 3.0",
    "value": 63
  },
  "interface_speed": {
    "max": {
      "sata_value": 14,
      "string": "6.0 Gb/s",
      "units_per_second": 60,
      "bits_per_unit": 100000000
    },
    "current": {
      "sata_value": 3,
      "string": "6.0 Gb/s",
      "units_per_second": 60,
      "bits_per_unit": 100000000
    }
  },
  "local_time": {
    "time_t": 1629599004,
    "asctime": "Sat Aug 21 20:23:24 2021 MDT"
  },
  "ata_aam": {
    "enabled": true,
    "level": 254,
    "string": "maximum performance",
    "recommended_level": 254
  },
  "ata_apm": {
    "enabled": true,
    "level": 254,
    "string": "maximum performance",
    "max_performance": true,
    "min_power": false,
    "with_standby": false
  },
  "read_lookahead": {
    "enabled": true
  },
  "write_cache": {
    "enabled": true
  },
  "ata_security": {
    "state": 33,
    "string": "Disabled, NOT FROZEN [SEC1]",
    "enabled": false,
    "frozen": false
  },
  "smart_status": {
    "passed": false
  },
  "ata_smart_data": {
    "offline_data_collection": {
      "status": {
        "value": 0,
        "string": "was never started"
      },
      "completion_seconds": 12180
    },
    "self_test": {
      "status": {
        "value": 0,
        "string": "completed without error",
        "passed": true
      },
      "polling_minutes": {
        "short": 2,
        "extended": 203
      }
    },
    "capabilities": {
      "values": [
        91,
        3
      ],
      "exec_offline_immediate_supported": true,
      "offline_is_aborted_upon_new_cmd": false,
      "offline_surface_scan_supported": true,
      "self_tests_supported": true,
      "conveyance_self_test_supported": false,
      "selective_self_test_supported": true,
      "attribute_autosave_enabled": true,
      "error_logging_supported": true,
      "gp_logging_supported": true
    }
  },
  "ata_sct_capabilities": {
    "value": 63,
    "error_recovery_control_supported": true,
    "feature_control_supported": true,
    "data_table_supported": true
  },
  "ata_smart_attributes": {
    "revision": 16,
    "table": [
      {
        "id": 1,
        "name": "Raw_Read_Error_Rate",
        "value": 95,
        "worst": 95,
        "thresh": 51,
        "when_failed": "",
        "flags": {
          "value": 47,
          "string": "POSR-K ",
          "prefailure": true,
          "updated_online": true,
          "performance": true,
          "error_rate": true,
          "event_count": false,
          "auto_keep": true
        },
        "raw": {
          "value": 9049,
          "string": "9049"
        }
      },
      {
        "id": 2,
        "name": "Throughput_Performance",
        "value": 252,
        "worst": 252,
        "thresh": 0,
        "when_failed": "",
        "flags": {
          "value": 38,
          "string": "-OS--K ",
          "prefailure": false,
          "updated_online": true,
          "performance": true,
          "error_rate": false,
          "event_count": false,
          "auto_keep": true
        },
        "raw": {
          "value": 0,
          "string": "0"
        }
      },
      {
        "id": 3,
        "name": "Spin_Up_Time",
        "value": 92,
        "worst": 92,
        "thresh": 25,
        "when_failed": "",
        "flags": {
          "value": 35,
          "string": "PO---K ",
          "prefailure": true,
          "updated_online": true,
          "performance": false,
          "error_rate": false,
          "event_count": false,
          "auto_keep": true
        },
        "raw": {
          "value": 2473,
          "string": "2473"
        }
      },
      {
        "id": 4,
        "name": "Start_Stop_Count",
        "value": 99,
        "worst": 99,
        "thresh": 0,
        "when_failed": "",
        "flags": {
          "value": 50,
          "string": "-O--CK ",
          "prefailure": false,
          "updated_online": true,
          "performance": false,
          "error_rate": false,
          "event_count": true,
          "auto_keep": true
        },
        "raw": {
          "value": 1070,
          "string": "1070"
        }
      },
      {
        "id": 5,
        "name": "Reallocated_Sector_Ct",
        "value": 1,
        "worst": 1,
        "thresh": 10,
        "when_failed": "now",
        "flags": {
          "value": 51,
          "string": "PO--CK ",
          "prefailure": true,
          "updated_online": true,
          "performance": false,
          "error_rate": false,
          "event_count": true,
          "auto_keep": true
        },
        "raw": {
          "value": 51248,
          "string": "51248"
        }
      },
      {
        "id": 7,
        "name": "Seek_Error_Rate",
        "value": 252,
        "worst": 252,
        "thresh": 51,
        "when_failed": "",
        "flags": {
          "value": 46,
          "string": "-OSR-K ",
          "prefailure": false,
          "updated_online": true,
          "performance": true,
          "error_rate": true,
          "event_count": false,
          "auto_keep": true
        },
        "raw": {
          "value": 0,
          "string": "0"
        }
      },
      {
        "id": 8,
        "name": "Seek_Time_Performance",
        "value": 252,
        "worst": 252,
        "thresh": 15,
        "when_failed": "",
        "flags": {
          "value": 36,
          "string": "--S--K ",
          "prefailure": false,
          "updated_online": false,
          "performance": true,
          "error_rate": false,
          "event_count": false,
          "auto_keep": true
        },
        "raw": {
          "value": 0,
          "string": "0"
        }
      },
      {
        "id": 9,
        "name": "Power_On_Hours",
        "value": 100,
        "worst": 100,
        "thresh": 0,
        "when_failed": "",
        "flags": {
          "value": 50,
          "string": "-O--CK ",
          "prefailure": false,
          "updated_online": true,
          "performance": false,
          "error_rate": false,
          "event_count": true,
          "auto_keep": true
        },
        "raw": {
          "value": 3,
          "string": "3"
        }
      },
      {
        "id": 10,
        "name": "Spin_Retry_Count",
        "value": 252,
        "worst": 252,
        "thresh": 51,
        "when_failed": "",
        "flags": {
          "value": 50,
          "string": "-O--CK ",
          "prefailure": false,
          "updated_online": true,
          "performance": false,
          "error_rate": false,
          "event_count": true,
          "auto_keep": true
        },
        "raw": {
          "value": 0,
          "string": "0"
        }
      },
      {
        "id": 11,
        "name": "Calibration_Retry_Count",
        "value": 252,
        "worst": 252,
        "thresh": 0,
        "when_failed": "",
        "flags": {
          "value": 50,
          "string": "-O--CK ",
          "prefailure": false,
          "updated_online": true,
          "performance": false,
          "error_rate": false,
          "event_count": true,
          "auto_keep": true
        },
        "raw": {
          "value": 0,
          "string": "0"
        }
      },
      {
        "id": 12,
        "name": "Power_Cycle_Count",
        "value": 99,
        "worst": 99,
        "thresh": 0,
        "when_failed": "",
        "flags": {
          "value": 50,
          "string": "-O--CK ",
          "prefailure": false,
          "updated_online": true,
          "performance": false,
          "error_rate": false,
          "event_count": true,
          "auto_keep": true
        },
        "raw": {
          "value": 1150,
          "string": "1150"
        }
      },
      {
        "id": 13,
        "name": "Read_Soft_Error_Rate",
        "value": 100,
        "worst": 100,
        "thresh": 0,
        "when_failed": "",
        "flags": {
          "value": 58,
          "string": "-O-RCK ",
          "prefailure": false,
          "updated_online": true,
          "performance": false,
          "error_rate": true,
          "event_count": true,
          "auto_keep": true
        },
        "raw": {
          "value": 0,
          "string": "0"
        }
      },
      {
        "id": 181,
        "name": "Program_Fail_Cnt_Total",
        "value": 100,
        "worst": 100,
        "thresh": 0,
        "when_failed": "",
        "flags": {
          "value": 34,
          "string": "-O---K ",
          "prefailure": false,
          "updated_online": true,
          "performance": false,
          "error_rate": false,
          "event_count": false,
          "auto_keep": true
        },
        "raw": {
          "value": 4488,
          "string": "4488"
        }
      },
      {
        "id": 191,
        "name": "G-Sense_Error_Rate",
        "value": 252,
        "worst": 252,
        "thresh": 0,
        "when_failed": "",
        "flags": {
          "value": 34,
          "string": "-O---K ",
          "prefailure": false,
          "updated_online": true,
          "performance": false,
          "error_rate": false,
          "event_count": false,
          "auto_keep": true
        },
        "raw": {
          "value": 0,
          "string": "0"
        }
      },
      {
        "id": 192,
        "name": "Power-Off_Retract_Count",
        "value": 100,
        "worst": 100,
        "thresh": 0,
        "when_failed": "",
        "flags": {
          "value": 34,
          "string": "-O---K ",
          "prefailure": false,
          "updated_online": true,
          "performance": false,
          "error_rate": false,
          "event_count": false,
          "auto_keep": true
        },
        "raw": {
          "value": 199,
          "string": "199"
        }
      },
      {
        "id": 193,
        "name": "Load_Cycle_Count",
        "value": 100,
        "worst": 100,
        "thresh": 0,
        "when_failed": "",
        "flags": {
          "value": 50,
          "string": "-O--CK ",
          "prefailure": false,
          "updated_online": true,
          "performance": false,
          "error_rate": false,
          "event_count": true,
          "auto_keep": true
        },
        "raw": {
          "value": 2865,
          "string": "2865"
        }
      },
      {
        "id": 194,
        "name": "Temperature_Celsius",
        "value": 64,
        "worst": 64,
        "thresh": 0,
        "when_failed": "",
        "flags": {
          "value": 2,
          "string": "-O---- ",
          "prefailure": false,
          "updated_online": true,
          "performance": false,
          "error_rate": false,
          "event_count": false,
          "auto_keep": false
        },
        "raw": {
          "value": 146030198805,
          "string": "21 (Min/Max 20/34)"
        }
      },
      {
        "id": 195,
        "name": "Hardware_ECC_Recovered",
        "value": 100,
        "worst": 100,
        "thresh": 0,
        "when_failed": "",
        "flags": {
          "value": 58,
          "string": "-O-RCK ",
          "prefailure": false,
          "updated_online": true,
          "performance": false,
          "error_rate": true,
          "event_count": true,
          "auto_keep": true
        },
        "raw": {
          "value": 0,
          "string": "0"
        }
      },
      {
        "id": 196,
        "name": "Reallocated_Event_Count",
        "value": 1,
        "worst": 1,
        "thresh": 0,
        "when_failed": "",
        "flags": {
          "value": 50,
          "string": "-O--CK ",
          "prefailure": false,
          "updated_online": true,
          "performance": false,
          "error_rate": false,
          "event_count": true,
          "auto_keep": true
        },
        "raw": {
          "value": 51248,
          "string": "51248"
        }
      },
      {
        "id": 197,
        "name": "Current_Pending_Sector",
        "value": 252,
        "worst": 252,
        "thresh": 0,
        "when_failed": "",
        "flags": {
          "value": 50,
          "string": "-O--CK ",
          "prefailure": false,
          "updated_online": true,
          "performance": false,
          "error_rate": false,
          "event_count": true,
          "auto_keep": true
        },
        "raw": {
          "value": 0,
          "string": "0"
        }
      },
      {
        "id": 198,
        "name": "Offline_Uncorrectable",
        "value": 252,
        "worst": 252,
        "thresh": 0,
        "when_failed": "",
        "flags": {
          "value": 48,
          "string": "----CK ",
          "prefailure": false,
          "updated_online": false,
          "performance": false,
          "error_rate": false,
          "event_count": true,
          "auto_keep": true
        },
        "raw": {
          "value": 0,
          "string": "0"
        }
      },
      {
        "id": 199,
        "name": "UDMA_CRC_Error_Count",
        "value": 200,
        "worst": 200,
        "thresh": 0,
        "when_failed": "",
        "flags": {
          "value": 54,
          "string": "-OS-CK ",
          "prefailure": false,
          "updated_online": true,
          "performance": true,
          "error_rate": false,
          "event_count": true,
          "auto_keep": true
        },
        "raw": {
          "value": 0,
          "string": "0"
        }
      },
      {
        "id": 200,
        "name": "Multi_Zone_Error_Rate",
        "value": 252,
        "worst": 252,
        "thresh": 0,
        "when_failed": "",
        "flags": {
          "value": 42,
          "string": "-O-R-K ",
          "prefailure": false,
          "updated_online": true,
          "performance": false,
          "error_rate": true,
          "event_count": false,
          "auto_keep": true
        },
        "raw": {
          "value": 60,
          "string": "60"
        }
      },
      {
        "id": 240,
        "name": "Head_Flying_Hours",
        "value": 100,
        "worst": 100,
        "thresh": 0,
        "when_failed": "",
        "flags": {
          "value": 50,
          "string": "-O--CK ",
          "prefailure": false,
          "updated_online": true,
          "performance": false,
          "error_rate": false,
          "event_count": true,
          "auto_keep": true
        },
        "raw": {
          "value": 3,
          "string": "3"
        }
      },
      {
        "id": 241,
        "name": "Total_LBAs_Written",
        "value": 100,
        "worst": 100,
        "thresh": 0,
        "when_failed": "",
        "flags": {
          "value": 50,
          "string": "-O--CK ",
          "prefailure": false,
          "updated_online": true,
          "performance": false,
          "error_rate": false,
          "event_count": true,
          "auto_keep": true
        },
        "raw": {
          "value": 18780,
          "string": "18780"
        }
      },
      {
        "id": 242,
        "name": "Total_LBAs_Read",
        "value": 97,
        "worst": 97,
        "thresh": 0,
        "when_failed": "",
        "flags": {
          "value": 50,
          "string": "-O--CK ",
          "prefailure": false,
          "updated_online": true,
          "performance": false,
          "error_rate": false,
          "event_count": true,
          "auto_keep": true
        },
        "raw": {
          "value": 4968093,
          "string": "4968093"
        }
      },
      {
        "id": 254,
        "name": "Free_Fall_Sensor",
        "value": 252,
        "worst": 252,
        "thresh": 0,
        "when_failed": "",
        "flags": {
          "value": 50,
          "string": "-O--CK ",
          "prefailure": false,
          "updated_online": true,
          "performance": false,
          "error_rate": false,
          "event_count": true,
          "auto_keep": true
        },
        "raw": {
          "value": 0,
          "string": "0"
        }
      }
    ]
  },
  "power_on_time": {
    "hours": 3
  },
  "power_cycle_count": 1150,
  "temperature": {
    "current": 21,
    "power_cycle_min": 21,
    "power_cycle_max": 21,
    "lifetime_min": 14,
    "lifetime_max": 41,
    "op_limit_max": 80,
    "op_limit_min": -5,
    "limit_min": -10,
    "limit_max": 85
  },
  "ata_log_directory": {
    "gp_dir_version": 1,
    "smart_dir_version": 1,
    "smart_dir_multi_sector": true,
    "table": [
      {
        "address": 0,
        "name": "Log Directory",
        "read": true,
        "write": false,
        "gp_sectors": 1,
        "smart_sectors": 1
      },
      {
        "address": 1,
        "name": "Summary SMART error log",
        "read": true,
        "write": false,
        "smart_sectors": 1
      },
      {
        "address": 2,
        "name": "Comprehensive SMART error log",
        "read": true,
        "write": false,
        "smart_sectors": 2
      },
      {
        "address": 3,
        "name": "Ext. Comprehensive SMART error log",
        "read": true,
        "write": false,
        "gp_sectors": 2
      },
      {
        "address": 6,
        "name": "SMART self-test log",
        "read": true,
        "write": false,
        "smart_sectors": 1
      },
      {
        "address": 7,
        "name": "Extended self-test log",
        "read": true,
        "write": false,
        "gp_sectors": 2
      },
      {
        "address": 8,
        "name": "Power Conditions log",
        "read": true,
        "write": false,
        "gp_sectors": 2
      },
      {
        "address": 9,
        "name": "Selective self-test log",
        "read": true,
        "write": true,
        "smart_sectors": 1
      },
      {
        "address": 16,
        "name": "NCQ Command Error log",
        "read": true,
        "write": false,
        "gp_sectors": 1
      },
      {
        "address": 17,
        "name": "SATA Phy Event Counters log",
        "read": true,
        "write": false,
        "gp_sectors": 1
      },
      {
        "address": 128,
        "name": "Host vendor specific log",
        "read": true,
        "write": true,
        "gp_sectors": 16,
        "smart_sectors": 16
      },
      {
        "address": 129,
        "name": "Host vendor specific log",
        "read": true,
        "write": true,
        "gp_sectors": 16,
        "smart_sectors": 16
      },
      {
        "address": 130,
        "name": "Host vendor specific log",
        "read": true,
        "write": true,
        "gp_sectors": 16,
        "smart_sectors": 16
      },
      {
        "address": 131,
        "name": "Host vendor specific log",
        "read": true,
        "write": true,
        "gp_sectors": 16,
        "smart_sectors": 16
      },
      {
        "address": 132,
        "name": "Host vendor specific log",
        "read": true,
        "write": true,
        "gp_sectors": 16,
        "smart_sectors": 16
      },
      {
        "address": 133,
        "name": "Host vendor specific log",
        "read": true,
        "write": true,
        "gp_sectors": 16,
        "smart_sectors": 16
      },
      {
        "address": 134,
        "name": "Host vendor specific log",
        "read": true,
        "write": true,
        "gp_sectors": 16,
        "smart_sectors": 16
      },
      {
        "address": 135,
        "name": "Host vendor specific log",
        "read": true,
        "write": true,
        "gp_sectors": 16,
        "smart_sectors": 16
      },
      {
        "address": 136,
        "name": "Host vendor specific log",
        "read": true,
        "write": true,
        "gp_sectors": 16,
        "smart_sectors": 16
      },
      {
        "address": 137,
        "name": "Host vendor specific log",
        "read": true,
        "write": true,
        "gp_sectors": 16,
        "smart_sectors": 16
      },
      {
        "address": 138,
        "name": "Host vendor specific log",
        "read": true,
        "write": true,
        "gp_sectors": 16,
        "smart_sectors": 16
      },
      {
        "address": 139,
        "name": "Host vendor specific log",
        "read": true,
        "write": true,
        "gp_sectors": 16,
        "smart_sectors": 16
      },
      {
        "address": 140,
        "name": "Host vendor specific log",
        "read": true,
        "write": true,
        "gp_sectors": 16,
        "smart_sectors": 16
      },
      {
        "address": 141,
        "name": "Host vendor specific log",
        "read": true,
        "write": true,
        "gp_sectors": 16,
        "smart_sectors": 16
      },
      {
        "address": 142,
        "name": "Host vendor specific log",
        "read": true,
        "write": true,
        "gp_sectors": 16,
        "smart_sectors": 16
      },
      {
        "address": 143,
        "name": "Host vendor specific log",
        "read": true,
        "write": true,
        "gp_sectors": 16,
        "smart_sectors": 16
      },
      {
        "address": 144,
        "name": "Host vendor specific log",
        "read": true,
        "write": true,
        "gp_sectors": 16,
        "smart_sectors": 16
      },
      {
        "address": 145,
        "name": "Host vendor specific log",
        "read": true,
        "write": true,
        "gp_sectors": 16,
        "smart_sectors": 16
      },
      {
        "address": 146,
        "name": "Host vendor specific log",
        "read": true,
        "write": true,
        "gp_sectors": 16,
        "smart_sectors": 16
      },
      {
        "address": 147,
        "name": "Host vendor specific log",
        "read": true,
        "write": true,
        "gp_sectors": 16,
        "smart_sectors": 16
      },
      {
        "address": 148,
        "name": "Host vendor specific log",
        "read": true,
        "write": true,
        "gp_sectors": 16,
        "smart_sectors": 16
      },
      {
        "address": 149,
        "name": "Host vendor specific log",
        "read": true,
        "write": true,
        "gp_sectors": 16,
        "smart_sectors": 16
      },
      {
        "address": 150,
        "name": "Host vendor specific log",
        "read": true,
        "write": true,
        "gp_sectors": 16,
        "smart_sectors": 16
      },
      {
        "address": 151,
        "name": "Host vendor specific log",
        "read": true,
        "write": true,
        "gp_sectors": 16,
        "smart_sectors": 16
      },
      {
        "address": 152,
        "name": "Host vendor specific log",
        "read": true,
        "write": true,
        "gp_sectors": 16,
        "smart_sectors": 16
      },
      {
        "address": 153,
        "name": "Host vendor specific log",
        "read": true,
        "write": true,
        "gp_sectors": 16,
        "smart_sectors": 16
      },
      {
        "address": 154,
        "name": "Host vendor specific log",
        "read": true,
        "write": true,
        "gp_sectors": 16,
        "smart_sectors": 16
      },
      {
        "address": 155,
        "name": "Host vendor specific log",
        "read": true,
        "write": true,
        "gp_sectors": 16,
        "smart_sectors": 16
      },
      {
        "address": 156,
        "name": "Host vendor specific log",
        "read": true,
        "write": true,
        "gp_sectors": 16,
        "smart_sectors": 16
      },
      {
        "address": 157,
        "name": "Host vendor specific log",
        "read": true,
        "write": true,
        "gp_sectors": 16,
        "smart_sectors": 16
      },
      {
        "address": 158,
        "name": "Host vendor specific log",
        "read": true,
        "write": true,
        "gp_sectors": 16,
        "smart_sectors": 16
      },
      {
        "address": 159,
        "name": "Host vendor specific log",
        "read": true,
        "write": true,
        "gp_sectors": 16,
        "smart_sectors": 16
      },
      {
        "address": 192,
        "name": "Device vendor specific log",
        "gp_sectors": 16,
        "smart_sectors": 16
      },
      {
        "address": 193,
        "name": "Device vendor specific log",
        "gp_sectors": 16,
        "smart_sectors": 16
      },
      {
        "address": 194,
        "name": "Device vendor specific log",
        "gp_sectors": 16,
        "smart_sectors": 16
      },
      {
        "address": 195,
        "name": "Device vendor specific log",
        "gp_sectors": 16,
        "smart_sectors": 16
      },
      {
        "address": 196,
        "name": "Device vendor specific log",
        "gp_sectors": 16,
        "smart_sectors": 16
      },
      {
        "address": 197,
        "name": "Device vendor specific log",
        "gp_sectors": 16,
        "smart_sectors": 16
      },
      {
        "address": 198,
        "name": "Device vendor specific log",
        "gp_sectors": 16,
        "smart_sectors": 16
      },
      {
        "address": 199,
        "name": "Device vendor specific log",
        "gp_sectors": 16,
        "smart_sectors": 16
      },
      {
        "address": 200,
        "name": "Device vendor specific log",
        "gp_sectors": 16,
        "smart_sectors": 16
      },
      {
        "address": 201,
        "name": "Device vendor specific log",
        "gp_sectors": 16,
        "smart_sectors": 16
      },
      {
        "address": 202,
        "name": "Device vendor specific log",
        "gp_sectors": 16,
        "smart_sectors": 16
      },
      {
        "address": 203,
        "name": "Device vendor specific log",
        "gp_sectors": 16,
        "smart_sectors": 16
      },
      {
        "address": 204,
        "name": "Device vendor specific log",
        "gp_sectors": 16,
        "smart_sectors": 16
      },
      {
        "address": 205,
        "name": "Device vendor specific log",
        "gp_sectors": 16,
        "smart_sectors": 16
      },
      {
        "address": 206,
        "name": "Device vendor specific log",
        "gp_sectors": 16,
        "smart_sectors": 16
      },
      {
        "address": 207,
        "name": "Device vendor specific log",
        "gp_sectors": 16,
        "smart_sectors": 16
      },
      {
        "address": 208,
        "name": "Device vendor specific log",
        "gp_sectors": 16,
        "smart_sectors": 16
      },
      {
        "address": 209,
        "name": "Device vendor specific log",
        "gp_sectors": 16,
        "smart_sectors": 16
      },
      {
        "address": 210,
        "name": "Device vendor specific log",
        "gp_sectors": 16,
        "smart_sectors": 16
      },
      {
        "address": 211,
        "name": "Device vendor specific log",
        "gp_sectors": 16,
        "smart_sectors": 16
      },
      {
        "address": 212,
        "name": "Device vendor specific log",
        "gp_sectors": 16,
        "smart_sectors": 16
      },
      {
        "address": 213,
        "name": "Device vendor specific log",
        "gp_sectors": 16,
        "smart_sectors": 16
      },
      {
        "address": 214,
        "name": "Device vendor specific log",
        "gp_sectors": 16,
        "smart_sectors": 16
      },
      {
        "address": 215,
        "name": "Device vendor specific log",
        "gp_sectors": 16,
        "smart_sectors": 16
      },
      {
        "address": 216,
        "name": "Device vendor specific log",
        "gp_sectors": 16,
        "smart_sectors": 16
      },
      {
        "address": 217,
        "name": "Device vendor specific log",
        "gp_sectors": 16,
        "smart_sectors": 16
      },
      {
        "address": 218,
        "name": "Device vendor specific log",
        "gp_sectors": 16,
        "smart_sectors": 16
      },
      {
        "address": 219,
        "name": "Device vendor specific log",
        "gp_sectors": 16,
        "smart_sectors": 16
      },
      {
        "address": 220,
        "name": "Device vendor specific log",
        "gp_sectors": 16,
        "smart_sectors": 16
      },
      {
        "address": 221,
        "name": "Device vendor specific log",
        "gp_sectors": 16,
        "smart_sectors": 16
      },
      {
        "address": 222,
        "name": "Device vendor specific log",
        "gp_sectors": 16,
        "smart_sectors": 16
      },
      {
        "address": 223,
        "name": "Device vendor specific log",
        "gp_sectors": 16,
        "smart_sectors": 16
      },
      {
        "address": 224,
        "name": "SCT Command/Status",
        "read": true,
        "write": true,
        "gp_sectors": 1,
        "smart_sectors": 1
      },
      {
        "address": 225,
        "name": "SCT Data Transfer",
        "read": true,
        "write": true,
        "gp_sectors": 1,
        "smart_sectors": 1
      }
    ]
  },
  "ata_smart_error_log": {
    "extended": {
      "revision": 1,
      "sectors": 2,
      "count": 38,
      "logged_count": 8,
      "table": [
        {
          "error_number": 38,
          "log_index": 5,
          "lifetime_hours": 3,
          "device_state": {
            "value": 3,
            "string": "active or idle"
          },
          "completion_registers": {
            "error": 4,
            "status": 81,
            "count": 152,
            "lba": 189439848,
            "device": 235,
            "device_control": 0
          },
          "error_description": "Error: ABRT at LBA = 0x0b4a9f68 = 189439848",
          "previous_commands": [
            {
              "registers": {
                "command": 66,
                "features": 0,
                "count": 256,
                "lba": 189439744,
                "device": 235,
                "device_control": 0
              },
              "powerup_milliseconds": 816,
              "command_name": "READ VERIFY SECTOR(S) EXT"
            },
            {
              "registers": {
                "command": 0,
                "features": 0,
                "count": 1,
                "lba": 1,
                "device": 64,
                "device_control": 0
              },
              "powerup_milliseconds": 816,
              "command_name": "NOP [Abort queued commands]"
            },
            {
              "registers": {
                "command": 52,
                "features": 0,
                "count": 256,
                "lba": 189439744,
                "device": 235,
                "device_control": 0
              },
              "powerup_milliseconds": 816,
              "command_name": "WRITE SECTORS(S) EXT"
            },
            {
              "registers": {
                "command": 0,
                "features": 0,
                "count": 1,
                "lba": 1,
                "device": 64,
                "device_control": 0
              },
              "powerup_milliseconds": 816,
              "command_name": "NOP [Abort queued commands]"
            },
            {
              "registers": {
                "command": 66,
                "features": 0,
                "count": 256,
                "lba": 189439744,
                "device": 235,
                "device_control": 0
              },
              "powerup_milliseconds": 814,
              "command_name": "READ VERIFY SECTOR(S) EXT"
            }
          ]
        },
        {
          "error_number": 37,
          "log_index": 4,
          "lifetime_hours": 3,
          "device_state": {
            "value": 3,
            "string": "active or idle"
          },
          "completion_registers": {
            "error": 4,
            "status": 81,
            "count": 160,
            "lba": 189439840,
            "device": 235,
            "device_control": 0
          },
          "error_description": "Error: ABRT at LBA = 0x0b4a9f60 = 189439840",
          "previous_commands": [
            {
              "registers": {
                "command": 66,
                "features": 0,
                "count": 256,
                "lba": 189439744,
                "device": 235,
                "device_control": 0
              },
              "powerup_milliseconds": 811,
              "command_name": "READ VERIFY SECTOR(S) EXT"
            },
            {
              "registers": {
                "command": 0,
                "features": 0,
                "count": 1,
                "lba": 1,
                "device": 64,
                "device_control": 0
              },
              "powerup_milliseconds": 811,
              "command_name": "NOP [Abort queued commands]"
            },
            {
              "registers": {
                "command": 52,
                "features": 0,
                "count": 256,
                "lba": 189439744,
                "device": 235,
                "device_control": 0
              },
              "powerup_milliseconds": 811,
              "command_name": "WRITE SECTORS(S) EXT"
            },
            {
              "registers": {
                "command": 0,
                "features": 0,
                "count": 1,
                "lba": 1,
                "device": 64,
                "device_control": 0
              },
              "powerup_milliseconds": 811,
              "command_name": "NOP [Abort queued commands]"
            },
            {
              "registers": {
                "command": 52,
                "features": 0,
                "count": 256,
                "lba": 189439744,
                "device": 235,
                "device_control": 0
              },
              "powerup_milliseconds": 810,
              "command_name": "WRITE SECTORS(S) EXT"
            }
          ]
        },
        {
          "error_number": 36,
          "log_index": 3,
          "lifetime_hours": 3,
          "device_state": {
            "value": 3,
            "string": "active or idle"
          },
          "completion_registers": {
            "error": 4,
            "status": 81,
            "count": 168,
            "lba": 189439832,
            "device": 235,
            "device_control": 0
          },
          "error_description": "Error: ABRT at LBA = 0x0b4a9f58 = 189439832",
          "previous_commands": [
            {
              "registers": {
                "command": 66,
                "features": 0,
                "count": 256,
                "lba": 189439744,
                "device": 235,
                "device_control": 0
              },
              "powerup_milliseconds": 809,
              "command_name": "READ VERIFY SECTOR(S) EXT"
            },
            {
              "registers": {
                "command": 66,
                "features": 0,
                "count": 256,
                "lba": 189439488,
                "device": 235,
                "device_control": 0
              },
              "powerup_milliseconds": 809,
              "command_name": "READ VERIFY SECTOR(S) EXT"
            },
            {
              "registers": {
                "command": 66,
                "features": 0,
                "count": 256,
                "lba": 189439232,
                "device": 235,
                "device_control": 0
              },
              "powerup_milliseconds": 809,
              "command_name": "READ VERIFY SECTOR(S) EXT"
            },
            {
              "registers": {
                "command": 66,
                "features": 0,
                "count": 256,
                "lba": 189438976,
                "device": 235,
                "device_control": 0
              },
              "powerup_milliseconds": 809,
              "command_name": "READ VERIFY SECTOR(S) EXT"
            },
            {
              "registers": {
                "command": 66,
                "features": 0,
                "count": 256,
                "lba": 189438720,
                "device": 235,
                "device_control": 0
              },
              "powerup_milliseconds": 809,
              "command_name": "READ VERIFY SECTOR(S) EXT"
            }
          ]
        },
        {
          "error_number": 35,
          "log_index": 2,
          "lifetime_hours": 3,
          "device_state": {
            "value": 3,
            "string": "active or idle"
          },
          "completion_registers": {
            "error": 4,
            "status": 81,
            "count": 56,
            "lba": 189437128,
            "device": 235,
            "device_control": 0
          },
          "error_description": "Error: ABRT at LBA = 0x0b4a94c8 = 189437128",
          "previous_commands": [
            {
              "registers": {
                "command": 66,
                "features": 0,
                "count": 256,
                "lba": 189436928,
                "device": 235,
                "device_control": 0
              },
              "powerup_milliseconds": 42,
              "command_name": "READ VERIFY SECTOR(S) EXT"
            },
            {
              "registers": {
                "command": 0,
                "features": 0,
                "count": 1,
                "lba": 1,
                "device": 64,
                "device_control": 0
              },
              "powerup_milliseconds": 42,
              "command_name": "NOP [Abort queued commands]"
            },
            {
              "registers": {
                "command": 52,
                "features": 0,
                "count": 256,
                "lba": 189436928,
                "device": 235,
                "device_control": 0
              },
              "powerup_milliseconds": 41,
              "command_name": "WRITE SECTORS(S) EXT"
            },
            {
              "registers": {
                "command": 0,
                "features": 0,
                "count": 1,
                "lba": 1,
                "device": 64,
                "device_control": 0
              },
              "powerup_milliseconds": 41,
              "command_name": "NOP [Abort queued commands]"
            },
            {
              "registers": {
                "command": 52,
                "features": 0,
                "count": 256,
                "lba": 189436928,
                "device": 235,
                "device_control": 0
              },
              "powerup_milliseconds": 39,
              "command_name": "WRITE SECTORS(S) EXT"
            }
          ]
        },
        {
          "error_number": 34,
          "log_index": 1,
          "lifetime_hours": 3,
          "device_state": {
            "value": 3,
            "string": "active or idle"
          },
          "completion_registers": {
            "error": 4,
            "status": 81,
            "count": 64,
            "lba": 189437120,
            "device": 235,
            "device_control": 0
          },
          "error_description": "Error: ABRT at LBA = 0x0b4a94c0 = 189437120",
          "previous_commands": [
            {
              "registers": {
                "command": 66,
                "features": 0,
                "count": 256,
                "lba": 189436928,
                "device": 235,
                "device_control": 0
              },
              "powerup_milliseconds": 37,
              "command_name": "READ VERIFY SECTOR(S) EXT"
            },
            {
              "registers": {
                "command": 0,
                "features": 0,
                "count": 1,
                "lba": 1,
                "device": 64,
                "device_control": 0
              },
              "powerup_milliseconds": 37,
              "command_name": "NOP [Abort queued commands]"
            },
            {
              "registers": {
                "command": 52,
                "features": 0,
                "count": 256,
                "lba": 189436928,
                "device": 235,
                "device_control": 0
              },
              "powerup_milliseconds": 36,
              "command_name": "WRITE SECTORS(S) EXT"
            },
            {
              "registers": {
                "command": 0,
                "features": 0,
                "count": 1,
                "lba": 1,
                "device": 64,
                "device_control": 0
              },
              "powerup_milliseconds": 36,
              "command_name": "NOP [Abort queued commands]"
            },
            {
              "registers": {
                "command": 52,
                "features": 0,
                "count": 256,
                "lba": 189436928,
                "device": 235,
                "device_control": 0
              },
              "powerup_milliseconds": 32,
              "command_name": "WRITE SECTORS(S) EXT"
            }
          ]
        },
        {
          "error_number": 33,
          "log_index": 0,
          "lifetime_hours": 3,
          "device_state": {
            "value": 3,
            "string": "active or idle"
          },
          "completion_registers": {
            "error": 4,
            "status": 81,
            "count": 72,
            "lba": 189437112,
            "device": 235,
            "device_control": 0
          },
          "error_description": "Error: ABRT at LBA = 0x0b4a94b8 = 189437112",
          "previous_commands": [
            {
              "registers": {
                "command": 66,
                "features": 0,
                "count": 256,
                "lba": 189436928,
                "device": 235,
                "device_control": 0
              },
              "powerup_milliseconds": 31,
              "command_name": "READ VERIFY SECTOR(S) EXT"
            },
            {
              "registers": {
                "command": 66,
                "features": 0,
                "count": 256,
                "lba": 189436672,
                "device": 235,
                "device_control": 0
              },
              "powerup_milliseconds": 31,
              "command_name": "READ VERIFY SECTOR(S) EXT"
            },
            {
              "registers": {
                "command": 66,
                "features": 0,
                "count": 256,
                "lba": 189436416,
                "device": 235,
                "device_control": 0
              },
              "powerup_milliseconds": 31,
              "command_name": "READ VERIFY SECTOR(S) EXT"
            },
            {
              "registers": {
                "command": 66,
                "features": 0,
                "count": 256,
                "lba": 189436160,
                "device": 235,
                "device_control": 0
              },
              "powerup_milliseconds": 31,
              "command_name": "READ VERIFY SECTOR(S) EXT"
            },
            {
              "registers": {
                "command": 66,
                "features": 0,
                "count": 256,
                "lba": 189435904,
                "device": 235,
                "device_control": 0
              },
              "powerup_milliseconds": 31,
              "command_name": "READ VERIFY SECTOR(S) EXT"
            }
          ]
        },
        {
          "error_number": 32,
          "log_index": 7,
          "lifetime_hours": 3,
          "device_state": {
            "value": 3,
            "string": "active or idle"
          },
          "completion_registers": {
            "error": 4,
            "status": 81,
            "count": 40,
            "lba": 189432536,
            "device": 235,
            "device_control": 0
          },
          "error_description": "Error: ABRT at LBA = 0x0b4a82d8 = 189432536",
          "previous_commands": [
            {
              "registers": {
                "command": 66,
                "features": 0,
                "count": 256,
                "lba": 189432320,
                "device": 235,
                "device_control": 0
              },
              "powerup_milliseconds": 16,
              "command_name": "READ VERIFY SECTOR(S) EXT"
            },
            {
              "registers": {
                "command": 66,
                "features": 0,
                "count": 256,
                "lba": 189432064,
                "device": 235,
                "device_control": 0
              },
              "powerup_milliseconds": 14,
              "command_name": "READ VERIFY SECTOR(S) EXT"
            },
            {
              "registers": {
                "command": 66,
                "features": 0,
                "count": 256,
                "lba": 189431808,
                "device": 235,
                "device_control": 0
              },
              "powerup_milliseconds": 14,
              "command_name": "READ VERIFY SECTOR(S) EXT"
            },
            {
              "registers": {
                "command": 66,
                "features": 0,
                "count": 256,
                "lba": 189431552,
                "device": 235,
                "device_control": 0
              },
              "powerup_milliseconds": 14,
              "command_name": "READ VERIFY SECTOR(S) EXT"
            },
            {
              "registers": {
                "command": 66,
                "features": 0,
                "count": 256,
                "lba": 189431296,
                "device": 235,
                "device_control": 0
              },
              "powerup_milliseconds": 14,
              "command_name": "READ VERIFY SECTOR(S) EXT"
            }
          ]
        },
        {
          "error_number": 31,
          "log_index": 6,
          "lifetime_hours": 3,
          "device_state": {
            "value": 3,
            "string": "active or idle"
          },
          "completion_registers": {
            "error": 4,
            "status": 81,
            "count": 112,
            "lba": 189422480,
            "device": 235,
            "device_control": 0
          },
          "error_description": "Error: ABRT at LBA = 0x0b4a5b90 = 189422480",
          "previous_commands": [
            {
              "registers": {
                "command": 66,
                "features": 0,
                "count": 256,
                "lba": 189422336,
                "device": 235,
                "device_control": 0
              },
              "powerup_milliseconds": 10,
              "command_name": "READ VERIFY SECTOR(S) EXT"
            },
            {
              "registers": {
                "command": 176,
                "features": 216,
                "count": 0,
                "lba": 12734208,
                "device": 224,
                "device_control": 0
              },
              "powerup_milliseconds": 10,
              "command_name": "SMART ENABLE OPERATIONS"
            },
            {
              "registers": {
                "command": 239,
                "features": 2,
                "count": 0,
                "lba": 0,
                "device": 224,
                "device_control": 0
              },
              "powerup_milliseconds": 10,
              "command_name": "SET FEATURES [Enable write cache]"
            },
            {
              "registers": {
                "command": 239,
                "features": 170,
                "count": 0,
                "lba": 0,
                "device": 224,
                "device_control": 0
              },
              "powerup_milliseconds": 10,
              "command_name": "SET FEATURES [Enable read look-ahead]"
            },
            {
              "registers": {
                "command": 239,
                "features": 3,
                "count": 69,
                "lba": 0,
                "device": 224,
                "device_control": 0
              },
              "powerup_milliseconds": 10,
              "command_name": "SET FEATURES [Set transfer mode]"
            }
          ]
        }
      ]
    }
  },
  "ata_smart_self_test_log": {
    "extended": {
      "revision": 1,
      "sectors": 2,
      "count": 0
    }
  },
  "ata_smart_selective_self_test_log": {
    "revision": 0,
    "table": [
      {
        "lba_min": 0,
        "lba_max": 0,
        "status": {
          "value": 0,
          "string": "Completed",
          "remaining_percent": 0
        },
        "current_lba_min": 0,
        "current_lba_max": 65535
      },
      {
        "lba_min": 0,
        "lba_max": 0,
        "status": {
          "value": 0,
          "string": "Not_testing"
        }
      },
      {
        "lba_min": 0,
        "lba_max": 0,
        "status": {
          "value": 0,
          "string": "Not_testing"
        }
      },
      {
        "lba_min": 0,
        "lba_max": 0,
        "status": {
          "value": 0,
          "string": "Not_testing"
        }
      },
      {
        "lba_min": 0,
        "lba_max": 0,
        "status": {
          "value": 0,
          "string": "Not_testing"
        }
      }
    ],
    "flags": {
      "value": 0,
      "remainder_scan_enabled": false
    },
    "power_up_scan_resume_minutes": 0
  },
  "ata_sct_status": {
    "format_version": 2,
    "sct_version": 256,
    "device_state": {
      "value": 0,
      "string": "Active"
    },
    "temperature": {
      "current": 21,
      "power_cycle_min": 21,
      "power_cycle_max": 21,
      "lifetime_min": 14,
      "lifetime_max": 41,
      "op_limit_max": 80,
      "under_limit_count": 0,
      "over_limit_count": 0
    }
  },
  "ata_sct_temperature_history": {
    "version": 2,
    "sampling_period_minutes": 5,
    "logging_interval_minutes": 5,
    "temperature": {
      "op_limit_min": -5,
      "op_limit_max": 80,
      "limit_min": -10,
      "limit_max": 85
    },
    "size": 128,
    "index": 85,
    "table": [
      21,
      36,
      37,
      37,
      37,
      37,
      37,
      37,
      37,
      37,
      37,
      37,
      37,
      37,
      37,
      37,
      37,
      37,
      37,
      37,
      37,
      37,
      38,
      38,
      38,
      38,
      38,
      38,
      38,
      38,
      38,
      38,
      38,
      38,
      38,
      38,
      38,
      38,
      38,
      38,
      33,
      33,
      33,
      34,
      35,
      36,
      36,
      37,
      37,
      37,
      37,
      37,
      37,
      37,
      37,
      37,
      37,
      37,
      37,
      37,
      37,
      37,
      37,
      37,
      37,
      37,
      37,
      37,
      37,
      37,
      37,
      37,
      37,
      37,
      37,
      37,
      36,
      28,
      30,
      32,
      33,
      33,
      33,
      34,
      34,
      34,
      34,
      34,
      26,
      29,
      31,
      32,
      32,
      33,
      33,
      33,
      33,
      33,
      33,
      33,
      34,
      33,
      33,
      33,
      33,
      23,
      28,
      27,
      29,
      30,
      31,
      33,
      32,
      32,
      32,
      32,
      32,
      31,
      32,
      32,
      33,
      33,
      32,
      29,
      30,
      31,
      31,
      31
    ]
  },
  "ata_sct_erc": {
    "read": {
      "enabled": false
    },
    "write": {
      "enabled": false
    }
  },
  "sata_phy_event_counters": {
    "table": [
      {
        "id": 1,
        "name": "Command failed due to ICRC error",
        "size": 4,
        "value": 0,
        "overflow": false
      },
      {
        "id": 2,
        "name": "R_ERR response for data FIS",
        "size": 4,
        "value": 0,
        "overflow": false
      },
      {
        "id": 3,
        "name": "R_ERR response for device-to-host data FIS",
        "size": 4,
        "value": 0,
        "overflow": false
      },
      {
        "id": 4,
        "name": "R_ERR response for host-to-device data FIS",
        "size": 4,
        "value": 0,
        "overflow": false
      },
      {
        "id": 5,
        "name": "R_ERR response for non-data FIS",
        "size": 4,
        "value": 0,
        "overflow": false
      },
      {
        "id": 6,
        "name": "R_ERR response for device-to-host non-data FIS",
        "size": 4,
        "value": 0,
        "overflow": false
      },
      {
        "id": 7,
        "name": "R_ERR response for host-to-device non-data FIS",
        "size": 4,
        "value": 0,
        "overflow": false
      },
      {
        "id": 8,
        "name": "Device-to-host non-data FIS retries",
        "size": 4,
        "value": 0,
        "overflow": false
      },
      {
        "id": 9,
        "name": "Transition from drive PhyRdy to drive PhyNRdy",
        "size": 4,
        "value": 1,
        "overflow": false
      },
      {
        "id": 10,
        "name": "Device-to-host register FISes sent due to a COMRESET",
        "size": 4,
        "value": 0,
        "overflow": false
      },
      {
        "id": 11,
        "name": "CRC errors within host-to-device FIS",
        "size": 4,
        "value": 0,
        "overflow": false
      },
      {
        "id": 13,
        "name": "Non-CRC errors within host-to-device FIS",
        "size": 4,
        "value": 0,
        "overflow": false
      },
      {
        "id": 15,
        "name": "R_ERR response for host-to-device data FIS, CRC",
        "size": 4,
        "value": 0,
        "overflow": false
      },
      {
        "id": 16,
        "name": "R_ERR response for host-to-device data FIS, non-CRC",
        "size": 4,
        "value": 0,
        "overflow": false
      },
      {
        "id": 18,
        "name": "R_ERR response for host-to-device non-data FIS, CRC",
        "size": 4,
        "value": 0,
        "overflow": false
      },
      {
        "id": 19,
        "name": "R_ERR response for host-to-device non-data FIS, non-CRC",
        "size": 4,
        "value": 0,
        "overflow": false
      },
      {
        "id": 36352,
        "name": "Vendor specific",
        "size": 4,
        "value": 0,
        "overflow": false
      },
      {
        "id": 36353,
        "name": "Vendor specific",
        "size": 4,
        "value": 0,
        "overflow": false
      },
      {
        "id": 36354,
        "name": "Vendor specific",
        "size": 4,
        "value": 0,
        "overflow": false
      },
      {
        "id": 36355,
        "name": "Vendor specific",
        "size": 4,
        "value": 0,
        "overflow": false
      },
      {
        "id": 36356,
        "name": "Vendor specific",
        "size": 4,
        "value": 0,
        "overflow": false
      },
      {
        "id": 36357,
        "name": "Vendor specific",
        "size": 4,
        "value": 0,
        "overflow": false
      },
      {
        "id": 36358,
        "name": "Vendor specific",
        "size": 4,
        "value": 0,
        "overflow": false
      },
      {
        "id": 36359,
        "name": "Vendor specific",
        "size": 4,
        "value": 0,
        "overflow": false
      },
      {
        "id": 36360,
        "name": "Vendor specific",
        "size": 4,
        "value": 0,
        "overflow": false
      },
      {
        "id": 36361,
        "name": "Vendor specific",
        "size": 4,
        "value": 0,
        "overflow": false
      },
      {
        "id": 36362,
        "name": "Vendor specific",
        "size": 4,
        "value": 0,
        "overflow": false
      },
      {
        "id": 36363,
        "name": "Vendor specific",
        "size": 4,
        "value": 0,
        "overflow": false
      },
      {
        "id": 36364,
        "name": "Vendor specific",
        "size": 4,
        "value": 0,
        "overflow": false
      },
      {
        "id": 36365,
        "name": "Vendor specific",
        "size": 4,
        "value": 0,
        "overflow": false
      },
      {
        "id": 36366,
        "name": "Vendor specific",
        "size": 4,
        "value": 0,
        "overflow": false
      },
      {
        "id": 36367,
        "name": "Vendor specific",
        "size": 4,
        "value": 0,
        "overflow": false
      },
      {
        "id": 36368,
        "name": "Vendor specific",
        "size": 4,
        "value": 0,
        "overflow": false
      },
      {
        "id": 36369,
        "name": "Vendor specific",
        "size": 4,
        "value": 0,
        "overflow": false
      }
    ],
    "reset": false
  }
}
