smartctl 7.2 2020-12-30 r5155 [x86_64-linux-5.11.2-pmagic] (local build)
Copyright (C) 2002-20, Bruce Allen, Christian Franke, www.smartmontools.org

=== START OF INFORMATION SECTION ===
Model Family:     Intel 53x and Pro 1500/2500 Series SSDs
Device Model:     INTEL SSDSC2BF180A4H
Serial Number:    CVDA433604571802GN
LU WWN Device Id: 5 5cd2e4 04bd82455
Firmware Version: LH6i
User Capacity:    180,045,766,656 bytes [180 GB]
Sector Size:      512 bytes logical/physical
Rotation Rate:    Solid State Device
TRIM Command:     Available, deterministic
Device is:        In smartctl database [for details use: -P show]
ATA Version is:   ACS-2 (minor revision not indicated)
SATA Version is:  SATA 3.0, 6.0 Gb/s (current: 6.0 Gb/s)
Local Time is:    Sat Apr  3 22:54:38 2021 CDT
SMART support is: Available - device has SMART capability.
SMART support is: Enabled
AAM feature is:   Unavailable
APM level is:     254 (maximum performance)
Rd look-ahead is: Enabled
Write cache is:   Enabled
DSN feature is:   Unavailable
ATA Security is:  Disabled, NOT FROZEN [SEC1]
Wt Cache Reorder: Unavailable

=== START OF READ SMART DATA SECTION ===
SMART Status not supported: Incomplete response, ATA output registers missing
SMART overall-health self-assessment test result: PASSED
Warning: This result is based on an Attribute check.

General SMART Values:
Offline data collection status:  (0x00)	Offline data collection activity
					was never started.
					Auto Offline Data Collection: Disabled.
Self-test execution status:      (   0)	The previous self-test routine completed
					without error or no self-test has ever 
					been run.
Total time to complete Offline 
data collection: 		( 4395) seconds.
Offline data collection
capabilities: 			 (0x77) SMART execute Offline immediate.
					Auto Offline data collection on/off support.
					Abort Offline collection upon new
					command.
					No Offline surface scan supported.
					Self-test supported.
					Conveyance Self-test supported.
					Selective Self-test supported.
SMART capabilities:            (0x0003)	Saves SMART data before entering
					power-saving mode.
					Supports SMART auto save timer.
Error logging capability:        (0x01)	Error logging supported.
					General Purpose Logging supported.
Short self-test routine 
recommended polling time: 	 (   2) minutes.
Extended self-test routine
recommended polling time: 	 (  58) minutes.
Conveyance self-test routine
recommended polling time: 	 (   4) minutes.
SCT capabilities: 	       (0x0025)	SCT Status supported.
					SCT Data Table supported.

SMART Attributes Data Structure revision number: 10
Vendor Specific SMART Attributes with Thresholds:
ID# ATTRIBUTE_NAME          FLAGS    VALUE WORST THRESH FAIL RAW_VALUE
  5 Reallocated_Sector_Ct   -O--CK   100   100   000    -    2
  9 Power_On_Hours_and_Msec -O--CK   100   100   000    -    2452h+33m+45.320s
 12 Power_Cycle_Count       -O--CK   098   098   000    -    2216
170 Available_Reservd_Space PO--CK   100   100   010    -    0
171 Program_Fail_Count      -O--CK   100   100   000    -    1
172 Erase_Fail_Count        -O--CK   100   100   000    -    0
174 Unexpect_Power_Loss_Ct  -O--CK   100   100   000    -    2216
183 SATA_Downshift_Count    -O--CK   100   100   010    -    11
184 End-to-End_Error        PO--CK   100   100   097    -    0
187 Uncorrectable_Error_Cnt -O--CK   100   100   000    -    0
190 Airflow_Temperature_Cel -O--CK   031   046   000    -    31 (Min/Max 5/46)
192 Power-Off_Retract_Count -O--CK   100   100   000    -    2216
199 UDMA_CRC_Error_Count    -O--CK   100   100   000    -    0
225 Host_Writes_32MiB       -O--CK   100   100   000    -    257167
226 Workld_Media_Wear_Indic -O--CK   100   100   000    -    65535
227 Workld_Host_Reads_Perc  -O--CK   100   100   000    -    60
228 Workload_Minutes        -O--CK   100   100   000    -    65535
232 Available_Reservd_Space PO--CK   100   100   010    -    0
233 Media_Wearout_Indicator -O--CK   096   096   000    -    0
241 Host_Writes_32MiB       -O--CK   100   100   000    -    257167
242 Host_Reads_32MiB        -O--CK   100   100   000    -    399738
249 NAND_Writes_1GiB        -O--CK   100   100   000    -    36434
                            ||||||_ K auto-keep
                            |||||__ C event count
                            ||||___ R error rate
                            |||____ S speed/performance
                            ||_____ O updated online
                            |______ P prefailure warning

General Purpose Log Directory Version 1
SMART           Log Directory Version 1 [multi-sector log support]
Address    Access  R/W   Size  Description
0x00       GPL,SL  R/O      1  Log Directory
0x04       GPL,SL  R/O      1  Device Statistics log
0x06           SL  R/O      1  SMART self-test log
0x07       GPL     R/O      1  Extended self-test log
0x09           SL  R/W      1  Selective self-test log
0x10       GPL     R/O      1  NCQ Command Error log
0x11       GPL,SL  R/O      1  SATA Phy Event Counters log
0x30       GPL,SL  R/O     16  IDENTIFY DEVICE data log
0x80-0x9f  GPL,SL  R/W     16  Host vendor specific log
0xb7       GPL,SL  VS      16  Device vendor specific log
0xe0       GPL,SL  R/W      1  SCT Command/Status
0xe1       GPL,SL  R/W      1  SCT Data Transfer

SMART Extended Comprehensive Error Log (GP Log 0x03) not supported

SMART Error Log not supported

SMART Extended Self-test Log Version: 1 (1 sectors)
Num  Test_Description    Status                  Remaining  LifeTime(hours)  LBA_of_first_error
# 1  Short offline       Completed without error       00%      2452         -

SMART Selective self-test log data structure revision number 1
 SPAN  MIN_LBA  MAX_LBA  CURRENT_TEST_STATUS
    1        0        0  Not_testing
    2        0        0  Not_testing
    3        0        0  Not_testing
    4        0        0  Not_testing
    5        0        0  Not_testing
Selective self-test flags (0x0):
  After scanning selected spans, do NOT read-scan remainder of disk.
If Selective self-test is pending on power-up, resume after 0 minute delay.

SCT Status Version:                  3
SCT Version (vendor specific):       0 (0x0000)
Device State:                        Active (0)
Current Temperature:                    31 Celsius
Power Cycle Min/Max Temperature:      5/46 Celsius
Lifetime    Min/Max Temperature:      5/73 Celsius
Under/Over Temperature Limit Count:   0/0

SCT Temperature History Version:     2
Temperature Sampling Period:         1 minute
Temperature Logging Interval:        10 minutes
Min/Max recommended Temperature:      0/70 Celsius
Min/Max Temperature Limit:            0/75 Celsius
Temperature History Size (Index):    478 (239)

Index    Estimated Time   Temperature Celsius
 240    2021-03-31 15:20     ?  -
 241    2021-03-31 15:30    23  ****
 242    2021-03-31 15:40    32  *************
 243    2021-03-31 15:50    33  **************
 244    2021-03-31 16:00     ?  -
 ...    ..(  2 skipped).    ..  -
 247    2021-03-31 16:30     ?  -
 248    2021-03-31 16:40    37  ******************
 249    2021-03-31 16:50    37  ******************
 250    2021-03-31 17:00    36  *****************
 251    2021-03-31 17:10    36  *****************
 252    2021-03-31 17:20    34  ***************
 253    2021-03-31 17:30     ?  -
 254    2021-03-31 17:40     ?  -
 255    2021-03-31 17:50     ?  -
 256    2021-03-31 18:00    23  ****
 257    2021-03-31 18:10    33  **************
 258    2021-03-31 18:20     ?  -
 259    2021-03-31 18:30    31  ************
 260    2021-03-31 18:40    31  ************
 261    2021-03-31 18:50     ?  -
 262    2021-03-31 19:00    35  ****************
 263    2021-03-31 19:10    34  ***************
 264    2021-03-31 19:20    38  *******************
 265    2021-03-31 19:30    39  ********************
 266    2021-03-31 19:40    35  ****************
 267    2021-03-31 19:50     ?  -
 268    2021-03-31 20:00    32  *************
 269    2021-03-31 20:10    34  ***************
 270    2021-03-31 20:20     ?  -
 271    2021-03-31 20:30     ?  -
 272    2021-03-31 20:40    25  ******
 273    2021-03-31 20:50    34  ***************
 274    2021-03-31 21:00    34  ***************
 275    2021-03-31 21:10    38  *******************
 276    2021-03-31 21:20    39  ********************
 277    2021-03-31 21:30     ?  -
 278    2021-03-31 21:40     ?  -
 279    2021-03-31 21:50    25  ******
 280    2021-03-31 22:00    31  ************
 281    2021-03-31 22:10     ?  -
 282    2021-03-31 22:20     ?  -
 283    2021-03-31 22:30     ?  -
 284    2021-03-31 22:40    22  ***
 285    2021-03-31 22:50     ?  -
 286    2021-03-31 23:00    36  *****************
 287    2021-03-31 23:10    37  ******************
 288    2021-03-31 23:20    37  ******************
 289    2021-03-31 23:30    36  *****************
 290    2021-03-31 23:40    37  ******************
 291    2021-03-31 23:50    39  ********************
 292    2021-04-01 00:00    39  ********************
 293    2021-04-01 00:10    34  ***************
 294    2021-04-01 00:20    38  *******************
 295    2021-04-01 00:30    38  *******************
 296    2021-04-01 00:40    33  **************
 297    2021-04-01 00:50    33  **************
 298    2021-04-01 01:00     ?  -
 299    2021-04-01 01:10     ?  -
 300    2021-04-01 01:20     ?  -
 301    2021-04-01 01:30    28  *********
 302    2021-04-01 01:40     ?  -
 303    2021-04-01 01:50     ?  -
 304    2021-04-01 02:00    33  **************
 305    2021-04-01 02:10    31  ************
 306    2021-04-01 02:20    30  ***********
 307    2021-04-01 02:30     ?  -
 308    2021-04-01 02:40     ?  -
 309    2021-04-01 02:50    30  ***********
 310    2021-04-01 03:00    35  ****************
 311    2021-04-01 03:10     ?  -
 312    2021-04-01 03:20     ?  -
 313    2021-04-01 03:30    32  *************
 314    2021-04-01 03:40    36  *****************
 315    2021-04-01 03:50    39  ********************
 316    2021-04-01 04:00    41  **********************
 317    2021-04-01 04:10    28  *********
 318    2021-04-01 04:20    31  ************
 319    2021-04-01 04:30     ?  -
 320    2021-04-01 04:40     ?  -
 321    2021-04-01 04:50    37  ******************
 322    2021-04-01 05:00     ?  -
 323    2021-04-01 05:10    32  *************
 324    2021-04-01 05:20    32  *************
 325    2021-04-01 05:30    34  ***************
 326    2021-04-01 05:40    33  **************
 327    2021-04-01 05:50    32  *************
 328    2021-04-01 06:00    33  **************
 329    2021-04-01 06:10     ?  -
 330    2021-04-01 06:20    37  ******************
 331    2021-04-01 06:30    35  ****************
 332    2021-04-01 06:40    29  **********
 333    2021-04-01 06:50     ?  -
 334    2021-04-01 07:00    32  *************
 335    2021-04-01 07:10    33  **************
 336    2021-04-01 07:20    35  ****************
 337    2021-04-01 07:30    34  ***************
 338    2021-04-01 07:40    34  ***************
 339    2021-04-01 07:50     ?  -
 340    2021-04-01 08:00     ?  -
 341    2021-04-01 08:10    31  ************
 342    2021-04-01 08:20    36  *****************
 343    2021-04-01 08:30    37  ******************
 344    2021-04-01 08:40    37  ******************
 345    2021-04-01 08:50    33  **************
 346    2021-04-01 09:00     ?  -
 347    2021-04-01 09:10    33  **************
 348    2021-04-01 09:20    36  *****************
 349    2021-04-01 09:30     ?  -
 350    2021-04-01 09:40    30  ***********
 351    2021-04-01 09:50     ?  -
 352    2021-04-01 10:00    38  *******************
 353    2021-04-01 10:10     ?  -
 354    2021-04-01 10:20    31  ************
 355    2021-04-01 10:30    34  ***************
 356    2021-04-01 10:40    34  ***************
 357    2021-04-01 10:50     ?  -
 358    2021-04-01 11:00     ?  -
 359    2021-04-01 11:10    31  ************
 360    2021-04-01 11:20     ?  -
 361    2021-04-01 11:30     ?  -
 362    2021-04-01 11:40    36  *****************
 363    2021-04-01 11:50     ?  -
 364    2021-04-01 12:00     ?  -
 365    2021-04-01 12:10     ?  -
 366    2021-04-01 12:20    32  *************
 367    2021-04-01 12:30    35  ****************
 368    2021-04-01 12:40    36  *****************
 369    2021-04-01 12:50    30  ***********
 370    2021-04-01 13:00    33  **************
 371    2021-04-01 13:10     ?  -
 372    2021-04-01 13:20    31  ************
 373    2021-04-01 13:30    37  ******************
 374    2021-04-01 13:40    37  ******************
 375    2021-04-01 13:50     ?  -
 376    2021-04-01 14:00    30  ***********
 377    2021-04-01 14:10    31  ************
 378    2021-04-01 14:20    31  ************
 379    2021-04-01 14:30    32  *************
 380    2021-04-01 14:40    33  **************
 381    2021-04-01 14:50    32  *************
 382    2021-04-01 15:00    32  *************
 383    2021-04-01 15:10     ?  -
 384    2021-04-01 15:20    32  *************
 385    2021-04-01 15:30     ?  -
 386    2021-04-01 15:40    39  ********************
 387    2021-04-01 15:50     ?  -
 388    2021-04-01 16:00    33  **************
 389    2021-04-01 16:10     ?  -
 390    2021-04-01 16:20     ?  -
 391    2021-04-01 16:30    34  ***************
 392    2021-04-01 16:40    34  ***************
 393    2021-04-01 16:50    28  *********
 394    2021-04-01 17:00     ?  -
 395    2021-04-01 17:10    31  ************
 396    2021-04-01 17:20    34  ***************
 397    2021-04-01 17:30     ?  -
 398    2021-04-01 17:40    35  ****************
 399    2021-04-01 17:50     ?  -
 400    2021-04-01 18:00    32  *************
 401    2021-04-01 18:10    33  **************
 402    2021-04-01 18:20    33  **************
 403    2021-04-01 18:30    32  *************
 404    2021-04-01 18:40     ?  -
 ...    ..(  2 skipped).    ..  -
 407    2021-04-01 19:10     ?  -
 408    2021-04-01 19:20    25  ******
 409    2021-04-01 19:30     ?  -
 410    2021-04-01 19:40     ?  -
 411    2021-04-01 19:50    33  **************
 412    2021-04-01 20:00    35  ****************
 413    2021-04-01 20:10     ?  -
 414    2021-04-01 20:20     ?  -
 415    2021-04-01 20:30    41  **********************
 416    2021-04-01 20:40    43  ************************
 417    2021-04-01 20:50    40  *********************
 418    2021-04-01 21:00    40  *********************
 419    2021-04-01 21:10    38  *******************
 420    2021-04-01 21:20    39  ********************
 421    2021-04-01 21:30    33  **************
 422    2021-04-01 21:40     ?  -
 423    2021-04-01 21:50    31  ************
 424    2021-04-01 22:00    32  *************
 425    2021-04-01 22:10    32  *************
 426    2021-04-01 22:20     ?  -
 427    2021-04-01 22:30     ?  -
 428    2021-04-01 22:40    30  ***********
 429    2021-04-01 22:50    31  ************
 430    2021-04-01 23:00     ?  -
 431    2021-04-01 23:10     ?  -
 432    2021-04-01 23:20    36  *****************
 433    2021-04-01 23:30    33  **************
 434    2021-04-01 23:40    34  ***************
 435    2021-04-01 23:50     ?  -
 436    2021-04-02 00:00     ?  -
 437    2021-04-02 00:10    37  ******************
 438    2021-04-02 00:20    39  ********************
 439    2021-04-02 00:30    37  ******************
 440    2021-04-02 00:40     ?  -
 441    2021-04-02 00:50    34  ***************
 442    2021-04-02 01:00     ?  -
 443    2021-04-02 01:10    26  *******
 444    2021-04-02 01:20    36  *****************
 445    2021-04-02 01:30    40  *********************
 446    2021-04-02 01:40    37  ******************
 447    2021-04-02 01:50    37  ******************
 448    2021-04-02 02:00     ?  -
 449    2021-04-02 02:10    37  ******************
 450    2021-04-02 02:20    37  ******************
 451    2021-04-02 02:30    35  ****************
 452    2021-04-02 02:40     ?  -
 453    2021-04-02 02:50    24  *****
 454    2021-04-02 03:00     ?  -
 455    2021-04-02 03:10    35  ****************
 456    2021-04-02 03:20    40  *********************
 457    2021-04-02 03:30    42  ***********************
 458    2021-04-02 03:40     ?  -
 459    2021-04-02 03:50     ?  -
 460    2021-04-02 04:00    38  *******************
 461    2021-04-02 04:10    40  *********************
 462    2021-04-02 04:20    40  *********************
 463    2021-04-02 04:30     ?  -
 464    2021-04-02 04:40     ?  -
 465    2021-04-02 04:50    29  **********
 466    2021-04-02 05:00     ?  -
 467    2021-04-02 05:10    33  **************
 468    2021-04-02 05:20    34  ***************
 469    2021-04-02 05:30    35  ****************
 470    2021-04-02 05:40    33  **************
 471    2021-04-02 05:50     ?  -
 472    2021-04-02 06:00     ?  -
 473    2021-04-02 06:10    32  *************
 474    2021-04-02 06:20    37  ******************
 475    2021-04-02 06:30    36  *****************
 476    2021-04-02 06:40    36  *****************
 477    2021-04-02 06:50    35  ****************
   0    2021-04-02 07:00    38  *******************
   1    2021-04-02 07:10    30  ***********
   2    2021-04-02 07:20     ?  -
   3    2021-04-02 07:30     ?  -
   4    2021-04-02 07:40    26  *******
   5    2021-04-02 07:50    36  *****************
   6    2021-04-02 08:00     ?  -
   7    2021-04-02 08:10     ?  -
   8    2021-04-02 08:20    33  **************
   9    2021-04-02 08:30    34  ***************
  10    2021-04-02 08:40    36  *****************
  11    2021-04-02 08:50     ?  -
  12    2021-04-02 09:00     ?  -
  13    2021-04-02 09:10    34  ***************
  14    2021-04-02 09:20    39  ********************
  15    2021-04-02 09:30     ?  -
  16    2021-04-02 09:40    37  ******************
  17    2021-04-02 09:50     ?  -
  18    2021-04-02 10:00     ?  -
  19    2021-04-02 10:10    39  ********************
  20    2021-04-02 10:20    37  ******************
  21    2021-04-02 10:30    36  *****************
  22    2021-04-02 10:40    37  ******************
  23    2021-04-02 10:50    31  ************
  24    2021-04-02 11:00    37  ******************
  25    2021-04-02 11:10     ?  -
  26    2021-04-02 11:20     ?  -
  27    2021-04-02 11:30     ?  -
  28    2021-04-02 11:40    28  *********
  29    2021-04-02 11:50    35  ****************
  30    2021-04-02 12:00    36  *****************
  31    2021-04-02 12:10    37  ******************
  32    2021-04-02 12:20    35  ****************
  33    2021-04-02 12:30    35  ****************
  34    2021-04-02 12:40     ?  -
  35    2021-04-02 12:50     ?  -
  36    2021-04-02 13:00    33  **************
  37    2021-04-02 13:10    37  ******************
  38    2021-04-02 13:20    44  *************************
  39    2021-04-02 13:30    34  ***************
  40    2021-04-02 13:40     ?  -
  41    2021-04-02 13:50    32  *************
  42    2021-04-02 14:00    33  **************
  43    2021-04-02 14:10    31  ************
  44    2021-04-02 14:20    34  ***************
  45    2021-04-02 14:30    33  **************
  46    2021-04-02 14:40     ?  -
  47    2021-04-02 14:50    35  ****************
  48    2021-04-02 15:00    39  ********************
  49    2021-04-02 15:10    39  ********************
  50    2021-04-02 15:20    39  ********************
  51    2021-04-02 15:30    33  **************
  52    2021-04-02 15:40    35  ****************
  53    2021-04-02 15:50    34  ***************
  54    2021-04-02 16:00    36  *****************
  55    2021-04-02 16:10    35  ****************
  56    2021-04-02 16:20    34  ***************
  57    2021-04-02 16:30    35  ****************
  58    2021-04-02 16:40    34  ***************
  59    2021-04-02 16:50    37  ******************
  60    2021-04-02 17:00    35  ****************
  61    2021-04-02 17:10    35  ****************
  62    2021-04-02 17:20    37  ******************
  63    2021-04-02 17:30    36  *****************
  64    2021-04-02 17:40    38  *******************
  65    2021-04-02 17:50     ?  -
  66    2021-04-02 18:00     ?  -
  67    2021-04-02 18:10    32  *************
  68    2021-04-02 18:20    34  ***************
  69    2021-04-02 18:30     ?  -
  70    2021-04-02 18:40    34  ***************
  71    2021-04-02 18:50     ?  -
  72    2021-04-02 19:00    25  ******
  73    2021-04-02 19:10     ?  -
  74    2021-04-02 19:20    32  *************
  75    2021-04-02 19:30    35  ****************
  76    2021-04-02 19:40    38  *******************
  77    2021-04-02 19:50    38  *******************
  78    2021-04-02 20:00    39  ********************
 ...    ..(  2 skipped).    ..  ********************
  81    2021-04-02 20:30    39  ********************
  82    2021-04-02 20:40    33  **************
  83    2021-04-02 20:50    34  ***************
  84    2021-04-02 21:00    32  *************
  85    2021-04-02 21:10    33  **************
  86    2021-04-02 21:20    33  **************
  87    2021-04-02 21:30     ?  -
  88    2021-04-02 21:40    26  *******
  89    2021-04-02 21:50     ?  -
  90    2021-04-02 22:00    42  ***********************
  91    2021-04-02 22:10    38  *******************
  92    2021-04-02 22:20    40  *********************
  93    2021-04-02 22:30    41  **********************
  94    2021-04-02 22:40    36  *****************
  95    2021-04-02 22:50     ?  -
  96    2021-04-02 23:00    32  *************
  97    2021-04-02 23:10     ?  -
  98    2021-04-02 23:20    32  *************
  99    2021-04-02 23:30    35  ****************
 100    2021-04-02 23:40    34  ***************
 101    2021-04-02 23:50    33  **************
 102    2021-04-03 00:00    32  *************
 103    2021-04-03 00:10    34  ***************
 104    2021-04-03 00:20    38  *******************
 105    2021-04-03 00:30    38  *******************
 106    2021-04-03 00:40     ?  -
 107    2021-04-03 00:50    35  ****************
 108    2021-04-03 01:00    41  **********************
 109    2021-04-03 01:10    41  **********************
 110    2021-04-03 01:20    42  ***********************
 111    2021-04-03 01:30    42  ***********************
 112    2021-04-03 01:40    40  *********************
 113    2021-04-03 01:50    41  **********************
 114    2021-04-03 02:00    41  **********************
 115    2021-04-03 02:10    42  ***********************
 116    2021-04-03 02:20    44  *************************
 117    2021-04-03 02:30    41  **********************
 118    2021-04-03 02:40    41  **********************
 119    2021-04-03 02:50    40  *********************
 120    2021-04-03 03:00    39  ********************
 121    2021-04-03 03:10    36  *****************
 122    2021-04-03 03:20    31  ************
 123    2021-04-03 03:30     ?  -
 124    2021-04-03 03:40    32  *************
 125    2021-04-03 03:50    33  **************
 126    2021-04-03 04:00    36  *****************
 127    2021-04-03 04:10    34  ***************
 128    2021-04-03 04:20     ?  -
 129    2021-04-03 04:30     ?  -
 130    2021-04-03 04:40    29  **********
 131    2021-04-03 04:50    35  ****************
 132    2021-04-03 05:00    37  ******************
 133    2021-04-03 05:10    37  ******************
 134    2021-04-03 05:20    36  *****************
 135    2021-04-03 05:30    33  **************
 136    2021-04-03 05:40    33  **************
 137    2021-04-03 05:50    35  ****************
 138    2021-04-03 06:00     ?  -
 139    2021-04-03 06:10     ?  -
 140    2021-04-03 06:20    32  *************
 141    2021-04-03 06:30    36  *****************
 142    2021-04-03 06:40    35  ****************
 143    2021-04-03 06:50    39  ********************
 144    2021-04-03 07:00    39  ********************
 145    2021-04-03 07:10    37  ******************
 146    2021-04-03 07:20     ?  -
 147    2021-04-03 07:30    34  ***************
 148    2021-04-03 07:40    35  ****************
 149    2021-04-03 07:50     ?  -
 150    2021-04-03 08:00     ?  -
 151    2021-04-03 08:10    36  *****************
 152    2021-04-03 08:20     ?  -
 153    2021-04-03 08:30    38  *******************
 154    2021-04-03 08:40    40  *********************
 155    2021-04-03 08:50    42  ***********************
 156    2021-04-03 09:00    43  ************************
 157    2021-04-03 09:10    38  *******************
 158    2021-04-03 09:20    33  **************
 159    2021-04-03 09:30    36  *****************
 160    2021-04-03 09:40    36  *****************
 161    2021-04-03 09:50    38  *******************
 162    2021-04-03 10:00    37  ******************
 163    2021-04-03 10:10     ?  -
 164    2021-04-03 10:20     ?  -
 165    2021-04-03 10:30     ?  -
 166    2021-04-03 10:40    33  **************
 167    2021-04-03 10:50    38  *******************
 168    2021-04-03 11:00    37  ******************
 169    2021-04-03 11:10    34  ***************
 170    2021-04-03 11:20    37  ******************
 171    2021-04-03 11:30    34  ***************
 172    2021-04-03 11:40    35  ****************
 173    2021-04-03 11:50    35  ****************
 174    2021-04-03 12:00    35  ****************
 175    2021-04-03 12:10     ?  -
 176    2021-04-03 12:20     ?  -
 177    2021-04-03 12:30    33  **************
 178    2021-04-03 12:40    33  **************
 179    2021-04-03 12:50    35  ****************
 180    2021-04-03 13:00    36  *****************
 181    2021-04-03 13:10    35  ****************
 182    2021-04-03 13:20    36  *****************
 183    2021-04-03 13:30    41  **********************
 184    2021-04-03 13:40    41  **********************
 185    2021-04-03 13:50     ?  -
 186    2021-04-03 14:00    33  **************
 187    2021-04-03 14:10    39  ********************
 188    2021-04-03 14:20     ?  -
 189    2021-04-03 14:30    32  *************
 190    2021-04-03 14:40    34  ***************
 191    2021-04-03 14:50    34  ***************
 192    2021-04-03 15:00    36  *****************
 193    2021-04-03 15:10    35  ****************
 194    2021-04-03 15:20     ?  -
 195    2021-04-03 15:30     ?  -
 196    2021-04-03 15:40    37  ******************
 197    2021-04-03 15:50     ?  -
 198    2021-04-03 16:00     ?  -
 199    2021-04-03 16:10    25  ******
 200    2021-04-03 16:20    33  **************
 201    2021-04-03 16:30    34  ***************
 202    2021-04-03 16:40     ?  -
 203    2021-04-03 16:50    26  *******
 204    2021-04-03 17:00    33  **************
 205    2021-04-03 17:10     ?  -
 ...    ..(  2 skipped).    ..  -
 208    2021-04-03 17:40     ?  -
 209    2021-04-03 17:50    30  ***********
 210    2021-04-03 18:00    36  *****************
 211    2021-04-03 18:10    35  ****************
 212    2021-04-03 18:20    37  ******************
 213    2021-04-03 18:30    38  *******************
 214    2021-04-03 18:40    39  ********************
 215    2021-04-03 18:50    34  ***************
 216    2021-04-03 19:00    31  ************
 217    2021-04-03 19:10     ?  -
 218    2021-04-03 19:20     ?  -
 219    2021-04-03 19:30    33  **************
 220    2021-04-03 19:40    34  ***************
 221    2021-04-03 19:50    38  *******************
 222    2021-04-03 20:00    32  *************
 223    2021-04-03 20:10     ?  -
 ...    ..(  3 skipped).    ..  -
 227    2021-04-03 20:50     ?  -
 228    2021-04-03 21:00    38  *******************
 229    2021-04-03 21:10     ?  -
 230    2021-04-03 21:20    34  ***************
 231    2021-04-03 21:30    36  *****************
 232    2021-04-03 21:40     ?  -
 233    2021-04-03 21:50    32  *************
 234    2021-04-03 22:00    36  *****************
 235    2021-04-03 22:10     ?  -
 ...    ..(  3 skipped).    ..  -
 239    2021-04-03 22:50     ?  -

SCT Error Recovery Control command not supported

Device Statistics (GP Log 0x04)
Page  Offset Size        Value Flags Description
0x01  =====  =               =  ===  == General Statistics (rev 2) ==
0x01  0x008  4            2221  ---  Lifetime Power-On Resets
0x01  0x010  4            2452  ---  Power-on Hours
0x01  0x018  6     16872058501  ---  Logical Sectors Written
0x01  0x028  6     26214046986  ---  Logical Sectors Read
0x04  =====  =               =  ===  == General Errors Statistics (rev 1) ==
0x04  0x008  4               0  ---  Number of Reported Uncorrectable Errors
0x04  0x010  4            2275  ---  Resets Between Cmd Acceptance and Completion
0x05  =====  =               =  ===  == Temperature Statistics (rev 1) ==
0x05  0x008  1              31  ---  Current Temperature
0x05  0x010  1              35  ---  Average Short Term Temperature
0x05  0x018  1               -  ---  Average Long Term Temperature
0x05  0x020  1              46  ---  Highest Temperature
0x05  0x028  1              18  ---  Lowest Temperature
0x05  0x030  1              35  ---  Highest Average Short Term Temperature
0x05  0x038  1              32  ---  Lowest Average Short Term Temperature
0x05  0x040  1               -  ---  Highest Average Long Term Temperature
0x05  0x048  1               -  ---  Lowest Average Long Term Temperature
0x05  0x050  4               0  ---  Time in Over-Temperature
0x05  0x058  1              70  ---  Specified Maximum Operating Temperature
0x05  0x060  4               0  ---  Time in Under-Temperature
0x05  0x068  1               0  ---  Specified Minimum Operating Temperature
0x06  =====  =               =  ===  == Transport Statistics (rev 1) ==
0x06  0x008  4            2275  ---  Number of Hardware Resets
0x06  0x010  4               5  ---  Number of ASR Events
0x06  0x018  4               0  ---  Number of Interface CRC Errors
0x07  =====  =               =  ===  == Solid State Device Statistics (rev 1) ==
0x07  0x008  1               7  ---  Percentage Used Endurance Indicator
                                |||_ C monitored condition met
                                ||__ D supports DSN
                                |___ N normalized value

Pending Defects log (GP Log 0x0c) not supported

SATA Phy Event Counters (GP Log 0x11)
ID      Size     Value  Description
0x0001  2            0  Command failed due to ICRC error
0x0003  2            0  R_ERR response for device-to-host data FIS
0x0004  2            0  R_ERR response for host-to-device data FIS
0x0006  2            0  R_ERR response for device-to-host non-data FIS
0x0007  2            0  R_ERR response for host-to-device non-data FIS
0x0008  2            0  Device-to-host non-data FIS retries
0x0009  2            3  Transition from drive PhyRdy to drive PhyNRdy
0x000a  2            6  Device-to-host register FISes sent due to a COMRESET
0x000f  2            0  R_ERR response for host-to-device data FIS, CRC
0x0010  2            0  R_ERR response for host-to-device data FIS, non-CRC
0x0012  2            0  R_ERR response for host-to-device non-data FIS, CRC
0x0013  2            0  R_ERR response for host-to-device non-data FIS, non-CRC
0x0002  2            0  R_ERR response for data FIS
0x0005  2            0  R_ERR response for non-data FIS
0x000b  2            0  CRC errors within host-to-device FIS
0x000d  2            0  Non-CRC errors within host-to-device FIS

