{
  "json_format_version": [
    1,
    0
  ],
  "smartctl": {
    "version": [
      7,
      2
    ],
    "svn_revision": "5155",
    "platform_info": "x86_64-linux-5.13.0-21-generic",
    "build_info": "(local build)",
    "argv": [
      "smartctl",
      "-jx",
      "/dev/sdb"
    ],
    "exit_status": 64
  },
  "device": {
    "name": "/dev/sdb",
    "info_name": "/dev/sdb [SAT]",
    "type": "sat",
    "protocol": "ATA"
  },
  "model_name": "SATA SSD",
  "serial_number": "07C107230F0700013535",
  "firmware_version": "S5FAM014",
  "user_capacity": {
    "blocks": 125045424,
    "bytes": 64023257088
  },
  "logical_block_size": 512,
  "physical_block_size": 512,
  "rotation_rate": 0,
  "form_factor": {
    "ata_value": 3,
    "name": "2.5 inches"
  },
  "trim": {
    "supported": true,
    "deterministic": false,
    "zeroed": false
  },
  "in_smartctl_database": false,
  "ata_version": {
    "string": "ATA8-ACS (minor revision not indicated)",
    "major_value": 504,
    "minor_value": 0
  },
  "sata_version": {
    "string": "SATA 2.6",
    "value": 31
  },
  "interface_speed": {
    "max": {
      "sata_value": 6,
      "string": "3.0 Gb/s",
      "units_per_second": 30,
      "bits_per_unit": 100000000
    }
  },
  "local_time": {
    "time_t": 1641269680,
    "asctime": "Mon Jan  3 21:14:40 2022 MST"
  },
  "ata_apm": {
    "enabled": true,
    "level": 254,
    "string": "maximum performance",
    "max_performance": true,
    "min_power": false,
    "with_standby": false
  },
  "read_lookahead": {
    "enabled": true
  },
  "write_cache": {
    "enabled": true
  },
  "ata_security": {
    "state": 33,
    "string": "Disabled, NOT FROZEN [SEC1]",
    "enabled": false,
    "frozen": false
  },
  "smart_status": {
    "passed": true
  },
  "ata_smart_data": {
    "offline_data_collection": {
      "status": {
        "value": 0,
        "string": "was never started"
      },
      "completion_seconds": 255
    },
    "self_test": {
      "status": {
        "value": 0,
        "string": "completed without error",
        "passed": true
      },
      "polling_minutes": {
        "short": 1,
        "extended": 2
      }
    },
    "capabilities": {
      "values": [
        27,
        3
      ],
      "exec_offline_immediate_supported": true,
      "offline_is_aborted_upon_new_cmd": false,
      "offline_surface_scan_supported": true,
      "self_tests_supported": true,
      "conveyance_self_test_supported": false,
      "selective_self_test_supported": false,
      "attribute_autosave_enabled": true,
      "error_logging_supported": true,
      "gp_logging_supported": true
    }
  },
  "ata_smart_attributes": {
    "revision": 16,
    "table": [
      {
        "id": 1,
        "name": "Raw_Read_Error_Rate",
        "value": 100,
        "worst": 100,
        "thresh": 50,
        "when_failed": "",
        "flags": {
          "value": 11,
          "string": "PO-R-- ",
          "prefailure": true,
          "updated_online": true,
          "performance": false,
          "error_rate": true,
          "event_count": false,
          "auto_keep": false
        },
        "raw": {
          "value": 11075584,
          "string": "11075584"
        }
      },
      {
        "id": 9,
        "name": "Power_On_Hours",
        "value": 100,
        "worst": 100,
        "thresh": 0,
        "when_failed": "",
        "flags": {
          "value": 18,
          "string": "-O--C- ",
          "prefailure": false,
          "updated_online": true,
          "performance": false,
          "error_rate": false,
          "event_count": true,
          "auto_keep": false
        },
        "raw": {
          "value": 19220,
          "string": "19220"
        }
      },
      {
        "id": 12,
        "name": "Power_Cycle_Count",
        "value": 100,
        "worst": 100,
        "thresh": 0,
        "when_failed": "",
        "flags": {
          "value": 18,
          "string": "-O--C- ",
          "prefailure": false,
          "updated_online": true,
          "performance": false,
          "error_rate": false,
          "event_count": true,
          "auto_keep": false
        },
        "raw": {
          "value": 2716,
          "string": "2716"
        }
      },
      {
        "id": 168,
        "name": "Unknown_Attribute",
        "value": 100,
        "worst": 100,
        "thresh": 0,
        "when_failed": "",
        "flags": {
          "value": 18,
          "string": "-O--C- ",
          "prefailure": false,
          "updated_online": true,
          "performance": false,
          "error_rate": false,
          "event_count": true,
          "auto_keep": false
        },
        "raw": {
          "value": 0,
          "string": "0"
        }
      },
      {
        "id": 170,
        "name": "Unknown_Attribute",
        "value": 100,
        "worst": 100,
        "thresh": 10,
        "when_failed": "",
        "flags": {
          "value": 3,
          "string": "PO---- ",
          "prefailure": true,
          "updated_online": true,
          "performance": false,
          "error_rate": false,
          "event_count": false,
          "auto_keep": false
        },
        "raw": {
          "value": 8589934699,
          "string": "8589934699"
        }
      },
      {
        "id": 173,
        "name": "Unknown_Attribute",
        "value": 100,
        "worst": 100,
        "thresh": 0,
        "when_failed": "",
        "flags": {
          "value": 18,
          "string": "-O--C- ",
          "prefailure": false,
          "updated_online": true,
          "performance": false,
          "error_rate": false,
          "event_count": true,
          "auto_keep": false
        },
        "raw": {
          "value": 15663489,
          "string": "15663489"
        }
      },
      {
        "id": 192,
        "name": "Power-Off_Retract_Count",
        "value": 100,
        "worst": 100,
        "thresh": 0,
        "when_failed": "",
        "flags": {
          "value": 18,
          "string": "-O--C- ",
          "prefailure": false,
          "updated_online": true,
          "performance": false,
          "error_rate": false,
          "event_count": true,
          "auto_keep": false
        },
        "raw": {
          "value": 55,
          "string": "55"
        }
      },
      {
        "id": 218,
        "name": "Unknown_Attribute",
        "value": 100,
        "worst": 100,
        "thresh": 50,
        "when_failed": "",
        "flags": {
          "value": 11,
          "string": "PO-R-- ",
          "prefailure": true,
          "updated_online": true,
          "performance": false,
          "error_rate": true,
          "event_count": false,
          "auto_keep": false
        },
        "raw": {
          "value": 0,
          "string": "0"
        }
      }
    ]
  },
  "power_on_time": {
    "hours": 19220
  },
  "power_cycle_count": 2716,
  "ata_log_directory": {
    "gp_dir_version": 1,
    "smart_dir_version": 1,
    "smart_dir_multi_sector": true,
    "table": [
      {
        "address": 0,
        "name": "Log Directory",
        "read": true,
        "write": false,
        "gp_sectors": 1,
        "smart_sectors": 1
      },
      {
        "address": 1,
        "name": "Summary SMART error log",
        "read": true,
        "write": false,
        "smart_sectors": 1
      },
      {
        "address": 2,
        "name": "Comprehensive SMART error log",
        "read": true,
        "write": false,
        "smart_sectors": 51
      },
      {
        "address": 3,
        "name": "Ext. Comprehensive SMART error log",
        "read": true,
        "write": false,
        "gp_sectors": 64
      },
      {
        "address": 6,
        "name": "SMART self-test log",
        "read": true,
        "write": false,
        "smart_sectors": 1
      },
      {
        "address": 7,
        "name": "Extended self-test log",
        "read": true,
        "write": false,
        "gp_sectors": 1
      },
      {
        "address": 16,
        "name": "NCQ Command Error log",
        "read": true,
        "write": false,
        "gp_sectors": 1
      },
      {
        "address": 17,
        "name": "SATA Phy Event Counters log",
        "read": true,
        "write": false,
        "gp_sectors": 1
      },
      {
        "address": 128,
        "name": "Host vendor specific log",
        "read": true,
        "write": true,
        "gp_sectors": 16,
        "smart_sectors": 16
      },
      {
        "address": 129,
        "name": "Host vendor specific log",
        "read": true,
        "write": true,
        "gp_sectors": 16,
        "smart_sectors": 16
      },
      {
        "address": 130,
        "name": "Host vendor specific log",
        "read": true,
        "write": true,
        "gp_sectors": 16,
        "smart_sectors": 16
      },
      {
        "address": 131,
        "name": "Host vendor specific log",
        "read": true,
        "write": true,
        "gp_sectors": 16,
        "smart_sectors": 16
      },
      {
        "address": 132,
        "name": "Host vendor specific log",
        "read": true,
        "write": true,
        "gp_sectors": 16,
        "smart_sectors": 16
      },
      {
        "address": 133,
        "name": "Host vendor specific log",
        "read": true,
        "write": true,
        "gp_sectors": 16,
        "smart_sectors": 16
      },
      {
        "address": 134,
        "name": "Host vendor specific log",
        "read": true,
        "write": true,
        "gp_sectors": 16,
        "smart_sectors": 16
      },
      {
        "address": 135,
        "name": "Host vendor specific log",
        "read": true,
        "write": true,
        "gp_sectors": 16,
        "smart_sectors": 16
      },
      {
        "address": 136,
        "name": "Host vendor specific log",
        "read": true,
        "write": true,
        "gp_sectors": 16,
        "smart_sectors": 16
      },
      {
        "address": 137,
        "name": "Host vendor specific log",
        "read": true,
        "write": true,
        "gp_sectors": 16,
        "smart_sectors": 16
      },
      {
        "address": 138,
        "name": "Host vendor specific log",
        "read": true,
        "write": true,
        "gp_sectors": 16,
        "smart_sectors": 16
      },
      {
        "address": 139,
        "name": "Host vendor specific log",
        "read": true,
        "write": true,
        "gp_sectors": 16,
        "smart_sectors": 16
      },
      {
        "address": 140,
        "name": "Host vendor specific log",
        "read": true,
        "write": true,
        "gp_sectors": 16,
        "smart_sectors": 16
      },
      {
        "address": 141,
        "name": "Host vendor specific log",
        "read": true,
        "write": true,
        "gp_sectors": 16,
        "smart_sectors": 16
      },
      {
        "address": 142,
        "name": "Host vendor specific log",
        "read": true,
        "write": true,
        "gp_sectors": 16,
        "smart_sectors": 16
      },
      {
        "address": 143,
        "name": "Host vendor specific log",
        "read": true,
        "write": true,
        "gp_sectors": 16,
        "smart_sectors": 16
      },
      {
        "address": 144,
        "name": "Host vendor specific log",
        "read": true,
        "write": true,
        "gp_sectors": 16,
        "smart_sectors": 16
      },
      {
        "address": 145,
        "name": "Host vendor specific log",
        "read": true,
        "write": true,
        "gp_sectors": 16,
        "smart_sectors": 16
      },
      {
        "address": 146,
        "name": "Host vendor specific log",
        "read": true,
        "write": true,
        "gp_sectors": 16,
        "smart_sectors": 16
      },
      {
        "address": 147,
        "name": "Host vendor specific log",
        "read": true,
        "write": true,
        "gp_sectors": 16,
        "smart_sectors": 16
      },
      {
        "address": 148,
        "name": "Host vendor specific log",
        "read": true,
        "write": true,
        "gp_sectors": 16,
        "smart_sectors": 16
      },
      {
        "address": 149,
        "name": "Host vendor specific log",
        "read": true,
        "write": true,
        "gp_sectors": 16,
        "smart_sectors": 16
      },
      {
        "address": 150,
        "name": "Host vendor specific log",
        "read": true,
        "write": true,
        "gp_sectors": 16,
        "smart_sectors": 16
      },
      {
        "address": 151,
        "name": "Host vendor specific log",
        "read": true,
        "write": true,
        "gp_sectors": 16,
        "smart_sectors": 16
      },
      {
        "address": 152,
        "name": "Host vendor specific log",
        "read": true,
        "write": true,
        "gp_sectors": 16,
        "smart_sectors": 16
      },
      {
        "address": 153,
        "name": "Host vendor specific log",
        "read": true,
        "write": true,
        "gp_sectors": 16,
        "smart_sectors": 16
      },
      {
        "address": 154,
        "name": "Host vendor specific log",
        "read": true,
        "write": true,
        "gp_sectors": 16,
        "smart_sectors": 16
      },
      {
        "address": 155,
        "name": "Host vendor specific log",
        "read": true,
        "write": true,
        "gp_sectors": 16,
        "smart_sectors": 16
      },
      {
        "address": 156,
        "name": "Host vendor specific log",
        "read": true,
        "write": true,
        "gp_sectors": 16,
        "smart_sectors": 16
      },
      {
        "address": 157,
        "name": "Host vendor specific log",
        "read": true,
        "write": true,
        "gp_sectors": 16,
        "smart_sectors": 16
      },
      {
        "address": 158,
        "name": "Host vendor specific log",
        "read": true,
        "write": true,
        "gp_sectors": 16,
        "smart_sectors": 16
      },
      {
        "address": 159,
        "name": "Host vendor specific log",
        "read": true,
        "write": true,
        "gp_sectors": 16,
        "smart_sectors": 16
      }
    ]
  },
  "ata_smart_error_log": {
    "extended": {
      "revision": 1,
      "sectors": 64,
      "count": 169,
      "logged_count": 169,
      "table": [
        {
          "error_number": 169,
          "log_index": 168,
          "lifetime_hours": 0,
          "device_state": {
            "value": 3,
            "string": "active or idle"
          },
          "completion_registers": {
            "error": 64,
            "status": 81,
            "count": 2056,
            "lba": 35017957415,
            "device": 225,
            "device_control": 0
          },
          "error_description": "Error: UNC 2056 sectors at LBA = 0x8273ba027 = 35017957415",
          "previous_commands": [
            {
              "registers": {
                "command": 200,
                "features": 0,
                "count": 2056,
                "lba": 35017957415,
                "device": 225,
                "device_control": 0
              },
              "powerup_milliseconds": 49500,
              "command_name": "READ DMA"
            },
            {
              "registers": {
                "command": 200,
                "features": 0,
                "count": 2056,
                "lba": 65560112767015,
                "device": 225,
                "device_control": 0
              },
              "powerup_milliseconds": 49000,
              "command_name": "READ DMA"
            },
            {
              "registers": {
                "command": 200,
                "features": 0,
                "count": 2056,
                "lba": 35152175159,
                "device": 225,
                "device_control": 0
              },
              "powerup_milliseconds": 49000,
              "command_name": "READ DMA"
            },
            {
              "registers": {
                "command": 200,
                "features": 0,
                "count": 2056,
                "lba": 35017957423,
                "device": 225,
                "device_control": 0
              },
              "powerup_milliseconds": 48750,
              "command_name": "READ DMA"
            },
            {
              "registers": {
                "command": 200,
                "features": 0,
                "count": 8,
                "lba": 3907623,
                "device": 225,
                "device_control": 0
              },
              "powerup_milliseconds": 48250,
              "command_name": "READ DMA"
            }
          ]
        },
        {
          "error_number": 168,
          "log_index": 167,
          "lifetime_hours": 0,
          "device_state": {
            "value": 3,
            "string": "active or idle"
          },
          "completion_registers": {
            "error": 64,
            "status": 81,
            "count": 2056,
            "lba": 65560112767015,
            "device": 225,
            "device_control": 0
          },
          "error_description": "Error: UNC 2056 sectors at LBA = 0x3ba0673ba027 = 65560112767015",
          "previous_commands": [
            {
              "registers": {
                "command": 200,
                "features": 0,
                "count": 2056,
                "lba": 65560112767015,
                "device": 225,
                "device_control": 0
              },
              "powerup_milliseconds": 49000,
              "command_name": "READ DMA"
            },
            {
              "registers": {
                "command": 200,
                "features": 0,
                "count": 2056,
                "lba": 35152175159,
                "device": 225,
                "device_control": 0
              },
              "powerup_milliseconds": 49000,
              "command_name": "READ DMA"
            },
            {
              "registers": {
                "command": 200,
                "features": 0,
                "count": 2056,
                "lba": 35017957423,
                "device": 225,
                "device_control": 0
              },
              "powerup_milliseconds": 48750,
              "command_name": "READ DMA"
            },
            {
              "registers": {
                "command": 200,
                "features": 0,
                "count": 8,
                "lba": 3907623,
                "device": 225,
                "device_control": 0
              },
              "powerup_milliseconds": 48250,
              "command_name": "READ DMA"
            },
            {
              "registers": {
                "command": 231,
                "features": 0,
                "count": 6144,
                "lba": 101094118129664,
                "device": 160,
                "device_control": 0
              },
              "powerup_milliseconds": 48250,
              "command_name": "FLUSH CACHE"
            }
          ]
        },
        {
          "error_number": 167,
          "log_index": 166,
          "lifetime_hours": 0,
          "device_state": {
            "value": 3,
            "string": "active or idle"
          },
          "completion_registers": {
            "error": 64,
            "status": 81,
            "count": 2056,
            "lba": 35017957423,
            "device": 225,
            "device_control": 0
          },
          "error_description": "Error: UNC 2056 sectors at LBA = 0x8273ba02f = 35017957423",
          "previous_commands": [
            {
              "registers": {
                "command": 200,
                "features": 0,
                "count": 2056,
                "lba": 35017957423,
                "device": 225,
                "device_control": 0
              },
              "powerup_milliseconds": 48750,
              "command_name": "READ DMA"
            },
            {
              "registers": {
                "command": 200,
                "features": 0,
                "count": 8,
                "lba": 3907623,
                "device": 225,
                "device_control": 0
              },
              "powerup_milliseconds": 48250,
              "command_name": "READ DMA"
            },
            {
              "registers": {
                "command": 231,
                "features": 0,
                "count": 6144,
                "lba": 101094118129664,
                "device": 160,
                "device_control": 0
              },
              "powerup_milliseconds": 48250,
              "command_name": "FLUSH CACHE"
            },
            {
              "registers": {
                "command": 202,
                "features": 0,
                "count": 2072,
                "lba": 105688799637967,
                "device": 224,
                "device_control": 0
              },
              "powerup_milliseconds": 48250,
              "command_name": "WRITE DMA"
            },
            {
              "registers": {
                "command": 200,
                "features": 0,
                "count": 8,
                "lba": 6299543,
                "device": 224,
                "device_control": 0
              },
              "powerup_milliseconds": 48250,
              "command_name": "READ DMA"
            }
          ]
        },
        {
          "error_number": 166,
          "log_index": 165,
          "lifetime_hours": 0,
          "device_state": {
            "value": 3,
            "string": "active or idle"
          },
          "completion_registers": {
            "error": 64,
            "status": 81,
            "count": 8,
            "lba": 3907623,
            "device": 225,
            "device_control": 0
          },
          "error_description": "Error: UNC 8 sectors at LBA = 0x013ba027 = 20684839",
          "previous_commands": [
            {
              "registers": {
                "command": 200,
                "features": 0,
                "count": 8,
                "lba": 3907623,
                "device": 225,
                "device_control": 0
              },
              "powerup_milliseconds": 48250,
              "command_name": "READ DMA"
            },
            {
              "registers": {
                "command": 231,
                "features": 0,
                "count": 6144,
                "lba": 101094118129664,
                "device": 160,
                "device_control": 0
              },
              "powerup_milliseconds": 48250,
              "command_name": "FLUSH CACHE"
            },
            {
              "registers": {
                "command": 202,
                "features": 0,
                "count": 2072,
                "lba": 105688799637967,
                "device": 224,
                "device_control": 0
              },
              "powerup_milliseconds": 48250,
              "command_name": "WRITE DMA"
            },
            {
              "registers": {
                "command": 200,
                "features": 0,
                "count": 8,
                "lba": 6299543,
                "device": 224,
                "device_control": 0
              },
              "powerup_milliseconds": 48250,
              "command_name": "READ DMA"
            },
            {
              "registers": {
                "command": 231,
                "features": 0,
                "count": 2048,
                "lba": 101091970646016,
                "device": 160,
                "device_control": 0
              },
              "powerup_milliseconds": 48000,
              "command_name": "FLUSH CACHE"
            }
          ]
        },
        {
          "error_number": 165,
          "log_index": 164,
          "lifetime_hours": 0,
          "device_state": {
            "value": 3,
            "string": "active or idle"
          },
          "completion_registers": {
            "error": 64,
            "status": 81,
            "count": 2056,
            "lba": 35017957415,
            "device": 225,
            "device_control": 0
          },
          "error_description": "Error: UNC 2056 sectors at LBA = 0x8273ba027 = 35017957415",
          "previous_commands": [
            {
              "registers": {
                "command": 200,
                "features": 0,
                "count": 2056,
                "lba": 35017957415,
                "device": 225,
                "device_control": 0
              },
              "powerup_milliseconds": 47750,
              "command_name": "READ DMA"
            },
            {
              "registers": {
                "command": 200,
                "features": 0,
                "count": 2056,
                "lba": 65558099501047,
                "device": 225,
                "device_control": 0
              },
              "powerup_milliseconds": 47250,
              "command_name": "READ DMA"
            },
            {
              "registers": {
                "command": 200,
                "features": 0,
                "count": 2056,
                "lba": 65558099501039,
                "device": 225,
                "device_control": 0
              },
              "powerup_milliseconds": 47250,
              "command_name": "READ DMA"
            },
            {
              "registers": {
                "command": 200,
                "features": 0,
                "count": 16392,
                "lba": 65558099501039,
                "device": 225,
                "device_control": 0
              },
              "powerup_milliseconds": 47250,
              "command_name": "READ DMA"
            },
            {
              "registers": {
                "command": 200,
                "features": 0,
                "count": 16448,
                "lba": 65551657049775,
                "device": 225,
                "device_control": 0
              },
              "powerup_milliseconds": 46750,
              "command_name": "READ DMA"
            }
          ]
        },
        {
          "error_number": 164,
          "log_index": 163,
          "lifetime_hours": 0,
          "device_state": {
            "value": 3,
            "string": "active or idle"
          },
          "completion_registers": {
            "error": 64,
            "status": 81,
            "count": 2056,
            "lba": 65558904807463,
            "device": 225,
            "device_control": 0
          },
          "error_description": "Error: UNC 2056 sectors at LBA = 0x3ba01f3ba027 = 65558904807463",
          "previous_commands": [
            {
              "registers": {
                "command": 200,
                "features": 0,
                "count": 2056,
                "lba": 65558099501047,
                "device": 225,
                "device_control": 0
              },
              "powerup_milliseconds": 47250,
              "command_name": "READ DMA"
            },
            {
              "registers": {
                "command": 200,
                "features": 0,
                "count": 2056,
                "lba": 65558099501039,
                "device": 225,
                "device_control": 0
              },
              "powerup_milliseconds": 47250,
              "command_name": "READ DMA"
            },
            {
              "registers": {
                "command": 200,
                "features": 0,
                "count": 16392,
                "lba": 65558099501039,
                "device": 225,
                "device_control": 0
              },
              "powerup_milliseconds": 47250,
              "command_name": "READ DMA"
            },
            {
              "registers": {
                "command": 200,
                "features": 0,
                "count": 16448,
                "lba": 65551657049775,
                "device": 225,
                "device_control": 0
              },
              "powerup_milliseconds": 46750,
              "command_name": "READ DMA"
            },
            {
              "registers": {
                "command": 200,
                "features": 0,
                "count": 16448,
                "lba": 96450457083503,
                "device": 225,
                "device_control": 0
              },
              "powerup_milliseconds": 46750,
              "command_name": "READ DMA"
            }
          ]
        },
        {
          "error_number": 163,
          "log_index": 162,
          "lifetime_hours": 0,
          "device_state": {
            "value": 3,
            "string": "active or idle"
          },
          "completion_registers": {
            "error": 64,
            "status": 81,
            "count": 16448,
            "lba": 65557025759215,
            "device": 225,
            "device_control": 0
          },
          "error_description": "Error: UNC 16448 sectors at LBA = 0x3b9faf3b9fef = 65557025759215",
          "previous_commands": [
            {
              "registers": {
                "command": 200,
                "features": 0,
                "count": 16448,
                "lba": 65551657049775,
                "device": 225,
                "device_control": 0
              },
              "powerup_milliseconds": 46750,
              "command_name": "READ DMA"
            },
            {
              "registers": {
                "command": 200,
                "features": 0,
                "count": 16448,
                "lba": 96450457083503,
                "device": 225,
                "device_control": 0
              },
              "powerup_milliseconds": 46750,
              "command_name": "READ DMA"
            },
            {
              "registers": {
                "command": 200,
                "features": 0,
                "count": 16448,
                "lba": 96442942732063,
                "device": 226,
                "device_control": 0
              },
              "powerup_milliseconds": 46750,
              "command_name": "READ DMA"
            },
            {
              "registers": {
                "command": 200,
                "features": 0,
                "count": 16448,
                "lba": 91659154470623,
                "device": 226,
                "device_control": 0
              },
              "powerup_milliseconds": 46750,
              "command_name": "READ DMA"
            },
            {
              "registers": {
                "command": 200,
                "features": 0,
                "count": 16448,
                "lba": 91651637992335,
                "device": 226,
                "device_control": 0
              },
              "powerup_milliseconds": 46750,
              "command_name": "READ DMA"
            }
          ]
        },
        {
          "error_number": 162,
          "log_index": 161,
          "lifetime_hours": 0,
          "device_state": {
            "value": 3,
            "string": "active or idle"
          },
          "completion_registers": {
            "error": 64,
            "status": 81,
            "count": 0,
            "lba": 65551657049967,
            "device": 225,
            "device_control": 0
          },
          "error_description": "Error: UNC at LBA = 0x3b9e6f3b9f6f = 65551657049967",
          "previous_commands": [
            {
              "registers": {
                "command": 200,
                "features": 0,
                "count": 0,
                "lba": 64697763864175,
                "device": 225,
                "device_control": 0
              },
              "powerup_milliseconds": 46250,
              "command_name": "READ DMA"
            },
            {
              "registers": {
                "command": 200,
                "features": 0,
                "count": 0,
                "lba": 33270145930911,
                "device": 225,
                "device_control": 0
              },
              "powerup_milliseconds": 46250,
              "command_name": "READ DMA"
            },
            {
              "registers": {
                "command": 200,
                "features": 0,
                "count": 32768,
                "lba": 31304928084303,
                "device": 225,
                "device_control": 0
              },
              "powerup_milliseconds": 46250,
              "command_name": "READ DMA"
            },
            {
              "registers": {
                "command": 200,
                "features": 0,
                "count": 0,
                "lba": 202625133606719,
                "device": 225,
                "device_control": 0
              },
              "powerup_milliseconds": 46250,
              "command_name": "READ DMA"
            },
            {
              "registers": {
                "command": 200,
                "features": 0,
                "count": 10240,
                "lba": 276121966364759,
                "device": 224,
                "device_control": 0
              },
              "powerup_milliseconds": 46250,
              "command_name": "READ DMA"
            }
          ]
        }
      ]
    }
  },
  "ata_smart_self_test_log": {
    "extended": {
      "revision": 1,
      "sectors": 1,
      "count": 0
    }
  },
  "sata_phy_event_counters": {
    "table": [
      {
        "id": 1,
        "name": "Command failed due to ICRC error",
        "size": 2,
        "value": 0,
        "overflow": false
      },
      {
        "id": 3,
        "name": "R_ERR response for device-to-host data FIS",
        "size": 2,
        "value": 0,
        "overflow": false
      },
      {
        "id": 4,
        "name": "R_ERR response for host-to-device data FIS",
        "size": 2,
        "value": 0,
        "overflow": false
      },
      {
        "id": 6,
        "name": "R_ERR response for device-to-host non-data FIS",
        "size": 2,
        "value": 0,
        "overflow": false
      },
      {
        "id": 7,
        "name": "R_ERR response for host-to-device non-data FIS",
        "size": 2,
        "value": 0,
        "overflow": false
      },
      {
        "id": 8,
        "name": "Device-to-host non-data FIS retries",
        "size": 2,
        "value": 0,
        "overflow": false
      },
      {
        "id": 9,
        "name": "Transition from drive PhyRdy to drive PhyNRdy",
        "size": 4,
        "value": 0,
        "overflow": false
      },
      {
        "id": 10,
        "name": "Device-to-host register FISes sent due to a COMRESET",
        "size": 4,
        "value": 0,
        "overflow": false
      },
      {
        "id": 15,
        "name": "R_ERR response for host-to-device data FIS, CRC",
        "size": 2,
        "value": 0,
        "overflow": false
      },
      {
        "id": 16,
        "name": "R_ERR response for host-to-device data FIS, non-CRC",
        "size": 2,
        "value": 0,
        "overflow": false
      },
      {
        "id": 18,
        "name": "R_ERR response for host-to-device non-data FIS, CRC",
        "size": 2,
        "value": 0,
        "overflow": false
      },
      {
        "id": 19,
        "name": "R_ERR response for host-to-device non-data FIS, non-CRC",
        "size": 2,
        "value": 0,
        "overflow": false
      }
    ],
    "reset": false
  }
}
