smartctl 7.2 2020-12-30 r5155 [x86_64-linux-5.11.0-38-generic] (local build)
Copyright (C) 2002-20, Bruce Allen, Christian Franke, www.smartmontools.org

=== START OF INFORMATION SECTION ===
Model Family:     Western Digital Green Mobile
Device Model:     WDC WD20NPVT-00Z2TT0
Serial Number:    WD-WX81EB2VR561
LU WWN Device Id: 5 0014ee 20821f83f
Firmware Version: 01.01A01
User Capacity:    2,000,398,934,016 bytes [2.00 TB]
Sector Sizes:     512 bytes logical, 4096 bytes physical
Rotation Rate:    5200 rpm
Device is:        In smartctl database [for details use: -P show]
ATA Version is:   ATA8-ACS (minor revision not indicated)
SATA Version is:  SATA 3.0, 3.0 Gb/s (current: 3.0 Gb/s)
Local Time is:    Sat Nov 13 16:15:17 2021 MST
SMART support is: Available - device has SMART capability.
SMART support is: Enabled
AAM feature is:   Unavailable
APM level is:     254 (maximum performance)
Rd look-ahead is: Enabled
Write cache is:   Enabled
DSN feature is:   Unavailable
ATA Security is:  Disabled, NOT FROZEN [SEC1]
Wt Cache Reorder: Enabled

=== START OF READ SMART DATA SECTION ===
SMART overall-health self-assessment test result: PASSED

General SMART Values:
Offline data collection status:  (0x00)	Offline data collection activity
					was never started.
					Auto Offline Data Collection: Disabled.
Self-test execution status:      (   0)	The previous self-test routine completed
					without error or no self-test has ever 
					been run.
Total time to complete Offline 
data collection: 		(35760) seconds.
Offline data collection
capabilities: 			 (0x7b) SMART execute Offline immediate.
					Auto Offline data collection on/off support.
					Suspend Offline collection upon new
					command.
					Offline surface scan supported.
					Self-test supported.
					Conveyance Self-test supported.
					Selective Self-test supported.
SMART capabilities:            (0x0003)	Saves SMART data before entering
					power-saving mode.
					Supports SMART auto save timer.
Error logging capability:        (0x01)	Error logging supported.
					General Purpose Logging supported.
Short self-test routine 
recommended polling time: 	 (   2) minutes.
Extended self-test routine
recommended polling time: 	 ( 384) minutes.
Conveyance self-test routine
recommended polling time: 	 (   5) minutes.
SCT capabilities: 	       (0x70b5)	SCT Status supported.
					SCT Feature Control supported.
					SCT Data Table supported.

SMART Attributes Data Structure revision number: 16
Vendor Specific SMART Attributes with Thresholds:
ID# ATTRIBUTE_NAME          FLAGS    VALUE WORST THRESH FAIL RAW_VALUE
  1 Raw_Read_Error_Rate     POSR-K   200   200   051    -    1
  3 Spin_Up_Time            POS--K   253   232   021    -    1641
  4 Start_Stop_Count        -O--CK   060   060   000    -    40204
  5 Reallocated_Sector_Ct   PO--CK   200   200   140    -    1
  7 Seek_Error_Rate         -OSR-K   200   200   000    -    0
  9 Power_On_Hours          -O--CK   082   082   000    -    13351
 10 Spin_Retry_Count        -O--CK   100   100   000    -    0
 11 Calibration_Retry_Count -O--CK   100   100   000    -    0
 12 Power_Cycle_Count       -O--CK   062   062   000    -    38634
192 Power-Off_Retract_Count -O--CK   170   170   000    -    22934
193 Load_Cycle_Count        -O--CK   195   195   000    -    17317
194 Temperature_Celsius     -O---K   126   104   000    -    26
196 Reallocated_Event_Count -O--CK   199   199   000    -    1
197 Current_Pending_Sector  -O--CK   200   200   000    -    0
198 Offline_Uncorrectable   ----CK   100   253   000    -    0
199 UDMA_CRC_Error_Count    -O--CK   200   200   000    -    0
200 Multi_Zone_Error_Rate   ---R--   100   253   000    -    0
                            ||||||_ K auto-keep
                            |||||__ C event count
                            ||||___ R error rate
                            |||____ S speed/performance
                            ||_____ O updated online
                            |______ P prefailure warning

General Purpose Log Directory Version 1
SMART           Log Directory Version 1 [multi-sector log support]
Address    Access  R/W   Size  Description
0x00       GPL,SL  R/O      1  Log Directory
0x01           SL  R/O      1  Summary SMART error log
0x02           SL  R/O      5  Comprehensive SMART error log
0x03       GPL     R/O      6  Ext. Comprehensive SMART error log
0x06           SL  R/O      1  SMART self-test log
0x07       GPL     R/O      1  Extended self-test log
0x09           SL  R/W      1  Selective self-test log
0x10       GPL     R/O      1  NCQ Command Error log
0x11       GPL     R/O      1  SATA Phy Event Counters log
0x80-0x9f  GPL,SL  R/W     16  Host vendor specific log
0xa0-0xa7  GPL,SL  VS      16  Device vendor specific log
0xa8-0xb7  GPL,SL  VS       1  Device vendor specific log
0xbd       GPL,SL  VS       1  Device vendor specific log
0xc0       GPL,SL  VS       1  Device vendor specific log
0xc1       GPL     VS      93  Device vendor specific log
0xe0       GPL,SL  R/W      1  SCT Command/Status
0xe1       GPL,SL  R/W      1  SCT Data Transfer

SMART Extended Comprehensive Error Log Version: 1 (6 sectors)
No Errors Logged

SMART Extended Self-test Log Version: 1 (1 sectors)
No self-tests have been logged.  [To run self-tests, use: smartctl -t]

SMART Selective self-test log data structure revision number 1
 SPAN  MIN_LBA  MAX_LBA  CURRENT_TEST_STATUS
    1        0        0  Not_testing
    2        0        0  Not_testing
    3        0        0  Not_testing
    4        0        0  Not_testing
    5        0        0  Not_testing
Selective self-test flags (0x0):
  After scanning selected spans, do NOT read-scan remainder of disk.
If Selective self-test is pending on power-up, resume after 0 minute delay.

SCT Status Version:                  3
SCT Version (vendor specific):       258 (0x0102)
Device State:                        Active (0)
Current Temperature:                    26 Celsius
Power Cycle Min/Max Temperature:     24/26 Celsius
Lifetime    Min/Max Temperature:     17/48 Celsius
Under/Over Temperature Limit Count:   0/0
Vendor specific:
01 00 00 00 00 00 00 00 00 00 00 00 00 00 00 00
00 00 00 00 00 00 00 00 00 00 00 00 00 00 00 00

SCT Temperature History Version:     2
Temperature Sampling Period:         1 minute
Temperature Logging Interval:        1 minute
Min/Max recommended Temperature:      0/60 Celsius
Min/Max Temperature Limit:           -41/85 Celsius
Temperature History Size (Index):    128 (41)

Index    Estimated Time   Temperature Celsius
  42    2021-11-13 14:08    38  *******************
  43    2021-11-13 14:09    38  *******************
  44    2021-11-13 14:10     ?  -
  45    2021-11-13 14:11    38  *******************
  46    2021-11-13 14:12    38  *******************
  47    2021-11-13 14:13    37  ******************
 ...    ..(  5 skipped).    ..  ******************
  53    2021-11-13 14:19    37  ******************
  54    2021-11-13 14:20    38  *******************
 ...    ..(  4 skipped).    ..  *******************
  59    2021-11-13 14:25    38  *******************
  60    2021-11-13 14:26    39  ********************
 ...    ..(  2 skipped).    ..  ********************
  63    2021-11-13 14:29    39  ********************
  64    2021-11-13 14:30    40  *********************
 ...    ..(  9 skipped).    ..  *********************
  74    2021-11-13 14:40    40  *********************
  75    2021-11-13 14:41    41  **********************
 ...    ..(  6 skipped).    ..  **********************
  82    2021-11-13 14:48    41  **********************
  83    2021-11-13 14:49    42  ***********************
 ...    ..( 10 skipped).    ..  ***********************
  94    2021-11-13 15:00    42  ***********************
  95    2021-11-13 15:01    43  ************************
 ...    ..( 21 skipped).    ..  ************************
 117    2021-11-13 15:23    43  ************************
 118    2021-11-13 15:24     ?  -
 119    2021-11-13 15:25    21  **
 120    2021-11-13 15:26     ?  -
 121    2021-11-13 15:27    21  **
 122    2021-11-13 15:28     ?  -
 123    2021-11-13 15:29    21  **
 124    2021-11-13 15:30    21  **
 125    2021-11-13 15:31     ?  -
 126    2021-11-13 15:32    22  ***
 127    2021-11-13 15:33    22  ***
   0    2021-11-13 15:34    23  ****
   1    2021-11-13 15:35    23  ****
   2    2021-11-13 15:36    24  *****
   3    2021-11-13 15:37    26  *******
   4    2021-11-13 15:38    26  *******
   5    2021-11-13 15:39    27  ********
   6    2021-11-13 15:40    27  ********
   7    2021-11-13 15:41    28  *********
   8    2021-11-13 15:42    29  **********
   9    2021-11-13 15:43    30  ***********
  10    2021-11-13 15:44    30  ***********
  11    2021-11-13 15:45    30  ***********
  12    2021-11-13 15:46    31  ************
  13    2021-11-13 15:47    31  ************
  14    2021-11-13 15:48    32  *************
  15    2021-11-13 15:49    32  *************
  16    2021-11-13 15:50    32  *************
  17    2021-11-13 15:51    33  **************
  18    2021-11-13 15:52    33  **************
  19    2021-11-13 15:53     ?  -
  20    2021-11-13 15:54    24  *****
  21    2021-11-13 15:55    24  *****
  22    2021-11-13 15:56    24  *****
  23    2021-11-13 15:57     ?  -
  24    2021-11-13 15:58    24  *****
  25    2021-11-13 15:59     ?  -
  26    2021-11-13 16:00    24  *****
  27    2021-11-13 16:01     ?  -
  28    2021-11-13 16:02    20  *
  29    2021-11-13 16:03    20  *
  30    2021-11-13 16:04    22  ***
  31    2021-11-13 16:05     ?  -
  32    2021-11-13 16:06    23  ****
  33    2021-11-13 16:07     ?  -
  34    2021-11-13 16:08    24  *****
  35    2021-11-13 16:09     ?  -
  36    2021-11-13 16:10    24  *****
  37    2021-11-13 16:11     ?  -
  38    2021-11-13 16:12    24  *****
  39    2021-11-13 16:13    24  *****
  40    2021-11-13 16:14    25  ******
  41    2021-11-13 16:15    26  *******

SCT Error Recovery Control command not supported

Device Statistics (GP/SMART Log 0x04) not supported

Pending Defects log (GP Log 0x0c) not supported

SATA Phy Event Counters (GP Log 0x11)
ID      Size     Value  Description
0x0001  2            0  Command failed due to ICRC error
0x0002  2            0  R_ERR response for data FIS
0x0003  2            0  R_ERR response for device-to-host data FIS
0x0004  2            0  R_ERR response for host-to-device data FIS
0x0005  2            0  R_ERR response for non-data FIS
0x0006  2            0  R_ERR response for device-to-host non-data FIS
0x0007  2            0  R_ERR response for host-to-device non-data FIS
0x0008  2            0  Device-to-host non-data FIS retries
0x0009  2            0  Transition from drive PhyRdy to drive PhyNRdy
0x000a  2            1  Device-to-host register FISes sent due to a COMRESET
0x000b  2            0  CRC errors within host-to-device FIS
0x000f  2            0  R_ERR response for host-to-device data FIS, CRC
0x0012  2            0  R_ERR response for host-to-device non-data FIS, CRC
0x8000  4          235  Vendor specific

