smartctl 7.1 2019-12-30 r5022 [x86_64-linux-5.11.0-25-generic] (local build)
Copyright (C) 2002-19, Bruce Allen, Christian Franke, www.smartmontools.org

=== START OF INFORMATION SECTION ===
Model Family:     SK hynix SATA SSDs
Device Model:     SK hynix SC308 SATA 128GB
Serial Number:    EI74N047710104E1G
Firmware Version: 30001P10
User Capacity:    128,035,676,160 bytes [128 GB]
Sector Sizes:     512 bytes logical, 4096 bytes physical
Rotation Rate:    Solid State Device
Form Factor:      M.2
Device is:        In smartctl database [for details use: -P show]
ATA Version is:   ACS-2 (minor revision not indicated)
SATA Version is:  SATA 3.1, 6.0 Gb/s (current: 6.0 Gb/s)
Local Time is:    Mon Aug  9 18:09:32 2021 MDT
SMART support is: Available - device has SMART capability.
SMART support is: Enabled
AAM feature is:   Unavailable
APM level is:     254 (maximum performance)
Rd look-ahead is: Enabled
Write cache is:   Enabled
DSN feature is:   Unavailable
ATA Security is:  Disabled, NOT FROZEN [SEC1]
Wt Cache Reorder: Unavailable

=== START OF READ SMART DATA SECTION ===
SMART overall-health self-assessment test result: FAILED!
Drive failure expected in less than 24 hours. SAVE ALL DATA.
See vendor-specific Attribute list for failed Attributes.

General SMART Values:
Offline data collection status:  (0x05)	Offline data collection activity
					was aborted by an interrupting command from host.
					Auto Offline Data Collection: Disabled.
Self-test execution status:      (  41)	The self-test routine was interrupted
					by the host with a hard or soft reset.
Total time to complete Offline 
data collection: 		(    0) seconds.
Offline data collection
capabilities: 			 (0x19) SMART execute Offline immediate.
					No Auto Offline data collection support.
					Suspend Offline collection upon new
					command.
					Offline surface scan supported.
					Self-test supported.
					No Conveyance Self-test supported.
					No Selective Self-test supported.
SMART capabilities:            (0x0002)	Does not save SMART data before
					entering power-saving mode.
					Supports SMART auto save timer.
Error logging capability:        (0x01)	Error logging supported.
					General Purpose Logging supported.
Short self-test routine 
recommended polling time: 	 (   2) minutes.
Extended self-test routine
recommended polling time: 	 (  10) minutes.

SMART Attributes Data Structure revision number: 0
Vendor Specific SMART Attributes with Thresholds:
ID# ATTRIBUTE_NAME          FLAGS    VALUE WORST THRESH FAIL RAW_VALUE
  1 Raw_Read_Error_Rate     POSR--   166   166   006    -    0
  5 Retired_Block_Count     -O--CK   253   100   036    -    0
  9 Power_On_Hours          -O--CK   083   083   000    -    15724
 12 Power_Cycle_Count       -O--CK   100   100   020    -    535
100 Total_Erase_Count       -O--CK   100   100   000    -    40403769
171 Program_Fail_Count      -O--CK   253   253   000    -    0
172 Erase_Fail_Count        -O--CK   253   253   000    -    0
174 Unexpect_Power_Loss_Ct  ----CK   100   100   000    -    89
175 Program_Fail_Count_Chip -O--CK   253   253   000    -    0
176 Unused_Rsvd_Blk_Cnt_Tot -O--CK   253   253   000    -    0
177 Wear_Leveling_Count     -O--CK   001   001   000    -    1231
178 Used_Rsvd_Blk_Cnt_Chip  -O--CK   100   100   000    -    44
179 Used_Rsvd_Blk_Cnt_Tot   -O--CK   100   100   000    -    112
180 Erase_Fail_Count        -O--CK   100   100   000    -    2528
181 Non4k_Aligned_Access    -O--CK   253   253   000    -    0
182 Erase_Fail_Count_Total  -O--CK   253   253   000    -    0
183 SATA_Downshift_Count    -O--CK   253   253   000    -    0
187 Reported_Uncorrect      -O--CK   253   253   000    -    0
188 Command_Timeout         -O--CK   253   253   000    -    0
191 Unknown_SSD_Attribute   -O--CK   253   253   000    -    0
194 Temperature_Celsius     -O----   029   000   000    -    29 (Min/Max 0/64)
195 Hardware_ECC_Recovered  -O--CK   253   253   000    -    0
199 UDMA_CRC_Error_Count    -O--CK   253   253   000    -    0
201 Percent_Lifetime_Remain -OSR--   100   100   000    -    0
204 Soft_ECC_Correction     -OSR--   100   001   000    -    21474
231 SSD_Life_Left           PO--CK   001   001   010    NOW  116
234 Unknown_SK_hynix_Attrib -O--CK   100   100   000    -    333500623360
241 Total_Writes_GiB        -O--CK   100   100   000    -    30633358839
242 Total_Reads_GiB         -O--CK   100   100   000    -    22451423800
250 Read_Retry_Count        -O--CK   099   099   000    -    63106740
                            ||||||_ K auto-keep
                            |||||__ C event count
                            ||||___ R error rate
                            |||____ S speed/performance
                            ||_____ O updated online
                            |______ P prefailure warning

General Purpose Log Directory Version 1
SMART           Log Directory Version 1 [multi-sector log support]
Address    Access  R/W   Size  Description
0x00       GPL,SL  R/O      1  Log Directory
0x01           SL  R/O      1  Summary SMART error log
0x02           SL  R/O      4  Comprehensive SMART error log
0x03       GPL     R/O      5  Ext. Comprehensive SMART error log
0x04       GPL,SL  R/O      8  Device Statistics log
0x06           SL  R/O      1  SMART self-test log
0x07       GPL     R/O      2  Extended self-test log
0x10       GPL     R/O      1  NCQ Command Error log
0x11       GPL     R/O      1  SATA Phy Event Counters log
0x30       GPL     R/O      8  IDENTIFY DEVICE data log
0x80-0x9f  GPL,SL  R/W     16  Host vendor specific log

SMART Extended Comprehensive Error Log Version: 1 (5 sectors)
Device Error Count: 8
	CR     = Command Register
	FEATR  = Features Register
	COUNT  = Count (was: Sector Count) Register
	LBA_48 = Upper bytes of LBA High/Mid/Low Registers ]  ATA-8
	LH     = LBA High (was: Cylinder High) Register    ]   LBA
	LM     = LBA Mid (was: Cylinder Low) Register      ] Register
	LL     = LBA Low (was: Sector Number) Register     ]
	DV     = Device (was: Device/Head) Register
	DC     = Device Control Register
	ER     = Error register
	ST     = Status register
Powered_Up_Time is measured from power on, and printed as
DDd+hh:mm:SS.sss where DD=days, hh=hours, mm=minutes,
SS=sec, and sss=millisec. It "wraps" after 49.710 days.

Error 8 [7] occurred at disk power-on lifetime: 15724 hours (655 days + 4 hours)
  When the command that caused the error occurred, the device was active or idle.

  After command completion occurred, registers were:
  ER -- ST COUNT  LBA_48  LH LM LL DV DC
  -- -- -- == -- == == == -- -- -- -- --
  10 -- 51 00 00 00 00 00 00 00 00 e0 00  Error: IDNF

  Commands leading to the command that caused the error were:
  CR FEATR COUNT  LBA_48  LH LM LL DV DC  Powered_Up_Time  Command/Feature_Name
  -- == -- == -- == == == -- -- -- -- --  ---------------  --------------------
  b0 00 d5 00 01 00 00 00 c2 4f e0 00 00     00:00:15.660  SMART READ LOG
  20 00 00 00 01 00 00 00 00 00 00 40 40     00:00:15.650  READ SECTOR(S)
  b0 00 d0 00 01 00 00 00 c2 4f 00 00 00     00:00:15.650  SMART READ DATA
  b0 00 d5 00 01 00 00 00 c2 4f 9a 00 00     00:00:15.650  SMART READ LOG
  ec 00 00 00 01 00 00 00 00 00 00 40 40     00:00:15.650  IDENTIFY DEVICE

Error 7 [6] occurred at disk power-on lifetime: 11208 hours (467 days + 0 hours)
  When the command that caused the error occurred, the device was active or idle.

  After command completion occurred, registers were:
  ER -- ST COUNT  LBA_48  LH LM LL DV DC
  -- -- -- == -- == == == -- -- -- -- --
  10 -- 51 00 00 00 00 00 00 00 00 e0 00  Error: IDNF

  Commands leading to the command that caused the error were:
  CR FEATR COUNT  LBA_48  LH LM LL DV DC  Powered_Up_Time  Command/Feature_Name
  -- == -- == -- == == == -- -- -- -- --  ---------------  --------------------
  b0 00 d5 00 01 00 00 00 c2 4f e0 00 00     00:00:14.570  SMART READ LOG
  20 00 00 00 01 00 00 00 00 00 00 40 40     00:00:14.560  READ SECTOR(S)
  b0 00 d5 00 01 00 00 00 c2 4f 9a 00 00     00:00:13.890  SMART READ LOG
  ec 00 00 00 01 00 00 00 00 00 00 40 40     00:00:13.890  IDENTIFY DEVICE
  ec 00 00 00 01 00 00 00 00 00 00 40 40     00:00:11.590  IDENTIFY DEVICE

Error 6 [5] occurred at disk power-on lifetime: 11208 hours (467 days + 0 hours)
  When the command that caused the error occurred, the device was active or idle.

  After command completion occurred, registers were:
  ER -- ST COUNT  LBA_48  LH LM LL DV DC
  -- -- -- == -- == == == -- -- -- -- --
  10 -- 51 00 00 00 00 00 00 00 00 e0 00  Error: IDNF

  Commands leading to the command that caused the error were:
  CR FEATR COUNT  LBA_48  LH LM LL DV DC  Powered_Up_Time  Command/Feature_Name
  -- == -- == -- == == == -- -- -- -- --  ---------------  --------------------
  b0 00 d5 00 01 00 00 00 c2 4f e0 00 00     00:00:13.610  SMART READ LOG
  20 00 00 00 01 00 00 00 00 00 00 40 40     00:00:13.610  READ SECTOR(S)
  b0 00 d5 00 01 00 00 00 c2 4f 9a 00 00     00:00:13.610  SMART READ LOG
  ec 00 00 00 01 00 00 00 00 00 00 40 40     00:00:13.610  IDENTIFY DEVICE
  ec 00 00 00 01 00 00 00 00 00 00 40 40     00:00:11.300  IDENTIFY DEVICE

Error 5 [4] occurred at disk power-on lifetime: 120 hours (5 days + 0 hours)
  When the command that caused the error occurred, the device was active or idle.

  After command completion occurred, registers were:
  ER -- ST COUNT  LBA_48  LH LM LL DV DC
  -- -- -- == -- == == == -- -- -- -- --
  10 -- 51 00 00 00 00 00 00 00 00 e0 00  Error: IDNF

  Commands leading to the command that caused the error were:
  CR FEATR COUNT  LBA_48  LH LM LL DV DC  Powered_Up_Time  Command/Feature_Name
  -- == -- == -- == == == -- -- -- -- --  ---------------  --------------------
  b0 00 d5 00 01 00 00 00 c2 4f e0 00 00     00:01:05.220  SMART READ LOG
  20 00 00 00 01 00 00 00 00 00 00 40 40     00:01:05.220  READ SECTOR(S)
  b0 00 d5 00 01 00 00 00 c2 4f 9a 00 00     00:01:05.220  SMART READ LOG
  ec 00 00 00 01 00 00 00 00 00 00 40 40     00:01:05.220  IDENTIFY DEVICE
  ec 00 00 00 00 00 00 00 00 00 00 00 00     00:01:02.520  IDENTIFY DEVICE

Error 4 [3] occurred at disk power-on lifetime: 117 hours (4 days + 21 hours)
  When the command that caused the error occurred, the device was active or idle.

  After command completion occurred, registers were:
  ER -- ST COUNT  LBA_48  LH LM LL DV DC
  -- -- -- == -- == == == -- -- -- -- --
  10 -- 51 00 00 00 00 00 00 00 00 e0 00  Error: IDNF

  Commands leading to the command that caused the error were:
  CR FEATR COUNT  LBA_48  LH LM LL DV DC  Powered_Up_Time  Command/Feature_Name
  -- == -- == -- == == == -- -- -- -- --  ---------------  --------------------
  b0 00 d5 00 01 00 00 00 c2 4f e0 00 00     00:00:27.900  SMART READ LOG
  20 00 00 00 01 00 00 00 00 00 00 40 40     00:00:27.900  READ SECTOR(S)
  b0 00 d5 00 01 00 00 00 c2 4f 9a 00 00     00:00:27.900  SMART READ LOG
  ec 00 00 00 01 00 00 00 00 00 00 40 40     00:00:27.900  IDENTIFY DEVICE
  ec 00 00 00 00 00 00 00 00 00 00 00 00     00:00:25.200  IDENTIFY DEVICE

Error 3 [2] occurred at disk power-on lifetime: 117 hours (4 days + 21 hours)
  When the command that caused the error occurred, the device was active or idle.

  After command completion occurred, registers were:
  ER -- ST COUNT  LBA_48  LH LM LL DV DC
  -- -- -- == -- == == == -- -- -- -- --
  10 -- 51 00 00 00 00 00 00 00 00 e0 00  Error: IDNF

  Commands leading to the command that caused the error were:
  CR FEATR COUNT  LBA_48  LH LM LL DV DC  Powered_Up_Time  Command/Feature_Name
  -- == -- == -- == == == -- -- -- -- --  ---------------  --------------------
  b0 00 d5 00 01 00 00 00 c2 4f e0 00 00     00:00:39.940  SMART READ LOG
  20 00 00 00 01 00 00 00 00 00 00 40 40     00:00:39.940  READ SECTOR(S)
  b0 00 d5 00 01 00 00 00 c2 4f 9a 00 00     00:00:39.940  SMART READ LOG
  ec 00 00 00 01 00 00 00 00 00 00 40 40     00:00:39.940  IDENTIFY DEVICE
  ec 00 00 00 00 00 00 00 00 00 00 00 00     00:00:37.250  IDENTIFY DEVICE

Error 2 [1] occurred at disk power-on lifetime: 111 hours (4 days + 15 hours)
  When the command that caused the error occurred, the device was active or idle.

  After command completion occurred, registers were:
  ER -- ST COUNT  LBA_48  LH LM LL DV DC
  -- -- -- == -- == == == -- -- -- -- --
  10 -- 51 00 00 00 00 00 00 00 00 e0 00  Error: IDNF

  Commands leading to the command that caused the error were:
  CR FEATR COUNT  LBA_48  LH LM LL DV DC  Powered_Up_Time  Command/Feature_Name
  -- == -- == -- == == == -- -- -- -- --  ---------------  --------------------
  b0 00 d5 00 01 00 00 00 c2 4f e0 00 00  1d+22:18:41.400  SMART READ LOG
  20 00 00 00 01 00 00 00 00 00 00 40 40  1d+22:18:41.400  READ SECTOR(S)
  b0 00 d5 00 01 00 00 00 c2 4f 9a 00 00  1d+22:18:41.400  SMART READ LOG
  ec 00 00 00 01 00 00 00 00 00 00 40 40  1d+22:18:41.400  IDENTIFY DEVICE
  ec 00 00 00 00 00 00 00 00 00 00 00 00  1d+22:18:38.720  IDENTIFY DEVICE

Error 1 [0] occurred at disk power-on lifetime: 9 hours (0 days + 9 hours)
  When the command that caused the error occurred, the device was active or idle.

  After command completion occurred, registers were:
  ER -- ST COUNT  LBA_48  LH LM LL DV DC
  -- -- -- == -- == == == -- -- -- -- --
  10 -- 51 00 00 00 00 00 00 00 00 e0 00  Error: IDNF

  Commands leading to the command that caused the error were:
  CR FEATR COUNT  LBA_48  LH LM LL DV DC  Powered_Up_Time  Command/Feature_Name
  -- == -- == -- == == == -- -- -- -- --  ---------------  --------------------
  b0 00 d5 00 01 00 00 00 c2 4f e0 00 00     00:01:15.710  SMART READ LOG
  20 00 00 00 01 00 00 00 00 00 00 40 40     00:01:15.710  READ SECTOR(S)
  b0 00 d5 00 01 00 00 00 c2 4f 9a 00 00     00:01:15.710  SMART READ LOG
  ec 00 00 00 01 00 00 00 00 00 00 40 40     00:01:15.710  IDENTIFY DEVICE
  ec 00 00 00 00 00 00 00 00 00 00 00 00     00:01:13.040  IDENTIFY DEVICE

SMART Extended Self-test Log Version: 1 (2 sectors)
Num  Test_Description    Status                  Remaining  LifeTime(hours)  LBA_of_first_error
# 1  Short offline       Aborted by host               90%     11208         -
# 2  Short offline       Completed without error       00%     11208         -
# 3  Short offline       Completed without error       00%       117         -
# 4  Short offline       Aborted by host               70%       117         -
# 5  Short offline       Aborted by host               90%       117         -
# 6  Short offline       Aborted by host               90%       117         -
# 7  Short offline       Aborted by host               00%       117         -
# 8  Short offline       Completed without error       00%       111         -
# 9  Short offline       Completed without error       00%         9         -
#10  Short offline       Completed without error       00%         9         -
#11  Short offline       Completed without error       00%         1         -

Selective Self-tests/Logging not supported

SCT Commands not supported

Device Statistics (GP Log 0x04)
Page  Offset Size        Value Flags Description
0x01  =====  =               =  ===  == General Statistics (empty) ==
0x04  =====  =               =  ===  == General Errors Statistics (empty) ==
0x05  =====  =               =  ===  == Temperature Statistics (empty) ==
0x06  =====  =               =  ===  == Transport Statistics (empty) ==
0x07  =====  =               =  ===  == Solid State Device Statistics (empty) ==
                                |||_ C monitored condition met
                                ||__ D supports DSN
                                |___ N normalized value

Pending Defects log (GP Log 0x0c) not supported

SATA Phy Event Counters (GP Log 0x11)
ID      Size     Value  Description
0x0001  2            0  Command failed due to ICRC error
0x000a  2            1  Device-to-host register FISes sent due to a COMRESET

