{
  "json_format_version": [
    1,
    0
  ],
  "smartctl": {
    "version": [
      7,
      1
    ],
    "svn_revision": "5022",
    "platform_info": "x86_64-linux-5.11.0-25-generic",
    "build_info": "(local build)",
    "argv": [
      "smartctl",
      "-jx",
      "/dev/sdb"
    ],
    "exit_status": 88
  },
  "device": {
    "name": "/dev/sdb",
    "info_name": "/dev/sdb [SAT]",
    "type": "sat",
    "protocol": "ATA"
  },
  "model_family": "SK hynix SATA SSDs",
  "model_name": "SK hynix SC308 SATA 128GB",
  "serial_number": "EI74N047710104E0L",
  "firmware_version": "30001P10",
  "user_capacity": {
    "blocks": 250069680,
    "bytes": 128035676160
  },
  "logical_block_size": 512,
  "physical_block_size": 4096,
  "rotation_rate": 0,
  "form_factor": {
    "ata_value": 7,
    "name": "M.2"
  },
  "in_smartctl_database": true,
  "ata_version": {
    "string": "ACS-2 (minor revision not indicated)",
    "major_value": 1020,
    "minor_value": 0
  },
  "sata_version": {
    "string": "SATA 3.1",
    "value": 127
  },
  "interface_speed": {
    "max": {
      "sata_value": 14,
      "string": "6.0 Gb/s",
      "units_per_second": 60,
      "bits_per_unit": 100000000
    },
    "current": {
      "sata_value": 3,
      "string": "6.0 Gb/s",
      "units_per_second": 60,
      "bits_per_unit": 100000000
    }
  },
  "local_time": {
    "time_t": 1628554402,
    "asctime": "Mon Aug  9 18:13:22 2021 MDT"
  },
  "ata_apm": {
    "enabled": true,
    "level": 254,
    "string": "maximum performance",
    "max_performance": true,
    "min_power": false,
    "with_standby": false
  },
  "read_lookahead": {
    "enabled": true
  },
  "write_cache": {
    "enabled": true
  },
  "ata_security": {
    "state": 33,
    "string": "Disabled, NOT FROZEN [SEC1]",
    "enabled": false,
    "frozen": false
  },
  "smart_status": {
    "passed": false
  },
  "ata_smart_data": {
    "offline_data_collection": {
      "status": {
        "value": 5,
        "string": "was aborted by an interrupting command from host"
      },
      "completion_seconds": 35
    },
    "self_test": {
      "status": {
        "value": 38,
        "string": "was interrupted by the host with a reset"
      },
      "polling_minutes": {
        "short": 2,
        "extended": 10
      }
    },
    "capabilities": {
      "values": [
        25,
        2
      ],
      "exec_offline_immediate_supported": true,
      "offline_is_aborted_upon_new_cmd": false,
      "offline_surface_scan_supported": true,
      "self_tests_supported": true,
      "conveyance_self_test_supported": false,
      "selective_self_test_supported": false,
      "attribute_autosave_enabled": false,
      "error_logging_supported": true,
      "gp_logging_supported": true
    }
  },
  "ata_smart_attributes": {
    "revision": 0,
    "table": [
      {
        "id": 1,
        "name": "Raw_Read_Error_Rate",
        "value": 166,
        "worst": 166,
        "thresh": 6,
        "when_failed": "",
        "flags": {
          "value": 15,
          "string": "POSR-- ",
          "prefailure": true,
          "updated_online": true,
          "performance": true,
          "error_rate": true,
          "event_count": false,
          "auto_keep": false
        },
        "raw": {
          "value": 0,
          "string": "0"
        }
      },
      {
        "id": 5,
        "name": "Retired_Block_Count",
        "value": 100,
        "worst": 100,
        "thresh": 36,
        "when_failed": "",
        "flags": {
          "value": 50,
          "string": "-O--CK ",
          "prefailure": false,
          "updated_online": true,
          "performance": false,
          "error_rate": false,
          "event_count": true,
          "auto_keep": true
        },
        "raw": {
          "value": 1,
          "string": "1"
        }
      },
      {
        "id": 9,
        "name": "Power_On_Hours",
        "value": 84,
        "worst": 84,
        "thresh": 0,
        "when_failed": "",
        "flags": {
          "value": 50,
          "string": "-O--CK ",
          "prefailure": false,
          "updated_online": true,
          "performance": false,
          "error_rate": false,
          "event_count": true,
          "auto_keep": true
        },
        "raw": {
          "value": 14506,
          "string": "14506"
        }
      },
      {
        "id": 12,
        "name": "Power_Cycle_Count",
        "value": 100,
        "worst": 100,
        "thresh": 20,
        "when_failed": "",
        "flags": {
          "value": 50,
          "string": "-O--CK ",
          "prefailure": false,
          "updated_online": true,
          "performance": false,
          "error_rate": false,
          "event_count": true,
          "auto_keep": true
        },
        "raw": {
          "value": 834,
          "string": "834"
        }
      },
      {
        "id": 100,
        "name": "Total_Erase_Count",
        "value": 100,
        "worst": 100,
        "thresh": 0,
        "when_failed": "",
        "flags": {
          "value": 50,
          "string": "-O--CK ",
          "prefailure": false,
          "updated_online": true,
          "performance": false,
          "error_rate": false,
          "event_count": true,
          "auto_keep": true
        },
        "raw": {
          "value": 33245204,
          "string": "33245204"
        }
      },
      {
        "id": 171,
        "name": "Program_Fail_Count",
        "value": 253,
        "worst": 253,
        "thresh": 0,
        "when_failed": "",
        "flags": {
          "value": 50,
          "string": "-O--CK ",
          "prefailure": false,
          "updated_online": true,
          "performance": false,
          "error_rate": false,
          "event_count": true,
          "auto_keep": true
        },
        "raw": {
          "value": 0,
          "string": "0"
        }
      },
      {
        "id": 172,
        "name": "Erase_Fail_Count",
        "value": 253,
        "worst": 253,
        "thresh": 0,
        "when_failed": "",
        "flags": {
          "value": 50,
          "string": "-O--CK ",
          "prefailure": false,
          "updated_online": true,
          "performance": false,
          "error_rate": false,
          "event_count": true,
          "auto_keep": true
        },
        "raw": {
          "value": 0,
          "string": "0"
        }
      },
      {
        "id": 174,
        "name": "Unexpect_Power_Loss_Ct",
        "value": 100,
        "worst": 100,
        "thresh": 0,
        "when_failed": "",
        "flags": {
          "value": 48,
          "string": "----CK ",
          "prefailure": false,
          "updated_online": false,
          "performance": false,
          "error_rate": false,
          "event_count": true,
          "auto_keep": true
        },
        "raw": {
          "value": 182,
          "string": "182"
        }
      },
      {
        "id": 175,
        "name": "Program_Fail_Count_Chip",
        "value": 253,
        "worst": 253,
        "thresh": 0,
        "when_failed": "",
        "flags": {
          "value": 50,
          "string": "-O--CK ",
          "prefailure": false,
          "updated_online": true,
          "performance": false,
          "error_rate": false,
          "event_count": true,
          "auto_keep": true
        },
        "raw": {
          "value": 0,
          "string": "0"
        }
      },
      {
        "id": 176,
        "name": "Unused_Rsvd_Blk_Cnt_Tot",
        "value": 253,
        "worst": 253,
        "thresh": 0,
        "when_failed": "",
        "flags": {
          "value": 50,
          "string": "-O--CK ",
          "prefailure": false,
          "updated_online": true,
          "performance": false,
          "error_rate": false,
          "event_count": true,
          "auto_keep": true
        },
        "raw": {
          "value": 0,
          "string": "0"
        }
      },
      {
        "id": 177,
        "name": "Wear_Leveling_Count",
        "value": 4,
        "worst": 4,
        "thresh": 0,
        "when_failed": "",
        "flags": {
          "value": 50,
          "string": "-O--CK ",
          "prefailure": false,
          "updated_online": true,
          "performance": false,
          "error_rate": false,
          "event_count": true,
          "auto_keep": true
        },
        "raw": {
          "value": 1019,
          "string": "1019"
        }
      },
      {
        "id": 178,
        "name": "Used_Rsvd_Blk_Cnt_Chip",
        "value": 100,
        "worst": 100,
        "thresh": 0,
        "when_failed": "",
        "flags": {
          "value": 50,
          "string": "-O--CK ",
          "prefailure": false,
          "updated_online": true,
          "performance": false,
          "error_rate": false,
          "event_count": true,
          "auto_keep": true
        },
        "raw": {
          "value": 92,
          "string": "92"
        }
      },
      {
        "id": 179,
        "name": "Used_Rsvd_Blk_Cnt_Tot",
        "value": 100,
        "worst": 100,
        "thresh": 0,
        "when_failed": "",
        "flags": {
          "value": 50,
          "string": "-O--CK ",
          "prefailure": false,
          "updated_online": true,
          "performance": false,
          "error_rate": false,
          "event_count": true,
          "auto_keep": true
        },
        "raw": {
          "value": 372,
          "string": "372"
        }
      },
      {
        "id": 180,
        "name": "Erase_Fail_Count",
        "value": 100,
        "worst": 100,
        "thresh": 0,
        "when_failed": "",
        "flags": {
          "value": 50,
          "string": "-O--CK ",
          "prefailure": false,
          "updated_online": true,
          "performance": false,
          "error_rate": false,
          "event_count": true,
          "auto_keep": true
        },
        "raw": {
          "value": 2268,
          "string": "2268"
        }
      },
      {
        "id": 181,
        "name": "Non4k_Aligned_Access",
        "value": 253,
        "worst": 253,
        "thresh": 0,
        "when_failed": "",
        "flags": {
          "value": 50,
          "string": "-O--CK ",
          "prefailure": false,
          "updated_online": true,
          "performance": false,
          "error_rate": false,
          "event_count": true,
          "auto_keep": true
        },
        "raw": {
          "value": 0,
          "string": "0"
        }
      },
      {
        "id": 182,
        "name": "Erase_Fail_Count_Total",
        "value": 253,
        "worst": 253,
        "thresh": 0,
        "when_failed": "",
        "flags": {
          "value": 50,
          "string": "-O--CK ",
          "prefailure": false,
          "updated_online": true,
          "performance": false,
          "error_rate": false,
          "event_count": true,
          "auto_keep": true
        },
        "raw": {
          "value": 0,
          "string": "0"
        }
      },
      {
        "id": 183,
        "name": "SATA_Downshift_Count",
        "value": 253,
        "worst": 253,
        "thresh": 0,
        "when_failed": "",
        "flags": {
          "value": 50,
          "string": "-O--CK ",
          "prefailure": false,
          "updated_online": true,
          "performance": false,
          "error_rate": false,
          "event_count": true,
          "auto_keep": true
        },
        "raw": {
          "value": 0,
          "string": "0"
        }
      },
      {
        "id": 187,
        "name": "Reported_Uncorrect",
        "value": 100,
        "worst": 100,
        "thresh": 0,
        "when_failed": "",
        "flags": {
          "value": 50,
          "string": "-O--CK ",
          "prefailure": false,
          "updated_online": true,
          "performance": false,
          "error_rate": false,
          "event_count": true,
          "auto_keep": true
        },
        "raw": {
          "value": 30,
          "string": "30"
        }
      },
      {
        "id": 188,
        "name": "Command_Timeout",
        "value": 253,
        "worst": 253,
        "thresh": 0,
        "when_failed": "",
        "flags": {
          "value": 50,
          "string": "-O--CK ",
          "prefailure": false,
          "updated_online": true,
          "performance": false,
          "error_rate": false,
          "event_count": true,
          "auto_keep": true
        },
        "raw": {
          "value": 0,
          "string": "0"
        }
      },
      {
        "id": 191,
        "name": "Unknown_SSD_Attribute",
        "value": 253,
        "worst": 253,
        "thresh": 0,
        "when_failed": "",
        "flags": {
          "value": 50,
          "string": "-O--CK ",
          "prefailure": false,
          "updated_online": true,
          "performance": false,
          "error_rate": false,
          "event_count": true,
          "auto_keep": true
        },
        "raw": {
          "value": 0,
          "string": "0"
        }
      },
      {
        "id": 194,
        "name": "Temperature_Celsius",
        "value": 27,
        "worst": 0,
        "thresh": 0,
        "when_failed": "",
        "flags": {
          "value": 2,
          "string": "-O---- ",
          "prefailure": false,
          "updated_online": true,
          "performance": false,
          "error_rate": false,
          "event_count": false,
          "auto_keep": false
        },
        "raw": {
          "value": 3670043,
          "string": "27 (Min/Max 0/56)"
        }
      },
      {
        "id": 195,
        "name": "Hardware_ECC_Recovered",
        "value": 72,
        "worst": 1,
        "thresh": 0,
        "when_failed": "",
        "flags": {
          "value": 50,
          "string": "-O--CK ",
          "prefailure": false,
          "updated_online": true,
          "performance": false,
          "error_rate": false,
          "event_count": true,
          "auto_keep": true
        },
        "raw": {
          "value": 1141199758,
          "string": "1141199758"
        }
      },
      {
        "id": 199,
        "name": "UDMA_CRC_Error_Count",
        "value": 253,
        "worst": 253,
        "thresh": 0,
        "when_failed": "",
        "flags": {
          "value": 50,
          "string": "-O--CK ",
          "prefailure": false,
          "updated_online": true,
          "performance": false,
          "error_rate": false,
          "event_count": true,
          "auto_keep": true
        },
        "raw": {
          "value": 0,
          "string": "0"
        }
      },
      {
        "id": 201,
        "name": "Percent_Lifetime_Remain",
        "value": 100,
        "worst": 100,
        "thresh": 0,
        "when_failed": "",
        "flags": {
          "value": 14,
          "string": "-OSR-- ",
          "prefailure": false,
          "updated_online": true,
          "performance": true,
          "error_rate": true,
          "event_count": false,
          "auto_keep": false
        },
        "raw": {
          "value": 0,
          "string": "0"
        }
      },
      {
        "id": 204,
        "name": "Soft_ECC_Correction",
        "value": 100,
        "worst": 1,
        "thresh": 0,
        "when_failed": "",
        "flags": {
          "value": 14,
          "string": "-OSR-- ",
          "prefailure": false,
          "updated_online": true,
          "performance": true,
          "error_rate": true,
          "event_count": false,
          "auto_keep": false
        },
        "raw": {
          "value": 16823,
          "string": "16823"
        }
      },
      {
        "id": 231,
        "name": "SSD_Life_Left",
        "value": 6,
        "worst": 6,
        "thresh": 10,
        "when_failed": "now",
        "flags": {
          "value": 51,
          "string": "PO--CK ",
          "prefailure": true,
          "updated_online": true,
          "performance": false,
          "error_rate": false,
          "event_count": true,
          "auto_keep": true
        },
        "raw": {
          "value": 95,
          "string": "95"
        }
      },
      {
        "id": 234,
        "name": "Unknown_SK_hynix_Attrib",
        "value": 100,
        "worst": 100,
        "thresh": 0,
        "when_failed": "",
        "flags": {
          "value": 50,
          "string": "-O--CK ",
          "prefailure": false,
          "updated_online": true,
          "performance": false,
          "error_rate": false,
          "event_count": true,
          "auto_keep": true
        },
        "raw": {
          "value": 274331274304,
          "string": "274331274304"
        }
      },
      {
        "id": 241,
        "name": "Total_Writes_GiB",
        "value": 100,
        "worst": 100,
        "thresh": 0,
        "when_failed": "",
        "flags": {
          "value": 50,
          "string": "-O--CK ",
          "prefailure": false,
          "updated_online": true,
          "performance": false,
          "error_rate": false,
          "event_count": true,
          "auto_keep": true
        },
        "raw": {
          "value": 28240401872,
          "string": "28240401872"
        }
      },
      {
        "id": 242,
        "name": "Total_Reads_GiB",
        "value": 100,
        "worst": 100,
        "thresh": 0,
        "when_failed": "",
        "flags": {
          "value": 50,
          "string": "-O--CK ",
          "prefailure": false,
          "updated_online": true,
          "performance": false,
          "error_rate": false,
          "event_count": true,
          "auto_keep": true
        },
        "raw": {
          "value": 34235992752,
          "string": "34235992752"
        }
      },
      {
        "id": 250,
        "name": "Read_Retry_Count",
        "value": 98,
        "worst": 98,
        "thresh": 0,
        "when_failed": "",
        "flags": {
          "value": 50,
          "string": "-O--CK ",
          "prefailure": false,
          "updated_online": true,
          "performance": false,
          "error_rate": false,
          "event_count": true,
          "auto_keep": true
        },
        "raw": {
          "value": 83761034,
          "string": "83761034"
        }
      }
    ]
  },
  "power_on_time": {
    "hours": 14506
  },
  "power_cycle_count": 834,
  "temperature": {
    "current": 27
  },
  "ata_log_directory": {
    "gp_dir_version": 1,
    "smart_dir_version": 1,
    "smart_dir_multi_sector": true,
    "table": [
      {
        "address": 0,
        "name": "Log Directory",
        "read": true,
        "write": false,
        "gp_sectors": 1,
        "smart_sectors": 1
      },
      {
        "address": 1,
        "name": "Summary SMART error log",
        "read": true,
        "write": false,
        "smart_sectors": 1
      },
      {
        "address": 2,
        "name": "Comprehensive SMART error log",
        "read": true,
        "write": false,
        "smart_sectors": 4
      },
      {
        "address": 3,
        "name": "Ext. Comprehensive SMART error log",
        "read": true,
        "write": false,
        "gp_sectors": 5
      },
      {
        "address": 4,
        "name": "Device Statistics log",
        "read": true,
        "write": false,
        "gp_sectors": 8,
        "smart_sectors": 8
      },
      {
        "address": 6,
        "name": "SMART self-test log",
        "read": true,
        "write": false,
        "smart_sectors": 1
      },
      {
        "address": 7,
        "name": "Extended self-test log",
        "read": true,
        "write": false,
        "gp_sectors": 2
      },
      {
        "address": 16,
        "name": "NCQ Command Error log",
        "read": true,
        "write": false,
        "gp_sectors": 1
      },
      {
        "address": 17,
        "name": "SATA Phy Event Counters log",
        "read": true,
        "write": false,
        "gp_sectors": 1
      },
      {
        "address": 48,
        "name": "IDENTIFY DEVICE data log",
        "read": true,
        "write": false,
        "gp_sectors": 8
      },
      {
        "address": 128,
        "name": "Host vendor specific log",
        "read": true,
        "write": true,
        "gp_sectors": 16,
        "smart_sectors": 16
      },
      {
        "address": 129,
        "name": "Host vendor specific log",
        "read": true,
        "write": true,
        "gp_sectors": 16,
        "smart_sectors": 16
      },
      {
        "address": 130,
        "name": "Host vendor specific log",
        "read": true,
        "write": true,
        "gp_sectors": 16,
        "smart_sectors": 16
      },
      {
        "address": 131,
        "name": "Host vendor specific log",
        "read": true,
        "write": true,
        "gp_sectors": 16,
        "smart_sectors": 16
      },
      {
        "address": 132,
        "name": "Host vendor specific log",
        "read": true,
        "write": true,
        "gp_sectors": 16,
        "smart_sectors": 16
      },
      {
        "address": 133,
        "name": "Host vendor specific log",
        "read": true,
        "write": true,
        "gp_sectors": 16,
        "smart_sectors": 16
      },
      {
        "address": 134,
        "name": "Host vendor specific log",
        "read": true,
        "write": true,
        "gp_sectors": 16,
        "smart_sectors": 16
      },
      {
        "address": 135,
        "name": "Host vendor specific log",
        "read": true,
        "write": true,
        "gp_sectors": 16,
        "smart_sectors": 16
      },
      {
        "address": 136,
        "name": "Host vendor specific log",
        "read": true,
        "write": true,
        "gp_sectors": 16,
        "smart_sectors": 16
      },
      {
        "address": 137,
        "name": "Host vendor specific log",
        "read": true,
        "write": true,
        "gp_sectors": 16,
        "smart_sectors": 16
      },
      {
        "address": 138,
        "name": "Host vendor specific log",
        "read": true,
        "write": true,
        "gp_sectors": 16,
        "smart_sectors": 16
      },
      {
        "address": 139,
        "name": "Host vendor specific log",
        "read": true,
        "write": true,
        "gp_sectors": 16,
        "smart_sectors": 16
      },
      {
        "address": 140,
        "name": "Host vendor specific log",
        "read": true,
        "write": true,
        "gp_sectors": 16,
        "smart_sectors": 16
      },
      {
        "address": 141,
        "name": "Host vendor specific log",
        "read": true,
        "write": true,
        "gp_sectors": 16,
        "smart_sectors": 16
      },
      {
        "address": 142,
        "name": "Host vendor specific log",
        "read": true,
        "write": true,
        "gp_sectors": 16,
        "smart_sectors": 16
      },
      {
        "address": 143,
        "name": "Host vendor specific log",
        "read": true,
        "write": true,
        "gp_sectors": 16,
        "smart_sectors": 16
      },
      {
        "address": 144,
        "name": "Host vendor specific log",
        "read": true,
        "write": true,
        "gp_sectors": 16,
        "smart_sectors": 16
      },
      {
        "address": 145,
        "name": "Host vendor specific log",
        "read": true,
        "write": true,
        "gp_sectors": 16,
        "smart_sectors": 16
      },
      {
        "address": 146,
        "name": "Host vendor specific log",
        "read": true,
        "write": true,
        "gp_sectors": 16,
        "smart_sectors": 16
      },
      {
        "address": 147,
        "name": "Host vendor specific log",
        "read": true,
        "write": true,
        "gp_sectors": 16,
        "smart_sectors": 16
      },
      {
        "address": 148,
        "name": "Host vendor specific log",
        "read": true,
        "write": true,
        "gp_sectors": 16,
        "smart_sectors": 16
      },
      {
        "address": 149,
        "name": "Host vendor specific log",
        "read": true,
        "write": true,
        "gp_sectors": 16,
        "smart_sectors": 16
      },
      {
        "address": 150,
        "name": "Host vendor specific log",
        "read": true,
        "write": true,
        "gp_sectors": 16,
        "smart_sectors": 16
      },
      {
        "address": 151,
        "name": "Host vendor specific log",
        "read": true,
        "write": true,
        "gp_sectors": 16,
        "smart_sectors": 16
      },
      {
        "address": 152,
        "name": "Host vendor specific log",
        "read": true,
        "write": true,
        "gp_sectors": 16,
        "smart_sectors": 16
      },
      {
        "address": 153,
        "name": "Host vendor specific log",
        "read": true,
        "write": true,
        "gp_sectors": 16,
        "smart_sectors": 16
      },
      {
        "address": 154,
        "name": "Host vendor specific log",
        "read": true,
        "write": true,
        "gp_sectors": 16,
        "smart_sectors": 16
      },
      {
        "address": 155,
        "name": "Host vendor specific log",
        "read": true,
        "write": true,
        "gp_sectors": 16,
        "smart_sectors": 16
      },
      {
        "address": 156,
        "name": "Host vendor specific log",
        "read": true,
        "write": true,
        "gp_sectors": 16,
        "smart_sectors": 16
      },
      {
        "address": 157,
        "name": "Host vendor specific log",
        "read": true,
        "write": true,
        "gp_sectors": 16,
        "smart_sectors": 16
      },
      {
        "address": 158,
        "name": "Host vendor specific log",
        "read": true,
        "write": true,
        "gp_sectors": 16,
        "smart_sectors": 16
      },
      {
        "address": 159,
        "name": "Host vendor specific log",
        "read": true,
        "write": true,
        "gp_sectors": 16,
        "smart_sectors": 16
      }
    ]
  },
  "ata_smart_error_log": {
    "extended": {
      "revision": 1,
      "sectors": 5,
      "count": 8,
      "logged_count": 8,
      "table": [
        {
          "error_number": 8,
          "log_index": 7,
          "lifetime_hours": 14506,
          "device_state": {
            "value": 3,
            "string": "active or idle"
          },
          "completion_registers": {
            "error": 16,
            "status": 81,
            "count": 0,
            "lba": 0,
            "device": 224,
            "device_control": 0
          },
          "error_description": "Error: IDNF",
          "previous_commands": [
            {
              "registers": {
                "command": 176,
                "features": 213,
                "count": 1,
                "lba": 12734432,
                "device": 0,
                "device_control": 0
              },
              "powerup_milliseconds": 15080,
              "command_name": "SMART READ LOG"
            },
            {
              "registers": {
                "command": 32,
                "features": 0,
                "count": 1,
                "lba": 0,
                "device": 64,
                "device_control": 64
              },
              "powerup_milliseconds": 15070,
              "command_name": "READ SECTOR(S)"
            },
            {
              "registers": {
                "command": 176,
                "features": 208,
                "count": 1,
                "lba": 12734208,
                "device": 0,
                "device_control": 0
              },
              "powerup_milliseconds": 15070,
              "command_name": "SMART READ DATA"
            },
            {
              "registers": {
                "command": 176,
                "features": 213,
                "count": 1,
                "lba": 12734362,
                "device": 0,
                "device_control": 0
              },
              "powerup_milliseconds": 15070,
              "command_name": "SMART READ LOG"
            },
            {
              "registers": {
                "command": 236,
                "features": 0,
                "count": 1,
                "lba": 0,
                "device": 64,
                "device_control": 64
              },
              "powerup_milliseconds": 15070,
              "command_name": "IDENTIFY DEVICE"
            }
          ]
        },
        {
          "error_number": 7,
          "log_index": 6,
          "lifetime_hours": 11334,
          "device_state": {
            "value": 3,
            "string": "active or idle"
          },
          "completion_registers": {
            "error": 16,
            "status": 81,
            "count": 0,
            "lba": 0,
            "device": 224,
            "device_control": 0
          },
          "error_description": "Error: IDNF",
          "previous_commands": [
            {
              "registers": {
                "command": 176,
                "features": 213,
                "count": 1,
                "lba": 12734432,
                "device": 0,
                "device_control": 0
              },
              "powerup_milliseconds": 14600,
              "command_name": "SMART READ LOG"
            },
            {
              "registers": {
                "command": 32,
                "features": 0,
                "count": 1,
                "lba": 0,
                "device": 64,
                "device_control": 64
              },
              "powerup_milliseconds": 14600,
              "command_name": "READ SECTOR(S)"
            },
            {
              "registers": {
                "command": 176,
                "features": 213,
                "count": 1,
                "lba": 12734362,
                "device": 0,
                "device_control": 0
              },
              "powerup_milliseconds": 14600,
              "command_name": "SMART READ LOG"
            },
            {
              "registers": {
                "command": 236,
                "features": 0,
                "count": 1,
                "lba": 0,
                "device": 64,
                "device_control": 64
              },
              "powerup_milliseconds": 14600,
              "command_name": "IDENTIFY DEVICE"
            },
            {
              "registers": {
                "command": 236,
                "features": 0,
                "count": 0,
                "lba": 0,
                "device": 0,
                "device_control": 0
              },
              "powerup_milliseconds": 13940,
              "command_name": "IDENTIFY DEVICE"
            }
          ]
        },
        {
          "error_number": 6,
          "log_index": 5,
          "lifetime_hours": 11334,
          "device_state": {
            "value": 3,
            "string": "active or idle"
          },
          "completion_registers": {
            "error": 16,
            "status": 81,
            "count": 0,
            "lba": 0,
            "device": 224,
            "device_control": 0
          },
          "error_description": "Error: IDNF",
          "previous_commands": [
            {
              "registers": {
                "command": 176,
                "features": 213,
                "count": 1,
                "lba": 12734432,
                "device": 0,
                "device_control": 0
              },
              "powerup_milliseconds": 13100,
              "command_name": "SMART READ LOG"
            },
            {
              "registers": {
                "command": 32,
                "features": 0,
                "count": 1,
                "lba": 0,
                "device": 64,
                "device_control": 64
              },
              "powerup_milliseconds": 13100,
              "command_name": "READ SECTOR(S)"
            },
            {
              "registers": {
                "command": 176,
                "features": 213,
                "count": 1,
                "lba": 12734362,
                "device": 0,
                "device_control": 0
              },
              "powerup_milliseconds": 13100,
              "command_name": "SMART READ LOG"
            },
            {
              "registers": {
                "command": 236,
                "features": 0,
                "count": 1,
                "lba": 0,
                "device": 64,
                "device_control": 64
              },
              "powerup_milliseconds": 13100,
              "command_name": "IDENTIFY DEVICE"
            },
            {
              "registers": {
                "command": 236,
                "features": 0,
                "count": 0,
                "lba": 0,
                "device": 0,
                "device_control": 0
              },
              "powerup_milliseconds": 12450,
              "command_name": "IDENTIFY DEVICE"
            }
          ]
        },
        {
          "error_number": 5,
          "log_index": 4,
          "lifetime_hours": 11331,
          "device_state": {
            "value": 3,
            "string": "active or idle"
          },
          "completion_registers": {
            "error": 16,
            "status": 81,
            "count": 0,
            "lba": 0,
            "device": 224,
            "device_control": 0
          },
          "error_description": "Error: IDNF",
          "previous_commands": [
            {
              "registers": {
                "command": 176,
                "features": 213,
                "count": 1,
                "lba": 12734432,
                "device": 0,
                "device_control": 0
              },
              "powerup_milliseconds": 14560,
              "command_name": "SMART READ LOG"
            },
            {
              "registers": {
                "command": 32,
                "features": 0,
                "count": 1,
                "lba": 0,
                "device": 64,
                "device_control": 64
              },
              "powerup_milliseconds": 14560,
              "command_name": "READ SECTOR(S)"
            },
            {
              "registers": {
                "command": 176,
                "features": 213,
                "count": 1,
                "lba": 12734362,
                "device": 0,
                "device_control": 0
              },
              "powerup_milliseconds": 14560,
              "command_name": "SMART READ LOG"
            },
            {
              "registers": {
                "command": 236,
                "features": 0,
                "count": 1,
                "lba": 0,
                "device": 64,
                "device_control": 64
              },
              "powerup_milliseconds": 14560,
              "command_name": "IDENTIFY DEVICE"
            },
            {
              "registers": {
                "command": 236,
                "features": 0,
                "count": 1,
                "lba": 0,
                "device": 64,
                "device_control": 64
              },
              "powerup_milliseconds": 13100,
              "command_name": "IDENTIFY DEVICE"
            }
          ]
        },
        {
          "error_number": 4,
          "log_index": 3,
          "lifetime_hours": 11331,
          "device_state": {
            "value": 3,
            "string": "active or idle"
          },
          "completion_registers": {
            "error": 16,
            "status": 81,
            "count": 0,
            "lba": 0,
            "device": 224,
            "device_control": 0
          },
          "error_description": "Error: IDNF",
          "previous_commands": [
            {
              "registers": {
                "command": 176,
                "features": 213,
                "count": 1,
                "lba": 12734432,
                "device": 0,
                "device_control": 0
              },
              "powerup_milliseconds": 14910,
              "command_name": "SMART READ LOG"
            },
            {
              "registers": {
                "command": 32,
                "features": 0,
                "count": 1,
                "lba": 0,
                "device": 64,
                "device_control": 64
              },
              "powerup_milliseconds": 14910,
              "command_name": "READ SECTOR(S)"
            },
            {
              "registers": {
                "command": 176,
                "features": 213,
                "count": 1,
                "lba": 12734362,
                "device": 0,
                "device_control": 0
              },
              "powerup_milliseconds": 14910,
              "command_name": "SMART READ LOG"
            },
            {
              "registers": {
                "command": 236,
                "features": 0,
                "count": 1,
                "lba": 0,
                "device": 64,
                "device_control": 64
              },
              "powerup_milliseconds": 14910,
              "command_name": "IDENTIFY DEVICE"
            },
            {
              "registers": {
                "command": 236,
                "features": 0,
                "count": 1,
                "lba": 0,
                "device": 64,
                "device_control": 64
              },
              "powerup_milliseconds": 11740,
              "command_name": "IDENTIFY DEVICE"
            }
          ]
        },
        {
          "error_number": 3,
          "log_index": 2,
          "lifetime_hours": 11331,
          "device_state": {
            "value": 3,
            "string": "active or idle"
          },
          "completion_registers": {
            "error": 16,
            "status": 81,
            "count": 0,
            "lba": 0,
            "device": 224,
            "device_control": 0
          },
          "error_description": "Error: IDNF",
          "previous_commands": [
            {
              "registers": {
                "command": 176,
                "features": 213,
                "count": 1,
                "lba": 12734432,
                "device": 0,
                "device_control": 0
              },
              "powerup_milliseconds": 36180,
              "command_name": "SMART READ LOG"
            },
            {
              "registers": {
                "command": 32,
                "features": 0,
                "count": 1,
                "lba": 0,
                "device": 64,
                "device_control": 64
              },
              "powerup_milliseconds": 36180,
              "command_name": "READ SECTOR(S)"
            },
            {
              "registers": {
                "command": 176,
                "features": 213,
                "count": 1,
                "lba": 12734362,
                "device": 0,
                "device_control": 0
              },
              "powerup_milliseconds": 36180,
              "command_name": "SMART READ LOG"
            },
            {
              "registers": {
                "command": 236,
                "features": 0,
                "count": 1,
                "lba": 0,
                "device": 64,
                "device_control": 64
              },
              "powerup_milliseconds": 36180,
              "command_name": "IDENTIFY DEVICE"
            },
            {
              "registers": {
                "command": 236,
                "features": 0,
                "count": 1,
                "lba": 0,
                "device": 64,
                "device_control": 64
              },
              "powerup_milliseconds": 26600,
              "command_name": "IDENTIFY DEVICE"
            }
          ]
        },
        {
          "error_number": 2,
          "log_index": 1,
          "lifetime_hours": 1171,
          "device_state": {
            "value": 3,
            "string": "active or idle"
          },
          "completion_registers": {
            "error": 16,
            "status": 81,
            "count": 0,
            "lba": 0,
            "device": 224,
            "device_control": 0
          },
          "error_description": "Error: IDNF",
          "previous_commands": [
            {
              "registers": {
                "command": 176,
                "features": 213,
                "count": 1,
                "lba": 12734432,
                "device": 0,
                "device_control": 0
              },
              "powerup_milliseconds": 22190,
              "command_name": "SMART READ LOG"
            },
            {
              "registers": {
                "command": 32,
                "features": 0,
                "count": 1,
                "lba": 0,
                "device": 64,
                "device_control": 64
              },
              "powerup_milliseconds": 22190,
              "command_name": "READ SECTOR(S)"
            },
            {
              "registers": {
                "command": 176,
                "features": 213,
                "count": 1,
                "lba": 12734362,
                "device": 0,
                "device_control": 0
              },
              "powerup_milliseconds": 22190,
              "command_name": "SMART READ LOG"
            },
            {
              "registers": {
                "command": 236,
                "features": 0,
                "count": 1,
                "lba": 0,
                "device": 64,
                "device_control": 64
              },
              "powerup_milliseconds": 22190,
              "command_name": "IDENTIFY DEVICE"
            },
            {
              "registers": {
                "command": 236,
                "features": 0,
                "count": 1,
                "lba": 0,
                "device": 64,
                "device_control": 64
              },
              "powerup_milliseconds": 19800,
              "command_name": "IDENTIFY DEVICE"
            }
          ]
        },
        {
          "error_number": 1,
          "log_index": 0,
          "lifetime_hours": 1014,
          "device_state": {
            "value": 3,
            "string": "active or idle"
          },
          "completion_registers": {
            "error": 16,
            "status": 81,
            "count": 0,
            "lba": 0,
            "device": 224,
            "device_control": 0
          },
          "error_description": "Error: IDNF",
          "previous_commands": [
            {
              "registers": {
                "command": 176,
                "features": 213,
                "count": 1,
                "lba": 12734432,
                "device": 0,
                "device_control": 0
              },
              "powerup_milliseconds": 14250,
              "command_name": "SMART READ LOG"
            },
            {
              "registers": {
                "command": 32,
                "features": 0,
                "count": 1,
                "lba": 0,
                "device": 64,
                "device_control": 64
              },
              "powerup_milliseconds": 14250,
              "command_name": "READ SECTOR(S)"
            },
            {
              "registers": {
                "command": 176,
                "features": 213,
                "count": 1,
                "lba": 12734362,
                "device": 0,
                "device_control": 0
              },
              "powerup_milliseconds": 14250,
              "command_name": "SMART READ LOG"
            },
            {
              "registers": {
                "command": 236,
                "features": 0,
                "count": 1,
                "lba": 0,
                "device": 64,
                "device_control": 64
              },
              "powerup_milliseconds": 14250,
              "command_name": "IDENTIFY DEVICE"
            },
            {
              "registers": {
                "command": 236,
                "features": 0,
                "count": 1,
                "lba": 0,
                "device": 64,
                "device_control": 64
              },
              "powerup_milliseconds": 11760,
              "command_name": "IDENTIFY DEVICE"
            }
          ]
        }
      ]
    }
  },
  "ata_smart_self_test_log": {
    "extended": {
      "revision": 1,
      "sectors": 2,
      "table": [
        {
          "type": {
            "value": 1,
            "string": "Short offline"
          },
          "status": {
            "value": 22,
            "string": "Aborted by host",
            "remaining_percent": 60
          },
          "lifetime_hours": 11334
        },
        {
          "type": {
            "value": 1,
            "string": "Short offline"
          },
          "status": {
            "value": 0,
            "string": "Completed without error",
            "passed": true
          },
          "lifetime_hours": 11334
        },
        {
          "type": {
            "value": 2,
            "string": "Extended offline"
          },
          "status": {
            "value": 0,
            "string": "Completed without error",
            "passed": true
          },
          "lifetime_hours": 1171
        },
        {
          "type": {
            "value": 1,
            "string": "Short offline"
          },
          "status": {
            "value": 0,
            "string": "Completed without error",
            "passed": true
          },
          "lifetime_hours": 1171
        },
        {
          "type": {
            "value": 1,
            "string": "Short offline"
          },
          "status": {
            "value": 0,
            "string": "Completed without error",
            "passed": true
          },
          "lifetime_hours": 1014
        },
        {
          "type": {
            "value": 1,
            "string": "Short offline"
          },
          "status": {
            "value": 0,
            "string": "Completed without error",
            "passed": true
          },
          "lifetime_hours": 10
        },
        {
          "type": {
            "value": 1,
            "string": "Short offline"
          },
          "status": {
            "value": 0,
            "string": "Completed without error",
            "passed": true
          },
          "lifetime_hours": 8
        }
      ],
      "count": 7,
      "error_count_total": 0,
      "error_count_outdated": 0
    }
  },
  "sata_phy_event_counters": {
    "table": [
      {
        "id": 1,
        "name": "Command failed due to ICRC error",
        "size": 2,
        "value": 0,
        "overflow": false
      },
      {
        "id": 10,
        "name": "Device-to-host register FISes sent due to a COMRESET",
        "size": 2,
        "value": 1,
        "overflow": false
      }
    ],
    "reset": false
  }
}
