{
  "json_format_version": [
    1,
    0
  ],
  "smartctl": {
    "version": [
      7,
      2
    ],
    "svn_revision": "5155",
    "platform_info": "x86_64-linux-5.11.0-25-generic",
    "build_info": "(local build)",
    "argv": [
      "smartctl",
      "-jx",
      "/dev/sdb"
    ],
    "exit_status": 64
  },
  "device": {
    "name": "/dev/sdb",
    "info_name": "/dev/sdb [SAT]",
    "type": "sat",
    "protocol": "ATA"
  },
  "model_family": "Toshiba 2.5\" HDD MQ01ABF...",
  "model_name": "TOSHIBA MQ01ABF050",
  "serial_number": "Z69KPO6JT",
  "wwn": {
    "naa": 5,
    "oui": 57,
    "id": 31988920662
  },
  "firmware_version": "AM0P4C",
  "user_capacity": {
    "blocks": 976773168,
    "bytes": 500107862016
  },
  "logical_block_size": 512,
  "physical_block_size": 4096,
  "rotation_rate": 5400,
  "form_factor": {
    "ata_value": 3,
    "name": "2.5 inches"
  },
  "trim": {
    "supported": false
  },
  "in_smartctl_database": true,
  "ata_version": {
    "string": "ATA8-ACS (minor revision not indicated)",
    "major_value": 504,
    "minor_value": 0
  },
  "sata_version": {
    "string": "SATA 3.0",
    "value": 63
  },
  "interface_speed": {
    "max": {
      "sata_value": 14,
      "string": "6.0 Gb/s",
      "units_per_second": 60,
      "bits_per_unit": 100000000
    },
    "current": {
      "sata_value": 3,
      "string": "6.0 Gb/s",
      "units_per_second": 60,
      "bits_per_unit": 100000000
    }
  },
  "local_time": {
    "time_t": 1629058173,
    "asctime": "Sun Aug 15 14:09:33 2021 MDT"
  },
  "ata_apm": {
    "enabled": true,
    "level": 254,
    "string": "maximum performance",
    "max_performance": true,
    "min_power": false,
    "with_standby": false
  },
  "read_lookahead": {
    "enabled": true
  },
  "write_cache": {
    "enabled": true
  },
  "ata_security": {
    "state": 33,
    "string": "Disabled, NOT FROZEN [SEC1]",
    "enabled": false,
    "frozen": false
  },
  "smart_status": {
    "passed": true
  },
  "ata_smart_data": {
    "offline_data_collection": {
      "status": {
        "value": 128,
        "string": "was never started"
      },
      "completion_seconds": 120
    },
    "self_test": {
      "status": {
        "value": 0,
        "string": "completed without error",
        "passed": true
      },
      "polling_minutes": {
        "short": 2,
        "extended": 98
      }
    },
    "capabilities": {
      "values": [
        81,
        3
      ],
      "exec_offline_immediate_supported": true,
      "offline_is_aborted_upon_new_cmd": false,
      "offline_surface_scan_supported": false,
      "self_tests_supported": true,
      "conveyance_self_test_supported": false,
      "selective_self_test_supported": true,
      "attribute_autosave_enabled": true,
      "error_logging_supported": true,
      "gp_logging_supported": true
    }
  },
  "ata_sct_capabilities": {
    "value": 61,
    "error_recovery_control_supported": true,
    "feature_control_supported": true,
    "data_table_supported": true
  },
  "ata_smart_attributes": {
    "revision": 16,
    "table": [
      {
        "id": 1,
        "name": "Raw_Read_Error_Rate",
        "value": 97,
        "worst": 95,
        "thresh": 50,
        "when_failed": "",
        "flags": {
          "value": 47,
          "string": "POSR-K ",
          "prefailure": true,
          "updated_online": true,
          "performance": true,
          "error_rate": true,
          "event_count": false,
          "auto_keep": true
        },
        "raw": {
          "value": 0,
          "string": "0"
        }
      },
      {
        "id": 2,
        "name": "Throughput_Performance",
        "value": 100,
        "worst": 100,
        "thresh": 50,
        "when_failed": "",
        "flags": {
          "value": 39,
          "string": "POS--K ",
          "prefailure": true,
          "updated_online": true,
          "performance": true,
          "error_rate": false,
          "event_count": false,
          "auto_keep": true
        },
        "raw": {
          "value": 0,
          "string": "0"
        }
      },
      {
        "id": 3,
        "name": "Spin_Up_Time",
        "value": 100,
        "worst": 100,
        "thresh": 2,
        "when_failed": "",
        "flags": {
          "value": 35,
          "string": "PO---K ",
          "prefailure": true,
          "updated_online": true,
          "performance": false,
          "error_rate": false,
          "event_count": false,
          "auto_keep": true
        },
        "raw": {
          "value": 1331,
          "string": "1331"
        }
      },
      {
        "id": 4,
        "name": "Start_Stop_Count",
        "value": 100,
        "worst": 100,
        "thresh": 0,
        "when_failed": "",
        "flags": {
          "value": 50,
          "string": "-O--CK ",
          "prefailure": false,
          "updated_online": true,
          "performance": false,
          "error_rate": false,
          "event_count": true,
          "auto_keep": true
        },
        "raw": {
          "value": 35,
          "string": "35"
        }
      },
      {
        "id": 5,
        "name": "Reallocated_Sector_Ct",
        "value": 16,
        "worst": 16,
        "thresh": 10,
        "when_failed": "",
        "flags": {
          "value": 51,
          "string": "PO--CK ",
          "prefailure": true,
          "updated_online": true,
          "performance": false,
          "error_rate": false,
          "event_count": true,
          "auto_keep": true
        },
        "raw": {
          "value": 13800,
          "string": "13800"
        }
      },
      {
        "id": 7,
        "name": "Seek_Error_Rate",
        "value": 100,
        "worst": 100,
        "thresh": 50,
        "when_failed": "",
        "flags": {
          "value": 47,
          "string": "POSR-K ",
          "prefailure": true,
          "updated_online": true,
          "performance": true,
          "error_rate": true,
          "event_count": false,
          "auto_keep": true
        },
        "raw": {
          "value": 0,
          "string": "0"
        }
      },
      {
        "id": 8,
        "name": "Seek_Time_Performance",
        "value": 100,
        "worst": 100,
        "thresh": 50,
        "when_failed": "",
        "flags": {
          "value": 37,
          "string": "P-S--K ",
          "prefailure": true,
          "updated_online": false,
          "performance": true,
          "error_rate": false,
          "event_count": false,
          "auto_keep": true
        },
        "raw": {
          "value": 0,
          "string": "0"
        }
      },
      {
        "id": 9,
        "name": "Power_On_Hours",
        "value": 100,
        "worst": 100,
        "thresh": 0,
        "when_failed": "",
        "flags": {
          "value": 50,
          "string": "-O--CK ",
          "prefailure": false,
          "updated_online": true,
          "performance": false,
          "error_rate": false,
          "event_count": true,
          "auto_keep": true
        },
        "raw": {
          "value": 12,
          "string": "12"
        }
      },
      {
        "id": 10,
        "name": "Spin_Retry_Count",
        "value": 100,
        "worst": 100,
        "thresh": 30,
        "when_failed": "",
        "flags": {
          "value": 51,
          "string": "PO--CK ",
          "prefailure": true,
          "updated_online": true,
          "performance": false,
          "error_rate": false,
          "event_count": true,
          "auto_keep": true
        },
        "raw": {
          "value": 0,
          "string": "0"
        }
      },
      {
        "id": 12,
        "name": "Power_Cycle_Count",
        "value": 100,
        "worst": 100,
        "thresh": 0,
        "when_failed": "",
        "flags": {
          "value": 50,
          "string": "-O--CK ",
          "prefailure": false,
          "updated_online": true,
          "performance": false,
          "error_rate": false,
          "event_count": true,
          "auto_keep": true
        },
        "raw": {
          "value": 35,
          "string": "35"
        }
      },
      {
        "id": 183,
        "name": "Runtime_Bad_Block",
        "value": 100,
        "worst": 100,
        "thresh": 1,
        "when_failed": "",
        "flags": {
          "value": 50,
          "string": "-O--CK ",
          "prefailure": false,
          "updated_online": true,
          "performance": false,
          "error_rate": false,
          "event_count": true,
          "auto_keep": true
        },
        "raw": {
          "value": 69,
          "string": "69"
        }
      },
      {
        "id": 184,
        "name": "End-to-End_Error",
        "value": 100,
        "worst": 100,
        "thresh": 97,
        "when_failed": "",
        "flags": {
          "value": 51,
          "string": "PO--CK ",
          "prefailure": true,
          "updated_online": true,
          "performance": false,
          "error_rate": false,
          "event_count": true,
          "auto_keep": true
        },
        "raw": {
          "value": 0,
          "string": "0"
        }
      },
      {
        "id": 185,
        "name": "Unknown_Attribute",
        "value": 100,
        "worst": 100,
        "thresh": 1,
        "when_failed": "",
        "flags": {
          "value": 50,
          "string": "-O--CK ",
          "prefailure": false,
          "updated_online": true,
          "performance": false,
          "error_rate": false,
          "event_count": true,
          "auto_keep": true
        },
        "raw": {
          "value": 55,
          "string": "55"
        }
      },
      {
        "id": 187,
        "name": "Reported_Uncorrect",
        "value": 41,
        "worst": 41,
        "thresh": 0,
        "when_failed": "",
        "flags": {
          "value": 50,
          "string": "-O--CK ",
          "prefailure": false,
          "updated_online": true,
          "performance": false,
          "error_rate": false,
          "event_count": true,
          "auto_keep": true
        },
        "raw": {
          "value": 59,
          "string": "59"
        }
      },
      {
        "id": 188,
        "name": "Command_Timeout",
        "value": 100,
        "worst": 100,
        "thresh": 0,
        "when_failed": "",
        "flags": {
          "value": 50,
          "string": "-O--CK ",
          "prefailure": false,
          "updated_online": true,
          "performance": false,
          "error_rate": false,
          "event_count": true,
          "auto_keep": true
        },
        "raw": {
          "value": 0,
          "string": "0"
        }
      },
      {
        "id": 189,
        "name": "High_Fly_Writes",
        "value": 100,
        "worst": 100,
        "thresh": 1,
        "when_failed": "",
        "flags": {
          "value": 58,
          "string": "-O-RCK ",
          "prefailure": false,
          "updated_online": true,
          "performance": false,
          "error_rate": true,
          "event_count": true,
          "auto_keep": true
        },
        "raw": {
          "value": 0,
          "string": "0"
        }
      },
      {
        "id": 190,
        "name": "Airflow_Temperature_Cel",
        "value": 77,
        "worst": 66,
        "thresh": 40,
        "when_failed": "",
        "flags": {
          "value": 34,
          "string": "-O---K ",
          "prefailure": false,
          "updated_online": true,
          "performance": false,
          "error_rate": false,
          "event_count": false,
          "auto_keep": true
        },
        "raw": {
          "value": 387317783,
          "string": "23 (Min/Max 22/23)"
        }
      },
      {
        "id": 191,
        "name": "G-Sense_Error_Rate",
        "value": 100,
        "worst": 100,
        "thresh": 0,
        "when_failed": "",
        "flags": {
          "value": 50,
          "string": "-O--CK ",
          "prefailure": false,
          "updated_online": true,
          "performance": false,
          "error_rate": false,
          "event_count": true,
          "auto_keep": true
        },
        "raw": {
          "value": 0,
          "string": "0"
        }
      },
      {
        "id": 192,
        "name": "Power-Off_Retract_Count",
        "value": 100,
        "worst": 100,
        "thresh": 0,
        "when_failed": "",
        "flags": {
          "value": 34,
          "string": "-O---K ",
          "prefailure": false,
          "updated_online": true,
          "performance": false,
          "error_rate": false,
          "event_count": false,
          "auto_keep": true
        },
        "raw": {
          "value": 2228258,
          "string": "2228258"
        }
      },
      {
        "id": 193,
        "name": "Load_Cycle_Count",
        "value": 100,
        "worst": 100,
        "thresh": 0,
        "when_failed": "",
        "flags": {
          "value": 50,
          "string": "-O--CK ",
          "prefailure": false,
          "updated_online": true,
          "performance": false,
          "error_rate": false,
          "event_count": true,
          "auto_keep": true
        },
        "raw": {
          "value": 35,
          "string": "35"
        }
      },
      {
        "id": 194,
        "name": "Temperature_Celsius",
        "value": 77,
        "worst": 66,
        "thresh": 40,
        "when_failed": "",
        "flags": {
          "value": 34,
          "string": "-O---K ",
          "prefailure": false,
          "updated_online": true,
          "performance": false,
          "error_rate": false,
          "event_count": false,
          "auto_keep": true
        },
        "raw": {
          "value": 387317783,
          "string": "23 (Min/Max 22/23)"
        }
      },
      {
        "id": 196,
        "name": "Reallocated_Event_Count",
        "value": 100,
        "worst": 100,
        "thresh": 0,
        "when_failed": "",
        "flags": {
          "value": 50,
          "string": "-O--CK ",
          "prefailure": false,
          "updated_online": true,
          "performance": false,
          "error_rate": false,
          "event_count": true,
          "auto_keep": true
        },
        "raw": {
          "value": 1298,
          "string": "1298"
        }
      },
      {
        "id": 197,
        "name": "Current_Pending_Sector",
        "value": 100,
        "worst": 100,
        "thresh": 0,
        "when_failed": "",
        "flags": {
          "value": 50,
          "string": "-O--CK ",
          "prefailure": false,
          "updated_online": true,
          "performance": false,
          "error_rate": false,
          "event_count": true,
          "auto_keep": true
        },
        "raw": {
          "value": 0,
          "string": "0"
        }
      },
      {
        "id": 199,
        "name": "UDMA_CRC_Error_Count",
        "value": 200,
        "worst": 253,
        "thresh": 0,
        "when_failed": "",
        "flags": {
          "value": 50,
          "string": "-O--CK ",
          "prefailure": false,
          "updated_online": true,
          "performance": false,
          "error_rate": false,
          "event_count": true,
          "auto_keep": true
        },
        "raw": {
          "value": 0,
          "string": "0"
        }
      }
    ]
  },
  "power_on_time": {
    "hours": 12
  },
  "power_cycle_count": 35,
  "temperature": {
    "current": 23,
    "power_cycle_min": 22,
    "power_cycle_max": 23,
    "lifetime_min": 22,
    "lifetime_max": 34,
    "op_limit_min": 0,
    "op_limit_max": 60,
    "limit_min": 0,
    "limit_max": 60,
    "lifetime_over_limit_minutes": 0,
    "lifetime_under_limit_minutes": 0
  },
  "ata_log_directory": {
    "gp_dir_version": 1,
    "smart_dir_version": 1,
    "smart_dir_multi_sector": true,
    "table": [
      {
        "address": 0,
        "name": "Log Directory",
        "read": true,
        "write": false,
        "gp_sectors": 1,
        "smart_sectors": 1
      },
      {
        "address": 1,
        "name": "Summary SMART error log",
        "read": true,
        "write": false,
        "smart_sectors": 1
      },
      {
        "address": 2,
        "name": "Comprehensive SMART error log",
        "read": true,
        "write": false,
        "smart_sectors": 51
      },
      {
        "address": 3,
        "name": "Ext. Comprehensive SMART error log",
        "read": true,
        "write": false,
        "gp_sectors": 64
      },
      {
        "address": 4,
        "name": "Device Statistics log",
        "read": true,
        "write": false,
        "gp_sectors": 8,
        "smart_sectors": 8
      },
      {
        "address": 6,
        "name": "SMART self-test log",
        "read": true,
        "write": false,
        "smart_sectors": 1
      },
      {
        "address": 7,
        "name": "Extended self-test log",
        "read": true,
        "write": false,
        "gp_sectors": 1
      },
      {
        "address": 9,
        "name": "Selective self-test log",
        "read": true,
        "write": true,
        "smart_sectors": 1
      },
      {
        "address": 16,
        "name": "NCQ Command Error log",
        "read": true,
        "write": false,
        "gp_sectors": 1
      },
      {
        "address": 17,
        "name": "SATA Phy Event Counters log",
        "read": true,
        "write": false,
        "gp_sectors": 1
      },
      {
        "address": 128,
        "name": "Host vendor specific log",
        "read": true,
        "write": true,
        "gp_sectors": 16,
        "smart_sectors": 16
      },
      {
        "address": 129,
        "name": "Host vendor specific log",
        "read": true,
        "write": true,
        "gp_sectors": 16,
        "smart_sectors": 16
      },
      {
        "address": 130,
        "name": "Host vendor specific log",
        "read": true,
        "write": true,
        "gp_sectors": 16,
        "smart_sectors": 16
      },
      {
        "address": 131,
        "name": "Host vendor specific log",
        "read": true,
        "write": true,
        "gp_sectors": 16,
        "smart_sectors": 16
      },
      {
        "address": 132,
        "name": "Host vendor specific log",
        "read": true,
        "write": true,
        "gp_sectors": 16,
        "smart_sectors": 16
      },
      {
        "address": 133,
        "name": "Host vendor specific log",
        "read": true,
        "write": true,
        "gp_sectors": 16,
        "smart_sectors": 16
      },
      {
        "address": 134,
        "name": "Host vendor specific log",
        "read": true,
        "write": true,
        "gp_sectors": 16,
        "smart_sectors": 16
      },
      {
        "address": 135,
        "name": "Host vendor specific log",
        "read": true,
        "write": true,
        "gp_sectors": 16,
        "smart_sectors": 16
      },
      {
        "address": 136,
        "name": "Host vendor specific log",
        "read": true,
        "write": true,
        "gp_sectors": 16,
        "smart_sectors": 16
      },
      {
        "address": 137,
        "name": "Host vendor specific log",
        "read": true,
        "write": true,
        "gp_sectors": 16,
        "smart_sectors": 16
      },
      {
        "address": 138,
        "name": "Host vendor specific log",
        "read": true,
        "write": true,
        "gp_sectors": 16,
        "smart_sectors": 16
      },
      {
        "address": 139,
        "name": "Host vendor specific log",
        "read": true,
        "write": true,
        "gp_sectors": 16,
        "smart_sectors": 16
      },
      {
        "address": 140,
        "name": "Host vendor specific log",
        "read": true,
        "write": true,
        "gp_sectors": 16,
        "smart_sectors": 16
      },
      {
        "address": 141,
        "name": "Host vendor specific log",
        "read": true,
        "write": true,
        "gp_sectors": 16,
        "smart_sectors": 16
      },
      {
        "address": 142,
        "name": "Host vendor specific log",
        "read": true,
        "write": true,
        "gp_sectors": 16,
        "smart_sectors": 16
      },
      {
        "address": 143,
        "name": "Host vendor specific log",
        "read": true,
        "write": true,
        "gp_sectors": 16,
        "smart_sectors": 16
      },
      {
        "address": 144,
        "name": "Host vendor specific log",
        "read": true,
        "write": true,
        "gp_sectors": 16,
        "smart_sectors": 16
      },
      {
        "address": 145,
        "name": "Host vendor specific log",
        "read": true,
        "write": true,
        "gp_sectors": 16,
        "smart_sectors": 16
      },
      {
        "address": 146,
        "name": "Host vendor specific log",
        "read": true,
        "write": true,
        "gp_sectors": 16,
        "smart_sectors": 16
      },
      {
        "address": 147,
        "name": "Host vendor specific log",
        "read": true,
        "write": true,
        "gp_sectors": 16,
        "smart_sectors": 16
      },
      {
        "address": 148,
        "name": "Host vendor specific log",
        "read": true,
        "write": true,
        "gp_sectors": 16,
        "smart_sectors": 16
      },
      {
        "address": 149,
        "name": "Host vendor specific log",
        "read": true,
        "write": true,
        "gp_sectors": 16,
        "smart_sectors": 16
      },
      {
        "address": 150,
        "name": "Host vendor specific log",
        "read": true,
        "write": true,
        "gp_sectors": 16,
        "smart_sectors": 16
      },
      {
        "address": 151,
        "name": "Host vendor specific log",
        "read": true,
        "write": true,
        "gp_sectors": 16,
        "smart_sectors": 16
      },
      {
        "address": 152,
        "name": "Host vendor specific log",
        "read": true,
        "write": true,
        "gp_sectors": 16,
        "smart_sectors": 16
      },
      {
        "address": 153,
        "name": "Host vendor specific log",
        "read": true,
        "write": true,
        "gp_sectors": 16,
        "smart_sectors": 16
      },
      {
        "address": 154,
        "name": "Host vendor specific log",
        "read": true,
        "write": true,
        "gp_sectors": 16,
        "smart_sectors": 16
      },
      {
        "address": 155,
        "name": "Host vendor specific log",
        "read": true,
        "write": true,
        "gp_sectors": 16,
        "smart_sectors": 16
      },
      {
        "address": 156,
        "name": "Host vendor specific log",
        "read": true,
        "write": true,
        "gp_sectors": 16,
        "smart_sectors": 16
      },
      {
        "address": 157,
        "name": "Host vendor specific log",
        "read": true,
        "write": true,
        "gp_sectors": 16,
        "smart_sectors": 16
      },
      {
        "address": 158,
        "name": "Host vendor specific log",
        "read": true,
        "write": true,
        "gp_sectors": 16,
        "smart_sectors": 16
      },
      {
        "address": 159,
        "name": "Host vendor specific log",
        "read": true,
        "write": true,
        "gp_sectors": 16,
        "smart_sectors": 16
      },
      {
        "address": 224,
        "name": "SCT Command/Status",
        "read": true,
        "write": true,
        "gp_sectors": 1,
        "smart_sectors": 1
      },
      {
        "address": 225,
        "name": "SCT Data Transfer",
        "read": true,
        "write": true,
        "gp_sectors": 1,
        "smart_sectors": 1
      }
    ]
  },
  "ata_smart_error_log": {
    "extended": {
      "revision": 1,
      "sectors": 64,
      "count": 59,
      "logged_count": 59,
      "table": [
        {
          "error_number": 59,
          "log_index": 58,
          "lifetime_hours": 12,
          "device_state": {
            "value": 3,
            "string": "active or idle"
          },
          "completion_registers": {
            "error": 64,
            "status": 81,
            "count": 0,
            "lba": 394691968,
            "device": 231,
            "device_control": 0
          },
          "error_description": "Error: UNC at LBA = 0x17868580 = 394691968",
          "previous_commands": [
            {
              "registers": {
                "command": 66,
                "features": 0,
                "count": 256,
                "lba": 394691840,
                "device": 231,
                "device_control": 0
              },
              "powerup_milliseconds": 386911,
              "command_name": "READ VERIFY SECTOR(S) EXT"
            },
            {
              "registers": {
                "command": 66,
                "features": 0,
                "count": 256,
                "lba": 394691584,
                "device": 231,
                "device_control": 0
              },
              "powerup_milliseconds": 386889,
              "command_name": "READ VERIFY SECTOR(S) EXT"
            },
            {
              "registers": {
                "command": 66,
                "features": 0,
                "count": 256,
                "lba": 394691328,
                "device": 231,
                "device_control": 0
              },
              "powerup_milliseconds": 386866,
              "command_name": "READ VERIFY SECTOR(S) EXT"
            },
            {
              "registers": {
                "command": 66,
                "features": 0,
                "count": 256,
                "lba": 394691072,
                "device": 231,
                "device_control": 0
              },
              "powerup_milliseconds": 386765,
              "command_name": "READ VERIFY SECTOR(S) EXT"
            },
            {
              "registers": {
                "command": 66,
                "features": 0,
                "count": 256,
                "lba": 394690816,
                "device": 231,
                "device_control": 0
              },
              "powerup_milliseconds": 386664,
              "command_name": "READ VERIFY SECTOR(S) EXT"
            }
          ]
        },
        {
          "error_number": 58,
          "log_index": 57,
          "lifetime_hours": 12,
          "device_state": {
            "value": 3,
            "string": "active or idle"
          },
          "completion_registers": {
            "error": 64,
            "status": 81,
            "count": 0,
            "lba": 393776864,
            "device": 231,
            "device_control": 0
          },
          "error_description": "Error: UNC at LBA = 0x17788ee0 = 393776864",
          "previous_commands": [
            {
              "registers": {
                "command": 66,
                "features": 0,
                "count": 256,
                "lba": 393776640,
                "device": 231,
                "device_control": 0
              },
              "powerup_milliseconds": 1381405,
              "command_name": "READ VERIFY SECTOR(S) EXT"
            },
            {
              "registers": {
                "command": 66,
                "features": 0,
                "count": 256,
                "lba": 393776384,
                "device": 231,
                "device_control": 0
              },
              "powerup_milliseconds": 1370776,
              "command_name": "READ VERIFY SECTOR(S) EXT"
            },
            {
              "registers": {
                "command": 66,
                "features": 0,
                "count": 256,
                "lba": 393776128,
                "device": 231,
                "device_control": 0
              },
              "powerup_milliseconds": 1370775,
              "command_name": "READ VERIFY SECTOR(S) EXT"
            },
            {
              "registers": {
                "command": 66,
                "features": 0,
                "count": 256,
                "lba": 393775872,
                "device": 231,
                "device_control": 0
              },
              "powerup_milliseconds": 1370774,
              "command_name": "READ VERIFY SECTOR(S) EXT"
            },
            {
              "registers": {
                "command": 66,
                "features": 0,
                "count": 256,
                "lba": 393775616,
                "device": 231,
                "device_control": 0
              },
              "powerup_milliseconds": 1370772,
              "command_name": "READ VERIFY SECTOR(S) EXT"
            }
          ]
        },
        {
          "error_number": 57,
          "log_index": 56,
          "lifetime_hours": 12,
          "device_state": {
            "value": 3,
            "string": "active or idle"
          },
          "completion_registers": {
            "error": 64,
            "status": 81,
            "count": 0,
            "lba": 390727000,
            "device": 231,
            "device_control": 0
          },
          "error_description": "Error: UNC at LBA = 0x174a0558 = 390727000",
          "previous_commands": [
            {
              "registers": {
                "command": 66,
                "features": 0,
                "count": 256,
                "lba": 390726912,
                "device": 231,
                "device_control": 0
              },
              "powerup_milliseconds": 766487,
              "command_name": "READ VERIFY SECTOR(S) EXT"
            },
            {
              "registers": {
                "command": 66,
                "features": 0,
                "count": 256,
                "lba": 390726656,
                "device": 231,
                "device_control": 0
              },
              "powerup_milliseconds": 762053,
              "command_name": "READ VERIFY SECTOR(S) EXT"
            },
            {
              "registers": {
                "command": 66,
                "features": 0,
                "count": 256,
                "lba": 390726400,
                "device": 231,
                "device_control": 0
              },
              "powerup_milliseconds": 761907,
              "command_name": "READ VERIFY SECTOR(S) EXT"
            },
            {
              "registers": {
                "command": 66,
                "features": 0,
                "count": 256,
                "lba": 390726144,
                "device": 231,
                "device_control": 0
              },
              "powerup_milliseconds": 761804,
              "command_name": "READ VERIFY SECTOR(S) EXT"
            },
            {
              "registers": {
                "command": 66,
                "features": 0,
                "count": 256,
                "lba": 390725888,
                "device": 231,
                "device_control": 0
              },
              "powerup_milliseconds": 761781,
              "command_name": "READ VERIFY SECTOR(S) EXT"
            }
          ]
        },
        {
          "error_number": 56,
          "log_index": 55,
          "lifetime_hours": 11,
          "device_state": {
            "value": 3,
            "string": "active or idle"
          },
          "completion_registers": {
            "error": 64,
            "status": 81,
            "count": 0,
            "lba": 387531776,
            "device": 231,
            "device_control": 0
          },
          "error_description": "Error: UNC at LBA = 0x17194400 = 387531776",
          "previous_commands": [
            {
              "registers": {
                "command": 66,
                "features": 0,
                "count": 256,
                "lba": 387531776,
                "device": 231,
                "device_control": 0
              },
              "powerup_milliseconds": 3527801,
              "command_name": "READ VERIFY SECTOR(S) EXT"
            },
            {
              "registers": {
                "command": 255,
                "features": 65535,
                "count": 65535,
                "lba": 281474976710655,
                "device": 255,
                "device_control": 12
              },
              "powerup_milliseconds": 3527798,
              "command_name": "[VENDOR SPECIFIC]"
            },
            {
              "registers": {
                "command": 52,
                "features": 0,
                "count": 256,
                "lba": 387531776,
                "device": 231,
                "device_control": 0
              },
              "powerup_milliseconds": 3527640,
              "command_name": "WRITE SECTORS(S) EXT"
            },
            {
              "registers": {
                "command": 255,
                "features": 65535,
                "count": 65535,
                "lba": 281474976710655,
                "device": 255,
                "device_control": 12
              },
              "powerup_milliseconds": 3527637,
              "command_name": "[VENDOR SPECIFIC]"
            },
            {
              "registers": {
                "command": 52,
                "features": 0,
                "count": 256,
                "lba": 387531776,
                "device": 231,
                "device_control": 0
              },
              "powerup_milliseconds": 3527270,
              "command_name": "WRITE SECTORS(S) EXT"
            }
          ]
        },
        {
          "error_number": 55,
          "log_index": 54,
          "lifetime_hours": 11,
          "device_state": {
            "value": 3,
            "string": "active or idle"
          },
          "completion_registers": {
            "error": 64,
            "status": 81,
            "count": 0,
            "lba": 387532008,
            "device": 231,
            "device_control": 0
          },
          "error_description": "Error: UNC at LBA = 0x171944e8 = 387532008",
          "previous_commands": [
            {
              "registers": {
                "command": 66,
                "features": 0,
                "count": 256,
                "lba": 387531776,
                "device": 231,
                "device_control": 0
              },
              "powerup_milliseconds": 3518941,
              "command_name": "READ VERIFY SECTOR(S) EXT"
            },
            {
              "registers": {
                "command": 66,
                "features": 0,
                "count": 256,
                "lba": 387531520,
                "device": 231,
                "device_control": 0
              },
              "powerup_milliseconds": 3517862,
              "command_name": "READ VERIFY SECTOR(S) EXT"
            },
            {
              "registers": {
                "command": 66,
                "features": 0,
                "count": 256,
                "lba": 387531264,
                "device": 231,
                "device_control": 0
              },
              "powerup_milliseconds": 3509172,
              "command_name": "READ VERIFY SECTOR(S) EXT"
            },
            {
              "registers": {
                "command": 66,
                "features": 0,
                "count": 256,
                "lba": 387531008,
                "device": 231,
                "device_control": 0
              },
              "powerup_milliseconds": 3509060,
              "command_name": "READ VERIFY SECTOR(S) EXT"
            },
            {
              "registers": {
                "command": 66,
                "features": 0,
                "count": 256,
                "lba": 387530752,
                "device": 231,
                "device_control": 0
              },
              "powerup_milliseconds": 3508914,
              "command_name": "READ VERIFY SECTOR(S) EXT"
            }
          ]
        },
        {
          "error_number": 54,
          "log_index": 53,
          "lifetime_hours": 11,
          "device_state": {
            "value": 3,
            "string": "active or idle"
          },
          "completion_registers": {
            "error": 64,
            "status": 81,
            "count": 0,
            "lba": 386252448,
            "device": 231,
            "device_control": 0
          },
          "error_description": "Error: UNC at LBA = 0x1705bea0 = 386252448",
          "previous_commands": [
            {
              "registers": {
                "command": 66,
                "features": 0,
                "count": 256,
                "lba": 386252288,
                "device": 231,
                "device_control": 0
              },
              "powerup_milliseconds": 2943987,
              "command_name": "READ VERIFY SECTOR(S) EXT"
            },
            {
              "registers": {
                "command": 66,
                "features": 0,
                "count": 256,
                "lba": 386252032,
                "device": 231,
                "device_control": 0
              },
              "powerup_milliseconds": 2943975,
              "command_name": "READ VERIFY SECTOR(S) EXT"
            },
            {
              "registers": {
                "command": 66,
                "features": 0,
                "count": 256,
                "lba": 386251776,
                "device": 231,
                "device_control": 0
              },
              "powerup_milliseconds": 2943974,
              "command_name": "READ VERIFY SECTOR(S) EXT"
            },
            {
              "registers": {
                "command": 66,
                "features": 0,
                "count": 256,
                "lba": 386251520,
                "device": 231,
                "device_control": 0
              },
              "powerup_milliseconds": 2943895,
              "command_name": "READ VERIFY SECTOR(S) EXT"
            },
            {
              "registers": {
                "command": 66,
                "features": 0,
                "count": 256,
                "lba": 386251264,
                "device": 231,
                "device_control": 0
              },
              "powerup_milliseconds": 2943861,
              "command_name": "READ VERIFY SECTOR(S) EXT"
            }
          ]
        },
        {
          "error_number": 53,
          "log_index": 52,
          "lifetime_hours": 10,
          "device_state": {
            "value": 3,
            "string": "active or idle"
          },
          "completion_registers": {
            "error": 64,
            "status": 81,
            "count": 0,
            "lba": 330955088,
            "device": 227,
            "device_control": 0
          },
          "error_description": "Error: UNC at LBA = 0x13b9f950 = 330955088",
          "previous_commands": [
            {
              "registers": {
                "command": 66,
                "features": 0,
                "count": 256,
                "lba": 330955008,
                "device": 227,
                "device_control": 0
              },
              "powerup_milliseconds": 885830,
              "command_name": "READ VERIFY SECTOR(S) EXT"
            },
            {
              "registers": {
                "command": 255,
                "features": 65535,
                "count": 65535,
                "lba": 281474976710655,
                "device": 255,
                "device_control": 12
              },
              "powerup_milliseconds": 885827,
              "command_name": "[VENDOR SPECIFIC]"
            },
            {
              "registers": {
                "command": 52,
                "features": 0,
                "count": 256,
                "lba": 330955008,
                "device": 227,
                "device_control": 0
              },
              "powerup_milliseconds": 885532,
              "command_name": "WRITE SECTORS(S) EXT"
            },
            {
              "registers": {
                "command": 255,
                "features": 65535,
                "count": 65535,
                "lba": 281474976710655,
                "device": 255,
                "device_control": 12
              },
              "powerup_milliseconds": 885527,
              "command_name": "[VENDOR SPECIFIC]"
            },
            {
              "registers": {
                "command": 66,
                "features": 0,
                "count": 256,
                "lba": 330955008,
                "device": 227,
                "device_control": 0
              },
              "powerup_milliseconds": 871123,
              "command_name": "READ VERIFY SECTOR(S) EXT"
            }
          ]
        },
        {
          "error_number": 52,
          "log_index": 51,
          "lifetime_hours": 10,
          "device_state": {
            "value": 3,
            "string": "active or idle"
          },
          "completion_registers": {
            "error": 64,
            "status": 81,
            "count": 0,
            "lba": 330955016,
            "device": 227,
            "device_control": 0
          },
          "error_description": "Error: UNC at LBA = 0x13b9f908 = 330955016",
          "previous_commands": [
            {
              "registers": {
                "command": 66,
                "features": 0,
                "count": 256,
                "lba": 330955008,
                "device": 227,
                "device_control": 0
              },
              "powerup_milliseconds": 866701,
              "command_name": "READ VERIFY SECTOR(S) EXT"
            },
            {
              "registers": {
                "command": 255,
                "features": 65535,
                "count": 65535,
                "lba": 281474976710655,
                "device": 255,
                "device_control": 12
              },
              "powerup_milliseconds": 866698,
              "command_name": "[VENDOR SPECIFIC]"
            },
            {
              "registers": {
                "command": 52,
                "features": 0,
                "count": 256,
                "lba": 330955008,
                "device": 227,
                "device_control": 0
              },
              "powerup_milliseconds": 866529,
              "command_name": "WRITE SECTORS(S) EXT"
            },
            {
              "registers": {
                "command": 255,
                "features": 65535,
                "count": 65535,
                "lba": 281474976710655,
                "device": 255,
                "device_control": 12
              },
              "powerup_milliseconds": 866526,
              "command_name": "[VENDOR SPECIFIC]"
            },
            {
              "registers": {
                "command": 52,
                "features": 0,
                "count": 256,
                "lba": 330955008,
                "device": 227,
                "device_control": 0
              },
              "powerup_milliseconds": 866159,
              "command_name": "WRITE SECTORS(S) EXT"
            }
          ]
        }
      ]
    }
  },
  "ata_smart_self_test_log": {
    "extended": {
      "revision": 1,
      "sectors": 1,
      "count": 0
    }
  },
  "ata_smart_selective_self_test_log": {
    "revision": 1,
    "table": [
      {
        "lba_min": 0,
        "lba_max": 0,
        "status": {
          "value": 0,
          "string": "Not_testing"
        }
      },
      {
        "lba_min": 0,
        "lba_max": 0,
        "status": {
          "value": 0,
          "string": "Not_testing"
        }
      },
      {
        "lba_min": 0,
        "lba_max": 0,
        "status": {
          "value": 0,
          "string": "Not_testing"
        }
      },
      {
        "lba_min": 0,
        "lba_max": 0,
        "status": {
          "value": 0,
          "string": "Not_testing"
        }
      },
      {
        "lba_min": 0,
        "lba_max": 0,
        "status": {
          "value": 0,
          "string": "Not_testing"
        }
      }
    ],
    "flags": {
      "value": 0,
      "remainder_scan_enabled": false
    },
    "power_up_scan_resume_minutes": 0
  },
  "ata_sct_status": {
    "format_version": 2,
    "sct_version": 1,
    "device_state": {
      "value": 0,
      "string": "Active"
    },
    "temperature": {
      "current": 23,
      "power_cycle_min": 22,
      "power_cycle_max": 23,
      "lifetime_min": 22,
      "lifetime_max": 34,
      "under_limit_count": 0,
      "over_limit_count": 0
    }
  },
  "ata_sct_temperature_history": {
    "version": 2,
    "sampling_period_minutes": 1,
    "logging_interval_minutes": 1,
    "temperature": {
      "op_limit_min": 0,
      "op_limit_max": 60,
      "limit_min": 0,
      "limit_max": 60
    },
    "size": 478,
    "index": 0
  },
  "ata_sct_erc": {
    "read": {
      "enabled": false
    },
    "write": {
      "enabled": false
    }
  },
  "ata_device_statistics": {
    "pages": [
      {
        "number": 1,
        "name": "General Statistics",
        "revision": 2,
        "table": [
          {
            "offset": 8,
            "name": "Lifetime Power-On Resets",
            "size": 4,
            "value": 35,
            "flags": {
              "value": 192,
              "string": "V--- ",
              "valid": true,
              "normalized": false,
              "supports_dsn": false,
              "monitored_condition_met": false
            }
          },
          {
            "offset": 16,
            "name": "Power-on Hours",
            "size": 4,
            "value": 12,
            "flags": {
              "value": 192,
              "string": "V--- ",
              "valid": true,
              "normalized": false,
              "supports_dsn": false,
              "monitored_condition_met": false
            }
          },
          {
            "offset": 24,
            "name": "Logical Sectors Written",
            "size": 6,
            "value": 52505,
            "flags": {
              "value": 192,
              "string": "V--- ",
              "valid": true,
              "normalized": false,
              "supports_dsn": false,
              "monitored_condition_met": false
            }
          },
          {
            "offset": 32,
            "name": "Number of Write Commands",
            "size": 6,
            "value": 15532,
            "flags": {
              "value": 192,
              "string": "V--- ",
              "valid": true,
              "normalized": false,
              "supports_dsn": false,
              "monitored_condition_met": false
            }
          },
          {
            "offset": 40,
            "name": "Logical Sectors Read",
            "size": 6,
            "value": 3432,
            "flags": {
              "value": 192,
              "string": "V--- ",
              "valid": true,
              "normalized": false,
              "supports_dsn": false,
              "monitored_condition_met": false
            }
          },
          {
            "offset": 48,
            "name": "Number of Read Commands",
            "size": 6,
            "value": 80,
            "flags": {
              "value": 192,
              "string": "V--- ",
              "valid": true,
              "normalized": false,
              "supports_dsn": false,
              "monitored_condition_met": false
            }
          }
        ]
      },
      {
        "number": 2,
        "name": "Free-Fall Statistics",
        "revision": 1,
        "table": [
          {
            "offset": 16,
            "name": "Overlimit Shock Events",
            "size": 4,
            "value": 0,
            "flags": {
              "value": 192,
              "string": "V--- ",
              "valid": true,
              "normalized": false,
              "supports_dsn": false,
              "monitored_condition_met": false
            }
          }
        ]
      },
      {
        "number": 3,
        "name": "Rotating Media Statistics",
        "revision": 1,
        "table": [
          {
            "offset": 8,
            "name": "Spindle Motor Power-on Hours",
            "size": 4,
            "value": 12,
            "flags": {
              "value": 192,
              "string": "V--- ",
              "valid": true,
              "normalized": false,
              "supports_dsn": false,
              "monitored_condition_met": false
            }
          },
          {
            "offset": 16,
            "name": "Head Flying Hours",
            "size": 4,
            "value": 12,
            "flags": {
              "value": 192,
              "string": "V--- ",
              "valid": true,
              "normalized": false,
              "supports_dsn": false,
              "monitored_condition_met": false
            }
          },
          {
            "offset": 24,
            "name": "Head Load Events",
            "size": 4,
            "value": 35,
            "flags": {
              "value": 192,
              "string": "V--- ",
              "valid": true,
              "normalized": false,
              "supports_dsn": false,
              "monitored_condition_met": false
            }
          },
          {
            "offset": 32,
            "name": "Number of Reallocated Logical Sectors",
            "size": 4,
            "value": 14200,
            "flags": {
              "value": 192,
              "string": "V--- ",
              "valid": true,
              "normalized": false,
              "supports_dsn": false,
              "monitored_condition_met": false
            }
          },
          {
            "offset": 40,
            "name": "Read Recovery Attempts",
            "size": 4,
            "value": 15587,
            "flags": {
              "value": 192,
              "string": "V--- ",
              "valid": true,
              "normalized": false,
              "supports_dsn": false,
              "monitored_condition_met": false
            }
          },
          {
            "offset": 48,
            "name": "Number of Mechanical Start Failures",
            "size": 4,
            "value": 0,
            "flags": {
              "value": 192,
              "string": "V--- ",
              "valid": true,
              "normalized": false,
              "supports_dsn": false,
              "monitored_condition_met": false
            }
          }
        ]
      },
      {
        "number": 4,
        "name": "General Errors Statistics",
        "revision": 1,
        "table": [
          {
            "offset": 8,
            "name": "Number of Reported Uncorrectable Errors",
            "size": 4,
            "value": 59,
            "flags": {
              "value": 192,
              "string": "V--- ",
              "valid": true,
              "normalized": false,
              "supports_dsn": false,
              "monitored_condition_met": false
            }
          },
          {
            "offset": 16,
            "name": "Resets Between Cmd Acceptance and Completion",
            "size": 4,
            "value": 0,
            "flags": {
              "value": 192,
              "string": "V--- ",
              "valid": true,
              "normalized": false,
              "supports_dsn": false,
              "monitored_condition_met": false
            }
          }
        ]
      },
      {
        "number": 5,
        "name": "Temperature Statistics",
        "revision": 1,
        "table": [
          {
            "offset": 8,
            "name": "Current Temperature",
            "size": 1,
            "value": 23,
            "flags": {
              "value": 192,
              "string": "V--- ",
              "valid": true,
              "normalized": false,
              "supports_dsn": false,
              "monitored_condition_met": false
            }
          },
          {
            "offset": 16,
            "name": "Average Short Term Temperature",
            "size": 1,
            "flags": {
              "value": 160,
              "string": "-N-- ",
              "valid": false,
              "normalized": true,
              "supports_dsn": false,
              "monitored_condition_met": false
            }
          },
          {
            "offset": 24,
            "name": "Average Long Term Temperature",
            "size": 1,
            "flags": {
              "value": 160,
              "string": "-N-- ",
              "valid": false,
              "normalized": true,
              "supports_dsn": false,
              "monitored_condition_met": false
            }
          },
          {
            "offset": 32,
            "name": "Highest Temperature",
            "size": 1,
            "value": 34,
            "flags": {
              "value": 192,
              "string": "V--- ",
              "valid": true,
              "normalized": false,
              "supports_dsn": false,
              "monitored_condition_met": false
            }
          },
          {
            "offset": 40,
            "name": "Lowest Temperature",
            "size": 1,
            "value": 22,
            "flags": {
              "value": 192,
              "string": "V--- ",
              "valid": true,
              "normalized": false,
              "supports_dsn": false,
              "monitored_condition_met": false
            }
          },
          {
            "offset": 48,
            "name": "Highest Average Short Term Temperature",
            "size": 1,
            "flags": {
              "value": 160,
              "string": "-N-- ",
              "valid": false,
              "normalized": true,
              "supports_dsn": false,
              "monitored_condition_met": false
            }
          },
          {
            "offset": 56,
            "name": "Lowest Average Short Term Temperature",
            "size": 1,
            "flags": {
              "value": 160,
              "string": "-N-- ",
              "valid": false,
              "normalized": true,
              "supports_dsn": false,
              "monitored_condition_met": false
            }
          },
          {
            "offset": 64,
            "name": "Highest Average Long Term Temperature",
            "size": 1,
            "flags": {
              "value": 160,
              "string": "-N-- ",
              "valid": false,
              "normalized": true,
              "supports_dsn": false,
              "monitored_condition_met": false
            }
          },
          {
            "offset": 72,
            "name": "Lowest Average Long Term Temperature",
            "size": 1,
            "flags": {
              "value": 160,
              "string": "-N-- ",
              "valid": false,
              "normalized": true,
              "supports_dsn": false,
              "monitored_condition_met": false
            }
          },
          {
            "offset": 80,
            "name": "Time in Over-Temperature",
            "size": 4,
            "value": 0,
            "flags": {
              "value": 192,
              "string": "V--- ",
              "valid": true,
              "normalized": false,
              "supports_dsn": false,
              "monitored_condition_met": false
            }
          },
          {
            "offset": 88,
            "name": "Specified Maximum Operating Temperature",
            "size": 1,
            "value": 60,
            "flags": {
              "value": 192,
              "string": "V--- ",
              "valid": true,
              "normalized": false,
              "supports_dsn": false,
              "monitored_condition_met": false
            }
          },
          {
            "offset": 96,
            "name": "Time in Under-Temperature",
            "size": 4,
            "value": 0,
            "flags": {
              "value": 192,
              "string": "V--- ",
              "valid": true,
              "normalized": false,
              "supports_dsn": false,
              "monitored_condition_met": false
            }
          },
          {
            "offset": 104,
            "name": "Specified Minimum Operating Temperature",
            "size": 1,
            "value": 0,
            "flags": {
              "value": 192,
              "string": "V--- ",
              "valid": true,
              "normalized": false,
              "supports_dsn": false,
              "monitored_condition_met": false
            }
          }
        ]
      },
      {
        "number": 6,
        "name": "Transport Statistics",
        "revision": 1,
        "table": [
          {
            "offset": 8,
            "name": "Number of Hardware Resets",
            "size": 4,
            "value": 35,
            "flags": {
              "value": 192,
              "string": "V--- ",
              "valid": true,
              "normalized": false,
              "supports_dsn": false,
              "monitored_condition_met": false
            }
          },
          {
            "offset": 24,
            "name": "Number of Interface CRC Errors",
            "size": 4,
            "value": 0,
            "flags": {
              "value": 192,
              "string": "V--- ",
              "valid": true,
              "normalized": false,
              "supports_dsn": false,
              "monitored_condition_met": false
            }
          }
        ]
      },
      {
        "number": 7,
        "name": "Solid State Device Statistics",
        "revision": 1,
        "table": [
          {
            "offset": 8,
            "name": "Percentage Used Endurance Indicator",
            "size": 1,
            "value": 0,
            "flags": {
              "value": 224,
              "string": "VN-- ",
              "valid": true,
              "normalized": true,
              "supports_dsn": false,
              "monitored_condition_met": false
            }
          }
        ]
      }
    ]
  },
  "sata_phy_event_counters": {
    "table": [
      {
        "id": 1,
        "name": "Command failed due to ICRC error",
        "size": 4,
        "value": 0,
        "overflow": false
      },
      {
        "id": 2,
        "name": "R_ERR response for data FIS",
        "size": 4,
        "value": 0,
        "overflow": false
      },
      {
        "id": 3,
        "name": "R_ERR response for device-to-host data FIS",
        "size": 4,
        "value": 0,
        "overflow": false
      },
      {
        "id": 4,
        "name": "R_ERR response for host-to-device data FIS",
        "size": 4,
        "value": 0,
        "overflow": false
      },
      {
        "id": 5,
        "name": "R_ERR response for non-data FIS",
        "size": 4,
        "value": 0,
        "overflow": false
      },
      {
        "id": 6,
        "name": "R_ERR response for device-to-host non-data FIS",
        "size": 4,
        "value": 0,
        "overflow": false
      },
      {
        "id": 7,
        "name": "R_ERR response for host-to-device non-data FIS",
        "size": 4,
        "value": 0,
        "overflow": false
      },
      {
        "id": 8,
        "name": "Device-to-host non-data FIS retries",
        "size": 4,
        "value": 0,
        "overflow": false
      },
      {
        "id": 9,
        "name": "Transition from drive PhyRdy to drive PhyNRdy",
        "size": 4,
        "value": 1,
        "overflow": false
      },
      {
        "id": 10,
        "name": "Device-to-host register FISes sent due to a COMRESET",
        "size": 4,
        "value": 0,
        "overflow": false
      },
      {
        "id": 11,
        "name": "CRC errors within host-to-device FIS",
        "size": 4,
        "value": 0,
        "overflow": false
      },
      {
        "id": 13,
        "name": "Non-CRC errors within host-to-device FIS",
        "size": 4,
        "value": 0,
        "overflow": false
      },
      {
        "id": 15,
        "name": "R_ERR response for host-to-device data FIS, CRC",
        "size": 4,
        "value": 0,
        "overflow": false
      },
      {
        "id": 16,
        "name": "R_ERR response for host-to-device data FIS, non-CRC",
        "size": 4,
        "value": 0,
        "overflow": false
      },
      {
        "id": 18,
        "name": "R_ERR response for host-to-device non-data FIS, CRC",
        "size": 4,
        "value": 0,
        "overflow": false
      },
      {
        "id": 19,
        "name": "R_ERR response for host-to-device non-data FIS, non-CRC",
        "size": 4,
        "value": 0,
        "overflow": false
      }
    ],
    "reset": false
  }
}
