{
  "json_format_version": [
    1,
    0
  ],
  "smartctl": {
    "version": [
      7,
      2
    ],
    "svn_revision": "5155",
    "platform_info": "x86_64-linux-5.11.0-25-generic",
    "build_info": "(local build)",
    "argv": [
      "smartctl",
      "-jx",
      "/dev/sdb"
    ],
    "exit_status": 0
  },
  "device": {
    "name": "/dev/sdb",
    "info_name": "/dev/sdb [SAT]",
    "type": "sat",
    "protocol": "ATA"
  },
  "model_family": "Toshiba 3.5\" DT01ACA... Desktop HDD",
  "model_name": "TOSHIBA DT01ACA300",
  "serial_number": "23CB1VKGS",
  "wwn": {
    "naa": 5,
    "oui": 57,
    "id": 68531062541
  },
  "firmware_version": "MX6OABB0",
  "user_capacity": {
    "blocks": 5860533168,
    "bytes": 3000592982016
  },
  "logical_block_size": 512,
  "physical_block_size": 4096,
  "rotation_rate": 7200,
  "form_factor": {
    "ata_value": 2,
    "name": "3.5 inches"
  },
  "trim": {
    "supported": false
  },
  "in_smartctl_database": true,
  "ata_version": {
    "string": "ATA8-ACS T13/1699-D revision 4",
    "major_value": 508,
    "minor_value": 41
  },
  "sata_version": {
    "string": "SATA 3.0",
    "value": 63
  },
  "interface_speed": {
    "max": {
      "sata_value": 14,
      "string": "6.0 Gb/s",
      "units_per_second": 60,
      "bits_per_unit": 100000000
    },
    "current": {
      "sata_value": 3,
      "string": "6.0 Gb/s",
      "units_per_second": 60,
      "bits_per_unit": 100000000
    }
  },
  "local_time": {
    "time_t": 1629874960,
    "asctime": "Wed Aug 25 01:02:40 2021 MDT"
  },
  "ata_apm": {
    "enabled": false
  },
  "read_lookahead": {
    "enabled": true
  },
  "write_cache": {
    "enabled": true
  },
  "ata_security": {
    "state": 1,
    "string": "Disabled, NOT FROZEN [SEC1]",
    "enabled": false,
    "frozen": false
  },
  "smart_status": {
    "passed": true
  },
  "ata_smart_data": {
    "offline_data_collection": {
      "status": {
        "value": 128,
        "string": "was never started"
      },
      "completion_seconds": 22652
    },
    "self_test": {
      "status": {
        "value": 0,
        "string": "completed without error",
        "passed": true
      },
      "polling_minutes": {
        "short": 1,
        "extended": 378
      }
    },
    "capabilities": {
      "values": [
        91,
        3
      ],
      "exec_offline_immediate_supported": true,
      "offline_is_aborted_upon_new_cmd": false,
      "offline_surface_scan_supported": true,
      "self_tests_supported": true,
      "conveyance_self_test_supported": false,
      "selective_self_test_supported": true,
      "attribute_autosave_enabled": true,
      "error_logging_supported": true,
      "gp_logging_supported": true
    }
  },
  "ata_sct_capabilities": {
    "value": 61,
    "error_recovery_control_supported": true,
    "feature_control_supported": true,
    "data_table_supported": true
  },
  "ata_smart_attributes": {
    "revision": 16,
    "table": [
      {
        "id": 1,
        "name": "Raw_Read_Error_Rate",
        "value": 100,
        "worst": 100,
        "thresh": 16,
        "when_failed": "",
        "flags": {
          "value": 11,
          "string": "PO-R-- ",
          "prefailure": true,
          "updated_online": true,
          "performance": false,
          "error_rate": true,
          "event_count": false,
          "auto_keep": false
        },
        "raw": {
          "value": 0,
          "string": "0"
        }
      },
      {
        "id": 2,
        "name": "Throughput_Performance",
        "value": 139,
        "worst": 139,
        "thresh": 54,
        "when_failed": "",
        "flags": {
          "value": 5,
          "string": "P-S--- ",
          "prefailure": true,
          "updated_online": false,
          "performance": true,
          "error_rate": false,
          "event_count": false,
          "auto_keep": false
        },
        "raw": {
          "value": 72,
          "string": "72"
        }
      },
      {
        "id": 3,
        "name": "Spin_Up_Time",
        "value": 141,
        "worst": 141,
        "thresh": 24,
        "when_failed": "",
        "flags": {
          "value": 7,
          "string": "POS--- ",
          "prefailure": true,
          "updated_online": true,
          "performance": true,
          "error_rate": false,
          "event_count": false,
          "auto_keep": false
        },
        "raw": {
          "value": 38680527268,
          "string": "420 (Average 394)"
        }
      },
      {
        "id": 4,
        "name": "Start_Stop_Count",
        "value": 100,
        "worst": 100,
        "thresh": 0,
        "when_failed": "",
        "flags": {
          "value": 18,
          "string": "-O--C- ",
          "prefailure": false,
          "updated_online": true,
          "performance": false,
          "error_rate": false,
          "event_count": true,
          "auto_keep": false
        },
        "raw": {
          "value": 17,
          "string": "17"
        }
      },
      {
        "id": 5,
        "name": "Reallocated_Sector_Ct",
        "value": 100,
        "worst": 100,
        "thresh": 5,
        "when_failed": "",
        "flags": {
          "value": 51,
          "string": "PO--CK ",
          "prefailure": true,
          "updated_online": true,
          "performance": false,
          "error_rate": false,
          "event_count": true,
          "auto_keep": true
        },
        "raw": {
          "value": 0,
          "string": "0"
        }
      },
      {
        "id": 7,
        "name": "Seek_Error_Rate",
        "value": 100,
        "worst": 100,
        "thresh": 67,
        "when_failed": "",
        "flags": {
          "value": 11,
          "string": "PO-R-- ",
          "prefailure": true,
          "updated_online": true,
          "performance": false,
          "error_rate": true,
          "event_count": false,
          "auto_keep": false
        },
        "raw": {
          "value": 0,
          "string": "0"
        }
      },
      {
        "id": 8,
        "name": "Seek_Time_Performance",
        "value": 124,
        "worst": 124,
        "thresh": 20,
        "when_failed": "",
        "flags": {
          "value": 5,
          "string": "P-S--- ",
          "prefailure": true,
          "updated_online": false,
          "performance": true,
          "error_rate": false,
          "event_count": false,
          "auto_keep": false
        },
        "raw": {
          "value": 33,
          "string": "33"
        }
      },
      {
        "id": 9,
        "name": "Power_On_Hours",
        "value": 98,
        "worst": 98,
        "thresh": 0,
        "when_failed": "",
        "flags": {
          "value": 18,
          "string": "-O--C- ",
          "prefailure": false,
          "updated_online": true,
          "performance": false,
          "error_rate": false,
          "event_count": true,
          "auto_keep": false
        },
        "raw": {
          "value": 20628,
          "string": "20628"
        }
      },
      {
        "id": 10,
        "name": "Spin_Retry_Count",
        "value": 100,
        "worst": 100,
        "thresh": 60,
        "when_failed": "",
        "flags": {
          "value": 19,
          "string": "PO--C- ",
          "prefailure": true,
          "updated_online": true,
          "performance": false,
          "error_rate": false,
          "event_count": true,
          "auto_keep": false
        },
        "raw": {
          "value": 0,
          "string": "0"
        }
      },
      {
        "id": 12,
        "name": "Power_Cycle_Count",
        "value": 100,
        "worst": 100,
        "thresh": 0,
        "when_failed": "",
        "flags": {
          "value": 50,
          "string": "-O--CK ",
          "prefailure": false,
          "updated_online": true,
          "performance": false,
          "error_rate": false,
          "event_count": true,
          "auto_keep": true
        },
        "raw": {
          "value": 17,
          "string": "17"
        }
      },
      {
        "id": 192,
        "name": "Power-Off_Retract_Count",
        "value": 100,
        "worst": 100,
        "thresh": 0,
        "when_failed": "",
        "flags": {
          "value": 50,
          "string": "-O--CK ",
          "prefailure": false,
          "updated_online": true,
          "performance": false,
          "error_rate": false,
          "event_count": true,
          "auto_keep": true
        },
        "raw": {
          "value": 118,
          "string": "118"
        }
      },
      {
        "id": 193,
        "name": "Load_Cycle_Count",
        "value": 100,
        "worst": 100,
        "thresh": 0,
        "when_failed": "",
        "flags": {
          "value": 18,
          "string": "-O--C- ",
          "prefailure": false,
          "updated_online": true,
          "performance": false,
          "error_rate": false,
          "event_count": true,
          "auto_keep": false
        },
        "raw": {
          "value": 118,
          "string": "118"
        }
      },
      {
        "id": 194,
        "name": "Temperature_Celsius",
        "value": 253,
        "worst": 253,
        "thresh": 0,
        "when_failed": "",
        "flags": {
          "value": 2,
          "string": "-O---- ",
          "prefailure": false,
          "updated_online": true,
          "performance": false,
          "error_rate": false,
          "event_count": false,
          "auto_keep": false
        },
        "raw": {
          "value": 171800002583,
          "string": "23 (Min/Max 20/40)"
        }
      },
      {
        "id": 196,
        "name": "Reallocated_Event_Count",
        "value": 100,
        "worst": 100,
        "thresh": 0,
        "when_failed": "",
        "flags": {
          "value": 50,
          "string": "-O--CK ",
          "prefailure": false,
          "updated_online": true,
          "performance": false,
          "error_rate": false,
          "event_count": true,
          "auto_keep": true
        },
        "raw": {
          "value": 0,
          "string": "0"
        }
      },
      {
        "id": 197,
        "name": "Current_Pending_Sector",
        "value": 100,
        "worst": 100,
        "thresh": 0,
        "when_failed": "",
        "flags": {
          "value": 34,
          "string": "-O---K ",
          "prefailure": false,
          "updated_online": true,
          "performance": false,
          "error_rate": false,
          "event_count": false,
          "auto_keep": true
        },
        "raw": {
          "value": 0,
          "string": "0"
        }
      },
      {
        "id": 198,
        "name": "Offline_Uncorrectable",
        "value": 100,
        "worst": 100,
        "thresh": 0,
        "when_failed": "",
        "flags": {
          "value": 8,
          "string": "---R-- ",
          "prefailure": false,
          "updated_online": false,
          "performance": false,
          "error_rate": true,
          "event_count": false,
          "auto_keep": false
        },
        "raw": {
          "value": 0,
          "string": "0"
        }
      },
      {
        "id": 199,
        "name": "UDMA_CRC_Error_Count",
        "value": 200,
        "worst": 200,
        "thresh": 0,
        "when_failed": "",
        "flags": {
          "value": 10,
          "string": "-O-R-- ",
          "prefailure": false,
          "updated_online": true,
          "performance": false,
          "error_rate": true,
          "event_count": false,
          "auto_keep": false
        },
        "raw": {
          "value": 0,
          "string": "0"
        }
      }
    ]
  },
  "power_on_time": {
    "hours": 20628
  },
  "power_cycle_count": 17,
  "temperature": {
    "current": 23,
    "power_cycle_min": 22,
    "power_cycle_max": 23,
    "lifetime_min": 20,
    "lifetime_max": 40,
    "op_limit_min": 0,
    "op_limit_max": 60,
    "limit_min": -40,
    "limit_max": 70,
    "lifetime_over_limit_minutes": 0,
    "lifetime_under_limit_minutes": 0
  },
  "ata_log_directory": {
    "gp_dir_version": 1,
    "smart_dir_version": 1,
    "smart_dir_multi_sector": true,
    "table": [
      {
        "address": 0,
        "name": "Log Directory",
        "read": true,
        "write": false,
        "gp_sectors": 1,
        "smart_sectors": 1
      },
      {
        "address": 1,
        "name": "Summary SMART error log",
        "read": true,
        "write": false,
        "smart_sectors": 1
      },
      {
        "address": 3,
        "name": "Ext. Comprehensive SMART error log",
        "read": true,
        "write": false,
        "gp_sectors": 1
      },
      {
        "address": 4,
        "name": "Device Statistics log",
        "read": true,
        "write": false,
        "gp_sectors": 7
      },
      {
        "address": 6,
        "name": "SMART self-test log",
        "read": true,
        "write": false,
        "smart_sectors": 1
      },
      {
        "address": 7,
        "name": "Extended self-test log",
        "read": true,
        "write": false,
        "gp_sectors": 1
      },
      {
        "address": 8,
        "name": "Power Conditions log",
        "read": true,
        "write": false,
        "gp_sectors": 2
      },
      {
        "address": 9,
        "name": "Selective self-test log",
        "read": true,
        "write": true,
        "smart_sectors": 1
      },
      {
        "address": 16,
        "name": "NCQ Command Error log",
        "read": true,
        "write": false,
        "gp_sectors": 1
      },
      {
        "address": 17,
        "name": "SATA Phy Event Counters log",
        "read": true,
        "write": false,
        "gp_sectors": 1
      },
      {
        "address": 32,
        "name": "Streaming performance log [OBS-8]",
        "read": true,
        "write": false,
        "gp_sectors": 1
      },
      {
        "address": 33,
        "name": "Write stream error log",
        "read": true,
        "write": false,
        "gp_sectors": 1
      },
      {
        "address": 34,
        "name": "Read stream error log",
        "read": true,
        "write": false,
        "gp_sectors": 1
      },
      {
        "address": 128,
        "name": "Host vendor specific log",
        "read": true,
        "write": true,
        "gp_sectors": 16,
        "smart_sectors": 16
      },
      {
        "address": 129,
        "name": "Host vendor specific log",
        "read": true,
        "write": true,
        "gp_sectors": 16,
        "smart_sectors": 16
      },
      {
        "address": 130,
        "name": "Host vendor specific log",
        "read": true,
        "write": true,
        "gp_sectors": 16,
        "smart_sectors": 16
      },
      {
        "address": 131,
        "name": "Host vendor specific log",
        "read": true,
        "write": true,
        "gp_sectors": 16,
        "smart_sectors": 16
      },
      {
        "address": 132,
        "name": "Host vendor specific log",
        "read": true,
        "write": true,
        "gp_sectors": 16,
        "smart_sectors": 16
      },
      {
        "address": 133,
        "name": "Host vendor specific log",
        "read": true,
        "write": true,
        "gp_sectors": 16,
        "smart_sectors": 16
      },
      {
        "address": 134,
        "name": "Host vendor specific log",
        "read": true,
        "write": true,
        "gp_sectors": 16,
        "smart_sectors": 16
      },
      {
        "address": 135,
        "name": "Host vendor specific log",
        "read": true,
        "write": true,
        "gp_sectors": 16,
        "smart_sectors": 16
      },
      {
        "address": 136,
        "name": "Host vendor specific log",
        "read": true,
        "write": true,
        "gp_sectors": 16,
        "smart_sectors": 16
      },
      {
        "address": 137,
        "name": "Host vendor specific log",
        "read": true,
        "write": true,
        "gp_sectors": 16,
        "smart_sectors": 16
      },
      {
        "address": 138,
        "name": "Host vendor specific log",
        "read": true,
        "write": true,
        "gp_sectors": 16,
        "smart_sectors": 16
      },
      {
        "address": 139,
        "name": "Host vendor specific log",
        "read": true,
        "write": true,
        "gp_sectors": 16,
        "smart_sectors": 16
      },
      {
        "address": 140,
        "name": "Host vendor specific log",
        "read": true,
        "write": true,
        "gp_sectors": 16,
        "smart_sectors": 16
      },
      {
        "address": 141,
        "name": "Host vendor specific log",
        "read": true,
        "write": true,
        "gp_sectors": 16,
        "smart_sectors": 16
      },
      {
        "address": 142,
        "name": "Host vendor specific log",
        "read": true,
        "write": true,
        "gp_sectors": 16,
        "smart_sectors": 16
      },
      {
        "address": 143,
        "name": "Host vendor specific log",
        "read": true,
        "write": true,
        "gp_sectors": 16,
        "smart_sectors": 16
      },
      {
        "address": 144,
        "name": "Host vendor specific log",
        "read": true,
        "write": true,
        "gp_sectors": 16,
        "smart_sectors": 16
      },
      {
        "address": 145,
        "name": "Host vendor specific log",
        "read": true,
        "write": true,
        "gp_sectors": 16,
        "smart_sectors": 16
      },
      {
        "address": 146,
        "name": "Host vendor specific log",
        "read": true,
        "write": true,
        "gp_sectors": 16,
        "smart_sectors": 16
      },
      {
        "address": 147,
        "name": "Host vendor specific log",
        "read": true,
        "write": true,
        "gp_sectors": 16,
        "smart_sectors": 16
      },
      {
        "address": 148,
        "name": "Host vendor specific log",
        "read": true,
        "write": true,
        "gp_sectors": 16,
        "smart_sectors": 16
      },
      {
        "address": 149,
        "name": "Host vendor specific log",
        "read": true,
        "write": true,
        "gp_sectors": 16,
        "smart_sectors": 16
      },
      {
        "address": 150,
        "name": "Host vendor specific log",
        "read": true,
        "write": true,
        "gp_sectors": 16,
        "smart_sectors": 16
      },
      {
        "address": 151,
        "name": "Host vendor specific log",
        "read": true,
        "write": true,
        "gp_sectors": 16,
        "smart_sectors": 16
      },
      {
        "address": 152,
        "name": "Host vendor specific log",
        "read": true,
        "write": true,
        "gp_sectors": 16,
        "smart_sectors": 16
      },
      {
        "address": 153,
        "name": "Host vendor specific log",
        "read": true,
        "write": true,
        "gp_sectors": 16,
        "smart_sectors": 16
      },
      {
        "address": 154,
        "name": "Host vendor specific log",
        "read": true,
        "write": true,
        "gp_sectors": 16,
        "smart_sectors": 16
      },
      {
        "address": 155,
        "name": "Host vendor specific log",
        "read": true,
        "write": true,
        "gp_sectors": 16,
        "smart_sectors": 16
      },
      {
        "address": 156,
        "name": "Host vendor specific log",
        "read": true,
        "write": true,
        "gp_sectors": 16,
        "smart_sectors": 16
      },
      {
        "address": 157,
        "name": "Host vendor specific log",
        "read": true,
        "write": true,
        "gp_sectors": 16,
        "smart_sectors": 16
      },
      {
        "address": 158,
        "name": "Host vendor specific log",
        "read": true,
        "write": true,
        "gp_sectors": 16,
        "smart_sectors": 16
      },
      {
        "address": 159,
        "name": "Host vendor specific log",
        "read": true,
        "write": true,
        "gp_sectors": 16,
        "smart_sectors": 16
      },
      {
        "address": 224,
        "name": "SCT Command/Status",
        "read": true,
        "write": true,
        "gp_sectors": 1,
        "smart_sectors": 1
      },
      {
        "address": 225,
        "name": "SCT Data Transfer",
        "read": true,
        "write": true,
        "gp_sectors": 1,
        "smart_sectors": 1
      }
    ]
  },
  "ata_smart_error_log": {
    "extended": {
      "revision": 1,
      "sectors": 1,
      "count": 0
    }
  },
  "ata_smart_self_test_log": {
    "extended": {
      "revision": 1,
      "sectors": 1,
      "table": [
        {
          "type": {
            "value": 2,
            "string": "Extended offline"
          },
          "status": {
            "value": 0,
            "string": "Completed without error",
            "passed": true
          },
          "lifetime_hours": 20516
        },
        {
          "type": {
            "value": 2,
            "string": "Extended offline"
          },
          "status": {
            "value": 0,
            "string": "Completed without error",
            "passed": true
          },
          "lifetime_hours": 17844
        }
      ],
      "count": 2,
      "error_count_total": 0,
      "error_count_outdated": 0
    }
  },
  "ata_smart_selective_self_test_log": {
    "revision": 1,
    "table": [
      {
        "lba_min": 0,
        "lba_max": 0,
        "status": {
          "value": 0,
          "string": "Not_testing"
        }
      },
      {
        "lba_min": 0,
        "lba_max": 0,
        "status": {
          "value": 0,
          "string": "Not_testing"
        }
      },
      {
        "lba_min": 0,
        "lba_max": 0,
        "status": {
          "value": 0,
          "string": "Not_testing"
        }
      },
      {
        "lba_min": 0,
        "lba_max": 0,
        "status": {
          "value": 0,
          "string": "Not_testing"
        }
      },
      {
        "lba_min": 0,
        "lba_max": 0,
        "status": {
          "value": 0,
          "string": "Not_testing"
        }
      }
    ],
    "flags": {
      "value": 0,
      "remainder_scan_enabled": false
    },
    "power_up_scan_resume_minutes": 0
  },
  "ata_sct_status": {
    "format_version": 3,
    "sct_version": 256,
    "device_state": {
      "value": 0,
      "string": "Active"
    },
    "temperature": {
      "current": 23,
      "power_cycle_min": 22,
      "power_cycle_max": 23,
      "lifetime_min": 20,
      "lifetime_max": 40,
      "under_limit_count": 0,
      "over_limit_count": 0
    }
  },
  "ata_sct_temperature_history": {
    "version": 2,
    "sampling_period_minutes": 1,
    "logging_interval_minutes": 1,
    "temperature": {
      "op_limit_min": 0,
      "op_limit_max": 60,
      "limit_min": -40,
      "limit_max": 70
    },
    "size": 128,
    "index": 76,
    "table": [
      34,
      34,
      34,
      35,
      35,
      34,
      34,
      34,
      34,
      34,
      34,
      35,
      35,
      34,
      34,
      34,
      34,
      34,
      34,
      35,
      35,
      34,
      34,
      34,
      34,
      34,
      34,
      35,
      35,
      35,
      35,
      34,
      35,
      35,
      35,
      35,
      35,
      35,
      35,
      34,
      35,
      35,
      35,
      35,
      35,
      35,
      35,
      35,
      35,
      35,
      35,
      35,
      35,
      35,
      35,
      35,
      35,
      35,
      35,
      35,
      35,
      35,
      35,
      35,
      35,
      35,
      35,
      35,
      35,
      35,
      35,
      35,
      35,
      35,
      35,
      35,
      35,
      35,
      35,
      35,
      35,
      35,
      35,
      35,
      35,
      35,
      35,
      35,
      35,
      34,
      35,
      35,
      35,
      35,
      35,
      34,
      35,
      34,
      35,
      35,
      35,
      35,
      35,
      34,
      35,
      35,
      35,
      34,
      35,
      35,
      35,
      35,
      35,
      34,
      35,
      35,
      35,
      35,
      35,
      35,
      35,
      35,
      35,
      35,
      35,
      35,
      35
    ]
  },
  "ata_sct_erc": {
    "read": {
      "enabled": false
    },
    "write": {
      "enabled": false
    }
  },
  "ata_device_statistics": {
    "pages": [
      {
        "number": 1,
        "name": "General Statistics",
        "revision": 1,
        "table": [
          {
            "offset": 8,
            "name": "Lifetime Power-On Resets",
            "size": 4,
            "value": 17,
            "flags": {
              "value": 192,
              "string": "V--- ",
              "valid": true,
              "normalized": false,
              "supports_dsn": false,
              "monitored_condition_met": false
            }
          },
          {
            "offset": 16,
            "name": "Power-on Hours",
            "size": 4,
            "value": 20628,
            "flags": {
              "value": 192,
              "string": "V--- ",
              "valid": true,
              "normalized": false,
              "supports_dsn": false,
              "monitored_condition_met": false
            }
          },
          {
            "offset": 24,
            "name": "Logical Sectors Written",
            "size": 6,
            "value": 42648741815,
            "flags": {
              "value": 192,
              "string": "V--- ",
              "valid": true,
              "normalized": false,
              "supports_dsn": false,
              "monitored_condition_met": false
            }
          },
          {
            "offset": 32,
            "name": "Number of Write Commands",
            "size": 6,
            "value": 433230746,
            "flags": {
              "value": 192,
              "string": "V--- ",
              "valid": true,
              "normalized": false,
              "supports_dsn": false,
              "monitored_condition_met": false
            }
          },
          {
            "offset": 40,
            "name": "Logical Sectors Read",
            "size": 6,
            "value": 367430516149,
            "flags": {
              "value": 192,
              "string": "V--- ",
              "valid": true,
              "normalized": false,
              "supports_dsn": false,
              "monitored_condition_met": false
            }
          },
          {
            "offset": 48,
            "name": "Number of Read Commands",
            "size": 6,
            "value": 3083322790,
            "flags": {
              "value": 192,
              "string": "V--- ",
              "valid": true,
              "normalized": false,
              "supports_dsn": false,
              "monitored_condition_met": false
            }
          }
        ]
      },
      {
        "number": 3,
        "name": "Rotating Media Statistics",
        "revision": 1,
        "table": [
          {
            "offset": 8,
            "name": "Spindle Motor Power-on Hours",
            "size": 4,
            "value": 20625,
            "flags": {
              "value": 192,
              "string": "V--- ",
              "valid": true,
              "normalized": false,
              "supports_dsn": false,
              "monitored_condition_met": false
            }
          },
          {
            "offset": 16,
            "name": "Head Flying Hours",
            "size": 4,
            "value": 20625,
            "flags": {
              "value": 192,
              "string": "V--- ",
              "valid": true,
              "normalized": false,
              "supports_dsn": false,
              "monitored_condition_met": false
            }
          },
          {
            "offset": 24,
            "name": "Head Load Events",
            "size": 4,
            "value": 118,
            "flags": {
              "value": 192,
              "string": "V--- ",
              "valid": true,
              "normalized": false,
              "supports_dsn": false,
              "monitored_condition_met": false
            }
          },
          {
            "offset": 32,
            "name": "Number of Reallocated Logical Sectors",
            "size": 4,
            "value": 0,
            "flags": {
              "value": 192,
              "string": "V--- ",
              "valid": true,
              "normalized": false,
              "supports_dsn": false,
              "monitored_condition_met": false
            }
          },
          {
            "offset": 40,
            "name": "Read Recovery Attempts",
            "size": 4,
            "value": 1239,
            "flags": {
              "value": 192,
              "string": "V--- ",
              "valid": true,
              "normalized": false,
              "supports_dsn": false,
              "monitored_condition_met": false
            }
          },
          {
            "offset": 48,
            "name": "Number of Mechanical Start Failures",
            "size": 4,
            "value": 11,
            "flags": {
              "value": 192,
              "string": "V--- ",
              "valid": true,
              "normalized": false,
              "supports_dsn": false,
              "monitored_condition_met": false
            }
          }
        ]
      },
      {
        "number": 4,
        "name": "General Errors Statistics",
        "revision": 1,
        "table": [
          {
            "offset": 8,
            "name": "Number of Reported Uncorrectable Errors",
            "size": 4,
            "value": 0,
            "flags": {
              "value": 192,
              "string": "V--- ",
              "valid": true,
              "normalized": false,
              "supports_dsn": false,
              "monitored_condition_met": false
            }
          },
          {
            "offset": 16,
            "name": "Resets Between Cmd Acceptance and Completion",
            "size": 4,
            "value": 0,
            "flags": {
              "value": 192,
              "string": "V--- ",
              "valid": true,
              "normalized": false,
              "supports_dsn": false,
              "monitored_condition_met": false
            }
          }
        ]
      },
      {
        "number": 5,
        "name": "Temperature Statistics",
        "revision": 1,
        "table": [
          {
            "offset": 8,
            "name": "Current Temperature",
            "size": 1,
            "value": 23,
            "flags": {
              "value": 192,
              "string": "V--- ",
              "valid": true,
              "normalized": false,
              "supports_dsn": false,
              "monitored_condition_met": false
            }
          },
          {
            "offset": 16,
            "name": "Average Short Term Temperature",
            "size": 1,
            "value": 35,
            "flags": {
              "value": 224,
              "string": "VN-- ",
              "valid": true,
              "normalized": true,
              "supports_dsn": false,
              "monitored_condition_met": false
            }
          },
          {
            "offset": 24,
            "name": "Average Long Term Temperature",
            "size": 1,
            "value": 34,
            "flags": {
              "value": 224,
              "string": "VN-- ",
              "valid": true,
              "normalized": true,
              "supports_dsn": false,
              "monitored_condition_met": false
            }
          },
          {
            "offset": 32,
            "name": "Highest Temperature",
            "size": 1,
            "value": 40,
            "flags": {
              "value": 192,
              "string": "V--- ",
              "valid": true,
              "normalized": false,
              "supports_dsn": false,
              "monitored_condition_met": false
            }
          },
          {
            "offset": 40,
            "name": "Lowest Temperature",
            "size": 1,
            "value": 20,
            "flags": {
              "value": 192,
              "string": "V--- ",
              "valid": true,
              "normalized": false,
              "supports_dsn": false,
              "monitored_condition_met": false
            }
          },
          {
            "offset": 48,
            "name": "Highest Average Short Term Temperature",
            "size": 1,
            "value": 37,
            "flags": {
              "value": 224,
              "string": "VN-- ",
              "valid": true,
              "normalized": true,
              "supports_dsn": false,
              "monitored_condition_met": false
            }
          },
          {
            "offset": 56,
            "name": "Lowest Average Short Term Temperature",
            "size": 1,
            "value": 25,
            "flags": {
              "value": 224,
              "string": "VN-- ",
              "valid": true,
              "normalized": true,
              "supports_dsn": false,
              "monitored_condition_met": false
            }
          },
          {
            "offset": 64,
            "name": "Highest Average Long Term Temperature",
            "size": 1,
            "value": 34,
            "flags": {
              "value": 224,
              "string": "VN-- ",
              "valid": true,
              "normalized": true,
              "supports_dsn": false,
              "monitored_condition_met": false
            }
          },
          {
            "offset": 72,
            "name": "Lowest Average Long Term Temperature",
            "size": 1,
            "value": 25,
            "flags": {
              "value": 224,
              "string": "VN-- ",
              "valid": true,
              "normalized": true,
              "supports_dsn": false,
              "monitored_condition_met": false
            }
          },
          {
            "offset": 80,
            "name": "Time in Over-Temperature",
            "size": 4,
            "value": 0,
            "flags": {
              "value": 192,
              "string": "V--- ",
              "valid": true,
              "normalized": false,
              "supports_dsn": false,
              "monitored_condition_met": false
            }
          },
          {
            "offset": 88,
            "name": "Specified Maximum Operating Temperature",
            "size": 1,
            "value": 60,
            "flags": {
              "value": 192,
              "string": "V--- ",
              "valid": true,
              "normalized": false,
              "supports_dsn": false,
              "monitored_condition_met": false
            }
          },
          {
            "offset": 96,
            "name": "Time in Under-Temperature",
            "size": 4,
            "value": 0,
            "flags": {
              "value": 192,
              "string": "V--- ",
              "valid": true,
              "normalized": false,
              "supports_dsn": false,
              "monitored_condition_met": false
            }
          },
          {
            "offset": 104,
            "name": "Specified Minimum Operating Temperature",
            "size": 1,
            "value": 0,
            "flags": {
              "value": 192,
              "string": "V--- ",
              "valid": true,
              "normalized": false,
              "supports_dsn": false,
              "monitored_condition_met": false
            }
          }
        ]
      },
      {
        "number": 6,
        "name": "Transport Statistics",
        "revision": 1,
        "table": [
          {
            "offset": 8,
            "name": "Number of Hardware Resets",
            "size": 4,
            "value": 208,
            "flags": {
              "value": 192,
              "string": "V--- ",
              "valid": true,
              "normalized": false,
              "supports_dsn": false,
              "monitored_condition_met": false
            }
          },
          {
            "offset": 16,
            "name": "Number of ASR Events",
            "size": 4,
            "value": 190,
            "flags": {
              "value": 192,
              "string": "V--- ",
              "valid": true,
              "normalized": false,
              "supports_dsn": false,
              "monitored_condition_met": false
            }
          },
          {
            "offset": 24,
            "name": "Number of Interface CRC Errors",
            "size": 4,
            "value": 0,
            "flags": {
              "value": 192,
              "string": "V--- ",
              "valid": true,
              "normalized": false,
              "supports_dsn": false,
              "monitored_condition_met": false
            }
          }
        ]
      }
    ]
  },
  "sata_phy_event_counters": {
    "table": [
      {
        "id": 1,
        "name": "Command failed due to ICRC error",
        "size": 2,
        "value": 0,
        "overflow": false
      },
      {
        "id": 2,
        "name": "R_ERR response for data FIS",
        "size": 2,
        "value": 0,
        "overflow": false
      },
      {
        "id": 3,
        "name": "R_ERR response for device-to-host data FIS",
        "size": 2,
        "value": 0,
        "overflow": false
      },
      {
        "id": 4,
        "name": "R_ERR response for host-to-device data FIS",
        "size": 2,
        "value": 0,
        "overflow": false
      },
      {
        "id": 5,
        "name": "R_ERR response for non-data FIS",
        "size": 2,
        "value": 0,
        "overflow": false
      },
      {
        "id": 6,
        "name": "R_ERR response for device-to-host non-data FIS",
        "size": 2,
        "value": 0,
        "overflow": false
      },
      {
        "id": 7,
        "name": "R_ERR response for host-to-device non-data FIS",
        "size": 2,
        "value": 0,
        "overflow": false
      },
      {
        "id": 9,
        "name": "Transition from drive PhyRdy to drive PhyNRdy",
        "size": 2,
        "value": 2,
        "overflow": false
      },
      {
        "id": 10,
        "name": "Device-to-host register FISes sent due to a COMRESET",
        "size": 2,
        "value": 0,
        "overflow": false
      },
      {
        "id": 11,
        "name": "CRC errors within host-to-device FIS",
        "size": 2,
        "value": 0,
        "overflow": false
      },
      {
        "id": 13,
        "name": "Non-CRC errors within host-to-device FIS",
        "size": 2,
        "value": 0,
        "overflow": false
      }
    ],
    "reset": false
  }
}
