smartctl 7.2 2020-12-30 r5155 [x86_64-linux-5.11.0-36-generic] (local build)
Copyright (C) 2002-20, Bruce Allen, Christian Franke, www.smartmontools.org

=== START OF INFORMATION SECTION ===
Model Family:     Toshiba 3.5" DT01ACA... Desktop HDD
Device Model:     TOSHIBA DT01ACA100
Serial Number:    Y552UE0MS
LU WWN Device Id: 5 000039 fe7c1482a
Add. Product Id:  DELL(tm)
Firmware Version: MS2OA7S0
User Capacity:    1,000,204,886,016 bytes [1.00 TB]
Sector Sizes:     512 bytes logical, 4096 bytes physical
Rotation Rate:    7200 rpm
Form Factor:      3.5 inches
Device is:        In smartctl database [for details use: -P show]
ATA Version is:   ATA8-ACS T13/1699-D revision 4
SATA Version is:  SATA 3.0, 6.0 Gb/s (current: 6.0 Gb/s)
Local Time is:    Wed Sep 22 15:20:56 2021 MDT
SMART support is: Available - device has SMART capability.
SMART support is: Enabled
AAM feature is:   Unavailable
APM feature is:   Disabled
Rd look-ahead is: Enabled
Write cache is:   Enabled
DSN feature is:   Unavailable
ATA Security is:  Disabled, NOT FROZEN [SEC1]
Wt Cache Reorder: Enabled

=== START OF READ SMART DATA SECTION ===
SMART overall-health self-assessment test result: PASSED

General SMART Values:
Offline data collection status:  (0x84)	Offline data collection activity
					was suspended by an interrupting command from host.
					Auto Offline Data Collection: Enabled.
Self-test execution status:      (   0)	The previous self-test routine completed
					without error or no self-test has ever 
					been run.
Total time to complete Offline 
data collection: 		( 7313) seconds.
Offline data collection
capabilities: 			 (0x5b) SMART execute Offline immediate.
					Auto Offline data collection on/off support.
					Suspend Offline collection upon new
					command.
					Offline surface scan supported.
					Self-test supported.
					No Conveyance Self-test supported.
					Selective Self-test supported.
SMART capabilities:            (0x0003)	Saves SMART data before entering
					power-saving mode.
					Supports SMART auto save timer.
Error logging capability:        (0x01)	Error logging supported.
					General Purpose Logging supported.
Short self-test routine 
recommended polling time: 	 (   1) minutes.
Extended self-test routine
recommended polling time: 	 ( 122) minutes.
SCT capabilities: 	       (0x003d)	SCT Status supported.
					SCT Error Recovery Control supported.
					SCT Feature Control supported.
					SCT Data Table supported.

SMART Attributes Data Structure revision number: 16
Vendor Specific SMART Attributes with Thresholds:
ID# ATTRIBUTE_NAME          FLAGS    VALUE WORST THRESH FAIL RAW_VALUE
  1 Raw_Read_Error_Rate     PO-R--   100   100   016    -    0
  2 Throughput_Performance  --S---   142   142   000    -    71
  3 Spin_Up_Time            POS---   130   130   024    -    176 (Average 176)
  4 Start_Stop_Count        -O--C-   100   100   000    -    46
  5 Reallocated_Sector_Ct   PO--CK   100   100   005    -    0
  7 Seek_Error_Rate         -O-R--   100   100   000    -    0
  8 Seek_Time_Performance   --S---   118   118   000    -    33
  9 Power_On_Hours          -O--C-   094   094   000    -    45218
 10 Spin_Retry_Count        -O--C-   100   100   000    -    0
 12 Power_Cycle_Count       -O--CK   100   100   000    -    45
192 Power-Off_Retract_Count -O--CK   100   100   000    -    131
193 Load_Cycle_Count        -O--C-   100   100   000    -    131
194 Temperature_Celsius     -O----   229   229   000    -    24 (Min/Max 14/43)
196 Reallocated_Event_Count -O--CK   100   100   000    -    0
197 Current_Pending_Sector  -O---K   100   100   000    -    0
198 Offline_Uncorrectable   ---R--   100   100   000    -    0
199 UDMA_CRC_Error_Count    -O-R--   200   200   000    -    0
240 Head_Flying_Hours       -O--C-   094   094   000    -    45213
241 Total_LBAs_Written      -O--C-   100   100   000    -    27372035801
242 Total_LBAs_Read         -O--C-   100   100   000    -    28280361552
                            ||||||_ K auto-keep
                            |||||__ C event count
                            ||||___ R error rate
                            |||____ S speed/performance
                            ||_____ O updated online
                            |______ P prefailure warning

General Purpose Log Directory Version 1
SMART           Log Directory Version 1 [multi-sector log support]
Address    Access  R/W   Size  Description
0x00       GPL,SL  R/O      1  Log Directory
0x01           SL  R/O      1  Summary SMART error log
0x03       GPL     R/O      1  Ext. Comprehensive SMART error log
0x04       GPL     R/O      7  Device Statistics log
0x06           SL  R/O      1  SMART self-test log
0x07       GPL     R/O      1  Extended self-test log
0x08       GPL     R/O      2  Power Conditions log
0x09           SL  R/W      1  Selective self-test log
0x10       GPL     R/O      1  NCQ Command Error log
0x11       GPL     R/O      1  SATA Phy Event Counters log
0x20       GPL     R/O      1  Streaming performance log [OBS-8]
0x21       GPL     R/O      1  Write stream error log
0x22       GPL     R/O      1  Read stream error log
0x80-0x9f  GPL,SL  R/W     16  Host vendor specific log
0xe0       GPL,SL  R/W      1  SCT Command/Status
0xe1       GPL,SL  R/W      1  SCT Data Transfer

SMART Extended Comprehensive Error Log Version: 1 (1 sectors)
No Errors Logged

SMART Extended Self-test Log Version: 1 (1 sectors)
Num  Test_Description    Status                  Remaining  LifeTime(hours)  LBA_of_first_error
# 1  Short offline       Completed without error       00%         0         -

SMART Selective self-test log data structure revision number 1
 SPAN  MIN_LBA  MAX_LBA  CURRENT_TEST_STATUS
    1        0        0  Not_testing
    2        0        0  Not_testing
    3        0        0  Not_testing
    4        0        0  Not_testing
    5        0        0  Not_testing
Selective self-test flags (0x0):
  After scanning selected spans, do NOT read-scan remainder of disk.
If Selective self-test is pending on power-up, resume after 0 minute delay.

SCT Status Version:                  3
SCT Version (vendor specific):       256 (0x0100)
Device State:                        SMART Off-line Data Collection executing in background (4)
Current Temperature:                    24 Celsius
Power Cycle Min/Max Temperature:     23/24 Celsius
Lifetime    Min/Max Temperature:     14/43 Celsius
Specified Max Operating Temperature:    36 Celsius
Under/Over Temperature Limit Count:   1/0

SCT Temperature History Version:     2
Temperature Sampling Period:         1 minute
Temperature Logging Interval:        1 minute
Min/Max recommended Temperature:     15/55 Celsius
Min/Max Temperature Limit:           10/60 Celsius
Temperature History Size (Index):    478 (178)

Index    Estimated Time   Temperature Celsius
 179    2021-09-22 07:23    38  *******************
 ...    ..( 23 skipped).    ..  *******************
 203    2021-09-22 07:47    38  *******************
 204    2021-09-22 07:48    39  ********************
 205    2021-09-22 07:49    39  ********************
 206    2021-09-22 07:50    38  *******************
 207    2021-09-22 07:51    38  *******************
 208    2021-09-22 07:52    38  *******************
 209    2021-09-22 07:53    39  ********************
 210    2021-09-22 07:54    39  ********************
 211    2021-09-22 07:55    38  *******************
 ...    ..( 67 skipped).    ..  *******************
 279    2021-09-22 09:03    38  *******************
 280    2021-09-22 09:04    37  ******************
 281    2021-09-22 09:05    37  ******************
 282    2021-09-22 09:06    38  *******************
 283    2021-09-22 09:07    38  *******************
 284    2021-09-22 09:08    37  ******************
 285    2021-09-22 09:09    38  *******************
 286    2021-09-22 09:10    38  *******************
 287    2021-09-22 09:11    37  ******************
 ...    ..(  4 skipped).    ..  ******************
 292    2021-09-22 09:16    37  ******************
 293    2021-09-22 09:17    38  *******************
 294    2021-09-22 09:18    37  ******************
 295    2021-09-22 09:19    37  ******************
 296    2021-09-22 09:20    37  ******************
 297    2021-09-22 09:21    38  *******************
 298    2021-09-22 09:22    37  ******************
 299    2021-09-22 09:23    37  ******************
 300    2021-09-22 09:24    38  *******************
 301    2021-09-22 09:25    38  *******************
 302    2021-09-22 09:26    37  ******************
 303    2021-09-22 09:27    37  ******************
 304    2021-09-22 09:28    38  *******************
 305    2021-09-22 09:29    37  ******************
 306    2021-09-22 09:30    37  ******************
 307    2021-09-22 09:31    38  *******************
 308    2021-09-22 09:32    38  *******************
 309    2021-09-22 09:33    37  ******************
 ...    ..(  7 skipped).    ..  ******************
 317    2021-09-22 09:41    37  ******************
 318    2021-09-22 09:42    38  *******************
 319    2021-09-22 09:43    37  ******************
 320    2021-09-22 09:44    38  *******************
 321    2021-09-22 09:45    37  ******************
 ...    ..( 13 skipped).    ..  ******************
 335    2021-09-22 09:59    37  ******************
 336    2021-09-22 10:00    38  *******************
 337    2021-09-22 10:01    37  ******************
 ...    ..(  4 skipped).    ..  ******************
 342    2021-09-22 10:06    37  ******************
 343    2021-09-22 10:07    38  *******************
 344    2021-09-22 10:08    37  ******************
 ...    ..(  4 skipped).    ..  ******************
 349    2021-09-22 10:13    37  ******************
 350    2021-09-22 10:14    38  *******************
 351    2021-09-22 10:15    37  ******************
 ...    ..(  5 skipped).    ..  ******************
 357    2021-09-22 10:21    37  ******************
 358    2021-09-22 10:22    38  *******************
 359    2021-09-22 10:23    37  ******************
 ...    ..( 11 skipped).    ..  ******************
 371    2021-09-22 10:35    37  ******************
 372    2021-09-22 10:36    38  *******************
 373    2021-09-22 10:37    37  ******************
 ...    ..(  3 skipped).    ..  ******************
 377    2021-09-22 10:41    37  ******************
 378    2021-09-22 10:42    38  *******************
 ...    ..(  3 skipped).    ..  *******************
 382    2021-09-22 10:46    38  *******************
 383    2021-09-22 10:47    37  ******************
 384    2021-09-22 10:48    37  ******************
 385    2021-09-22 10:49    37  ******************
 386    2021-09-22 10:50    38  *******************
 387    2021-09-22 10:51    37  ******************
 388    2021-09-22 10:52    37  ******************
 389    2021-09-22 10:53    37  ******************
 390    2021-09-22 10:54    38  *******************
 391    2021-09-22 10:55    37  ******************
 ...    ..( 26 skipped).    ..  ******************
 418    2021-09-22 11:22    37  ******************
 419    2021-09-22 11:23    38  *******************
 420    2021-09-22 11:24    37  ******************
 ...    ..(  7 skipped).    ..  ******************
 428    2021-09-22 11:32    37  ******************
 429    2021-09-22 11:33    38  *******************
 430    2021-09-22 11:34    38  *******************
 431    2021-09-22 11:35    37  ******************
 ...    ..(  2 skipped).    ..  ******************
 434    2021-09-22 11:38    37  ******************
 435    2021-09-22 11:39    38  *******************
 436    2021-09-22 11:40    37  ******************
 437    2021-09-22 11:41    37  ******************
 438    2021-09-22 11:42    38  *******************
 439    2021-09-22 11:43    37  ******************
 440    2021-09-22 11:44    38  *******************
 441    2021-09-22 11:45    38  *******************
 442    2021-09-22 11:46    37  ******************
 443    2021-09-22 11:47    38  *******************
 ...    ..(  5 skipped).    ..  *******************
 449    2021-09-22 11:53    38  *******************
 450    2021-09-22 11:54    37  ******************
 451    2021-09-22 11:55    38  *******************
 ...    ..(107 skipped).    ..  *******************
  81    2021-09-22 13:43    38  *******************
  82    2021-09-22 13:44    39  ********************
  83    2021-09-22 13:45    38  *******************
  84    2021-09-22 13:46    39  ********************
  85    2021-09-22 13:47    38  *******************
  86    2021-09-22 13:48    39  ********************
  87    2021-09-22 13:49    38  *******************
 ...    ..( 87 skipped).    ..  *******************
 175    2021-09-22 15:17    38  *******************
 176    2021-09-22 15:18     ?  -
 177    2021-09-22 15:19     ?  -
 178    2021-09-22 15:20    24  *****

SCT Error Recovery Control:
           Read: Disabled
          Write: Disabled

Device Statistics (GP Log 0x04)
Page  Offset Size        Value Flags Description
0x01  =====  =               =  ===  == General Statistics (rev 1) ==
0x01  0x008  4              45  ---  Lifetime Power-On Resets
0x01  0x010  4           45218  ---  Power-on Hours
0x01  0x018  6     27372035801  ---  Logical Sectors Written
0x01  0x020  6       647337880  ---  Number of Write Commands
0x01  0x028  6    180626950168  ---  Logical Sectors Read
0x01  0x030  6       460954616  ---  Number of Read Commands
0x03  =====  =               =  ===  == Rotating Media Statistics (rev 1) ==
0x03  0x008  4           45213  ---  Spindle Motor Power-on Hours
0x03  0x010  4           45213  ---  Head Flying Hours
0x03  0x018  4             131  ---  Head Load Events
0x03  0x020  4               0  ---  Number of Reallocated Logical Sectors
0x03  0x028  4              13  ---  Read Recovery Attempts
0x03  0x030  4               2  ---  Number of Mechanical Start Failures
0x04  =====  =               =  ===  == General Errors Statistics (rev 1) ==
0x04  0x008  4               0  ---  Number of Reported Uncorrectable Errors
0x04  0x010  4               0  ---  Resets Between Cmd Acceptance and Completion
0x05  =====  =               =  ===  == Temperature Statistics (rev 1) ==
0x05  0x008  1              25  ---  Current Temperature
0x05  0x010  1              37  N--  Average Short Term Temperature
0x05  0x018  1              37  N--  Average Long Term Temperature
0x05  0x020  1              43  ---  Highest Temperature
0x05  0x028  1              14  ---  Lowest Temperature
0x05  0x030  1              39  N--  Highest Average Short Term Temperature
0x05  0x038  1              25  N--  Lowest Average Short Term Temperature
0x05  0x040  1              37  N--  Highest Average Long Term Temperature
0x05  0x048  1              25  N--  Lowest Average Long Term Temperature
0x05  0x050  4               0  ---  Time in Over-Temperature
0x05  0x058  1              55  ---  Specified Maximum Operating Temperature
0x05  0x060  4              10  ---  Time in Under-Temperature
0x05  0x068  1              15  ---  Specified Minimum Operating Temperature
0x06  =====  =               =  ===  == Transport Statistics (rev 1) ==
0x06  0x008  4             218  ---  Number of Hardware Resets
0x06  0x010  4               2  ---  Number of ASR Events
0x06  0x018  4               0  ---  Number of Interface CRC Errors
                                |||_ C monitored condition met
                                ||__ D supports DSN
                                |___ N normalized value

Pending Defects log (GP Log 0x0c) not supported

SATA Phy Event Counters (GP Log 0x11)
ID      Size     Value  Description
0x0001  2            0  Command failed due to ICRC error
0x0002  2            0  R_ERR response for data FIS
0x0003  2            0  R_ERR response for device-to-host data FIS
0x0004  2            0  R_ERR response for host-to-device data FIS
0x0005  2            0  R_ERR response for non-data FIS
0x0006  2            0  R_ERR response for device-to-host non-data FIS
0x0007  2            0  R_ERR response for host-to-device non-data FIS
0x0009  2            1  Transition from drive PhyRdy to drive PhyNRdy
0x000a  2            0  Device-to-host register FISes sent due to a COMRESET
0x000b  2            0  CRC errors within host-to-device FIS
0x000d  2            0  Non-CRC errors within host-to-device FIS

