{
  "json_format_version": [
    1,
    0
  ],
  "smartctl": {
    "version": [
      7,
      2
    ],
    "svn_revision": "5155",
    "platform_info": "x86_64-linux-5.13.0-21-generic",
    "build_info": "(local build)",
    "argv": [
      "smartctl",
      "-jx",
      "/dev/sdb"
    ],
    "exit_status": 64
  },
  "device": {
    "name": "/dev/sdb",
    "info_name": "/dev/sdb [SAT]",
    "type": "sat",
    "protocol": "ATA"
  },
  "model_family": "SAMSUNG SpinPoint F1 DT",
  "model_name": "SAMSUNG HD251HJ",
  "serial_number": "S1FYJ90QC07733",
  "wwn": {
    "naa": 5,
    "oui": 240,
    "id": 185569456
  },
  "firmware_version": "1AC01113",
  "user_capacity": {
    "blocks": 488281250,
    "bytes": 250000000000
  },
  "logical_block_size": 512,
  "physical_block_size": 512,
  "trim": {
    "supported": false
  },
  "in_smartctl_database": true,
  "ata_version": {
    "string": "ATA/ATAPI-7, ATA8-ACS T13/1699-D revision 3b",
    "major_value": 248,
    "minor_value": 82
  },
  "local_time": {
    "time_t": 1641263983,
    "asctime": "Mon Jan  3 19:39:43 2022 MST"
  },
  "ata_aam": {
    "enabled": true,
    "level": 128,
    "string": "quiet",
    "recommended_level": 254
  },
  "ata_apm": {
    "enabled": true,
    "level": 254,
    "string": "maximum performance",
    "max_performance": true,
    "min_power": false,
    "with_standby": false
  },
  "read_lookahead": {
    "enabled": true
  },
  "write_cache": {
    "enabled": true
  },
  "ata_security": {
    "state": 33,
    "string": "Disabled, NOT FROZEN [SEC1]",
    "enabled": false,
    "frozen": false
  },
  "smart_status": {
    "passed": true
  },
  "ata_smart_data": {
    "offline_data_collection": {
      "status": {
        "value": 0,
        "string": "was never started"
      },
      "completion_seconds": 3598
    },
    "self_test": {
      "status": {
        "value": 0,
        "string": "completed without error",
        "passed": true
      },
      "polling_minutes": {
        "short": 2,
        "extended": 61,
        "conveyance": 7
      }
    },
    "capabilities": {
      "values": [
        123,
        3
      ],
      "exec_offline_immediate_supported": true,
      "offline_is_aborted_upon_new_cmd": false,
      "offline_surface_scan_supported": true,
      "self_tests_supported": true,
      "conveyance_self_test_supported": true,
      "selective_self_test_supported": true,
      "attribute_autosave_enabled": true,
      "error_logging_supported": true,
      "gp_logging_supported": true
    }
  },
  "ata_sct_capabilities": {
    "value": 63,
    "error_recovery_control_supported": true,
    "feature_control_supported": true,
    "data_table_supported": true
  },
  "ata_smart_attributes": {
    "revision": 16,
    "table": [
      {
        "id": 1,
        "name": "Raw_Read_Error_Rate",
        "value": 100,
        "worst": 100,
        "thresh": 51,
        "when_failed": "",
        "flags": {
          "value": 15,
          "string": "POSR-- ",
          "prefailure": true,
          "updated_online": true,
          "performance": true,
          "error_rate": true,
          "event_count": false,
          "auto_keep": false
        },
        "raw": {
          "value": 0,
          "string": "0"
        }
      },
      {
        "id": 3,
        "name": "Spin_Up_Time",
        "value": 87,
        "worst": 87,
        "thresh": 11,
        "when_failed": "",
        "flags": {
          "value": 7,
          "string": "POS--- ",
          "prefailure": true,
          "updated_online": true,
          "performance": true,
          "error_rate": false,
          "event_count": false,
          "auto_keep": false
        },
        "raw": {
          "value": 4740,
          "string": "4740"
        }
      },
      {
        "id": 4,
        "name": "Start_Stop_Count",
        "value": 98,
        "worst": 98,
        "thresh": 0,
        "when_failed": "",
        "flags": {
          "value": 50,
          "string": "-O--CK ",
          "prefailure": false,
          "updated_online": true,
          "performance": false,
          "error_rate": false,
          "event_count": true,
          "auto_keep": true
        },
        "raw": {
          "value": 1551,
          "string": "1551"
        }
      },
      {
        "id": 5,
        "name": "Reallocated_Sector_Ct",
        "value": 100,
        "worst": 100,
        "thresh": 10,
        "when_failed": "",
        "flags": {
          "value": 51,
          "string": "PO--CK ",
          "prefailure": true,
          "updated_online": true,
          "performance": false,
          "error_rate": false,
          "event_count": true,
          "auto_keep": true
        },
        "raw": {
          "value": 0,
          "string": "0"
        }
      },
      {
        "id": 7,
        "name": "Seek_Error_Rate",
        "value": 100,
        "worst": 100,
        "thresh": 0,
        "when_failed": "",
        "flags": {
          "value": 14,
          "string": "-OSR-- ",
          "prefailure": false,
          "updated_online": true,
          "performance": true,
          "error_rate": true,
          "event_count": false,
          "auto_keep": false
        },
        "raw": {
          "value": 0,
          "string": "0"
        }
      },
      {
        "id": 8,
        "name": "Seek_Time_Performance",
        "value": 100,
        "worst": 100,
        "thresh": 0,
        "when_failed": "",
        "flags": {
          "value": 36,
          "string": "--S--K ",
          "prefailure": false,
          "updated_online": false,
          "performance": true,
          "error_rate": false,
          "event_count": false,
          "auto_keep": true
        },
        "raw": {
          "value": 11362,
          "string": "11362"
        }
      },
      {
        "id": 9,
        "name": "Power_On_Hours",
        "value": 95,
        "worst": 95,
        "thresh": 0,
        "when_failed": "",
        "flags": {
          "value": 50,
          "string": "-O--CK ",
          "prefailure": false,
          "updated_online": true,
          "performance": false,
          "error_rate": false,
          "event_count": true,
          "auto_keep": true
        },
        "raw": {
          "value": 24012,
          "string": "24012"
        }
      },
      {
        "id": 10,
        "name": "Spin_Retry_Count",
        "value": 100,
        "worst": 100,
        "thresh": 0,
        "when_failed": "",
        "flags": {
          "value": 50,
          "string": "-O--CK ",
          "prefailure": false,
          "updated_online": true,
          "performance": false,
          "error_rate": false,
          "event_count": true,
          "auto_keep": true
        },
        "raw": {
          "value": 0,
          "string": "0"
        }
      },
      {
        "id": 11,
        "name": "Calibration_Retry_Count",
        "value": 100,
        "worst": 100,
        "thresh": 0,
        "when_failed": "",
        "flags": {
          "value": 18,
          "string": "-O--C- ",
          "prefailure": false,
          "updated_online": true,
          "performance": false,
          "error_rate": false,
          "event_count": true,
          "auto_keep": false
        },
        "raw": {
          "value": 0,
          "string": "0"
        }
      },
      {
        "id": 12,
        "name": "Power_Cycle_Count",
        "value": 99,
        "worst": 99,
        "thresh": 0,
        "when_failed": "",
        "flags": {
          "value": 50,
          "string": "-O--CK ",
          "prefailure": false,
          "updated_online": true,
          "performance": false,
          "error_rate": false,
          "event_count": true,
          "auto_keep": true
        },
        "raw": {
          "value": 1482,
          "string": "1482"
        }
      },
      {
        "id": 13,
        "name": "Read_Soft_Error_Rate",
        "value": 100,
        "worst": 100,
        "thresh": 0,
        "when_failed": "",
        "flags": {
          "value": 14,
          "string": "-OSR-- ",
          "prefailure": false,
          "updated_online": true,
          "performance": true,
          "error_rate": true,
          "event_count": false,
          "auto_keep": false
        },
        "raw": {
          "value": 0,
          "string": "0"
        }
      },
      {
        "id": 183,
        "name": "Runtime_Bad_Block",
        "value": 100,
        "worst": 100,
        "thresh": 0,
        "when_failed": "",
        "flags": {
          "value": 50,
          "string": "-O--CK ",
          "prefailure": false,
          "updated_online": true,
          "performance": false,
          "error_rate": false,
          "event_count": true,
          "auto_keep": true
        },
        "raw": {
          "value": 0,
          "string": "0"
        }
      },
      {
        "id": 184,
        "name": "End-to-End_Error",
        "value": 100,
        "worst": 100,
        "thresh": 99,
        "when_failed": "",
        "flags": {
          "value": 51,
          "string": "PO--CK ",
          "prefailure": true,
          "updated_online": true,
          "performance": false,
          "error_rate": false,
          "event_count": true,
          "auto_keep": true
        },
        "raw": {
          "value": 0,
          "string": "0"
        }
      },
      {
        "id": 187,
        "name": "Reported_Uncorrect",
        "value": 100,
        "worst": 100,
        "thresh": 0,
        "when_failed": "",
        "flags": {
          "value": 50,
          "string": "-O--CK ",
          "prefailure": false,
          "updated_online": true,
          "performance": false,
          "error_rate": false,
          "event_count": true,
          "auto_keep": true
        },
        "raw": {
          "value": 0,
          "string": "0"
        }
      },
      {
        "id": 188,
        "name": "Command_Timeout",
        "value": 100,
        "worst": 100,
        "thresh": 0,
        "when_failed": "",
        "flags": {
          "value": 50,
          "string": "-O--CK ",
          "prefailure": false,
          "updated_online": true,
          "performance": false,
          "error_rate": false,
          "event_count": true,
          "auto_keep": true
        },
        "raw": {
          "value": 0,
          "string": "0"
        }
      },
      {
        "id": 190,
        "name": "Airflow_Temperature_Cel",
        "value": 85,
        "worst": 66,
        "thresh": 0,
        "when_failed": "",
        "flags": {
          "value": 34,
          "string": "-O---K ",
          "prefailure": false,
          "updated_online": true,
          "performance": false,
          "error_rate": false,
          "event_count": false,
          "auto_keep": true
        },
        "raw": {
          "value": 252641295,
          "string": "15 (Min/Max 15/15)"
        }
      },
      {
        "id": 194,
        "name": "Temperature_Celsius",
        "value": 84,
        "worst": 65,
        "thresh": 0,
        "when_failed": "",
        "flags": {
          "value": 34,
          "string": "-O---K ",
          "prefailure": false,
          "updated_online": true,
          "performance": false,
          "error_rate": false,
          "event_count": false,
          "auto_keep": true
        },
        "raw": {
          "value": 269418512,
          "string": "16 (Min/Max 15/16)"
        }
      },
      {
        "id": 195,
        "name": "Hardware_ECC_Recovered",
        "value": 100,
        "worst": 100,
        "thresh": 0,
        "when_failed": "",
        "flags": {
          "value": 26,
          "string": "-O-RC- ",
          "prefailure": false,
          "updated_online": true,
          "performance": false,
          "error_rate": true,
          "event_count": true,
          "auto_keep": false
        },
        "raw": {
          "value": 53,
          "string": "53"
        }
      },
      {
        "id": 196,
        "name": "Reallocated_Event_Count",
        "value": 100,
        "worst": 100,
        "thresh": 0,
        "when_failed": "",
        "flags": {
          "value": 50,
          "string": "-O--CK ",
          "prefailure": false,
          "updated_online": true,
          "performance": false,
          "error_rate": false,
          "event_count": true,
          "auto_keep": true
        },
        "raw": {
          "value": 0,
          "string": "0"
        }
      },
      {
        "id": 197,
        "name": "Current_Pending_Sector",
        "value": 100,
        "worst": 100,
        "thresh": 0,
        "when_failed": "",
        "flags": {
          "value": 18,
          "string": "-O--C- ",
          "prefailure": false,
          "updated_online": true,
          "performance": false,
          "error_rate": false,
          "event_count": true,
          "auto_keep": false
        },
        "raw": {
          "value": 0,
          "string": "0"
        }
      },
      {
        "id": 198,
        "name": "Offline_Uncorrectable",
        "value": 100,
        "worst": 100,
        "thresh": 0,
        "when_failed": "",
        "flags": {
          "value": 48,
          "string": "----CK ",
          "prefailure": false,
          "updated_online": false,
          "performance": false,
          "error_rate": false,
          "event_count": true,
          "auto_keep": true
        },
        "raw": {
          "value": 0,
          "string": "0"
        }
      },
      {
        "id": 199,
        "name": "UDMA_CRC_Error_Count",
        "value": 100,
        "worst": 100,
        "thresh": 0,
        "when_failed": "",
        "flags": {
          "value": 62,
          "string": "-OSRCK ",
          "prefailure": false,
          "updated_online": true,
          "performance": true,
          "error_rate": true,
          "event_count": true,
          "auto_keep": true
        },
        "raw": {
          "value": 1,
          "string": "1"
        }
      },
      {
        "id": 200,
        "name": "Multi_Zone_Error_Rate",
        "value": 100,
        "worst": 100,
        "thresh": 0,
        "when_failed": "",
        "flags": {
          "value": 10,
          "string": "-O-R-- ",
          "prefailure": false,
          "updated_online": true,
          "performance": false,
          "error_rate": true,
          "event_count": false,
          "auto_keep": false
        },
        "raw": {
          "value": 0,
          "string": "0"
        }
      },
      {
        "id": 201,
        "name": "Soft_Read_Error_Rate",
        "value": 253,
        "worst": 253,
        "thresh": 0,
        "when_failed": "",
        "flags": {
          "value": 10,
          "string": "-O-R-- ",
          "prefailure": false,
          "updated_online": true,
          "performance": false,
          "error_rate": true,
          "event_count": false,
          "auto_keep": false
        },
        "raw": {
          "value": 0,
          "string": "0"
        }
      }
    ]
  },
  "power_on_time": {
    "hours": 24012
  },
  "power_cycle_count": 1482,
  "temperature": {
    "current": 16,
    "power_cycle_max": 17,
    "lifetime_max": 57,
    "op_limit_min": -4,
    "op_limit_max": 72,
    "limit_min": -9,
    "limit_max": 77
  },
  "ata_log_directory": {
    "gp_dir_version": 1,
    "smart_dir_version": 1,
    "smart_dir_multi_sector": true,
    "table": [
      {
        "address": 0,
        "name": "Log Directory",
        "read": true,
        "write": false,
        "gp_sectors": 1,
        "smart_sectors": 1
      },
      {
        "address": 1,
        "name": "Summary SMART error log",
        "read": true,
        "write": false,
        "smart_sectors": 1
      },
      {
        "address": 2,
        "name": "Comprehensive SMART error log",
        "read": true,
        "write": false,
        "smart_sectors": 2
      },
      {
        "address": 3,
        "name": "Ext. Comprehensive SMART error log",
        "read": true,
        "write": false,
        "gp_sectors": 2
      },
      {
        "address": 6,
        "name": "SMART self-test log",
        "read": true,
        "write": false,
        "smart_sectors": 1
      },
      {
        "address": 7,
        "name": "Extended self-test log",
        "read": true,
        "write": false,
        "gp_sectors": 2
      },
      {
        "address": 9,
        "name": "Selective self-test log",
        "read": true,
        "write": true,
        "smart_sectors": 1
      },
      {
        "address": 16,
        "name": "NCQ Command Error log",
        "read": true,
        "write": false,
        "gp_sectors": 1
      },
      {
        "address": 17,
        "name": "SATA Phy Event Counters log",
        "read": true,
        "write": false,
        "gp_sectors": 1
      },
      {
        "address": 64,
        "name": "Reserved",
        "gp_sectors": 2
      },
      {
        "address": 128,
        "name": "Host vendor specific log",
        "read": true,
        "write": true,
        "gp_sectors": 16,
        "smart_sectors": 16
      },
      {
        "address": 129,
        "name": "Host vendor specific log",
        "read": true,
        "write": true,
        "gp_sectors": 16,
        "smart_sectors": 16
      },
      {
        "address": 130,
        "name": "Host vendor specific log",
        "read": true,
        "write": true,
        "gp_sectors": 16,
        "smart_sectors": 16
      },
      {
        "address": 131,
        "name": "Host vendor specific log",
        "read": true,
        "write": true,
        "gp_sectors": 16,
        "smart_sectors": 16
      },
      {
        "address": 132,
        "name": "Host vendor specific log",
        "read": true,
        "write": true,
        "gp_sectors": 16,
        "smart_sectors": 16
      },
      {
        "address": 133,
        "name": "Host vendor specific log",
        "read": true,
        "write": true,
        "gp_sectors": 16,
        "smart_sectors": 16
      },
      {
        "address": 134,
        "name": "Host vendor specific log",
        "read": true,
        "write": true,
        "gp_sectors": 16,
        "smart_sectors": 16
      },
      {
        "address": 135,
        "name": "Host vendor specific log",
        "read": true,
        "write": true,
        "gp_sectors": 16,
        "smart_sectors": 16
      },
      {
        "address": 136,
        "name": "Host vendor specific log",
        "read": true,
        "write": true,
        "gp_sectors": 16,
        "smart_sectors": 16
      },
      {
        "address": 137,
        "name": "Host vendor specific log",
        "read": true,
        "write": true,
        "gp_sectors": 16,
        "smart_sectors": 16
      },
      {
        "address": 138,
        "name": "Host vendor specific log",
        "read": true,
        "write": true,
        "gp_sectors": 16,
        "smart_sectors": 16
      },
      {
        "address": 139,
        "name": "Host vendor specific log",
        "read": true,
        "write": true,
        "gp_sectors": 16,
        "smart_sectors": 16
      },
      {
        "address": 140,
        "name": "Host vendor specific log",
        "read": true,
        "write": true,
        "gp_sectors": 16,
        "smart_sectors": 16
      },
      {
        "address": 141,
        "name": "Host vendor specific log",
        "read": true,
        "write": true,
        "gp_sectors": 16,
        "smart_sectors": 16
      },
      {
        "address": 142,
        "name": "Host vendor specific log",
        "read": true,
        "write": true,
        "gp_sectors": 16,
        "smart_sectors": 16
      },
      {
        "address": 143,
        "name": "Host vendor specific log",
        "read": true,
        "write": true,
        "gp_sectors": 16,
        "smart_sectors": 16
      },
      {
        "address": 144,
        "name": "Host vendor specific log",
        "read": true,
        "write": true,
        "gp_sectors": 16,
        "smart_sectors": 16
      },
      {
        "address": 145,
        "name": "Host vendor specific log",
        "read": true,
        "write": true,
        "gp_sectors": 16,
        "smart_sectors": 16
      },
      {
        "address": 146,
        "name": "Host vendor specific log",
        "read": true,
        "write": true,
        "gp_sectors": 16,
        "smart_sectors": 16
      },
      {
        "address": 147,
        "name": "Host vendor specific log",
        "read": true,
        "write": true,
        "gp_sectors": 16,
        "smart_sectors": 16
      },
      {
        "address": 148,
        "name": "Host vendor specific log",
        "read": true,
        "write": true,
        "gp_sectors": 16,
        "smart_sectors": 16
      },
      {
        "address": 149,
        "name": "Host vendor specific log",
        "read": true,
        "write": true,
        "gp_sectors": 16,
        "smart_sectors": 16
      },
      {
        "address": 150,
        "name": "Host vendor specific log",
        "read": true,
        "write": true,
        "gp_sectors": 16,
        "smart_sectors": 16
      },
      {
        "address": 151,
        "name": "Host vendor specific log",
        "read": true,
        "write": true,
        "gp_sectors": 16,
        "smart_sectors": 16
      },
      {
        "address": 152,
        "name": "Host vendor specific log",
        "read": true,
        "write": true,
        "gp_sectors": 16,
        "smart_sectors": 16
      },
      {
        "address": 153,
        "name": "Host vendor specific log",
        "read": true,
        "write": true,
        "gp_sectors": 16,
        "smart_sectors": 16
      },
      {
        "address": 154,
        "name": "Host vendor specific log",
        "read": true,
        "write": true,
        "gp_sectors": 16,
        "smart_sectors": 16
      },
      {
        "address": 155,
        "name": "Host vendor specific log",
        "read": true,
        "write": true,
        "gp_sectors": 16,
        "smart_sectors": 16
      },
      {
        "address": 156,
        "name": "Host vendor specific log",
        "read": true,
        "write": true,
        "gp_sectors": 16,
        "smart_sectors": 16
      },
      {
        "address": 157,
        "name": "Host vendor specific log",
        "read": true,
        "write": true,
        "gp_sectors": 16,
        "smart_sectors": 16
      },
      {
        "address": 158,
        "name": "Host vendor specific log",
        "read": true,
        "write": true,
        "gp_sectors": 16,
        "smart_sectors": 16
      },
      {
        "address": 159,
        "name": "Host vendor specific log",
        "read": true,
        "write": true,
        "gp_sectors": 16,
        "smart_sectors": 16
      },
      {
        "address": 224,
        "name": "SCT Command/Status",
        "read": true,
        "write": true,
        "gp_sectors": 1,
        "smart_sectors": 1
      },
      {
        "address": 225,
        "name": "SCT Data Transfer",
        "read": true,
        "write": true,
        "gp_sectors": 1,
        "smart_sectors": 1
      }
    ]
  },
  "ata_smart_error_log": {
    "extended": {
      "revision": 1,
      "sectors": 2,
      "count": 1,
      "logged_count": 1,
      "table": [
        {
          "error_number": 1,
          "log_index": 0,
          "lifetime_hours": 21387,
          "device_state": {
            "value": 131,
            "string": "active or idle"
          },
          "completion_registers": {
            "error": 0,
            "status": 128,
            "count": 1,
            "lba": 1,
            "device": 160,
            "device_control": 0
          },
          "error_description": " at LBA = 0x00000001 = 1",
          "previous_commands": [
            {
              "registers": {
                "command": 96,
                "features": 0,
                "count": 39,
                "lba": 1658746,
                "device": 64,
                "device_control": 0
              },
              "powerup_milliseconds": 103394830,
              "command_name": "READ FPDMA QUEUED"
            },
            {
              "registers": {
                "command": 96,
                "features": 0,
                "count": 8,
                "lba": 3037912,
                "device": 64,
                "device_control": 0
              },
              "powerup_milliseconds": 103394830,
              "command_name": "READ FPDMA QUEUED"
            },
            {
              "registers": {
                "command": 96,
                "features": 0,
                "count": 8,
                "lba": 3437216,
                "device": 64,
                "device_control": 0
              },
              "powerup_milliseconds": 103394830,
              "command_name": "READ FPDMA QUEUED"
            },
            {
              "registers": {
                "command": 96,
                "features": 0,
                "count": 64,
                "lba": 2216090,
                "device": 64,
                "device_control": 0
              },
              "powerup_milliseconds": 103394820,
              "command_name": "READ FPDMA QUEUED"
            },
            {
              "registers": {
                "command": 96,
                "features": 0,
                "count": 31,
                "lba": 2437562,
                "device": 64,
                "device_control": 0
              },
              "powerup_milliseconds": 103394810,
              "command_name": "READ FPDMA QUEUED"
            }
          ]
        }
      ]
    }
  },
  "ata_smart_self_test_log": {
    "extended": {
      "revision": 0,
      "sectors": 2,
      "table": [
        {
          "type": {
            "value": 1,
            "string": "Short offline"
          },
          "status": {
            "value": 0,
            "string": "Completed without error",
            "passed": true
          },
          "lifetime_hours": 2
        },
        {
          "type": {
            "value": 1,
            "string": "Short offline"
          },
          "status": {
            "value": 16,
            "string": "Aborted by host"
          },
          "lifetime_hours": 0
        }
      ],
      "count": 2,
      "error_count_total": 0,
      "error_count_outdated": 0
    }
  },
  "ata_smart_selective_self_test_log": {
    "revision": 0,
    "table": [
      {
        "lba_min": 0,
        "lba_max": 0,
        "status": {
          "value": 0,
          "string": "Not_testing"
        }
      },
      {
        "lba_min": 0,
        "lba_max": 0,
        "status": {
          "value": 0,
          "string": "Not_testing"
        }
      },
      {
        "lba_min": 0,
        "lba_max": 0,
        "status": {
          "value": 0,
          "string": "Not_testing"
        }
      },
      {
        "lba_min": 0,
        "lba_max": 0,
        "status": {
          "value": 0,
          "string": "Not_testing"
        }
      },
      {
        "lba_min": 0,
        "lba_max": 0,
        "status": {
          "value": 0,
          "string": "Not_testing"
        }
      }
    ],
    "flags": {
      "value": 0,
      "remainder_scan_enabled": false
    },
    "power_up_scan_resume_minutes": 0
  },
  "ata_sct_status": {
    "format_version": 2,
    "sct_version": 256,
    "device_state": {
      "value": 0,
      "string": "Active"
    },
    "temperature": {
      "current": 16,
      "power_cycle_max": 17,
      "lifetime_max": 57
    }
  },
  "ata_sct_temperature_history": {
    "version": 2,
    "sampling_period_minutes": 1,
    "logging_interval_minutes": 1,
    "temperature": {
      "op_limit_min": -4,
      "op_limit_max": 72,
      "limit_min": -9,
      "limit_max": 77
    },
    "size": 128,
    "index": 74,
    "table": [
      20,
      21,
      21,
      22,
      22,
      23,
      23,
      24,
      24,
      24,
      25,
      25,
      25,
      26,
      26,
      26,
      27,
      27,
      27,
      27,
      28,
      28,
      28,
      28,
      28,
      29,
      29,
      29,
      29,
      29,
      29,
      29,
      30,
      30,
      30,
      30,
      30,
      30,
      30,
      29,
      29,
      29,
      29,
      29,
      29,
      29,
      29,
      29,
      29,
      29,
      29,
      28,
      28,
      null,
      23,
      23,
      23,
      23,
      23,
      23,
      23,
      23,
      23,
      23,
      23,
      23,
      23,
      23,
      23,
      23,
      23,
      23,
      23,
      23,
      24,
      24,
      24,
      24,
      24,
      25,
      25,
      25,
      25,
      null,
      19,
      19,
      19,
      19,
      19,
      19,
      19,
      19,
      19,
      19,
      19,
      19,
      19,
      19,
      19,
      19,
      19,
      19,
      19,
      19,
      19,
      19,
      19,
      19,
      19,
      19,
      19,
      19,
      19,
      19,
      null,
      15,
      16,
      17,
      16,
      16,
      16,
      16,
      16,
      16,
      16,
      16,
      16,
      16
    ]
  },
  "ata_sct_erc": {
    "read": {
      "enabled": false
    },
    "write": {
      "enabled": false
    }
  },
  "sata_phy_event_counters": {
    "table": [
      {
        "id": 10,
        "name": "Device-to-host register FISes sent due to a COMRESET",
        "size": 2,
        "value": 0,
        "overflow": false
      },
      {
        "id": 1,
        "name": "Command failed due to ICRC error",
        "size": 2,
        "value": 0,
        "overflow": false
      },
      {
        "id": 2,
        "name": "R_ERR response for data FIS",
        "size": 2,
        "value": 0,
        "overflow": false
      },
      {
        "id": 3,
        "name": "R_ERR response for device-to-host data FIS",
        "size": 2,
        "value": 0,
        "overflow": false
      },
      {
        "id": 4,
        "name": "R_ERR response for host-to-device data FIS",
        "size": 2,
        "value": 0,
        "overflow": false
      },
      {
        "id": 5,
        "name": "R_ERR response for non-data FIS",
        "size": 2,
        "value": 0,
        "overflow": false
      },
      {
        "id": 6,
        "name": "R_ERR response for device-to-host non-data FIS",
        "size": 2,
        "value": 0,
        "overflow": false
      },
      {
        "id": 7,
        "name": "R_ERR response for host-to-device non-data FIS",
        "size": 2,
        "value": 0,
        "overflow": false
      },
      {
        "id": 8,
        "name": "Device-to-host non-data FIS retries",
        "size": 2,
        "value": 0,
        "overflow": false
      },
      {
        "id": 9,
        "name": "Transition from drive PhyRdy to drive PhyNRdy",
        "size": 2,
        "value": 0,
        "overflow": false
      },
      {
        "id": 11,
        "name": "CRC errors within host-to-device FIS",
        "size": 2,
        "value": 0,
        "overflow": false
      },
      {
        "id": 13,
        "name": "Non-CRC errors within host-to-device FIS",
        "size": 2,
        "value": 0,
        "overflow": false
      },
      {
        "id": 15,
        "name": "R_ERR response for host-to-device data FIS, CRC",
        "size": 2,
        "value": 0,
        "overflow": false
      },
      {
        "id": 16,
        "name": "R_ERR response for host-to-device data FIS, non-CRC",
        "size": 2,
        "value": 0,
        "overflow": false
      },
      {
        "id": 18,
        "name": "R_ERR response for host-to-device non-data FIS, CRC",
        "size": 2,
        "value": 0,
        "overflow": false
      },
      {
        "id": 19,
        "name": "R_ERR response for host-to-device non-data FIS, non-CRC",
        "size": 2,
        "value": 0,
        "overflow": false
      }
    ],
    "reset": false
  }
}
