{
  "json_format_version": [
    1,
    0
  ],
  "smartctl": {
    "version": [
      7,
      2
    ],
    "svn_revision": "5155",
    "platform_info": "x86_64-linux-5.13.0-22-generic",
    "build_info": "(local build)",
    "argv": [
      "smartctl",
      "-jx",
      "/dev/sdb"
    ],
    "exit_status": 4
  },
  "device": {
    "name": "/dev/sdb",
    "info_name": "/dev/sdb [SAT]",
    "type": "sat",
    "protocol": "ATA"
  },
  "model_family": "Apacer SDM4 Series SSD Module",
  "model_name": "4GB SATA Flash Drive",
  "serial_number": "00121081520400830580",
  "firmware_version": "SFI2101D",
  "user_capacity": {
    "blocks": 7719264,
    "bytes": 3952263168
  },
  "logical_block_size": 512,
  "physical_block_size": 512,
  "rotation_rate": 0,
  "trim": {
    "supported": true,
    "deterministic": false,
    "zeroed": false
  },
  "in_smartctl_database": true,
  "ata_version": {
    "string": "ATA8-ACS, ATA/ATAPI-4 published, ANSI NCITS 317-1998",
    "major_value": 510,
    "minor_value": 18
  },
  "sata_version": {
    "string": "SATA 2.6",
    "value": 16
  },
  "interface_speed": {
    "max": {
      "sata_value": 6,
      "string": "3.0 Gb/s",
      "units_per_second": 30,
      "bits_per_unit": 100000000
    }
  },
  "local_time": {
    "time_t": 1641862040,
    "asctime": "Mon Jan 10 17:47:20 2022 MST"
  },
  "read_lookahead": {
    "enabled": true
  },
  "write_cache": {
    "enabled": true
  },
  "ata_security": {
    "state": 1,
    "string": "Disabled, NOT FROZEN [SEC1]",
    "enabled": false,
    "frozen": false
  },
  "smart_status": {
    "passed": true
  },
  "ata_smart_data": {
    "offline_data_collection": {
      "status": {
        "value": 0,
        "string": "was never started"
      },
      "completion_seconds": 1
    },
    "self_test": {
      "status": {
        "value": 0,
        "string": "completed without error",
        "passed": true
      },
      "polling_minutes": {
        "short": 1,
        "extended": 1,
        "conveyance": 1
      }
    },
    "capabilities": {
      "values": [
        117,
        3
      ],
      "exec_offline_immediate_supported": true,
      "offline_is_aborted_upon_new_cmd": true,
      "offline_surface_scan_supported": false,
      "self_tests_supported": true,
      "conveyance_self_test_supported": true,
      "selective_self_test_supported": true,
      "attribute_autosave_enabled": true,
      "error_logging_supported": true,
      "gp_logging_supported": false
    }
  },
  "ata_smart_attributes": {
    "revision": 7,
    "table": [
      {
        "id": 12,
        "name": "Power_Cycle_Count",
        "value": 100,
        "worst": 100,
        "thresh": 0,
        "when_failed": "",
        "flags": {
          "value": 512,
          "string": "------+",
          "prefailure": false,
          "updated_online": false,
          "performance": false,
          "error_rate": false,
          "event_count": false,
          "auto_keep": false,
          "other": 512
        },
        "raw": {
          "value": 1677,
          "string": "1677"
        }
      },
      {
        "id": 160,
        "name": "Initial_Bad_Block_Count",
        "value": 100,
        "worst": 100,
        "thresh": 0,
        "when_failed": "",
        "flags": {
          "value": 512,
          "string": "------+",
          "prefailure": false,
          "updated_online": false,
          "performance": false,
          "error_rate": false,
          "event_count": false,
          "auto_keep": false,
          "other": 512
        },
        "raw": {
          "value": 8,
          "string": "8"
        }
      },
      {
        "id": 161,
        "name": "Bad_Block_Count",
        "value": 100,
        "worst": 100,
        "thresh": 0,
        "when_failed": "",
        "flags": {
          "value": 512,
          "string": "------+",
          "prefailure": false,
          "updated_online": false,
          "performance": false,
          "error_rate": false,
          "event_count": false,
          "auto_keep": false,
          "other": 512
        },
        "raw": {
          "value": 8,
          "string": "8"
        }
      },
      {
        "id": 162,
        "name": "Spare_Block_Count",
        "value": 100,
        "worst": 100,
        "thresh": 0,
        "when_failed": "",
        "flags": {
          "value": 512,
          "string": "------+",
          "prefailure": false,
          "updated_online": false,
          "performance": false,
          "error_rate": false,
          "event_count": false,
          "auto_keep": false,
          "other": 512
        },
        "raw": {
          "value": 312,
          "string": "312"
        }
      },
      {
        "id": 163,
        "name": "Max_Erase_Count",
        "value": 100,
        "worst": 100,
        "thresh": 0,
        "when_failed": "",
        "flags": {
          "value": 512,
          "string": "------+",
          "prefailure": false,
          "updated_online": false,
          "performance": false,
          "error_rate": false,
          "event_count": false,
          "auto_keep": false,
          "other": 512
        },
        "raw": {
          "value": 642,
          "string": "642"
        }
      },
      {
        "id": 164,
        "name": "Average_Erase_Count",
        "value": 100,
        "worst": 100,
        "thresh": 0,
        "when_failed": "",
        "flags": {
          "value": 512,
          "string": "------+",
          "prefailure": false,
          "updated_online": false,
          "performance": false,
          "error_rate": false,
          "event_count": false,
          "auto_keep": false,
          "other": 512
        },
        "raw": {
          "value": 515,
          "string": "515"
        }
      },
      {
        "id": 165,
        "name": "Average_Erase_Count",
        "value": 100,
        "worst": 100,
        "thresh": 0,
        "when_failed": "",
        "flags": {
          "value": 512,
          "string": "------+",
          "prefailure": false,
          "updated_online": false,
          "performance": false,
          "error_rate": false,
          "event_count": false,
          "auto_keep": false,
          "other": 512
        },
        "raw": {
          "value": 515,
          "string": "515"
        }
      },
      {
        "id": 241,
        "name": "Total_LBAs_Written",
        "value": 100,
        "worst": 100,
        "thresh": 0,
        "when_failed": "",
        "flags": {
          "value": 512,
          "string": "------+",
          "prefailure": false,
          "updated_online": false,
          "performance": false,
          "error_rate": false,
          "event_count": false,
          "auto_keep": false,
          "other": 512
        },
        "raw": {
          "value": 449540054,
          "string": "449540054"
        }
      }
    ]
  },
  "power_cycle_count": 1677,
  "ata_log_directory": {
    "smart_dir_version": 1,
    "smart_dir_multi_sector": true,
    "table": [
      {
        "address": 0,
        "name": "Log Directory",
        "read": true,
        "write": false,
        "smart_sectors": 1
      },
      {
        "address": 128,
        "name": "Host vendor specific log",
        "read": true,
        "write": true,
        "smart_sectors": 16
      },
      {
        "address": 129,
        "name": "Host vendor specific log",
        "read": true,
        "write": true,
        "smart_sectors": 16
      },
      {
        "address": 130,
        "name": "Host vendor specific log",
        "read": true,
        "write": true,
        "smart_sectors": 16
      },
      {
        "address": 131,
        "name": "Host vendor specific log",
        "read": true,
        "write": true,
        "smart_sectors": 16
      },
      {
        "address": 132,
        "name": "Host vendor specific log",
        "read": true,
        "write": true,
        "smart_sectors": 16
      },
      {
        "address": 133,
        "name": "Host vendor specific log",
        "read": true,
        "write": true,
        "smart_sectors": 16
      },
      {
        "address": 134,
        "name": "Host vendor specific log",
        "read": true,
        "write": true,
        "smart_sectors": 16
      },
      {
        "address": 135,
        "name": "Host vendor specific log",
        "read": true,
        "write": true,
        "smart_sectors": 16
      },
      {
        "address": 136,
        "name": "Host vendor specific log",
        "read": true,
        "write": true,
        "smart_sectors": 16
      },
      {
        "address": 137,
        "name": "Host vendor specific log",
        "read": true,
        "write": true,
        "smart_sectors": 16
      },
      {
        "address": 138,
        "name": "Host vendor specific log",
        "read": true,
        "write": true,
        "smart_sectors": 16
      },
      {
        "address": 139,
        "name": "Host vendor specific log",
        "read": true,
        "write": true,
        "smart_sectors": 16
      },
      {
        "address": 140,
        "name": "Host vendor specific log",
        "read": true,
        "write": true,
        "smart_sectors": 16
      },
      {
        "address": 141,
        "name": "Host vendor specific log",
        "read": true,
        "write": true,
        "smart_sectors": 16
      },
      {
        "address": 142,
        "name": "Host vendor specific log",
        "read": true,
        "write": true,
        "smart_sectors": 16
      },
      {
        "address": 143,
        "name": "Host vendor specific log",
        "read": true,
        "write": true,
        "smart_sectors": 16
      },
      {
        "address": 144,
        "name": "Host vendor specific log",
        "read": true,
        "write": true,
        "smart_sectors": 16
      },
      {
        "address": 145,
        "name": "Host vendor specific log",
        "read": true,
        "write": true,
        "smart_sectors": 16
      },
      {
        "address": 146,
        "name": "Host vendor specific log",
        "read": true,
        "write": true,
        "smart_sectors": 16
      },
      {
        "address": 147,
        "name": "Host vendor specific log",
        "read": true,
        "write": true,
        "smart_sectors": 16
      },
      {
        "address": 148,
        "name": "Host vendor specific log",
        "read": true,
        "write": true,
        "smart_sectors": 16
      },
      {
        "address": 149,
        "name": "Host vendor specific log",
        "read": true,
        "write": true,
        "smart_sectors": 16
      },
      {
        "address": 150,
        "name": "Host vendor specific log",
        "read": true,
        "write": true,
        "smart_sectors": 16
      },
      {
        "address": 151,
        "name": "Host vendor specific log",
        "read": true,
        "write": true,
        "smart_sectors": 16
      },
      {
        "address": 152,
        "name": "Host vendor specific log",
        "read": true,
        "write": true,
        "smart_sectors": 16
      },
      {
        "address": 153,
        "name": "Host vendor specific log",
        "read": true,
        "write": true,
        "smart_sectors": 16
      },
      {
        "address": 154,
        "name": "Host vendor specific log",
        "read": true,
        "write": true,
        "smart_sectors": 16
      },
      {
        "address": 155,
        "name": "Host vendor specific log",
        "read": true,
        "write": true,
        "smart_sectors": 16
      },
      {
        "address": 156,
        "name": "Host vendor specific log",
        "read": true,
        "write": true,
        "smart_sectors": 16
      },
      {
        "address": 157,
        "name": "Host vendor specific log",
        "read": true,
        "write": true,
        "smart_sectors": 16
      },
      {
        "address": 158,
        "name": "Host vendor specific log",
        "read": true,
        "write": true,
        "smart_sectors": 16
      },
      {
        "address": 159,
        "name": "Host vendor specific log",
        "read": true,
        "write": true,
        "smart_sectors": 16
      },
      {
        "address": 160,
        "name": "Device vendor specific log",
        "smart_sectors": 16
      },
      {
        "address": 161,
        "name": "Device vendor specific log",
        "smart_sectors": 16
      },
      {
        "address": 162,
        "name": "Device vendor specific log",
        "smart_sectors": 16
      },
      {
        "address": 163,
        "name": "Device vendor specific log",
        "smart_sectors": 16
      },
      {
        "address": 164,
        "name": "Device vendor specific log",
        "smart_sectors": 16
      },
      {
        "address": 165,
        "name": "Device vendor specific log",
        "smart_sectors": 16
      },
      {
        "address": 166,
        "name": "Device vendor specific log",
        "smart_sectors": 16
      },
      {
        "address": 167,
        "name": "Device vendor specific log",
        "smart_sectors": 16
      },
      {
        "address": 168,
        "name": "Device vendor specific log",
        "smart_sectors": 16
      },
      {
        "address": 169,
        "name": "Device vendor specific log",
        "smart_sectors": 16
      },
      {
        "address": 170,
        "name": "Device vendor specific log",
        "smart_sectors": 16
      },
      {
        "address": 171,
        "name": "Device vendor specific log",
        "smart_sectors": 16
      },
      {
        "address": 172,
        "name": "Device vendor specific log",
        "smart_sectors": 16
      },
      {
        "address": 173,
        "name": "Device vendor specific log",
        "smart_sectors": 16
      },
      {
        "address": 174,
        "name": "Device vendor specific log",
        "smart_sectors": 16
      },
      {
        "address": 175,
        "name": "Device vendor specific log",
        "smart_sectors": 16
      },
      {
        "address": 176,
        "name": "Device vendor specific log",
        "smart_sectors": 16
      },
      {
        "address": 177,
        "name": "Device vendor specific log",
        "smart_sectors": 16
      },
      {
        "address": 178,
        "name": "Device vendor specific log",
        "smart_sectors": 16
      },
      {
        "address": 179,
        "name": "Device vendor specific log",
        "smart_sectors": 16
      },
      {
        "address": 180,
        "name": "Device vendor specific log",
        "smart_sectors": 16
      },
      {
        "address": 181,
        "name": "Device vendor specific log",
        "smart_sectors": 16
      },
      {
        "address": 182,
        "name": "Device vendor specific log",
        "smart_sectors": 16
      },
      {
        "address": 183,
        "name": "Device vendor specific log",
        "smart_sectors": 16
      },
      {
        "address": 184,
        "name": "Device vendor specific log",
        "smart_sectors": 16
      },
      {
        "address": 185,
        "name": "Device vendor specific log",
        "smart_sectors": 16
      },
      {
        "address": 186,
        "name": "Device vendor specific log",
        "smart_sectors": 16
      },
      {
        "address": 187,
        "name": "Device vendor specific log",
        "smart_sectors": 16
      },
      {
        "address": 188,
        "name": "Device vendor specific log",
        "smart_sectors": 16
      },
      {
        "address": 189,
        "name": "Device vendor specific log",
        "smart_sectors": 16
      },
      {
        "address": 190,
        "name": "Device vendor specific log",
        "smart_sectors": 16
      },
      {
        "address": 191,
        "name": "Device vendor specific log",
        "smart_sectors": 16
      }
    ]
  }
}
