smartctl 7.1 2019-12-30 r5022 [x86_64-linux-5.11.0-25-generic] (local build)
Copyright (C) 2002-19, Bruce Allen, Christian Franke, www.smartmontools.org

=== START OF INFORMATION SECTION ===
Model Family:     Hitachi/HGST Travelstar Z5K500
Device Model:     HGST HTS545050A7E680
Serial Number:    150504RBF50CMQ03RJTL
LU WWN Device Id: 5 000cca 800c1b1bb
Firmware Version: GR2OA320
User Capacity:    500,107,862,016 bytes [500 GB]
Sector Sizes:     512 bytes logical, 4096 bytes physical
Rotation Rate:    5400 rpm
Form Factor:      2.5 inches
Device is:        In smartctl database [for details use: -P show]
ATA Version is:   ATA8-ACS T13/1699-D revision 6
SATA Version is:  SATA 2.6, 3.0 Gb/s (current: 3.0 Gb/s)
Local Time is:    Fri Aug 13 17:56:25 2021 MDT
SMART support is: Available - device has SMART capability.
SMART support is: Enabled
AAM feature is:   Unavailable
APM level is:     254 (maximum performance)
Rd look-ahead is: Enabled
Write cache is:   Enabled
DSN feature is:   Unavailable
ATA Security is:  Disabled, NOT FROZEN [SEC1]
Wt Cache Reorder: Enabled

=== START OF READ SMART DATA SECTION ===
SMART overall-health self-assessment test result: PASSED

General SMART Values:
Offline data collection status:  (0x00)	Offline data collection activity
					was never started.
					Auto Offline Data Collection: Disabled.
Self-test execution status:      (   0)	The previous self-test routine completed
					without error or no self-test has ever 
					been run.
Total time to complete Offline 
data collection: 		(   45) seconds.
Offline data collection
capabilities: 			 (0x5b) SMART execute Offline immediate.
					Auto Offline data collection on/off support.
					Suspend Offline collection upon new
					command.
					Offline surface scan supported.
					Self-test supported.
					No Conveyance Self-test supported.
					Selective Self-test supported.
SMART capabilities:            (0x0003)	Saves SMART data before entering
					power-saving mode.
					Supports SMART auto save timer.
Error logging capability:        (0x01)	Error logging supported.
					General Purpose Logging supported.
Short self-test routine 
recommended polling time: 	 (   2) minutes.
Extended self-test routine
recommended polling time: 	 ( 107) minutes.
SCT capabilities: 	       (0x003d)	SCT Status supported.
					SCT Error Recovery Control supported.
					SCT Feature Control supported.
					SCT Data Table supported.

SMART Attributes Data Structure revision number: 16
Vendor Specific SMART Attributes with Thresholds:
ID# ATTRIBUTE_NAME          FLAGS    VALUE WORST THRESH FAIL RAW_VALUE
  1 Raw_Read_Error_Rate     PO-R--   086   086   062    -    8257536
  2 Throughput_Performance  P-S---   100   100   040    -    0
  3 Spin_Up_Time            POS---   100   100   033    -    1
  4 Start_Stop_Count        -O--C-   100   100   000    -    7
  5 Reallocated_Sector_Ct   PO--CK   100   100   005    -    0
  7 Seek_Error_Rate         PO-R--   100   100   067    -    0
  8 Seek_Time_Performance   P-S---   100   100   040    -    0
  9 Power_On_Hours          -O--C-   100   100   000    -    0
 10 Spin_Retry_Count        PO--C-   100   100   060    -    0
 12 Power_Cycle_Count       -O--CK   100   100   000    -    7
191 G-Sense_Error_Rate      -O-R--   100   100   000    -    0
192 Power-Off_Retract_Count -O--CK   100   100   000    -    5
193 Load_Cycle_Count        -O--C-   100   100   000    -    8
194 Temperature_Celsius     -O----   222   222   000    -    27 (Min/Max 23/33)
196 Reallocated_Event_Count -O--CK   100   100   000    -    0
197 Current_Pending_Sector  -O---K   089   089   000    -    472
198 Offline_Uncorrectable   ---R--   100   100   000    -    0
199 UDMA_CRC_Error_Count    -O-R--   200   200   000    -    0
223 Load_Retry_Count        -O-R--   100   100   000    -    0
                            ||||||_ K auto-keep
                            |||||__ C event count
                            ||||___ R error rate
                            |||____ S speed/performance
                            ||_____ O updated online
                            |______ P prefailure warning

General Purpose Log Directory Version 1
SMART           Log Directory Version 1 [multi-sector log support]
Address    Access  R/W   Size  Description
0x00       GPL,SL  R/O      1  Log Directory
0x01           SL  R/O      1  Summary SMART error log
0x02           SL  R/O      1  Comprehensive SMART error log
0x03       GPL     R/O      1  Ext. Comprehensive SMART error log
0x06           SL  R/O      1  SMART self-test log
0x07       GPL     R/O      1  Extended self-test log
0x09           SL  R/W      1  Selective self-test log
0x10       GPL     R/O      1  NCQ Command Error log
0x11       GPL     R/O      1  SATA Phy Event Counters log
0x80-0x9f  GPL,SL  R/W     16  Host vendor specific log
0xe0       GPL,SL  R/W      1  SCT Command/Status
0xe1       GPL,SL  R/W      1  SCT Data Transfer

SMART Extended Comprehensive Error Log Version: 1 (1 sectors)
Device Error Count: 20449 (device log contains only the most recent 4 errors)
	CR     = Command Register
	FEATR  = Features Register
	COUNT  = Count (was: Sector Count) Register
	LBA_48 = Upper bytes of LBA High/Mid/Low Registers ]  ATA-8
	LH     = LBA High (was: Cylinder High) Register    ]   LBA
	LM     = LBA Mid (was: Cylinder Low) Register      ] Register
	LL     = LBA Low (was: Sector Number) Register     ]
	DV     = Device (was: Device/Head) Register
	DC     = Device Control Register
	ER     = Error register
	ST     = Status register
Powered_Up_Time is measured from power on, and printed as
DDd+hh:mm:SS.sss where DD=days, hh=hours, mm=minutes,
SS=sec, and sss=millisec. It "wraps" after 49.710 days.

Error 20449 [0] occurred at disk power-on lifetime: 0 hours (0 days + 0 hours)
  When the command that caused the error occurred, the device was active or idle.

  After command completion occurred, registers were:
  ER -- ST COUNT  LBA_48  LH LM LL DV DC
  -- -- -- == -- == == == -- -- -- -- --
  40 -- 51 00 08 00 00 3a 38 5f 80 0a 00  Error: UNC at LBA = 0x3a385f80 = 976772992

  Commands leading to the command that caused the error were:
  CR FEATR COUNT  LBA_48  LH LM LL DV DC  Powered_Up_Time  Command/Feature_Name
  -- == -- == -- == == == -- -- -- -- --  ---------------  --------------------
  60 00 08 00 f8 00 00 3a 38 5f 80 40 00     00:00:04.007  READ FPDMA QUEUED
  ef 00 10 00 02 00 00 00 00 00 00 a0 00     00:00:04.006  SET FEATURES [Enable SATA feature]
  27 00 00 00 00 00 00 00 00 00 00 e0 00     00:00:04.006  READ NATIVE MAX ADDRESS EXT [OBS-ACS-3]
  ec 00 00 00 00 00 00 00 00 00 00 a0 00     00:00:04.005  IDENTIFY DEVICE
  ef 00 03 00 46 00 00 00 00 00 00 a0 00     00:00:04.005  SET FEATURES [Set transfer mode]

Error 20448 [3] occurred at disk power-on lifetime: 0 hours (0 days + 0 hours)
  When the command that caused the error occurred, the device was active or idle.

  After command completion occurred, registers were:
  ER -- ST COUNT  LBA_48  LH LM LL DV DC
  -- -- -- == -- == == == -- -- -- -- --
  40 -- 51 00 08 00 00 3a 38 5f 80 0a 00  Error: UNC at LBA = 0x3a385f80 = 976772992

  Commands leading to the command that caused the error were:
  CR FEATR COUNT  LBA_48  LH LM LL DV DC  Powered_Up_Time  Command/Feature_Name
  -- == -- == -- == == == -- -- -- -- --  ---------------  --------------------
  60 00 08 00 10 00 00 3a 38 5f 80 40 00     00:00:00.392  READ FPDMA QUEUED
  ec 00 00 00 01 00 00 00 00 00 00 00 00     00:00:00.389  IDENTIFY DEVICE
  60 00 08 00 a0 00 00 00 00 00 18 40 00     00:00:00.386  READ FPDMA QUEUED
  60 00 08 00 98 00 00 00 00 00 08 40 00     00:00:00.386  READ FPDMA QUEUED
  60 00 08 00 90 00 00 00 00 00 00 40 00     00:00:00.367  READ FPDMA QUEUED

Error 20447 [2] occurred at disk power-on lifetime: 0 hours (0 days + 0 hours)
  When the command that caused the error occurred, the device was active or idle.

  After command completion occurred, registers were:
  ER -- ST COUNT  LBA_48  LH LM LL DV DC
  -- -- -- == -- == == == -- -- -- -- --
  40 -- 51 00 01 00 00 3a 38 60 2f 0a 00  Error: UNC at LBA = 0x3a38602f = 976773167

  Commands leading to the command that caused the error were:
  CR FEATR COUNT  LBA_48  LH LM LL DV DC  Powered_Up_Time  Command/Feature_Name
  -- == -- == -- == == == -- -- -- -- --  ---------------  --------------------
  24 00 60 00 01 00 00 3a 38 60 2f e0 00     00:01:14.912  READ SECTOR(S) EXT
  37 00 00 00 00 00 00 3a 38 60 2f e0 00     00:01:14.911  SET NATIVE MAX ADDRESS EXT [OBS-ACS-3]
  27 03 00 00 00 00 00 00 00 00 00 e0 00     00:01:14.911  READ NATIVE MAX ADDRESS EXT [OBS-ACS-3]
  f9 03 03 00 03 00 00 00 00 00 00 e0 00     00:01:14.911  SET MAX UNLOCK [OBS-ACS-3]
  f9 00 03 01 14 00 00 00 00 00 00 e0 00     00:01:14.910  SET MAX UNLOCK [OBS-ACS-3]

Error 20446 [1] occurred at disk power-on lifetime: 0 hours (0 days + 0 hours)
  When the command that caused the error occurred, the device was active or idle.

  After command completion occurred, registers were:
  ER -- ST COUNT  LBA_48  LH LM LL DV DC
  -- -- -- == -- == == == -- -- -- -- --
  40 -- 51 00 01 00 00 3a 38 60 2f 0a 00  Error: UNC at LBA = 0x3a38602f = 976773167

  Commands leading to the command that caused the error were:
  CR FEATR COUNT  LBA_48  LH LM LL DV DC  Powered_Up_Time  Command/Feature_Name
  -- == -- == -- == == == -- -- -- -- --  ---------------  --------------------
  24 00 60 00 01 00 00 3a 38 60 2f e0 00     00:00:01.852  READ SECTOR(S) EXT
  37 00 00 00 00 00 00 3a 38 60 2f e0 00     00:00:01.852  SET NATIVE MAX ADDRESS EXT [OBS-ACS-3]
  27 03 00 00 00 00 00 00 00 00 00 e0 00     00:00:01.852  READ NATIVE MAX ADDRESS EXT [OBS-ACS-3]
  f9 03 03 00 03 00 00 00 00 00 00 e0 00     00:00:01.852  SET MAX UNLOCK [OBS-ACS-3]
  f9 00 03 01 14 00 00 00 00 00 00 e0 00     00:00:01.851  SET MAX UNLOCK [OBS-ACS-3]

SMART Extended Self-test Log Version: 1 (1 sectors)
Num  Test_Description    Status                  Remaining  LifeTime(hours)  LBA_of_first_error
# 1  Short offline       Completed: read failure       90%         0         680399337

SMART Selective self-test log data structure revision number 1
 SPAN  MIN_LBA  MAX_LBA  CURRENT_TEST_STATUS
    1        0        0  Not_testing
    2        0        0  Not_testing
    3        0        0  Not_testing
    4        0        0  Not_testing
    5        0        0  Not_testing
Selective self-test flags (0x0):
  After scanning selected spans, do NOT read-scan remainder of disk.
If Selective self-test is pending on power-up, resume after 0 minute delay.

SCT Status Version:                  3
SCT Version (vendor specific):       256 (0x0100)
Device State:                        Active (0)
Current Temperature:                    27 Celsius
Power Cycle Min/Max Temperature:     23/27 Celsius
Lifetime    Min/Max Temperature:     23/33 Celsius
Specified Max Operating Temperature:    27 Celsius
Under/Over Temperature Limit Count:   0/0

SCT Temperature History Version:     2
Temperature Sampling Period:         1 minute
Temperature Logging Interval:        1 minute
Min/Max recommended Temperature:      0/60 Celsius
Min/Max Temperature Limit:           -40/65 Celsius
Temperature History Size (Index):    128 (82)

Index    Estimated Time   Temperature Celsius
  83    2021-08-13 15:49    27  ********
 ...    ..(  3 skipped).    ..  ********
  87    2021-08-13 15:53    27  ********
  88    2021-08-13 15:54    28  *********
  89    2021-08-13 15:55     ?  -
 ...    ..(  6 skipped).    ..  -
  96    2021-08-13 16:02     ?  -
  97    2021-08-13 16:03    27  ********
  98    2021-08-13 16:04    28  *********
  99    2021-08-13 16:05    29  **********
 100    2021-08-13 16:06    30  ***********
 101    2021-08-13 16:07    30  ***********
 102    2021-08-13 16:08    31  ************
 103    2021-08-13 16:09    31  ************
 104    2021-08-13 16:10    32  *************
 ...    ..(  4 skipped).    ..  *************
 109    2021-08-13 16:15    32  *************
 110    2021-08-13 16:16    33  **************
 ...    ..( 15 skipped).    ..  **************
 126    2021-08-13 16:32    33  **************
 127    2021-08-13 16:33    34  ***************
 ...    ..(  9 skipped).    ..  ***************
   9    2021-08-13 16:43    34  ***************
  10    2021-08-13 16:44    33  **************
  11    2021-08-13 16:45    34  ***************
 ...    ..(  3 skipped).    ..  ***************
  15    2021-08-13 16:49    34  ***************
  16    2021-08-13 16:50    33  **************
  17    2021-08-13 16:51    34  ***************
 ...    ..( 46 skipped).    ..  ***************
  64    2021-08-13 17:38    34  ***************
  65    2021-08-13 17:39    33  **************
 ...    ..(  2 skipped).    ..  **************
  68    2021-08-13 17:42    33  **************
  69    2021-08-13 17:43     ?  -
 ...    ..(  4 skipped).    ..  -
  74    2021-08-13 17:48     ?  -
  75    2021-08-13 17:49    26  *******
  76    2021-08-13 17:50     ?  -
  77    2021-08-13 17:51     ?  -
  78    2021-08-13 17:52    25  ******
  79    2021-08-13 17:53    26  *******
  80    2021-08-13 17:54    27  ********
  81    2021-08-13 17:55    27  ********
  82    2021-08-13 17:56    27  ********

SCT Error Recovery Control:
           Read: Disabled
          Write: Disabled

Device Statistics (GP/SMART Log 0x04) not supported

Pending Defects log (GP Log 0x0c) not supported

SATA Phy Event Counters (GP Log 0x11)
ID      Size     Value  Description
0x0001  2            0  Command failed due to ICRC error
0x0002  2            0  R_ERR response for data FIS
0x0003  2            0  R_ERR response for device-to-host data FIS
0x0004  2            0  R_ERR response for host-to-device data FIS
0x0005  2            0  R_ERR response for non-data FIS
0x0006  2            0  R_ERR response for device-to-host non-data FIS
0x0007  2            0  R_ERR response for host-to-device non-data FIS
0x0009  2            0  Transition from drive PhyRdy to drive PhyNRdy
0x000a  2            0  Device-to-host register FISes sent due to a COMRESET
0x000b  2            0  CRC errors within host-to-device FIS
0x000d  2            0  Non-CRC errors within host-to-device FIS

