smartctl 7.1 2019-12-30 r5022 [x86_64-linux-5.8.0-50-generic] (local build)
Copyright (C) 2002-19, Bruce Allen, Christian Franke, www.smartmontools.org

=== START OF INFORMATION SECTION ===
Device Model:     HFS128G39MNC-2300A
Serial Number:    EI55Q07371020670Y
Firmware Version: 20200L00
User Capacity:    128,035,676,160 bytes [128 GB]
Sector Size:      512 bytes logical/physical
Rotation Rate:    Solid State Device
Device is:        Not in smartctl database [for details use: -P showall]
ATA Version is:   ATA8-ACS (minor revision not indicated)
SATA Version is:  SATA 3.1, 6.0 Gb/s (current: 6.0 Gb/s)
Local Time is:    Mon May  3 01:38:16 2021 MDT
SMART support is: Available - device has SMART capability.
SMART support is: Enabled
AAM feature is:   Unavailable
APM level is:     254 (maximum performance)
Rd look-ahead is: Enabled
Write cache is:   Enabled
DSN feature is:   Unavailable
ATA Security is:  Disabled, NOT FROZEN [SEC1]
Wt Cache Reorder: Unavailable

=== START OF READ SMART DATA SECTION ===
SMART overall-health self-assessment test result: PASSED

General SMART Values:
Offline data collection status:  (0x02)	Offline data collection activity
					was completed without error.
					Auto Offline Data Collection: Disabled.
Self-test execution status:      (   0)	The previous self-test routine completed
					without error or no self-test has ever 
					been run.
Total time to complete Offline 
data collection: 		(    2) seconds.
Offline data collection
capabilities: 			 (0x19) SMART execute Offline immediate.
					No Auto Offline data collection support.
					Suspend Offline collection upon new
					command.
					Offline surface scan supported.
					Self-test supported.
					No Conveyance Self-test supported.
					No Selective Self-test supported.
SMART capabilities:            (0x0002)	Does not save SMART data before
					entering power-saving mode.
					Supports SMART auto save timer.
Error logging capability:        (0x01)	Error logging supported.
					General Purpose Logging supported.
Short self-test routine 
recommended polling time: 	 (   1) minutes.
Extended self-test routine
recommended polling time: 	 (   8) minutes.

SMART Attributes Data Structure revision number: 0
Vendor Specific SMART Attributes with Thresholds:
ID# ATTRIBUTE_NAME          FLAGS    VALUE WORST THRESH FAIL RAW_VALUE
  1 Raw_Read_Error_Rate     POSR--   166   166   006    -    0
  5 Reallocated_Sector_Ct   -O--CK   253   253   036    -    0
  9 Power_On_Hours          -O--CK   097   097   000    -    3263
 12 Power_Cycle_Count       -O--CK   100   100   020    -    6851
100 Unknown_Attribute       -O--CK   100   100   000    -    2268714
170 Unknown_Attribute       -O--CK   100   100   000    -    43
171 Unknown_Attribute       -O--CK   253   253   000    -    0
172 Unknown_Attribute       -O--CK   253   253   000    -    0
174 Unknown_Attribute       ----CK   100   100   000    -    27
175 Program_Fail_Count_Chip -O--CK   253   253   000    -    0
176 Erase_Fail_Count_Chip   -O--CK   253   253   000    -    0
177 Wear_Leveling_Count     -O--CK   099   099   000    -    58
178 Used_Rsvd_Blk_Cnt_Chip  -O--CK   100   100   000    -    11
180 Unused_Rsvd_Blk_Cnt_Tot -O--CK   100   100   000    -    2261
183 Runtime_Bad_Block       -O--CK   253   253   000    -    0
187 Reported_Uncorrect      -O--CK   100   100   000    -    10
188 Command_Timeout         -O--CK   253   253   000    -    0
191 Unknown_SSD_Attribute   -O--CK   253   253   000    -    0
194 Temperature_Celsius     -O----   027   000   000    -    27 (Min/Max -11/52)
195 Hardware_ECC_Recovered  -O--CK   100   099   000    -    1324958516
199 UDMA_CRC_Error_Count    -O--CK   253   253   000    -    0
201 Unknown_SSD_Attribute   -OSR--   100   100   000    -    0
204 Soft_ECC_Correction     -OSR--   100   100   ---    -    0
212 Unknown_Attribute       -O--CK   100   100   ---    -    20182
231 Unknown_SSD_Attribute   PO--CK   253   253   ---    -    0
234 Unknown_Attribute       -O--CK   100   100   ---    -    7317
241 Total_LBAs_Written      -O--CK   100   100   ---    -    5308
242 Total_LBAs_Read         -O--CK   100   100   ---    -    6317
250 Read_Error_Retry_Rate   -O--CK   100   100   ---    -    24
                            ||||||_ K auto-keep
                            |||||__ C event count
                            ||||___ R error rate
                            |||____ S speed/performance
                            ||_____ O updated online
                            |______ P prefailure warning

General Purpose Log Directory Version 1
SMART           Log Directory Version 1 [multi-sector log support]
Address    Access  R/W   Size  Description
0x00       GPL,SL  R/O      1  Log Directory
0x01           SL  R/O      1  Summary SMART error log
0x02           SL  R/O      4  Comprehensive SMART error log
0x03       GPL     R/O      5  Ext. Comprehensive SMART error log
0x04       GPL,SL  R/O      8  Device Statistics log
0x06           SL  R/O      1  SMART self-test log
0x07       GPL     R/O      2  Extended self-test log
0x10       GPL     R/O      1  NCQ Command Error log
0x11       GPL     R/O      1  SATA Phy Event Counters log
0x80-0x9f  GPL,SL  R/W     16  Host vendor specific log

SMART Extended Comprehensive Error Log Version: 1 (5 sectors)
Device Error Count: 17240 (device log contains only the most recent 20 errors)
	CR     = Command Register
	FEATR  = Features Register
	COUNT  = Count (was: Sector Count) Register
	LBA_48 = Upper bytes of LBA High/Mid/Low Registers ]  ATA-8
	LH     = LBA High (was: Cylinder High) Register    ]   LBA
	LM     = LBA Mid (was: Cylinder Low) Register      ] Register
	LL     = LBA Low (was: Sector Number) Register     ]
	DV     = Device (was: Device/Head) Register
	DC     = Device Control Register
	ER     = Error register
	ST     = Status register
Powered_Up_Time is measured from power on, and printed as
DDd+hh:mm:SS.sss where DD=days, hh=hours, mm=minutes,
SS=sec, and sss=millisec. It "wraps" after 49.710 days.

Error 17240 [19] occurred at disk power-on lifetime: 3263 hours (135 days + 23 hours)
  When the command that caused the error occurred, the device was in an unknown state.

  After command completion occurred, registers were:
  ER -- ST COUNT  LBA_48  LH LM LL DV DC
  -- -- -- == -- == == == -- -- -- -- --
  01 -- 50 00 01 00 00 00 00 00 01 00 00

  Commands leading to the command that caused the error were:
  CR FEATR COUNT  LBA_48  LH LM LL DV DC  Powered_Up_Time  Command/Feature_Name
  -- == -- == -- == == == -- -- -- -- --  ---------------  --------------------
  00 ff 00 aa 55 00 00 55 00 00 aa a0 a0     00:00:00.850  NOP [Abort queued commands]
  00 ff 00 aa 55 00 00 55 00 00 aa a0 a0     00:00:00.850  NOP [Abort queued commands]

Error 17239 [18] occurred at disk power-on lifetime: 3263 hours (135 days + 23 hours)
  When the command that caused the error occurred, the device was in an unknown state.

  After command completion occurred, registers were:
  ER -- ST COUNT  LBA_48  LH LM LL DV DC
  -- -- -- == -- == == == -- -- -- -- --
  00 -- 50 01 01 00 00 00 00 00 00 e0 08   257 sectors at LBA = 0x00000000 = 0

  Commands leading to the command that caused the error were:
  CR FEATR COUNT  LBA_48  LH LM LL DV DC  Powered_Up_Time  Command/Feature_Name
  -- == -- == -- == == == -- -- -- -- --  ---------------  --------------------
  c8 00 ff aa 55 00 00 55 00 00 aa a0 a0     00:05:07.330  READ DMA
  c8 00 ff aa 55 00 00 55 00 00 aa a0 a0     00:05:07.330  READ DMA
  c8 00 ff 01 01 00 00 00 00 00 00 e0 e0     00:05:00.470  READ DMA
  f5 00 00 01 01 00 00 00 00 00 00 e0 e0     00:03:49.260  SECURITY FREEZE LOCK
  ec 00 00 01 01 00 00 00 00 00 00 e0 e0     00:03:40.920  IDENTIFY DEVICE

Error 17238 [17] occurred at disk power-on lifetime: 3263 hours (135 days + 23 hours)
  When the command that caused the error occurred, the device was in an unknown state.

  After command completion occurred, registers were:
  ER -- ST COUNT  LBA_48  LH LM LL DV DC
  -- -- -- == -- == == == -- -- -- -- --
  00 -- 50 3f 50 00 00 02 c2 4f 00 e0 08

  Commands leading to the command that caused the error were:
  CR FEATR COUNT  LBA_48  LH LM LL DV DC  Powered_Up_Time  Command/Feature_Name
  -- == -- == -- == == == -- -- -- -- --  ---------------  --------------------
  b0 d2 da 3f 50 00 00 02 c2 4f 00 e0 e0     00:03:40.580  SMART RETURN STATUS
  b0 d2 da 3f 50 00 00 02 c2 4f 00 e0 e0     00:03:40.580  SMART RETURN STATUS
  b0 d2 da 50 00 00 3a 14 c2 4f 00 e0 e0     00:03:40.580  SMART RETURN STATUS
  b0 d8 d2 50 f1 00 3a 14 c2 4f 00 e0 e0     00:03:40.580  SMART ENABLE/DISABLE ATTRIBUTE AUTOSAVE
  b0 ff d8 50 00 00 3a 14 c2 4f 00 e0 e0     00:03:40.580  SMART ENABLE OPERATIONS

Error 17237 [16] occurred at disk power-on lifetime: 3263 hours (135 days + 23 hours)
  When the command that caused the error occurred, the device was in an unknown state.

  After command completion occurred, registers were:
  ER -- ST COUNT  LBA_48  LH LM LL DV DC
  -- -- -- == -- == == == -- -- -- -- --
  04 -- 51 00 01 00 00 00 00 00 01 a0 00  Error: ABRT

  Commands leading to the command that caused the error were:
  CR FEATR COUNT  LBA_48  LH LM LL DV DC  Powered_Up_Time  Command/Feature_Name
  -- == -- == -- == == == -- -- -- -- --  ---------------  --------------------
  00 ff ff 00 01 00 00 00 00 00 01 a0 a0     00:03:40.250  NOP [Reserved subcommand] [OBS-ACS-2]
  90 ff ff 00 01 00 00 00 00 00 01 a0 a0     00:03:40.220  EXECUTE DEVICE DIAGNOSTIC
  90 ff ff 00 01 00 00 00 00 00 01 a0 a0     00:03:40.220  EXECUTE DEVICE DIAGNOSTIC
  90 ff ff aa aa 00 00 55 00 00 55 a0 a0     00:03:40.220  EXECUTE DEVICE DIAGNOSTIC
  ec ff 00 08 01 00 00 00 00 00 00 e0 e0     00:03:10.180  IDENTIFY DEVICE

Error 17236 [15] occurred at disk power-on lifetime: 3263 hours (135 days + 23 hours)
  When the command that caused the error occurred, the device was in an unknown state.

  After command completion occurred, registers were:
  ER -- ST COUNT  LBA_48  LH LM LL DV DC
  -- -- -- == -- == == == -- -- -- -- --
  01 -- 50 00 01 00 00 00 00 00 01 00 00

  Commands leading to the command that caused the error were:
  CR FEATR COUNT  LBA_48  LH LM LL DV DC  Powered_Up_Time  Command/Feature_Name
  -- == -- == -- == == == -- -- -- -- --  ---------------  --------------------
  90 ff ff 00 01 00 00 00 00 00 01 a0 a0     00:03:40.220  EXECUTE DEVICE DIAGNOSTIC
  90 ff ff 00 01 00 00 00 00 00 01 a0 a0     00:03:40.220  EXECUTE DEVICE DIAGNOSTIC
  90 ff ff aa aa 00 00 55 00 00 55 a0 a0     00:03:40.220  EXECUTE DEVICE DIAGNOSTIC
  ec ff 00 08 01 00 00 00 00 00 00 e0 e0     00:03:10.180  IDENTIFY DEVICE
  c6 ff ff 01 08 00 3e 82 00 00 00 e0 e0     00:03:09.550  SET MULTIPLE MODE

Error 17235 [14] occurred at disk power-on lifetime: 3263 hours (135 days + 23 hours)
  When the command that caused the error occurred, the device was in an unknown state.

  After command completion occurred, registers were:
  ER -- ST COUNT  LBA_48  LH LM LL DV DC
  -- -- -- == -- == == == -- -- -- -- --
  00 -- 00 00 00 00 00 00 00 00 00 00 ff

  Commands leading to the command that caused the error were:
  CR FEATR COUNT  LBA_48  LH LM LL DV DC  Powered_Up_Time  Command/Feature_Name
  -- == -- == -- == == == -- -- -- -- --  ---------------  --------------------
  ec ff 00 08 01 00 00 00 00 00 00 e0 e0     00:03:10.180  IDENTIFY DEVICE
  c6 ff ff 01 08 00 3e 82 00 00 00 e0 e0     00:03:09.550  SET MULTIPLE MODE
  10 ff ff 3f 01 00 00 00 00 3e 82 e0 e0     00:03:09.550  RECALIBRATE [OBS-4]
  91 da ff 01 3f 00 00 01 00 00 00 af af     00:03:09.550  INITIALIZE DEVICE PARAMETERS [OBS-6]
  b0 d2 da 3f 50 00 00 02 c2 4f 00 e0 e0     00:03:09.520  SMART RETURN STATUS

Error 17234 [13] occurred at disk power-on lifetime: 3263 hours (135 days + 23 hours)
  When the command that caused the error occurred, the device was in an unknown state.

  After command completion occurred, registers were:
  ER -- ST COUNT  LBA_48  LH LM LL DV DC
  -- -- -- == -- == == == -- -- -- -- --
  00 -- 50 3f 50 00 00 02 c2 4f 00 e0 08

  Commands leading to the command that caused the error were:
  CR FEATR COUNT  LBA_48  LH LM LL DV DC  Powered_Up_Time  Command/Feature_Name
  -- == -- == -- == == == -- -- -- -- --  ---------------  --------------------
  b0 d2 da 3f 50 00 00 02 c2 4f 00 e0 e0     00:03:09.520  SMART RETURN STATUS
  b0 d2 da 3f 50 00 00 02 c2 4f 00 e0 e0     00:03:09.520  SMART RETURN STATUS
  b0 d2 da 50 00 00 3a 14 c2 4f 00 e0 e0     00:03:09.520  SMART RETURN STATUS
  b0 d8 d2 50 f1 00 3a 14 c2 4f 00 e0 e0     00:03:09.520  SMART ENABLE/DISABLE ATTRIBUTE AUTOSAVE
  b0 ff d8 50 00 00 3a 14 c2 4f 00 e0 e0     00:03:09.520  SMART ENABLE OPERATIONS

Error 17233 [12] occurred at disk power-on lifetime: 3263 hours (135 days + 23 hours)
  When the command that caused the error occurred, the device was in an unknown state.

  After command completion occurred, registers were:
  ER -- ST COUNT  LBA_48  LH LM LL DV DC
  -- -- -- == -- == == == -- -- -- -- --
  04 -- 51 00 01 00 00 00 00 00 01 a0 00  Error: ABRT

  Commands leading to the command that caused the error were:
  CR FEATR COUNT  LBA_48  LH LM LL DV DC  Powered_Up_Time  Command/Feature_Name
  -- == -- == -- == == == -- -- -- -- --  ---------------  --------------------
  00 ff ff 00 01 00 00 00 00 00 01 a0 a0     00:03:09.260  NOP [Reserved subcommand] [OBS-ACS-2]
  90 ff ff 00 01 00 00 00 00 00 01 a0 a0     00:03:09.240  EXECUTE DEVICE DIAGNOSTIC
  90 ff ff 00 01 00 00 00 00 00 01 a0 a0     00:03:09.240  EXECUTE DEVICE DIAGNOSTIC
  90 ff ff aa aa 00 00 55 00 00 55 a0 a0     00:03:09.240  EXECUTE DEVICE DIAGNOSTIC
  c8 00 ff 01 01 00 00 00 00 00 00 e0 e0     00:00:11.360  READ DMA

SMART Extended Self-test Log Version: 1 (2 sectors)
Num  Test_Description    Status                  Remaining  LifeTime(hours)  LBA_of_first_error
# 1  Short offline       Completed without error       00%      3263         -
# 2  Short offline       Completed without error       00%      3263         -
# 3  Short offline       Completed without error       00%      2509         -
# 4  Extended offline    Completed without error       00%      2509         -
# 5  Short offline       Completed without error       00%         3         -

Selective Self-tests/Logging not supported

SCT Commands not supported

Device Statistics (GP Log 0x04)
Page  Offset Size        Value Flags Description
0x01  =====  =               =  ===  == General Statistics (empty) ==
0x04  =====  =               =  ===  == General Errors Statistics (empty) ==
0x05  =====  =               =  ===  == Temperature Statistics (empty) ==
0x06  =====  =               =  ===  == Transport Statistics (empty) ==
0x07  =====  =               =  ===  == Solid State Device Statistics (empty) ==
                                |||_ C monitored condition met
                                ||__ D supports DSN
                                |___ N normalized value

Pending Defects log (GP Log 0x0c) not supported

SATA Phy Event Counters (GP Log 0x11)
ID      Size     Value  Description
0x0001  2            0  Command failed due to ICRC error
0x000a  2            1  Device-to-host register FISes sent due to a COMRESET

