{
  "json_format_version": [
    1,
    0
  ],
  "smartctl": {
    "version": [
      7,
      1
    ],
    "svn_revision": "5022",
    "platform_info": "x86_64-linux-5.8.0-50-generic",
    "build_info": "(local build)",
    "argv": [
      "smartctl",
      "-j",
      "-x",
      "/dev/sdb"
    ],
    "messages": [
      {
        "string": "Read Device Statistics page 0x00 failed",
        "severity": "error"
      }
    ],
    "exit_status": 68
  },
  "device": {
    "name": "/dev/sdb",
    "info_name": "/dev/sdb [SAT]",
    "type": "sat",
    "protocol": "ATA"
  },
  "model_name": "GBRLB031XVECCM       43W7685 44E9158IBM",
  "serial_number": "91600031",
  "firmware_version": "4.26",
  "user_capacity": {
    "blocks": 61500000,
    "bytes": 31488000000
  },
  "logical_block_size": 512,
  "physical_block_size": 512,
  "in_smartctl_database": false,
  "ata_version": {
    "string": "ATA/ATAPI-7 T13/1532D revision 4a",
    "major_value": 252,
    "minor_value": 33
  },
  "local_time": {
    "time_t": 1619575061,
    "asctime": "Tue Apr 27 19:57:41 2021 MDT"
  },
  "ata_aam": {
    "enabled": false
  },
  "ata_apm": {
    "enabled": false
  },
  "read_lookahead": {
    "enabled": false
  },
  "write_cache": {
    "enabled": false
  },
  "ata_security": {
    "state": 33,
    "string": "Disabled, NOT FROZEN [SEC1]",
    "enabled": false,
    "frozen": false
  },
  "smart_status": {
    "passed": true
  },
  "ata_smart_data": {
    "offline_data_collection": {
      "status": {
        "value": 2,
        "string": "was completed without error",
        "passed": true
      },
      "completion_seconds": 120
    },
    "self_test": {
      "status": {
        "value": 0,
        "string": "completed without error",
        "passed": true
      },
      "polling_minutes": {
        "short": 1,
        "extended": 13,
        "conveyance": 3
      }
    },
    "capabilities": {
      "values": [
        115,
        3
      ],
      "exec_offline_immediate_supported": true,
      "offline_is_aborted_upon_new_cmd": false,
      "offline_surface_scan_supported": false,
      "self_tests_supported": true,
      "conveyance_self_test_supported": true,
      "selective_self_test_supported": true,
      "attribute_autosave_enabled": true,
      "error_logging_supported": true,
      "gp_logging_supported": true
    }
  },
  "ata_smart_attributes": {
    "revision": 16,
    "table": [
      {
        "id": 9,
        "name": "Power_On_Hours",
        "value": 48,
        "worst": 48,
        "thresh": 0,
        "when_failed": "",
        "flags": {
          "value": 50,
          "string": "-O--CK ",
          "prefailure": false,
          "updated_online": true,
          "performance": false,
          "error_rate": false,
          "event_count": true,
          "auto_keep": true
        },
        "raw": {
          "value": 49712,
          "string": "49712"
        }
      },
      {
        "id": 12,
        "name": "Power_Cycle_Count",
        "value": 126,
        "worst": 126,
        "thresh": 0,
        "when_failed": "",
        "flags": {
          "value": 50,
          "string": "-O--CK ",
          "prefailure": false,
          "updated_online": true,
          "performance": false,
          "error_rate": false,
          "event_count": true,
          "auto_keep": true
        },
        "raw": {
          "value": 126,
          "string": "126"
        }
      },
      {
        "id": 187,
        "name": "Reported_Uncorrect",
        "value": 100,
        "worst": 100,
        "thresh": 0,
        "when_failed": "",
        "flags": {
          "value": 50,
          "string": "-O--CK ",
          "prefailure": false,
          "updated_online": true,
          "performance": false,
          "error_rate": false,
          "event_count": true,
          "auto_keep": true
        },
        "raw": {
          "value": 0,
          "string": "0"
        }
      },
      {
        "id": 188,
        "name": "Command_Timeout",
        "value": 100,
        "worst": 100,
        "thresh": 0,
        "when_failed": "",
        "flags": {
          "value": 50,
          "string": "-O--CK ",
          "prefailure": false,
          "updated_online": true,
          "performance": false,
          "error_rate": false,
          "event_count": true,
          "auto_keep": true
        },
        "raw": {
          "value": 0,
          "string": "0"
        }
      },
      {
        "id": 232,
        "name": "Available_Reservd_Space",
        "value": 65,
        "worst": 65,
        "thresh": 4,
        "when_failed": "",
        "flags": {
          "value": 34,
          "string": "-O---K ",
          "prefailure": false,
          "updated_online": true,
          "performance": false,
          "error_rate": false,
          "event_count": false,
          "auto_keep": true
        },
        "raw": {
          "value": 65,
          "string": "65"
        }
      },
      {
        "id": 1,
        "name": "Raw_Read_Error_Rate",
        "value": 100,
        "worst": 100,
        "thresh": 16,
        "when_failed": "",
        "flags": {
          "value": 0,
          "string": "------ ",
          "prefailure": false,
          "updated_online": false,
          "performance": false,
          "error_rate": false,
          "event_count": false,
          "auto_keep": false
        },
        "raw": {
          "value": 0,
          "string": "0"
        }
      },
      {
        "id": 2,
        "name": "Throughput_Performance",
        "value": 100,
        "worst": 100,
        "thresh": 40,
        "when_failed": "",
        "flags": {
          "value": 0,
          "string": "------ ",
          "prefailure": false,
          "updated_online": false,
          "performance": false,
          "error_rate": false,
          "event_count": false,
          "auto_keep": false
        },
        "raw": {
          "value": 0,
          "string": "0"
        }
      },
      {
        "id": 3,
        "name": "Spin_Up_Time",
        "value": 100,
        "worst": 100,
        "thresh": 0,
        "when_failed": "",
        "flags": {
          "value": 0,
          "string": "------ ",
          "prefailure": false,
          "updated_online": false,
          "performance": false,
          "error_rate": false,
          "event_count": false,
          "auto_keep": false
        },
        "raw": {
          "value": 0,
          "string": "0"
        }
      },
      {
        "id": 4,
        "name": "Start_Stop_Count",
        "value": 100,
        "worst": 100,
        "thresh": 0,
        "when_failed": "",
        "flags": {
          "value": 0,
          "string": "------ ",
          "prefailure": false,
          "updated_online": false,
          "performance": false,
          "error_rate": false,
          "event_count": false,
          "auto_keep": false
        },
        "raw": {
          "value": 0,
          "string": "0"
        }
      },
      {
        "id": 5,
        "name": "Reallocated_Sector_Ct",
        "value": 100,
        "worst": 100,
        "thresh": 5,
        "when_failed": "",
        "flags": {
          "value": 0,
          "string": "------ ",
          "prefailure": false,
          "updated_online": false,
          "performance": false,
          "error_rate": false,
          "event_count": false,
          "auto_keep": false
        },
        "raw": {
          "value": 0,
          "string": "0"
        }
      },
      {
        "id": 7,
        "name": "Seek_Error_Rate",
        "value": 100,
        "worst": 100,
        "thresh": 67,
        "when_failed": "",
        "flags": {
          "value": 0,
          "string": "------ ",
          "prefailure": false,
          "updated_online": false,
          "performance": false,
          "error_rate": false,
          "event_count": false,
          "auto_keep": false
        },
        "raw": {
          "value": 0,
          "string": "0"
        }
      },
      {
        "id": 8,
        "name": "Seek_Time_Performance",
        "value": 100,
        "worst": 100,
        "thresh": 0,
        "when_failed": "",
        "flags": {
          "value": 0,
          "string": "------ ",
          "prefailure": false,
          "updated_online": false,
          "performance": false,
          "error_rate": false,
          "event_count": false,
          "auto_keep": false
        },
        "raw": {
          "value": 0,
          "string": "0"
        }
      },
      {
        "id": 10,
        "name": "Spin_Retry_Count",
        "value": 100,
        "worst": 100,
        "thresh": 0,
        "when_failed": "",
        "flags": {
          "value": 0,
          "string": "------ ",
          "prefailure": false,
          "updated_online": false,
          "performance": false,
          "error_rate": false,
          "event_count": false,
          "auto_keep": false
        },
        "raw": {
          "value": 0,
          "string": "0"
        }
      },
      {
        "id": 11,
        "name": "Calibration_Retry_Count",
        "value": 100,
        "worst": 100,
        "thresh": 10,
        "when_failed": "",
        "flags": {
          "value": 0,
          "string": "------ ",
          "prefailure": false,
          "updated_online": false,
          "performance": false,
          "error_rate": false,
          "event_count": false,
          "auto_keep": false
        },
        "raw": {
          "value": 0,
          "string": "0"
        }
      },
      {
        "id": 13,
        "name": "Read_Soft_Error_Rate",
        "value": 100,
        "worst": 100,
        "thresh": 0,
        "when_failed": "",
        "flags": {
          "value": 0,
          "string": "------ ",
          "prefailure": false,
          "updated_online": false,
          "performance": false,
          "error_rate": false,
          "event_count": false,
          "auto_keep": false
        },
        "raw": {
          "value": 0,
          "string": "0"
        }
      },
      {
        "id": 191,
        "name": "G-Sense_Error_Rate",
        "value": 100,
        "worst": 100,
        "thresh": 0,
        "when_failed": "",
        "flags": {
          "value": 0,
          "string": "------ ",
          "prefailure": false,
          "updated_online": false,
          "performance": false,
          "error_rate": false,
          "event_count": false,
          "auto_keep": false
        },
        "raw": {
          "value": 0,
          "string": "0"
        }
      },
      {
        "id": 192,
        "name": "Power-Off_Retract_Count",
        "value": 100,
        "worst": 100,
        "thresh": 0,
        "when_failed": "",
        "flags": {
          "value": 0,
          "string": "------ ",
          "prefailure": false,
          "updated_online": false,
          "performance": false,
          "error_rate": false,
          "event_count": false,
          "auto_keep": false
        },
        "raw": {
          "value": 0,
          "string": "0"
        }
      },
      {
        "id": 194,
        "name": "Temperature_Celsius",
        "value": 100,
        "worst": 100,
        "thresh": 0,
        "when_failed": "",
        "flags": {
          "value": 0,
          "string": "------ ",
          "prefailure": false,
          "updated_online": false,
          "performance": false,
          "error_rate": false,
          "event_count": false,
          "auto_keep": false
        },
        "raw": {
          "value": 0,
          "string": "0"
        }
      },
      {
        "id": 195,
        "name": "Hardware_ECC_Recovered",
        "value": 100,
        "worst": 100,
        "thresh": 0,
        "when_failed": "",
        "flags": {
          "value": 0,
          "string": "------ ",
          "prefailure": false,
          "updated_online": false,
          "performance": false,
          "error_rate": false,
          "event_count": false,
          "auto_keep": false
        },
        "raw": {
          "value": 0,
          "string": "0"
        }
      },
      {
        "id": 196,
        "name": "Reallocated_Event_Count",
        "value": 100,
        "worst": 100,
        "thresh": 0,
        "when_failed": "",
        "flags": {
          "value": 0,
          "string": "------ ",
          "prefailure": false,
          "updated_online": false,
          "performance": false,
          "error_rate": false,
          "event_count": false,
          "auto_keep": false
        },
        "raw": {
          "value": 0,
          "string": "0"
        }
      },
      {
        "id": 197,
        "name": "Current_Pending_Sector",
        "value": 2,
        "worst": 2,
        "thresh": 0,
        "when_failed": "",
        "flags": {
          "value": 50,
          "string": "-O--CK ",
          "prefailure": false,
          "updated_online": true,
          "performance": false,
          "error_rate": false,
          "event_count": true,
          "auto_keep": true
        },
        "raw": {
          "value": 0,
          "string": "0"
        }
      },
      {
        "id": 198,
        "name": "Offline_Uncorrectable",
        "value": 2,
        "worst": 2,
        "thresh": 0,
        "when_failed": "",
        "flags": {
          "value": 48,
          "string": "----CK ",
          "prefailure": false,
          "updated_online": false,
          "performance": false,
          "error_rate": false,
          "event_count": true,
          "auto_keep": true
        },
        "raw": {
          "value": 0,
          "string": "0"
        }
      },
      {
        "id": 199,
        "name": "UDMA_CRC_Error_Count",
        "value": 100,
        "worst": 100,
        "thresh": 0,
        "when_failed": "",
        "flags": {
          "value": 0,
          "string": "------ ",
          "prefailure": false,
          "updated_online": false,
          "performance": false,
          "error_rate": false,
          "event_count": false,
          "auto_keep": false
        },
        "raw": {
          "value": 0,
          "string": "0"
        }
      },
      {
        "id": 200,
        "name": "Multi_Zone_Error_Rate",
        "value": 100,
        "worst": 100,
        "thresh": 0,
        "when_failed": "",
        "flags": {
          "value": 0,
          "string": "------ ",
          "prefailure": false,
          "updated_online": false,
          "performance": false,
          "error_rate": false,
          "event_count": false,
          "auto_keep": false
        },
        "raw": {
          "value": 0,
          "string": "0"
        }
      },
      {
        "id": 201,
        "name": "Soft_Read_Error_Rate",
        "value": 100,
        "worst": 100,
        "thresh": 0,
        "when_failed": "",
        "flags": {
          "value": 0,
          "string": "------ ",
          "prefailure": false,
          "updated_online": false,
          "performance": false,
          "error_rate": false,
          "event_count": false,
          "auto_keep": false
        },
        "raw": {
          "value": 0,
          "string": "0"
        }
      },
      {
        "id": 223,
        "name": "Load_Retry_Count",
        "value": 100,
        "worst": 100,
        "thresh": 0,
        "when_failed": "",
        "flags": {
          "value": 0,
          "string": "------ ",
          "prefailure": false,
          "updated_online": false,
          "performance": false,
          "error_rate": false,
          "event_count": false,
          "auto_keep": false
        },
        "raw": {
          "value": 0,
          "string": "0"
        }
      },
      {
        "id": 225,
        "name": "Load_Cycle_Count",
        "value": 100,
        "worst": 100,
        "thresh": 0,
        "when_failed": "",
        "flags": {
          "value": 0,
          "string": "------ ",
          "prefailure": false,
          "updated_online": false,
          "performance": false,
          "error_rate": false,
          "event_count": false,
          "auto_keep": false
        },
        "raw": {
          "value": 0,
          "string": "0"
        }
      }
    ]
  },
  "power_on_time": {
    "hours": 49712
  },
  "power_cycle_count": 126,
  "ata_log_directory": {
    "gp_dir_version": 1,
    "table": [
      {
        "address": 0,
        "name": "Log Directory",
        "read": true,
        "write": false,
        "gp_sectors": 1
      },
      {
        "address": 4,
        "name": "Device Statistics log",
        "read": true,
        "write": false,
        "gp_sectors": 1
      },
      {
        "address": 8,
        "name": "Power Conditions log",
        "read": true,
        "write": false,
        "gp_sectors": 1
      },
      {
        "address": 154,
        "name": "Host vendor specific log",
        "read": true,
        "write": true,
        "gp_sectors": 16
      }
    ]
  },
  "ata_smart_error_log": {
    "summary": {
      "revision": 1,
      "count": 10,
      "logged_count": 5,
      "table": [
        {
          "error_number": 10,
          "lifetime_hours": 11,
          "completion_registers": {
            "error": 20,
            "status": 81,
            "count": 1,
            "lba": 12734208,
            "device": 0
          },
          "error_description": "Error: ABRT",
          "previous_commands": [
            {
              "registers": {
                "command": 176,
                "features": 218,
                "count": 0,
                "lba": 12734209,
                "device": 0,
                "device_control": 0
              },
              "powerup_milliseconds": 40990,
              "command_name": "SMART RETURN STATUS"
            },
            {
              "registers": {
                "command": 176,
                "features": 209,
                "count": 1,
                "lba": 12734208,
                "device": 0,
                "device_control": 0
              },
              "powerup_milliseconds": 40990,
              "command_name": "SMART READ ATTRIBUTE THRESHOLDS [OBS-4]"
            },
            {
              "registers": {
                "command": 176,
                "features": 208,
                "count": 1,
                "lba": 0,
                "device": 0,
                "device_control": 0
              },
              "powerup_milliseconds": 40990,
              "command_name": "SMART READ DATA"
            },
            {
              "registers": {
                "command": 236,
                "features": 0,
                "count": 1,
                "lba": 0,
                "device": 0,
                "device_control": 0
              },
              "powerup_milliseconds": 40990,
              "command_name": "IDENTIFY DEVICE"
            },
            {
              "registers": {
                "command": 176,
                "features": 213,
                "count": 1,
                "lba": 12734208,
                "device": 0,
                "device_control": 0
              },
              "powerup_milliseconds": 40990,
              "command_name": "SMART READ LOG"
            }
          ]
        },
        {
          "error_number": 9,
          "lifetime_hours": 0,
          "completion_registers": {
            "error": 20,
            "status": 81,
            "count": 1,
            "lba": 12734208,
            "device": 0
          },
          "error_description": "Error: IDNF, ABRT",
          "previous_commands": [
            {
              "registers": {
                "command": 176,
                "features": 213,
                "count": 1,
                "lba": 12734208,
                "device": 0,
                "device_control": 0
              },
              "powerup_milliseconds": 40040,
              "command_name": "SMART READ LOG"
            },
            {
              "registers": {
                "command": 176,
                "features": 218,
                "count": 0,
                "lba": 12734209,
                "device": 0,
                "device_control": 0
              },
              "powerup_milliseconds": 40040,
              "command_name": "SMART RETURN STATUS"
            },
            {
              "registers": {
                "command": 176,
                "features": 209,
                "count": 1,
                "lba": 12734208,
                "device": 0,
                "device_control": 0
              },
              "powerup_milliseconds": 40040,
              "command_name": "SMART READ ATTRIBUTE THRESHOLDS [OBS-4]"
            },
            {
              "registers": {
                "command": 176,
                "features": 208,
                "count": 1,
                "lba": 0,
                "device": 0,
                "device_control": 0
              },
              "powerup_milliseconds": 40040,
              "command_name": "SMART READ DATA"
            },
            {
              "registers": {
                "command": 236,
                "features": 0,
                "count": 1,
                "lba": 0,
                "device": 0,
                "device_control": 0
              },
              "powerup_milliseconds": 40030,
              "command_name": "IDENTIFY DEVICE"
            }
          ]
        },
        {
          "error_number": 8,
          "lifetime_hours": 10,
          "completion_registers": {
            "error": 20,
            "status": 81,
            "count": 1,
            "lba": 12734208,
            "device": 0
          },
          "error_description": "Error: ABRT",
          "previous_commands": [
            {
              "registers": {
                "command": 176,
                "features": 218,
                "count": 0,
                "lba": 12734209,
                "device": 0,
                "device_control": 0
              },
              "powerup_milliseconds": 37400,
              "command_name": "SMART RETURN STATUS"
            },
            {
              "registers": {
                "command": 176,
                "features": 209,
                "count": 1,
                "lba": 12734208,
                "device": 0,
                "device_control": 0
              },
              "powerup_milliseconds": 37400,
              "command_name": "SMART READ ATTRIBUTE THRESHOLDS [OBS-4]"
            },
            {
              "registers": {
                "command": 176,
                "features": 208,
                "count": 1,
                "lba": 0,
                "device": 0,
                "device_control": 0
              },
              "powerup_milliseconds": 37400,
              "command_name": "SMART READ DATA"
            },
            {
              "registers": {
                "command": 236,
                "features": 0,
                "count": 1,
                "lba": 0,
                "device": 0,
                "device_control": 0
              },
              "powerup_milliseconds": 37400,
              "command_name": "IDENTIFY DEVICE"
            },
            {
              "registers": {
                "command": 176,
                "features": 213,
                "count": 1,
                "lba": 12734208,
                "device": 0,
                "device_control": 0
              },
              "powerup_milliseconds": 37400,
              "command_name": "SMART READ LOG"
            }
          ]
        },
        {
          "error_number": 7,
          "lifetime_hours": 8,
          "completion_registers": {
            "error": 20,
            "status": 81,
            "count": 1,
            "lba": 12734208,
            "device": 0
          },
          "error_description": "Error: IDNF, ABRT",
          "previous_commands": [
            {
              "registers": {
                "command": 176,
                "features": 209,
                "count": 1,
                "lba": 12734208,
                "device": 0,
                "device_control": 0
              },
              "powerup_milliseconds": 31740,
              "command_name": "SMART READ ATTRIBUTE THRESHOLDS [OBS-4]"
            },
            {
              "registers": {
                "command": 176,
                "features": 208,
                "count": 1,
                "lba": 0,
                "device": 0,
                "device_control": 0
              },
              "powerup_milliseconds": 31740,
              "command_name": "SMART READ DATA"
            },
            {
              "registers": {
                "command": 236,
                "features": 0,
                "count": 1,
                "lba": 0,
                "device": 0,
                "device_control": 0
              },
              "powerup_milliseconds": 31740,
              "command_name": "IDENTIFY DEVICE"
            },
            {
              "registers": {
                "command": 176,
                "features": 213,
                "count": 1,
                "lba": 12734208,
                "device": 0,
                "device_control": 0
              },
              "powerup_milliseconds": 31740,
              "command_name": "SMART READ LOG"
            },
            {
              "registers": {
                "command": 176,
                "features": 218,
                "count": 0,
                "lba": 12734209,
                "device": 0,
                "device_control": 0
              },
              "powerup_milliseconds": 31740,
              "command_name": "SMART RETURN STATUS"
            }
          ]
        }
      ]
    }
  },
  "ata_smart_self_test_log": {
    "standard": {
      "revision": 1,
      "table": [
        {
          "type": {
            "value": 1,
            "string": "Short offline"
          },
          "status": {
            "value": 0,
            "string": "Completed without error",
            "passed": true
          },
          "lifetime_hours": 0
        }
      ],
      "count": 1,
      "error_count_total": 0,
      "error_count_outdated": 0
    }
  },
  "ata_smart_selective_self_test_log": {
    "revision": 1,
    "table": [
      {
        "lba_min": 0,
        "lba_max": 16711680,
        "status": {
          "value": 0,
          "string": "Not_testing"
        }
      },
      {
        "lba_min": 16777216,
        "lba_max": 33488896,
        "status": {
          "value": 0,
          "string": "Not_testing"
        }
      },
      {
        "lba_min": 33554432,
        "lba_max": 50266112,
        "status": {
          "value": 0,
          "string": "Not_testing"
        }
      },
      {
        "lba_min": 50331648,
        "lba_max": 67043328,
        "status": {
          "value": 0,
          "string": "Not_testing"
        }
      },
      {
        "lba_min": 67108864,
        "lba_max": 83820544,
        "status": {
          "value": 0,
          "string": "Not_testing"
        }
      }
    ],
    "flags": {
      "value": 0,
      "remainder_scan_enabled": false
    },
    "power_up_scan_resume_minutes": 0
  }
}
