{
  "json_format_version": [
    1,
    0
  ],
  "smartctl": {
    "version": [
      7,
      1
    ],
    "svn_revision": "5022",
    "platform_info": "x86_64-linux-5.11.0-25-generic",
    "build_info": "(local build)",
    "argv": [
      "smartctl",
      "-jx",
      "/dev/sdb"
    ],
    "exit_status": 192
  },
  "device": {
    "name": "/dev/sdb",
    "info_name": "/dev/sdb [SAT]",
    "type": "sat",
    "protocol": "ATA"
  },
  "model_family": "Hitachi/HGST Travelstar Z7K500",
  "model_name": "HGST HTS725050A7E630",
  "serial_number": "TF1501WHKBPMRP",
  "wwn": {
    "naa": 5,
    "oui": 3274,
    "id": 32211179472
  },
  "firmware_version": "GH2OA440",
  "user_capacity": {
    "blocks": 976773168,
    "bytes": 500107862016
  },
  "logical_block_size": 512,
  "physical_block_size": 4096,
  "rotation_rate": 7200,
  "form_factor": {
    "ata_value": 3,
    "name": "2.5 inches"
  },
  "in_smartctl_database": true,
  "ata_version": {
    "string": "ACS-2, ATA8-ACS T13/1699-D revision 6",
    "major_value": 1020,
    "minor_value": 40
  },
  "sata_version": {
    "string": "SATA 3.0",
    "value": 63
  },
  "interface_speed": {
    "max": {
      "sata_value": 6,
      "string": "3.0 Gb/s",
      "units_per_second": 30,
      "bits_per_unit": 100000000
    },
    "current": {
      "sata_value": 2,
      "string": "3.0 Gb/s",
      "units_per_second": 30,
      "bits_per_unit": 100000000
    }
  },
  "local_time": {
    "time_t": 1628904828,
    "asctime": "Fri Aug 13 19:33:48 2021 MDT"
  },
  "ata_apm": {
    "enabled": true,
    "level": 254,
    "string": "maximum performance",
    "max_performance": true,
    "min_power": false,
    "with_standby": false
  },
  "read_lookahead": {
    "enabled": true
  },
  "write_cache": {
    "enabled": true
  },
  "ata_security": {
    "state": 33,
    "string": "Disabled, NOT FROZEN [SEC1]",
    "enabled": false,
    "frozen": false
  },
  "smart_status": {
    "passed": true
  },
  "ata_smart_data": {
    "offline_data_collection": {
      "status": {
        "value": 0,
        "string": "was never started"
      },
      "completion_seconds": 45
    },
    "self_test": {
      "status": {
        "value": 0,
        "string": "completed without error",
        "passed": true
      },
      "polling_minutes": {
        "short": 2,
        "extended": 88
      }
    },
    "capabilities": {
      "values": [
        91,
        3
      ],
      "exec_offline_immediate_supported": true,
      "offline_is_aborted_upon_new_cmd": false,
      "offline_surface_scan_supported": true,
      "self_tests_supported": true,
      "conveyance_self_test_supported": false,
      "selective_self_test_supported": true,
      "attribute_autosave_enabled": true,
      "error_logging_supported": true,
      "gp_logging_supported": true
    }
  },
  "ata_sct_capabilities": {
    "value": 61,
    "error_recovery_control_supported": true,
    "feature_control_supported": true,
    "data_table_supported": true
  },
  "ata_smart_attributes": {
    "revision": 16,
    "table": [
      {
        "id": 1,
        "name": "Raw_Read_Error_Rate",
        "value": 100,
        "worst": 100,
        "thresh": 62,
        "when_failed": "",
        "flags": {
          "value": 47,
          "string": "POSR-K ",
          "prefailure": true,
          "updated_online": true,
          "performance": true,
          "error_rate": true,
          "event_count": false,
          "auto_keep": true
        },
        "raw": {
          "value": 0,
          "string": "0"
        }
      },
      {
        "id": 2,
        "name": "Throughput_Performance",
        "value": 100,
        "worst": 100,
        "thresh": 40,
        "when_failed": "",
        "flags": {
          "value": 37,
          "string": "P-S--K ",
          "prefailure": true,
          "updated_online": false,
          "performance": true,
          "error_rate": false,
          "event_count": false,
          "auto_keep": true
        },
        "raw": {
          "value": 0,
          "string": "0"
        }
      },
      {
        "id": 3,
        "name": "Spin_Up_Time",
        "value": 253,
        "worst": 100,
        "thresh": 33,
        "when_failed": "",
        "flags": {
          "value": 35,
          "string": "PO---K ",
          "prefailure": true,
          "updated_online": true,
          "performance": false,
          "error_rate": false,
          "event_count": false,
          "auto_keep": true
        },
        "raw": {
          "value": 77309411329,
          "string": "1"
        }
      },
      {
        "id": 4,
        "name": "Start_Stop_Count",
        "value": 100,
        "worst": 100,
        "thresh": 0,
        "when_failed": "",
        "flags": {
          "value": 50,
          "string": "-O--CK ",
          "prefailure": false,
          "updated_online": true,
          "performance": false,
          "error_rate": false,
          "event_count": true,
          "auto_keep": true
        },
        "raw": {
          "value": 15,
          "string": "15"
        }
      },
      {
        "id": 5,
        "name": "Reallocated_Sector_Ct",
        "value": 100,
        "worst": 100,
        "thresh": 5,
        "when_failed": "",
        "flags": {
          "value": 51,
          "string": "PO--CK ",
          "prefailure": true,
          "updated_online": true,
          "performance": false,
          "error_rate": false,
          "event_count": true,
          "auto_keep": true
        },
        "raw": {
          "value": 852160,
          "string": "192 (0 13)"
        }
      },
      {
        "id": 7,
        "name": "Seek_Error_Rate",
        "value": 100,
        "worst": 100,
        "thresh": 67,
        "when_failed": "",
        "flags": {
          "value": 47,
          "string": "POSR-K ",
          "prefailure": true,
          "updated_online": true,
          "performance": true,
          "error_rate": true,
          "event_count": false,
          "auto_keep": true
        },
        "raw": {
          "value": 0,
          "string": "0"
        }
      },
      {
        "id": 8,
        "name": "Seek_Time_Performance",
        "value": 100,
        "worst": 100,
        "thresh": 40,
        "when_failed": "",
        "flags": {
          "value": 37,
          "string": "P-S--K ",
          "prefailure": true,
          "updated_online": false,
          "performance": true,
          "error_rate": false,
          "event_count": false,
          "auto_keep": true
        },
        "raw": {
          "value": 0,
          "string": "0"
        }
      },
      {
        "id": 9,
        "name": "Power_On_Hours",
        "value": 100,
        "worst": 100,
        "thresh": 0,
        "when_failed": "",
        "flags": {
          "value": 50,
          "string": "-O--CK ",
          "prefailure": false,
          "updated_online": true,
          "performance": false,
          "error_rate": false,
          "event_count": true,
          "auto_keep": true
        },
        "raw": {
          "value": 1,
          "string": "1"
        }
      },
      {
        "id": 10,
        "name": "Spin_Retry_Count",
        "value": 100,
        "worst": 100,
        "thresh": 60,
        "when_failed": "",
        "flags": {
          "value": 51,
          "string": "PO--CK ",
          "prefailure": true,
          "updated_online": true,
          "performance": false,
          "error_rate": false,
          "event_count": true,
          "auto_keep": true
        },
        "raw": {
          "value": 0,
          "string": "0"
        }
      },
      {
        "id": 12,
        "name": "Power_Cycle_Count",
        "value": 100,
        "worst": 100,
        "thresh": 0,
        "when_failed": "",
        "flags": {
          "value": 50,
          "string": "-O--CK ",
          "prefailure": false,
          "updated_online": true,
          "performance": false,
          "error_rate": false,
          "event_count": true,
          "auto_keep": true
        },
        "raw": {
          "value": 6,
          "string": "6"
        }
      },
      {
        "id": 183,
        "name": "Runtime_Bad_Block",
        "value": 100,
        "worst": 100,
        "thresh": 0,
        "when_failed": "",
        "flags": {
          "value": 50,
          "string": "-O--CK ",
          "prefailure": false,
          "updated_online": true,
          "performance": false,
          "error_rate": false,
          "event_count": true,
          "auto_keep": true
        },
        "raw": {
          "value": 0,
          "string": "0"
        }
      },
      {
        "id": 184,
        "name": "End-to-End_Error",
        "value": 100,
        "worst": 100,
        "thresh": 97,
        "when_failed": "",
        "flags": {
          "value": 51,
          "string": "PO--CK ",
          "prefailure": true,
          "updated_online": true,
          "performance": false,
          "error_rate": false,
          "event_count": true,
          "auto_keep": true
        },
        "raw": {
          "value": 0,
          "string": "0"
        }
      },
      {
        "id": 187,
        "name": "Reported_Uncorrect",
        "value": 100,
        "worst": 100,
        "thresh": 0,
        "when_failed": "",
        "flags": {
          "value": 50,
          "string": "-O--CK ",
          "prefailure": false,
          "updated_online": true,
          "performance": false,
          "error_rate": false,
          "event_count": true,
          "auto_keep": true
        },
        "raw": {
          "value": 0,
          "string": "0"
        }
      },
      {
        "id": 188,
        "name": "Command_Timeout",
        "value": 100,
        "worst": 100,
        "thresh": 0,
        "when_failed": "",
        "flags": {
          "value": 50,
          "string": "-O--CK ",
          "prefailure": false,
          "updated_online": true,
          "performance": false,
          "error_rate": false,
          "event_count": true,
          "auto_keep": true
        },
        "raw": {
          "value": 0,
          "string": "0"
        }
      },
      {
        "id": 190,
        "name": "Airflow_Temperature_Cel",
        "value": 74,
        "worst": 68,
        "thresh": 45,
        "when_failed": "",
        "flags": {
          "value": 34,
          "string": "-O---K ",
          "prefailure": false,
          "updated_online": true,
          "performance": false,
          "error_rate": false,
          "event_count": false,
          "auto_keep": true
        },
        "raw": {
          "value": 404357146,
          "string": "26 (Min/Max 24/26)"
        }
      },
      {
        "id": 191,
        "name": "G-Sense_Error_Rate",
        "value": 100,
        "worst": 100,
        "thresh": 0,
        "when_failed": "",
        "flags": {
          "value": 50,
          "string": "-O--CK ",
          "prefailure": false,
          "updated_online": true,
          "performance": false,
          "error_rate": false,
          "event_count": true,
          "auto_keep": true
        },
        "raw": {
          "value": 18,
          "string": "18"
        }
      },
      {
        "id": 192,
        "name": "Power-Off_Retract_Count",
        "value": 100,
        "worst": 100,
        "thresh": 0,
        "when_failed": "",
        "flags": {
          "value": 50,
          "string": "-O--CK ",
          "prefailure": false,
          "updated_online": true,
          "performance": false,
          "error_rate": false,
          "event_count": true,
          "auto_keep": true
        },
        "raw": {
          "value": 327685,
          "string": "327685"
        }
      },
      {
        "id": 193,
        "name": "Load_Cycle_Count",
        "value": 100,
        "worst": 100,
        "thresh": 0,
        "when_failed": "",
        "flags": {
          "value": 50,
          "string": "-O--CK ",
          "prefailure": false,
          "updated_online": true,
          "performance": false,
          "error_rate": false,
          "event_count": true,
          "auto_keep": true
        },
        "raw": {
          "value": 19,
          "string": "19"
        }
      },
      {
        "id": 196,
        "name": "Reallocated_Event_Count",
        "value": 100,
        "worst": 100,
        "thresh": 0,
        "when_failed": "",
        "flags": {
          "value": 50,
          "string": "-O--CK ",
          "prefailure": false,
          "updated_online": true,
          "performance": false,
          "error_rate": false,
          "event_count": true,
          "auto_keep": true
        },
        "raw": {
          "value": 22,
          "string": "22"
        }
      },
      {
        "id": 197,
        "name": "Current_Pending_Sector",
        "value": 100,
        "worst": 100,
        "thresh": 0,
        "when_failed": "",
        "flags": {
          "value": 50,
          "string": "-O--CK ",
          "prefailure": false,
          "updated_online": true,
          "performance": false,
          "error_rate": false,
          "event_count": true,
          "auto_keep": true
        },
        "raw": {
          "value": 0,
          "string": "0"
        }
      },
      {
        "id": 198,
        "name": "Offline_Uncorrectable",
        "value": 100,
        "worst": 100,
        "thresh": 0,
        "when_failed": "",
        "flags": {
          "value": 48,
          "string": "----CK ",
          "prefailure": false,
          "updated_online": false,
          "performance": false,
          "error_rate": false,
          "event_count": true,
          "auto_keep": true
        },
        "raw": {
          "value": 0,
          "string": "0"
        }
      },
      {
        "id": 199,
        "name": "UDMA_CRC_Error_Count",
        "value": 100,
        "worst": 100,
        "thresh": 0,
        "when_failed": "",
        "flags": {
          "value": 54,
          "string": "-OS-CK ",
          "prefailure": false,
          "updated_online": true,
          "performance": true,
          "error_rate": false,
          "event_count": true,
          "auto_keep": true
        },
        "raw": {
          "value": 0,
          "string": "0"
        }
      },
      {
        "id": 223,
        "name": "Load_Retry_Count",
        "value": 100,
        "worst": 100,
        "thresh": 0,
        "when_failed": "",
        "flags": {
          "value": 42,
          "string": "-O-R-K ",
          "prefailure": false,
          "updated_online": true,
          "performance": false,
          "error_rate": true,
          "event_count": false,
          "auto_keep": true
        },
        "raw": {
          "value": 0,
          "string": "0"
        }
      }
    ]
  },
  "power_on_time": {
    "hours": 1
  },
  "power_cycle_count": 6,
  "temperature": {
    "current": 26,
    "power_cycle_min": 24,
    "power_cycle_max": 26,
    "lifetime_min": 21,
    "lifetime_max": 32,
    "op_limit_max": 60,
    "op_limit_min": 0,
    "limit_min": -40,
    "limit_max": 65
  },
  "ata_log_directory": {
    "gp_dir_version": 1,
    "smart_dir_version": 1,
    "smart_dir_multi_sector": true,
    "table": [
      {
        "address": 0,
        "name": "Log Directory",
        "read": true,
        "write": false,
        "gp_sectors": 1,
        "smart_sectors": 1
      },
      {
        "address": 1,
        "name": "Summary SMART error log",
        "read": true,
        "write": false,
        "smart_sectors": 1
      },
      {
        "address": 2,
        "name": "Comprehensive SMART error log",
        "read": true,
        "write": false,
        "smart_sectors": 1
      },
      {
        "address": 3,
        "name": "Ext. Comprehensive SMART error log",
        "read": true,
        "write": false,
        "gp_sectors": 1
      },
      {
        "address": 6,
        "name": "SMART self-test log",
        "read": true,
        "write": false,
        "smart_sectors": 1
      },
      {
        "address": 7,
        "name": "Extended self-test log",
        "read": true,
        "write": false,
        "gp_sectors": 1
      },
      {
        "address": 9,
        "name": "Selective self-test log",
        "read": true,
        "write": true,
        "smart_sectors": 1
      },
      {
        "address": 16,
        "name": "NCQ Command Error log",
        "read": true,
        "write": false,
        "gp_sectors": 1
      },
      {
        "address": 17,
        "name": "SATA Phy Event Counters log",
        "read": true,
        "write": false,
        "gp_sectors": 1
      },
      {
        "address": 128,
        "name": "Host vendor specific log",
        "read": true,
        "write": true,
        "gp_sectors": 16,
        "smart_sectors": 16
      },
      {
        "address": 129,
        "name": "Host vendor specific log",
        "read": true,
        "write": true,
        "gp_sectors": 16,
        "smart_sectors": 16
      },
      {
        "address": 130,
        "name": "Host vendor specific log",
        "read": true,
        "write": true,
        "gp_sectors": 16,
        "smart_sectors": 16
      },
      {
        "address": 131,
        "name": "Host vendor specific log",
        "read": true,
        "write": true,
        "gp_sectors": 16,
        "smart_sectors": 16
      },
      {
        "address": 132,
        "name": "Host vendor specific log",
        "read": true,
        "write": true,
        "gp_sectors": 16,
        "smart_sectors": 16
      },
      {
        "address": 133,
        "name": "Host vendor specific log",
        "read": true,
        "write": true,
        "gp_sectors": 16,
        "smart_sectors": 16
      },
      {
        "address": 134,
        "name": "Host vendor specific log",
        "read": true,
        "write": true,
        "gp_sectors": 16,
        "smart_sectors": 16
      },
      {
        "address": 135,
        "name": "Host vendor specific log",
        "read": true,
        "write": true,
        "gp_sectors": 16,
        "smart_sectors": 16
      },
      {
        "address": 136,
        "name": "Host vendor specific log",
        "read": true,
        "write": true,
        "gp_sectors": 16,
        "smart_sectors": 16
      },
      {
        "address": 137,
        "name": "Host vendor specific log",
        "read": true,
        "write": true,
        "gp_sectors": 16,
        "smart_sectors": 16
      },
      {
        "address": 138,
        "name": "Host vendor specific log",
        "read": true,
        "write": true,
        "gp_sectors": 16,
        "smart_sectors": 16
      },
      {
        "address": 139,
        "name": "Host vendor specific log",
        "read": true,
        "write": true,
        "gp_sectors": 16,
        "smart_sectors": 16
      },
      {
        "address": 140,
        "name": "Host vendor specific log",
        "read": true,
        "write": true,
        "gp_sectors": 16,
        "smart_sectors": 16
      },
      {
        "address": 141,
        "name": "Host vendor specific log",
        "read": true,
        "write": true,
        "gp_sectors": 16,
        "smart_sectors": 16
      },
      {
        "address": 142,
        "name": "Host vendor specific log",
        "read": true,
        "write": true,
        "gp_sectors": 16,
        "smart_sectors": 16
      },
      {
        "address": 143,
        "name": "Host vendor specific log",
        "read": true,
        "write": true,
        "gp_sectors": 16,
        "smart_sectors": 16
      },
      {
        "address": 144,
        "name": "Host vendor specific log",
        "read": true,
        "write": true,
        "gp_sectors": 16,
        "smart_sectors": 16
      },
      {
        "address": 145,
        "name": "Host vendor specific log",
        "read": true,
        "write": true,
        "gp_sectors": 16,
        "smart_sectors": 16
      },
      {
        "address": 146,
        "name": "Host vendor specific log",
        "read": true,
        "write": true,
        "gp_sectors": 16,
        "smart_sectors": 16
      },
      {
        "address": 147,
        "name": "Host vendor specific log",
        "read": true,
        "write": true,
        "gp_sectors": 16,
        "smart_sectors": 16
      },
      {
        "address": 148,
        "name": "Host vendor specific log",
        "read": true,
        "write": true,
        "gp_sectors": 16,
        "smart_sectors": 16
      },
      {
        "address": 149,
        "name": "Host vendor specific log",
        "read": true,
        "write": true,
        "gp_sectors": 16,
        "smart_sectors": 16
      },
      {
        "address": 150,
        "name": "Host vendor specific log",
        "read": true,
        "write": true,
        "gp_sectors": 16,
        "smart_sectors": 16
      },
      {
        "address": 151,
        "name": "Host vendor specific log",
        "read": true,
        "write": true,
        "gp_sectors": 16,
        "smart_sectors": 16
      },
      {
        "address": 152,
        "name": "Host vendor specific log",
        "read": true,
        "write": true,
        "gp_sectors": 16,
        "smart_sectors": 16
      },
      {
        "address": 153,
        "name": "Host vendor specific log",
        "read": true,
        "write": true,
        "gp_sectors": 16,
        "smart_sectors": 16
      },
      {
        "address": 154,
        "name": "Host vendor specific log",
        "read": true,
        "write": true,
        "gp_sectors": 16,
        "smart_sectors": 16
      },
      {
        "address": 155,
        "name": "Host vendor specific log",
        "read": true,
        "write": true,
        "gp_sectors": 16,
        "smart_sectors": 16
      },
      {
        "address": 156,
        "name": "Host vendor specific log",
        "read": true,
        "write": true,
        "gp_sectors": 16,
        "smart_sectors": 16
      },
      {
        "address": 157,
        "name": "Host vendor specific log",
        "read": true,
        "write": true,
        "gp_sectors": 16,
        "smart_sectors": 16
      },
      {
        "address": 158,
        "name": "Host vendor specific log",
        "read": true,
        "write": true,
        "gp_sectors": 16,
        "smart_sectors": 16
      },
      {
        "address": 159,
        "name": "Host vendor specific log",
        "read": true,
        "write": true,
        "gp_sectors": 16,
        "smart_sectors": 16
      },
      {
        "address": 224,
        "name": "SCT Command/Status",
        "read": true,
        "write": true,
        "gp_sectors": 1,
        "smart_sectors": 1
      },
      {
        "address": 225,
        "name": "SCT Data Transfer",
        "read": true,
        "write": true,
        "gp_sectors": 1,
        "smart_sectors": 1
      }
    ]
  },
  "ata_smart_error_log": {
    "extended": {
      "revision": 1,
      "sectors": 1,
      "count": 48859,
      "logged_count": 4,
      "table": [
        {
          "error_number": 48859,
          "log_index": 2,
          "lifetime_hours": 15367,
          "device_state": {
            "value": 3,
            "string": "active or idle"
          },
          "completion_registers": {
            "error": 64,
            "status": 65,
            "count": 184,
            "lba": 6782632,
            "device": 0,
            "device_control": 0
          },
          "error_description": "Error: WP at LBA = 0x00677ea8 = 6782632",
          "previous_commands": [
            {
              "registers": {
                "command": 97,
                "features": 86,
                "count": 200,
                "lba": 135501561,
                "device": 64,
                "device_control": 0
              },
              "powerup_milliseconds": 25487781,
              "command_name": "WRITE FPDMA QUEUED"
            },
            {
              "registers": {
                "command": 97,
                "features": 16,
                "count": 192,
                "lba": 671288,
                "device": 64,
                "device_control": 0
              },
              "powerup_milliseconds": 25487781,
              "command_name": "WRITE FPDMA QUEUED"
            },
            {
              "registers": {
                "command": 96,
                "features": 256,
                "count": 184,
                "lba": 6782560,
                "device": 64,
                "device_control": 0
              },
              "powerup_milliseconds": 25487781,
              "command_name": "READ FPDMA QUEUED"
            },
            {
              "registers": {
                "command": 96,
                "features": 24,
                "count": 176,
                "lba": 671304,
                "device": 64,
                "device_control": 0
              },
              "powerup_milliseconds": 25487780,
              "command_name": "READ FPDMA QUEUED"
            },
            {
              "registers": {
                "command": 96,
                "features": 256,
                "count": 168,
                "lba": 6783072,
                "device": 64,
                "device_control": 0
              },
              "powerup_milliseconds": 25487780,
              "command_name": "READ FPDMA QUEUED"
            }
          ]
        },
        {
          "error_number": 48858,
          "log_index": 1,
          "lifetime_hours": 15367,
          "device_state": {
            "value": 3,
            "string": "active or idle"
          },
          "completion_registers": {
            "error": 64,
            "status": 65,
            "count": 184,
            "lba": 6782632,
            "device": 0,
            "device_control": 0
          },
          "error_description": "Error: UNC at LBA = 0x00677ea8 = 6782632",
          "previous_commands": [
            {
              "registers": {
                "command": 96,
                "features": 256,
                "count": 96,
                "lba": 6782560,
                "device": 64,
                "device_control": 0
              },
              "powerup_milliseconds": 25484863,
              "command_name": "READ FPDMA QUEUED"
            },
            {
              "registers": {
                "command": 96,
                "features": 256,
                "count": 88,
                "lba": 6782816,
                "device": 64,
                "device_control": 0
              },
              "powerup_milliseconds": 25484863,
              "command_name": "READ FPDMA QUEUED"
            },
            {
              "registers": {
                "command": 96,
                "features": 256,
                "count": 80,
                "lba": 6783072,
                "device": 64,
                "device_control": 0
              },
              "powerup_milliseconds": 25484863,
              "command_name": "READ FPDMA QUEUED"
            },
            {
              "registers": {
                "command": 96,
                "features": 24,
                "count": 72,
                "lba": 671304,
                "device": 64,
                "device_control": 0
              },
              "powerup_milliseconds": 25484863,
              "command_name": "READ FPDMA QUEUED"
            },
            {
              "registers": {
                "command": 47,
                "features": 0,
                "count": 1,
                "lba": 16,
                "device": 64,
                "device_control": 0
              },
              "powerup_milliseconds": 25484863,
              "command_name": "READ LOG EXT"
            }
          ]
        },
        {
          "error_number": 48857,
          "log_index": 0,
          "lifetime_hours": 15367,
          "device_state": {
            "value": 3,
            "string": "active or idle"
          },
          "completion_registers": {
            "error": 64,
            "status": 65,
            "count": 184,
            "lba": 6782632,
            "device": 0,
            "device_control": 0
          },
          "error_description": "Error: UNC at LBA = 0x00677ea8 = 6782632",
          "previous_commands": [
            {
              "registers": {
                "command": 96,
                "features": 256,
                "count": 48,
                "lba": 6782560,
                "device": 64,
                "device_control": 0
              },
              "powerup_milliseconds": 25481947,
              "command_name": "READ FPDMA QUEUED"
            },
            {
              "registers": {
                "command": 97,
                "features": 8,
                "count": 40,
                "lba": 760008,
                "device": 64,
                "device_control": 0
              },
              "powerup_milliseconds": 25481947,
              "command_name": "WRITE FPDMA QUEUED"
            },
            {
              "registers": {
                "command": 96,
                "features": 256,
                "count": 32,
                "lba": 6783072,
                "device": 64,
                "device_control": 0
              },
              "powerup_milliseconds": 25481947,
              "command_name": "READ FPDMA QUEUED"
            },
            {
              "registers": {
                "command": 96,
                "features": 256,
                "count": 24,
                "lba": 6782816,
                "device": 64,
                "device_control": 0
              },
              "powerup_milliseconds": 25481947,
              "command_name": "READ FPDMA QUEUED"
            },
            {
              "registers": {
                "command": 47,
                "features": 0,
                "count": 1,
                "lba": 16,
                "device": 64,
                "device_control": 0
              },
              "powerup_milliseconds": 25481946,
              "command_name": "READ LOG EXT"
            }
          ]
        },
        {
          "error_number": 48856,
          "log_index": 3,
          "lifetime_hours": 15367,
          "device_state": {
            "value": 3,
            "string": "active or idle"
          },
          "completion_registers": {
            "error": 64,
            "status": 65,
            "count": 184,
            "lba": 6782632,
            "device": 0,
            "device_control": 0
          },
          "error_description": "Error: UNC at LBA = 0x00677ea8 = 6782632",
          "previous_commands": [
            {
              "registers": {
                "command": 96,
                "features": 256,
                "count": 0,
                "lba": 6782560,
                "device": 64,
                "device_control": 0
              },
              "powerup_milliseconds": 25479030,
              "command_name": "READ FPDMA QUEUED"
            },
            {
              "registers": {
                "command": 96,
                "features": 256,
                "count": 248,
                "lba": 6782816,
                "device": 64,
                "device_control": 0
              },
              "powerup_milliseconds": 25479030,
              "command_name": "READ FPDMA QUEUED"
            },
            {
              "registers": {
                "command": 96,
                "features": 256,
                "count": 240,
                "lba": 6783072,
                "device": 64,
                "device_control": 0
              },
              "powerup_milliseconds": 25479030,
              "command_name": "READ FPDMA QUEUED"
            },
            {
              "registers": {
                "command": 47,
                "features": 0,
                "count": 1,
                "lba": 16,
                "device": 64,
                "device_control": 0
              },
              "powerup_milliseconds": 25479029,
              "command_name": "READ LOG EXT"
            },
            {
              "registers": {
                "command": 97,
                "features": 8,
                "count": 224,
                "lba": 6641928,
                "device": 64,
                "device_control": 0
              },
              "powerup_milliseconds": 25476120,
              "command_name": "WRITE FPDMA QUEUED"
            }
          ]
        }
      ]
    }
  },
  "ata_smart_self_test_log": {
    "extended": {
      "revision": 1,
      "sectors": 1,
      "table": [
        {
          "type": {
            "value": 1,
            "string": "Short offline"
          },
          "status": {
            "value": 121,
            "string": "Completed: read failure",
            "remaining_percent": 90,
            "passed": false
          },
          "lifetime_hours": 11887,
          "lba": 6782632
        },
        {
          "type": {
            "value": 1,
            "string": "Short offline"
          },
          "status": {
            "value": 121,
            "string": "Completed: read failure",
            "remaining_percent": 90,
            "passed": false
          },
          "lifetime_hours": 5151,
          "lba": 6782632
        },
        {
          "type": {
            "value": 1,
            "string": "Short offline"
          },
          "status": {
            "value": 121,
            "string": "Completed: read failure",
            "remaining_percent": 90,
            "passed": false
          },
          "lifetime_hours": 5119,
          "lba": 6782632
        },
        {
          "type": {
            "value": 1,
            "string": "Short offline"
          },
          "status": {
            "value": 121,
            "string": "Completed: read failure",
            "remaining_percent": 90,
            "passed": false
          },
          "lifetime_hours": 5029,
          "lba": 6782632
        },
        {
          "type": {
            "value": 1,
            "string": "Short offline"
          },
          "status": {
            "value": 121,
            "string": "Completed: read failure",
            "remaining_percent": 90,
            "passed": false
          },
          "lifetime_hours": 4993,
          "lba": 6782632
        },
        {
          "type": {
            "value": 1,
            "string": "Short offline"
          },
          "status": {
            "value": 121,
            "string": "Completed: read failure",
            "remaining_percent": 90,
            "passed": false
          },
          "lifetime_hours": 4916,
          "lba": 6782632
        },
        {
          "type": {
            "value": 1,
            "string": "Short offline"
          },
          "status": {
            "value": 0,
            "string": "Completed without error",
            "passed": true
          },
          "lifetime_hours": 4869
        },
        {
          "type": {
            "value": 1,
            "string": "Short offline"
          },
          "status": {
            "value": 0,
            "string": "Completed without error",
            "passed": true
          },
          "lifetime_hours": 4772
        },
        {
          "type": {
            "value": 1,
            "string": "Short offline"
          },
          "status": {
            "value": 0,
            "string": "Completed without error",
            "passed": true
          },
          "lifetime_hours": 4696
        },
        {
          "type": {
            "value": 1,
            "string": "Short offline"
          },
          "status": {
            "value": 0,
            "string": "Completed without error",
            "passed": true
          },
          "lifetime_hours": 4624
        },
        {
          "type": {
            "value": 1,
            "string": "Short offline"
          },
          "status": {
            "value": 0,
            "string": "Completed without error",
            "passed": true
          },
          "lifetime_hours": 4584
        },
        {
          "type": {
            "value": 1,
            "string": "Short offline"
          },
          "status": {
            "value": 0,
            "string": "Completed without error",
            "passed": true
          },
          "lifetime_hours": 4520
        },
        {
          "type": {
            "value": 1,
            "string": "Short offline"
          },
          "status": {
            "value": 0,
            "string": "Completed without error",
            "passed": true
          },
          "lifetime_hours": 4498
        },
        {
          "type": {
            "value": 1,
            "string": "Short offline"
          },
          "status": {
            "value": 0,
            "string": "Completed without error",
            "passed": true
          },
          "lifetime_hours": 4468
        },
        {
          "type": {
            "value": 1,
            "string": "Short offline"
          },
          "status": {
            "value": 0,
            "string": "Completed without error",
            "passed": true
          },
          "lifetime_hours": 4410
        },
        {
          "type": {
            "value": 1,
            "string": "Short offline"
          },
          "status": {
            "value": 0,
            "string": "Completed without error",
            "passed": true
          },
          "lifetime_hours": 4352
        },
        {
          "type": {
            "value": 1,
            "string": "Short offline"
          },
          "status": {
            "value": 0,
            "string": "Completed without error",
            "passed": true
          },
          "lifetime_hours": 4326
        },
        {
          "type": {
            "value": 1,
            "string": "Short offline"
          },
          "status": {
            "value": 0,
            "string": "Completed without error",
            "passed": true
          },
          "lifetime_hours": 4291
        },
        {
          "type": {
            "value": 1,
            "string": "Short offline"
          },
          "status": {
            "value": 0,
            "string": "Completed without error",
            "passed": true
          },
          "lifetime_hours": 4256
        }
      ],
      "count": 19,
      "error_count_total": 6,
      "error_count_outdated": 0
    }
  },
  "ata_smart_selective_self_test_log": {
    "revision": 1,
    "table": [
      {
        "lba_min": 0,
        "lba_max": 0,
        "status": {
          "value": 0,
          "string": "Not_testing"
        }
      },
      {
        "lba_min": 0,
        "lba_max": 0,
        "status": {
          "value": 0,
          "string": "Not_testing"
        }
      },
      {
        "lba_min": 0,
        "lba_max": 0,
        "status": {
          "value": 0,
          "string": "Not_testing"
        }
      },
      {
        "lba_min": 0,
        "lba_max": 0,
        "status": {
          "value": 0,
          "string": "Not_testing"
        }
      },
      {
        "lba_min": 0,
        "lba_max": 0,
        "status": {
          "value": 0,
          "string": "Not_testing"
        }
      }
    ],
    "flags": {
      "value": 0,
      "remainder_scan_enabled": false
    },
    "power_up_scan_resume_minutes": 0
  },
  "ata_sct_status": {
    "format_version": 3,
    "sct_version": 256,
    "device_state": {
      "value": 0,
      "string": "Active"
    },
    "temperature": {
      "current": 26,
      "power_cycle_min": 24,
      "power_cycle_max": 26,
      "lifetime_min": 21,
      "lifetime_max": 32,
      "op_limit_max": 30,
      "under_limit_count": 0,
      "over_limit_count": 0
    }
  },
  "ata_sct_temperature_history": {
    "version": 2,
    "sampling_period_minutes": 1,
    "logging_interval_minutes": 1,
    "temperature": {
      "op_limit_min": 0,
      "op_limit_max": 60,
      "limit_min": -40,
      "limit_max": 65
    },
    "size": 128,
    "index": 25,
    "table": [
      31,
      31,
      31,
      31,
      31,
      31,
      31,
      31,
      31,
      31,
      31,
      31,
      31,
      31,
      31,
      31,
      31,
      31,
      31,
      31,
      31,
      31,
      31,
      31,
      31,
      30,
      31,
      31,
      31,
      31,
      30,
      30,
      30,
      30,
      30,
      31,
      null,
      null,
      30,
      30,
      null,
      null,
      null,
      null,
      29,
      29,
      30,
      31,
      31,
      31,
      31,
      32,
      31,
      32,
      32,
      32,
      31,
      32,
      32,
      32,
      32,
      32,
      32,
      32,
      32,
      32,
      32,
      32,
      32,
      32,
      32,
      31,
      32,
      32,
      32,
      32,
      32,
      31,
      32,
      31,
      31,
      32,
      31,
      31,
      32,
      31,
      32,
      31,
      32,
      31,
      31,
      31,
      31,
      32,
      31,
      31,
      31,
      31,
      31,
      31,
      31,
      31,
      31,
      31,
      31,
      31,
      31,
      31,
      30,
      31,
      30,
      30,
      31,
      31,
      30,
      30,
      30,
      30,
      30,
      30,
      30,
      30,
      30,
      30,
      null,
      null,
      null,
      25
    ]
  },
  "ata_sct_erc": {
    "read": {
      "enabled": true,
      "deciseconds": 85
    },
    "write": {
      "enabled": true,
      "deciseconds": 85
    }
  },
  "sata_phy_event_counters": {
    "table": [
      {
        "id": 1,
        "name": "Command failed due to ICRC error",
        "size": 2,
        "value": 0,
        "overflow": false
      },
      {
        "id": 2,
        "name": "R_ERR response for data FIS",
        "size": 2,
        "value": 0,
        "overflow": false
      },
      {
        "id": 3,
        "name": "R_ERR response for device-to-host data FIS",
        "size": 2,
        "value": 0,
        "overflow": false
      },
      {
        "id": 4,
        "name": "R_ERR response for host-to-device data FIS",
        "size": 2,
        "value": 0,
        "overflow": false
      },
      {
        "id": 5,
        "name": "R_ERR response for non-data FIS",
        "size": 2,
        "value": 0,
        "overflow": false
      },
      {
        "id": 6,
        "name": "R_ERR response for device-to-host non-data FIS",
        "size": 2,
        "value": 0,
        "overflow": false
      },
      {
        "id": 7,
        "name": "R_ERR response for host-to-device non-data FIS",
        "size": 2,
        "value": 0,
        "overflow": false
      },
      {
        "id": 9,
        "name": "Transition from drive PhyRdy to drive PhyNRdy",
        "size": 2,
        "value": 0,
        "overflow": false
      },
      {
        "id": 10,
        "name": "Device-to-host register FISes sent due to a COMRESET",
        "size": 2,
        "value": 0,
        "overflow": false
      },
      {
        "id": 11,
        "name": "CRC errors within host-to-device FIS",
        "size": 2,
        "value": 0,
        "overflow": false
      },
      {
        "id": 13,
        "name": "Non-CRC errors within host-to-device FIS",
        "size": 2,
        "value": 0,
        "overflow": false
      }
    ],
    "reset": false
  }
}
